Name,Event,Equipment,Division,Sex,WeightClassKg,BodyweightKg,State,Best3SquatKg,Best3BenchKg,Best3DeadliftKg,TotalKg,Place
Kaycee Woford,SBD,Wraps,Teenage 13-15,F,56,55.07,KY,70.31,43.09,111.13,224.53,1
Ryen Rae,SBD,Wraps,Juniors,F,75,73.12,TN,127.01,72.57,138.35,337.93,1
Carissa Boone,SBD,Wraps,Open,F,60,58.06,TN,86.18,49.9,102.06,238.14,1
Angie Rush,SBD,Wraps,Open,F,67.5,67.22,AL,108.86,70.31,149.69,328.85,1
Brook Bryant,SBD,Wraps,Open,F,67.5,62.96,TN,83.91,49.9,102.06,235.87,2
Tania Trayler,SBD,Wraps,Masters 40-44,F,100,96.34,KY,113.4,70.31,142.88,326.59,1
Noah Syler,SBD,Wraps,Teenage 16-17,M,67.5,65.77,TN,108.86,79.38,147.42,335.66,1
Josh Daffron,SBD,Wraps,Teenage 18-19,M,82.5,78.65,MS,201.85,113.4,215.46,530.7,1
Cole Lombardo,SBD,Wraps,Teenage 18-19,M,100,98.97,TN,226.8,142.88,235.87,605.55,1
Austin Upchurch,SBD,Wraps,Juniors,M,82.5,82.19,TN,240.4,154.22,267.62,662.24,1
Rick Houston,SBD,Wraps,Juniors,M,82.5,80.92,IL,222.26,129.27,242.67,594.21,2
Mike Hughes,SBD,Wraps,Juniors,M,90,89.81,IL,265.35,172.37,276.69,714.41,1
Jonathan Pogodnziski,SBD,Wraps,Juniors,M,90,88.27,TN,201.85,111.13,251.74,564.72,2
Ryan Bean,SBD,Wraps,Juniors,M,100,95.25,TN,181.44,136.08,238.14,555.65,1
Joey Barbere,SBD,Wraps,Open,M,75,74.03,TN,219.99,129.27,235.87,585.13,1
Christian Anto,SBD,Wraps,Open,M,82.5,82.01,MS,244.94,158.76,258.55,662.24,1
Jason Davis,SBD,Wraps,Open,M,90,89.81,TN,272.16,167.83,272.16,712.14,1
Luke Huntzinger,SBD,Wraps,Open,M,90,89.81,TN,263.08,165.56,278.96,707.6,2
Adam Short,SBD,Wraps,Open,M,90,88,TN,133.81,133.81,188.24,455.86,3
Tee Cummins,SBD,Wraps,Open,M,100,99.79,MS,324.32,170.1,297.1,791.52,1
Don Sheipline,SBD,Wraps,Open,M,100,99.06,OH,238.14,131.54,258.55,628.23,3
Eldon Newcomb,SBD,Wraps,Open,M,100,99.79,KY,267.62,176.9,274.42,718.94,2
Jessi Stewart,SBD,Wraps,Open,M,100,97.52,TN,247.21,158.76,206.38,612.35,4
Steve Grasle,SBD,Wraps,Open,M,100,99.52,IL,235.87,142.88,226.8,605.55,5
Matt Quinn,SBD,Wraps,Open,M,110,109.77,KY,299.37,197.31,299.37,796.05,1
Rolando Mendez,SBD,Wraps,Open,M,110,108.05,VA,213.19,142.88,265.35,621.42,3
Kyle Lombardo,SBD,Wraps,Open,M,110,108.59,TN,240.4,206.38,249.48,696.26,2
Darrell Campbell,SBD,Wraps,Open,M,118,117.48,IL,317.51,204.12,294.84,816.47,1
David Childers,SBD,Wraps,Open,M,118,111.67,TN,256.28,197.31,272.16,725.75,2
Alex Endo,SBD,Wraps,Open,M,118,117.12,TN,238.14,183.7,238.14,659.98,3
Mathew Miller,SBD,Wraps,Open,M,125,124.19,KY,285.76,179.17,263.08,728.02,1
Steve Miller,SBD,Wraps,Submasters,M,118,115.3,AL,254.01,192.78,247.21,694,1
Chris Miller,SBD,Wraps,Submasters,M,125,,,290.3,195.04,265.35,750.7,1
Brian McDonald,SBD,Wraps,Police/Fire/Military,M,90,89.36,TN,265.35,165.56,249.48,680.39,1
Jessi Stewart,SBD,Wraps,Police/Fire/Military,M,100,97.52,TN,247.21,158.76,206.38,612.35,1
Alan Rountree,SBD,Wraps,Police/Fire/Military,M,110,107.32,TN,208.65,161.03,272.16,641.83,1
Leopoldo Lopez,SBD,Wraps,Masters 40-44,M,75,72.3,TN,145.15,92.99,165.56,403.7,1
Steve Swan,SBD,Wraps,Masters 40-44,M,100,97.89,TN,183.7,129.27,185.97,498.95,1
Robert Harvey,SBD,Wraps,Masters 45-49,M,100,99.16,TN,170.1,129.27,167.83,467.2,1
Jacob Hill,SBD,Multi-ply,Juniors,M,140,132.72,TN,317.51,272.16,240.4,830.07,1
Mike Cotner,SBD,Multi-ply,Open,M,82.5,78.11,TN,306.17,215.46,272.16,793.79,1
Mike Maxwell,SBD,Multi-ply,Open,M,90,89.81,OH,362.87,231.33,249.48,843.68,1
Austin Sauget,SBD,Multi-ply,Open,M,90,88.45,IL,226.8,149.69,226.8,603.28,2
Marcus Brandon,SBD,Multi-ply,Open,M,100,99.7,GA,362.87,290.3,306.17,959.35,1
Nick Steinbach,SBD,Multi-ply,Open,M,100,92.9,MO,226.8,151.95,201.85,580.6,3
Sherman White,SBD,Multi-ply,Open,M,100,97.16,TN,326.59,231.33,269.89,827.81,2
Chris Janek,SBD,Multi-ply,Open,M,140,137.17,IL,453.59,349.27,306.17,1109.03,1
Chris McReynolds,SBD,Multi-ply,Police/Fire/Military,M,125,122.56,TN,308.44,226.8,258.55,793.79,1
Scott Alford,SBD,Multi-ply,Masters 50-54,M,82.5,81.01,TN,74.84,181.44,249.48,505.76,1
Tige Littlefield,BD,Raw,Teenage 13-15,M,82.5,77.56,KY,,92.99,142.88,235.87,1
Joe Brown,BD,Raw,Submasters,M,140,137.89,KY,,154.22,297.1,451.32,1
Tom Lombardo,BD,Raw,Masters 50-54,M,90,89.81,TN,,,,439.98,1
Joe House,BD,Raw,Masters 60-64,M,90,89.72,TN,,122.47,199.58,322.05,1
David Lindley,BD,Raw,Masters 70-74,M,75,72.48,TN,,56.7,127.01,183.71,1
Matthew Harris,B,Raw,Teenage 13-15,M,100,97.79,AL,,122.47,,122.47,1
Mike Tysdal,B,Raw,Open,M,75,73.48,MO,,127.01,,127.01,1
Charles Smith,B,Raw,Open,M,82.5,77.61,TN,,165.56,,165.56,1
Anthony Evans,B,Raw,Open,M,100,,GA,,215.46,,215.46,1
Teddy Simmons,B,Raw,Open,M,110,,TN,,183.7,,183.7,1
Clifton Valsandro,B,Raw,Open,M,125,,AL,,204.12,,204.12,1
Russell Hargrove,B,Single-ply,Masters 40-44,M,140,129.27,TN,,226.8,,226.8,1
Bill Welch,B,Multi-ply,Open,M,125,124.28,TN,,306.17,,306.17,1
Jamie Trayler,B,Multi-ply,Masters 40-44,M,125,123.01,KY,,247.21,,247.21,1
Jason Carter,B,Multi-ply,Masters 40-44,M,140+,149.69,TN,,274.42,,274.42,1
Kyle Lombardo,D,Raw,Open,M,110,108.59,TN,,,206.38,206.38,1
Jason Buhune,D,Raw,Open,M,118,114.76,GA,,,288.03,288.03,1
Kimberly Sherrod,D,Raw,Masters 40-44,F,90,84.46,TN,,,145.15,145.15,1
Ron Johnston,D,Raw,Masters 65-69,M,90,89.72,TN,,,142.88,142.88,1
Scotty Frazier,D,Single-ply,Open,M,140,129.73,TN,,,283.5,283.5,1
Joseph Cannon,D,Single-ply,Submasters,M,90,88.09,TN,,,142.88,142.88,1
Christopher Poole,D,Single-ply,Masters 40-44,M,82.5,76.66,TN,,,124.74,124.74,1
Charles Smith,D,Single-ply,Masters 55-59,M,82.5,77.61,TN,,,165.56,165.56,1
Mike Tysdal,D,Single-ply,Masters 60-64,M,75,73.48,MO,,,127.01,127.01,1
