Division,WeightClassKg,Place,Name,Team,BodyweightKg,Best3SquatKg,Best3BenchKg,Best3DeadliftKg,TotalKg,Equipment,Event,Sex
Boys,55.79,1,Dameon Bissant,Cedar Hill,55.79,170.1,77.11,163.29,410.5,Single-ply,SBD,M
Boys,59.87,2,Rafael Sandoval,Plano John Paul II,55.97,145.15,74.84,161.03,381.02,Single-ply,SBD,M
Boys,55.79,3,Tyler Johnson,Richardson Berkner,53.39,136.08,61.23,142.88,340.19,Single-ply,SBD,M
Boys,55.79,4,Aditya Misra,Oakridge School,52.3,127.01,63.5,127.01,317.51,Single-ply,SBD,M
Boys,55.79,5,Dakota Middleton,Dallas White,53.07,81.65,49.9,102.06,233.6,Single-ply,SBD,M
Boys,67.13,1,Trey Sowell,Oakridge School,60.1,111.13,61.23,129.27,301.64,Single-ply,SBD,M
Boys,59.87,2,Sean Cummins,Oakridge School,56.25,99.79,61.23,122.47,283.5,Single-ply,SBD,M
Boys,59.87,DQ,Christian Harriman,Dallas Highland Park,59.87,,,,,Single-ply,SBD,M
Boys,67.13,1,John Wrenn,Bishop Lynch,65.86,233.6,113.4,208.65,555.65,Single-ply,SBD,M
Boys,67.13,2,Jacob Ontiveros,Dallas White,66.04,131.54,79.38,183.7,394.63,Single-ply,SBD,M
Boys,67.13,3,David Josephs,Dallas Highland Park,64.41,151.95,77.11,161.03,390.09,Single-ply,SBD,M
Boys,67.13,4,Dylan Hooper,Oakridge School,61.14,122.47,70.31,149.69,342.46,Single-ply,SBD,M
Boys,67.13,5,Blake Echols,Oakridge School,62.05,120.2,65.77,149.69,335.66,Single-ply,SBD,M
Boys,67.13,6,Yevin Rushing,Dallas White,65.45,106.59,74.84,145.15,326.59,Single-ply,SBD,M
Boys,67.13,7,Antonio Martinez,Dallas Jesuit,63.32,111.13,61.23,124.74,297.1,Single-ply,SBD,M
Boys,67.13,8,Jaren Moore,Dallas White,64.32,83.91,52.16,120.2,256.28,Single-ply,SBD,M
Boys,67.13,DQ,LeJonathan Fulton,Richardson Berkner,61.96,108.86,,124.74,,Single-ply,SBD,M
Boys,74.84,1,Deshune Barlow,Cedar Hill,73.89,217.72,106.59,244.94,569.26,Single-ply,SBD,M
Boys,74.84,2,Brayden Frank,Oakridge School,72.62,188.24,122.47,185.97,496.68,Single-ply,SBD,M
Boys,74.84,3,Christian Byers,Bishop Lynch,69.35,174.63,83.91,206.38,464.93,Single-ply,SBD,M
Boys,74.84,4,Camilo Torres,Bishop Lynch,73.26,170.1,99.79,190.51,460.4,Single-ply,SBD,M
Boys,82.1,5,Alex Ramos,Dallas White,75.07,176.9,113.4,154.22,444.52,Single-ply,SBD,M
Boys,74.84,6,Kevin Ly,Dallas Jesuit,73.84,165.56,102.06,161.03,428.64,Single-ply,SBD,M
Boys,74.84,7,Bryan Robb,Oakridge School,72.17,151.95,81.65,192.78,426.38,Single-ply,SBD,M
Boys,74.84,8,Selvin Rosa,Dallas White,67.4,165.56,88.45,161.03,415.04,Single-ply,SBD,M
Boys,74.84,9,Hank Howard,Dallas Highland Park,70.76,142.88,86.18,156.49,385.55,Single-ply,SBD,M
Boys,74.84,10,Price Peters,Dallas Highland Park,73.94,136.08,81.65,158.76,376.48,Single-ply,SBD,M
Boys,74.84,11,Trey Willis,Oakridge School,74.25,124.74,65.77,163.29,353.8,Single-ply,SBD,M
Boys,74.84,12,Teddy Daniels,Dallas Highland Park,70.76,117.93,79.38,154.22,351.53,Single-ply,SBD,M
Boys,74.84,13,Alex Diaz #3,Oakridge School,72.76,113.4,74.84,156.49,344.73,Single-ply,SBD,M
Boys,74.84,14,Ryan Favella,Dallas White,74.07,106.59,90.72,147.42,344.73,Single-ply,SBD,M
Boys,74.84,15,John Michael Rogers,Dallas Jesuit,74.84,129.27,92.99,115.67,337.93,Single-ply,SBD,M
Boys,74.84,16,William Hubbard,Dallas Highland Park,70.31,108.86,90.72,102.06,301.64,Single-ply,SBD,M
Boys,74.84,DQ,Hunter Feagans,Dallas Highland Park,74.39,,111.13,181.44,,Single-ply,SBD,M
Boys,82.1,1,Jerry Burris,Cedar Hill,78.65,229.06,90.72,204.12,523.9,Single-ply,SBD,M
Boys,82.1,2,Lucas D'Agostino,Oakridge School,81.1,185.97,127.01,190.51,503.49,Single-ply,SBD,M
Boys,82.1,3,Bryce Barrett,Waxahachie,80.65,195.04,102.06,192.78,489.88,Single-ply,SBD,M
Boys,82.1,4,Tristan Robertson,Richardson Berkner,81.42,165.56,97.52,188.24,451.32,Single-ply,SBD,M
Boys,82.1,5,Dalton Hoelscher,Bishop Lynch,79.29,181.44,86.18,176.9,444.52,Single-ply,SBD,M
Boys,82.1,6,Brett Bicknell,Oakridge School,81.92,165.56,92.99,181.44,439.98,Single-ply,SBD,M
Boys,82.1,7,Jalon Shade,Cedar Hill,81.15,158.76,106.59,165.56,430.91,Single-ply,SBD,M
Boys,82.1,8,Hayden Greer,Dallas Highland Park,77.11,142.88,106.59,170.1,419.57,Single-ply,SBD,M
Boys,82.1,9,Brooks Oden,Dallas Highland Park,82.1,158.76,106.59,142.88,408.23,Single-ply,SBD,M
Boys,89.81,10,Omar Chavez,Dallas White,82.28,142.88,97.52,167.83,408.23,Single-ply,SBD,M
Boys,82.1,11,Chris Cruz,Dallas Jesuit,81.74,161.03,74.84,156.49,392.36,Single-ply,SBD,M
Boys,82.1,12,Austin Schaffer,Oakridge School,79.47,129.27,74.84,158.76,362.87,Single-ply,SBD,M
Boys,82.1,13,Chris Mitchell #4,Dallas Highland Park,81.65,122.47,72.57,151.95,347,Single-ply,SBD,M
Boys,82.1,14,Lee Longino,Dallas Highland Park,82.1,136.08,63.5,138.35,337.93,Single-ply,SBD,M
Boys,82.1,15,Collin Keithley,Oakridge School,75.3,115.67,70.31,138.35,324.32,Single-ply,SBD,M
Boys,82.1,16,Michael Fernández,Richardson Berkner,81.37,102.06,68.04,140.61,310.71,Single-ply,SBD,M
Boys,82.1,17,Robert Agir,Oakridge School,82.1,106.59,63.5,136.08,306.17,Single-ply,SBD,M
Boys,82.1,DQ,Chase McCoy,Plano John Paul II,79.7,,,,,Single-ply,SBD,M
Boys,82.1,DQ,Collin Conway,Oakridge School,78.61,140.61,,,,Single-ply,SBD,M
Boys,82.1,DQ,Cole Feigl,Dallas Highland Park,77.11,149.69,,181.44,,Single-ply,SBD,M
Boys,82.1,DQ,Holt Gandy,Dallas Highland Park,78.93,,,,,Single-ply,SBD,M
Boys,82.1,DQ,Songbo Cao,Dallas Highland Park,82.1,,,,,Single-ply,SBD,M
Boys,82.1,DQ,Spencer Casey,Richardson Berkner,81.33,102.06,,,,Single-ply,SBD,M
Boys,89.81,1,Craig Renfro,Waxahachie,86.05,254.01,124.74,256.28,635.03,Single-ply,SBD,M
Boys,89.81,2,Gage Shorter,Dallas Highland Park,89.81,226.8,165.56,242.67,635.03,Single-ply,SBD,M
Boys,89.81,3,Keavin Turner,Cedar Hill,89.81,233.6,111.13,210.92,555.65,Single-ply,SBD,M
Boys,89.81,4,Isaiah Lewis,Cedar Hill,86.86,217.72,113.4,204.12,535.24,Single-ply,SBD,M
Boys,89.81,5,David Kennedy,Oakridge School,86.95,181.44,115.67,222.26,519.36,Single-ply,SBD,M
Boys,89.81,6,Marcus Sierra,Richardson Berkner,84.23,192.78,102.06,188.24,483.08,Single-ply,SBD,M
Boys,89.81,7,Leonardo Zavala,Waxahachie,88.81,174.63,83.91,190.51,449.06,Single-ply,SBD,M
Boys,89.81,8,Tanner Houghton,Dallas Highland Park,83.91,163.29,117.93,158.76,439.98,Single-ply,SBD,M
Boys,89.81,9,Brent Janss,Dallas Highland Park,86.64,161.03,120.2,158.76,439.98,Single-ply,SBD,M
Boys,89.81,10,Colton Davis,Oakridge School,88.54,154.22,97.52,181.44,433.18,Single-ply,SBD,M
Boys,89.81,11,Caz Orr,Dallas Highland Park,88.45,170.1,102.06,158.76,430.91,Single-ply,SBD,M
Boys,89.81,12,David Rochester,Bishop Lynch,89.18,181.44,88.45,158.76,428.64,Single-ply,SBD,M
Boys,89.81,13,Mathew Riggs,Dallas Highland Park,88.9,154.22,95.25,158.76,408.23,Single-ply,SBD,M
Boys,89.81,14,Trey Crumbley,Dallas Highland Park,88.45,140.61,79.38,149.69,369.68,Single-ply,SBD,M
Boys,89.81,15,Jack Landen,Dallas Highland Park,89.81,127.01,72.57,149.69,349.27,Single-ply,SBD,M
Boys,89.81,16,Mark Jolas,Dallas Highland Park,86.18,127.01,63.5,131.54,322.05,Single-ply,SBD,M
Boys,89.81,DQ,Alex Dorris,Dallas Highland Park,85.28,83.91,127.01,,,Single-ply,SBD,M
Boys,89.81,DQ,Russell Rice,Dallas Highland Park,89.81,176.9,138.35,,,Single-ply,SBD,M
Boys,89.81,DQ,Ben Salinaro,Dallas Highland Park,87.54,181.44,,185.97,,Single-ply,SBD,M
Boys,99.79,1,Acuda Esin,Dallas Jesuit,98.79,283.5,174.63,269.89,728.02,Single-ply,SBD,M
Boys,99.79,2,Bryan Randall,Waxahachie,99.56,249.48,167.83,244.94,662.24,Single-ply,SBD,M
Boys,99.79,3,Rj Zavala,Waxahachie,98.93,238.14,149.69,231.33,619.15,Single-ply,SBD,M
Boys,99.79,4,Jack Ceverha,Dallas Highland Park,95.25,199.58,117.93,195.04,512.56,Single-ply,SBD,M
Boys,99.79,5,Adam Arredondo,Waxahachie,96.84,199.58,113.4,183.7,496.68,Single-ply,SBD,M
Boys,99.79,6,Jacob Sarracino,Dallas Highland Park,97.98,170.1,129.27,190.51,489.88,Single-ply,SBD,M
Boys,99.79,7,John Molina,Bishop Lynch,96.43,208.65,99.79,176.9,485.34,Single-ply,SBD,M
Boys,99.79,8,Dairon Houston,Cedar Hill,98.11,197.31,104.33,174.63,476.27,Single-ply,SBD,M
Boys,99.79,9,Julian Shade,Cedar Hill,99.52,176.9,108.86,183.7,469.47,Single-ply,SBD,M
Boys,99.79,10,Eric Ramon,Bishop Lynch,96.39,195.04,79.38,181.44,455.86,Single-ply,SBD,M
Boys,99.79,11,Andrew Clyde,Dallas Highland Park,94.35,154.22,124.74,165.56,444.52,Single-ply,SBD,M
Boys,99.79,12,Anthony Richards,Dallas Highland Park,97.98,170.1,97.52,156.49,424.11,Single-ply,SBD,M
Boys,99.79,13,Brian Garcia,Dallas White,93.08,124.74,95.25,151.95,371.95,Single-ply,SBD,M
Boys,99.79,14,Evan English,Dallas Jesuit,92.03,142.88,124.74,102.06,369.68,Single-ply,SBD,M
Boys,99.79,15,Rodney Darre,Richardson Berkner,95.89,136.08,68.04,151.95,356.07,Single-ply,SBD,M
Boys,99.79,16,Nick Salinaro,Dallas Highland Park,95.25,142.88,108.86,102.06,353.8,Single-ply,SBD,M
Boys,99.79,DQ,Will Wigginton,Dallas Highland Park,95.25,127.01,,,,Single-ply,SBD,M
Boys,109.77,1,Andrew Abamu,Cedar Hill,102.06,242.67,122.47,256.28,621.42,Single-ply,SBD,M
Boys,109.77,2,Christian Million,Waxahachie,105.41,195.04,131.54,217.72,544.31,Single-ply,SBD,M
Boys,109.77,3,Victor Mejia,Waxahachie,103.46,199.58,120.2,204.12,523.9,Single-ply,SBD,M
Boys,109.77,4,Adrian Zavala,Waxahachie,103.96,183.7,122.47,213.19,519.36,Single-ply,SBD,M
Boys,109.77,5,Grant Johnson,Oakridge School,107,199.58,108.86,195.04,503.49,Single-ply,SBD,M
Boys,109.77,6,Jackson Tittle,Dallas Highland Park,101.6,183.7,108.86,197.31,489.88,Single-ply,SBD,M
Boys,109.77,7,William Jones,Bishop Lynch,107.37,181.44,90.72,181.44,453.59,Single-ply,SBD,M
Boys,109.77,8,Clayton Woods,Dallas Highland Park,102.06,145.15,92.99,136.08,374.21,Single-ply,SBD,M
Boys,109.77,9,Josh Leachman,Dallas Highland Park,108.86,136.08,70.31,142.88,349.27,Single-ply,SBD,M
Boys,109.77,10,Kyle Reichenstein,Dallas Jesuit,104.28,124.74,83.91,133.81,342.46,Single-ply,SBD,M
Boys,109.77,DQ,Charlie McKenzie,Dallas Highland Park,105.69,,,,,Single-ply,SBD,M
Boys,109.77,DQ,Bennett Campbell,Dallas Highland Park,109.77,172.37,108.86,,,Single-ply,SBD,M
Boys,109.77,DQ,Ralph Mendivla,Plano John Paul II,107.37,199.58,124.74,,,Single-ply,SBD,M
Boys,124.74,1,Jaleil Davis,Cedar Hill,122.06,247.21,158.76,208.65,614.62,Single-ply,SBD,M
Boys,124.74,2,Sammie Overton,Waxahachie,112.26,208.65,117.93,222.26,548.85,Single-ply,SBD,M
Boys,124.74,3,Ethan Beasley,Dallas Highland Park,116.12,217.72,117.93,213.19,548.85,Single-ply,SBD,M
Boys,124.74,4,Jared Hughes,Plano John Paul II,118.43,213.19,142.88,188.24,544.31,Single-ply,SBD,M
Boys,124.74,5,Korlis Johnson,Cedar Hill,112.4,217.72,113.4,208.65,539.77,Single-ply,SBD,M
Boys,124.74,6,William Barns,Dallas Highland Park,115.67,204.12,129.27,204.12,537.51,Single-ply,SBD,M
Boys,124.74,7,Nick Savala,Bishop Lynch,117.34,238.14,108.86,179.17,526.17,Single-ply,SBD,M
Boys,124.74,8,Jay Goodson,Richardson Berkner,118.52,165.56,99.79,188.24,453.59,Single-ply,SBD,M
Boys,124.74,9,Jorge Beltran,Dallas White,112.26,106.59,81.65,113.4,301.64,Single-ply,SBD,M
Boys,124.74,DQ,Mitch Balderas,Dallas White,120.7,,,,,Single-ply,SBD,M
Boys,124.74+,1,Gerrard Johnson,Waxahachie,147.42,274.42,138.35,272.16,684.92,Single-ply,SBD,M
Boys,124.74+,2,Chris Hughes,Richardson Berkner,129.41,136.08,95.25,151.95,383.29,Single-ply,SBD,M
Boys,124.74+,DQ,Austin Webb,Dallas Highland Park,125.19,113.4,,113.4,,Single-ply,SBD,M
