Division,WeightClassKg,Place,Name,Team,BodyweightKg,Best3SquatKg,Best3BenchKg,Best3DeadliftKg,TotalKg,Equipment,Event,Sex
Varsity,44.23,1,Kaitlin Reyes,Bishop,43.18,115.67,56.7,106.59,278.96,Single-ply,SBD,F
Varsity,44.23,2,Symantha Flores,Three Rivers,43.91,102.06,47.63,113.4,263.08,Single-ply,SBD,F
Varsity,44.23,3,Brittany Trevino,San Diego,44.09,102.06,47.63,111.13,260.82,Single-ply,SBD,F
Varsity,44.23,4,Crystal Rodriguez,Corpus Christi West Oso,43.36,95.25,38.56,102.06,235.87,Single-ply,SBD,F
Varsity,44.23,5,Cassandra Gonzalez,San Diego,43.64,90.72,40.82,102.06,233.6,Single-ply,SBD,F
Varsity,44.23,6,Destiny Martinez,Beeville Jones,42.82,81.65,49.9,95.25,226.8,Single-ply,SBD,F
Varsity,44.23,7,Savannah Arciba,Gregory-Portland,42.55,83.91,43.09,97.52,224.53,Single-ply,SBD,F
Varsity,44.23,8,Tianne Truillo,Alice,38.65,83.91,34.02,90.72,208.65,Single-ply,SBD,F
Varsity,44.23,9,Savannah Sandoval,Kingsville King,41.55,70.31,34.02,81.65,185.97,Single-ply,SBD,F
Varsity,44.23,DQ,Summer Garza,George West,43.27,,,,,Single-ply,SBD,F
Varsity,47.85,1,Kaitlyn Pelitire,Beeville Jones,46.99,124.74,56.7,129.27,310.71,Single-ply,SBD,F
Varsity,47.85,2,Marissa Ruiz,Gregory-Portland,47.54,120.2,56.7,129.27,306.17,Single-ply,SBD,F
Varsity,47.85,3,Sarah Jo Campos,San Diego,47.17,115.67,56.7,127.01,299.37,Single-ply,SBD,F
Varsity,47.85,4,Madalene Garcia,Corpus Christi Calallen,47.81,95.25,47.63,99.79,242.67,Single-ply,SBD,F
Varsity,47.85,5,Hope Davila,Corpus Christi Tuloso-Midway,45.09,88.45,40.82,92.99,222.26,Single-ply,SBD,F
Varsity,47.85,DQ,Macy Ramirez,San Diego,46.18,,,,,Single-ply,SBD,F
Varsity,47.85,DQ,Kristen Alaniz,Alice,47.81,120.2,70.31,,,Single-ply,SBD,F
Varsity,51.94,1,Bianca Alvarez,Alice,51.44,145.15,52.16,149.69,347,Single-ply,SBD,F
Varsity,51.94,2,Tarah Perales,San Diego,51.8,136.08,63.5,138.35,337.93,Single-ply,SBD,F
Varsity,51.94,3,Julissa Ortiz,Beeville Jones,49.99,131.54,58.97,145.15,335.66,Single-ply,SBD,F
Varsity,51.94,4,Destiny Bueno,Bishop,51.71,117.93,61.23,115.67,294.84,Single-ply,SBD,F
Varsity,51.94,5,Julie Gonzalez,San Diego,51.71,113.4,54.43,111.13,278.96,Single-ply,SBD,F
Varsity,51.94,6,Elyanna Aguirre,Corpus Christi Tuloso-Midway,50.62,97.52,54.43,108.86,260.82,Single-ply,SBD,F
Varsity,51.94,7,Kailey Castillo,Corpus Christi Tuloso-Midway,49.9,104.33,47.63,99.79,251.74,Single-ply,SBD,F
Varsity,51.94,8,Emerald Benavides,Pettus,50.17,92.99,43.09,102.06,238.14,Single-ply,SBD,F
Varsity,51.94,9,Vanessa Vega,Skidmore-Tynan,50.44,79.38,43.09,99.79,222.26,Single-ply,SBD,F
Varsity,51.94,10,Hailey Ranly,Banquete,51.35,79.38,43.09,99.79,222.26,Single-ply,SBD,F
Varsity,51.94,DQ,Lauren Lascano,Robstown,49.8,,,,,Single-ply,SBD,F
Varsity,51.94,DQ,Allison Bartel,Gregory-Portland,51.89,86.18,,,,Single-ply,SBD,F
Varsity,56.02,1,Kassandra Garcia,San Diego,55.34,149.69,70.31,151.95,371.95,Single-ply,SBD,F
Varsity,56.02,2,Zavina Gonzalez,Bishop,55.25,120.2,58.97,131.54,310.71,Single-ply,SBD,F
Varsity,56.02,3,Whitney Westerman,Corpus Christi Calallen,55.61,113.4,65.77,115.67,294.84,Single-ply,SBD,F
Varsity,56.02,4,Shelby Webster,Corpus Christi Tuloso-Midway,55.97,102.06,54.43,120.2,276.69,Single-ply,SBD,F
Varsity,56.02,5,Riley Horner,Gregory-Portland,53.16,90.72,56.7,111.13,258.55,Single-ply,SBD,F
Varsity,56.02,6,Jaime Ruth,Gregory-Portland,55.43,95.25,34.02,99.79,229.06,Single-ply,SBD,F
Varsity,56.02,DQ,Joy Harvey,Corpus Christi West Oso,53.71,,,,,Single-ply,SBD,F
Varsity,60.1,1,Azalia Jones,Corpus Christi Tuloso-Midway,59.87,131.54,70.31,140.61,342.46,Single-ply,SBD,F
Varsity,60.1,2,Claudia Chapa,Robstown,59.33,120.2,58.97,129.27,308.44,Single-ply,SBD,F
Varsity,60.1,3,Brittany Garza,Kingsville King,59.24,129.27,58.97,115.67,303.91,Single-ply,SBD,F
Varsity,60.1,4,Talissa Soto,Corpus Christi Calallen,59.96,113.4,61.23,129.27,303.91,Single-ply,SBD,F
Varsity,60.1,5,Victoria Elizondo,Bishop,56.88,120.2,45.36,129.27,294.84,Single-ply,SBD,F
Varsity,60.1,6,Jasmine Hernandez,Alice,59.96,102.06,52.16,124.74,278.96,Single-ply,SBD,F
Varsity,60.1,7,Baily Natal,Corpus Christi Calallen,59.15,90.72,56.7,108.86,256.28,Single-ply,SBD,F
Varsity,60.1,8,Kendall Straube,Three Rivers,58.69,97.52,40.82,113.4,251.74,Single-ply,SBD,F
Varsity,60.1,9,Josie Guzman,Gregory-Portland,59.33,92.99,49.9,104.33,247.21,Single-ply,SBD,F
Varsity,60.1,10,Milan Navarro,Kingsville King,58.51,72.57,34.02,81.65,188.24,Single-ply,SBD,F
Varsity,60.1,DQ,Cecily Gonzalez,Alice,58.97,,,,,Single-ply,SBD,F
Varsity,67.36,1,Carle Straube,Three Rivers,60.15,147.42,65.77,149.69,362.87,Single-ply,SBD,F
Varsity,67.36,2,Alexis Salazar,George West,65.05,133.81,63.5,138.35,335.66,Single-ply,SBD,F
Varsity,67.36,3,Cassie Nix,Gregory-Portland,66.5,145.15,61.23,129.27,335.66,Single-ply,SBD,F
Varsity,67.36,4,Jaimee Barrera,San Diego,66.13,115.67,56.7,129.27,301.64,Single-ply,SBD,F
Varsity,67.36,5,Marielli Torres,Corpus Christi West Oso,60.69,97.52,34.02,117.93,249.48,Single-ply,SBD,F
Varsity,67.36,6,Sicily Galindo,Pettus,63.05,99.79,38.56,102.06,240.4,Single-ply,SBD,F
Varsity,67.36,7,Emily Ellison,George West,60.69,79.38,34.02,97.52,210.92,Single-ply,SBD,F
Varsity,67.36,8,Ronda Ruiz,Pettus,66.04,58.97,34.02,88.45,181.44,Single-ply,SBD,F
Varsity,67.36,DQ,Blaine Roberson,Kingsville King,61.51,102.06,,,,Single-ply,SBD,F
Varsity,67.36,DQ,Miranda Gonzales,Beeville Jones,65.05,129.27,,,,Single-ply,SBD,F
Varsity,67.36,DQ,Tehya Suarez,Bishop,60.78,,,,,Single-ply,SBD,F
Varsity,75.07,1,Natalie Barrera,Bishop,72.12,185.97,102.06,136.08,424.11,Single-ply,SBD,F
Varsity,75.07,2,Allison Macias,Alice,73.75,172.37,83.91,156.49,412.77,Single-ply,SBD,F
Varsity,75.07,3,Catrina Soto,Skidmore-Tynan,68.4,138.35,58.97,138.35,335.66,Single-ply,SBD,F
Varsity,75.07,4,Bailey Jensen,Corpus Christi Tuloso-Midway,69.22,142.88,65.77,117.93,326.59,Single-ply,SBD,F
Varsity,75.07,5,Jasmine Maravilla,Corpus Christi West Oso,73.75,102.06,47.63,113.4,263.08,Single-ply,SBD,F
Varsity,75.07,DQ,Tiyanna King,Corpus Christi Calallen,72.85,,,,,Single-ply,SBD,F
Varsity,82.33,1,Krystal Ortiz,Beeville Jones,82.1,165.56,99.79,172.37,437.72,Single-ply,SBD,F
Varsity,82.33,2,Chloe Zapata,Alice,81.74,167.83,79.38,149.69,396.89,Single-ply,SBD,F
Varsity,82.33,3,Kylea Nix,Gregory-Portland,76.93,156.49,63.5,165.56,385.55,Single-ply,SBD,F
Varsity,82.33,4,Julie Stanford,Corpus Christi Tuloso-Midway,79.56,170.1,70.31,142.88,383.29,Single-ply,SBD,F
Varsity,82.33,5,Gabriella Hyturria,Beeville Jones,81.28,142.88,65.77,142.88,351.53,Single-ply,SBD,F
Varsity,82.33,6,Sara Cavasos,Bishop,78.65,147.42,65.77,113.4,326.59,Single-ply,SBD,F
Varsity,82.33,7,Terresa Diaz,Three Rivers,82.28,129.27,52.16,136.08,317.51,Single-ply,SBD,F
Varsity,82.33,8,Caitlin White,Corpus Christi Calallen,81.74,104.33,56.7,120.2,281.23,Single-ply,SBD,F
Varsity,82.33,DQ,Alyssa Lard,Alice,82.28,,,,,Single-ply,SBD,F
Varsity,82.33,DQ,Kristee Dunlap,Pettus,80.47,,,,,Single-ply,SBD,F
Varsity,90.04,1,Edy Garza,Alice,83.64,161.03,74.84,145.15,381.02,Single-ply,SBD,F
Varsity,90.04,2,Amber Ramirez,Beeville Jones,89.18,138.35,83.91,127.01,349.27,Single-ply,SBD,F
Varsity,90.04,3,Stephanie Urquieta,Corpus Christi Tuloso-Midway,84.01,149.69,65.77,129.27,344.73,Single-ply,SBD,F
Varsity,90.04,4,Gabby Barrera,Corpus Christi Calallen,89.99,106.59,70.31,117.93,294.84,Single-ply,SBD,F
Varsity,90.04,DQ,Gabby Medellin,Alice,87.91,,,,,Single-ply,SBD,F
Varsity,90.04,DQ,Tori Trigo,Alice,88.81,,,,,Single-ply,SBD,F
Varsity,90.04,DQ,Sara Valencia,Beeville Jones,85,,,,,Single-ply,SBD,F
Varsity,90.04,DQ,Paityn Havelka,Corpus Christi Tuloso-Midway,82.64,,,,,Single-ply,SBD,F
Varsity,100.02,1,Stephanie Figueroa,Bishop,91.99,156.49,70.31,145.15,371.95,Single-ply,SBD,F
Varsity,100.02,2,Savannah Valenzuela,Corpus Christi Calallen,95.71,156.49,72.57,142.88,371.95,Single-ply,SBD,F
Varsity,100.02,3,Corrine Garcia,Corpus Christi Tuloso-Midway,96.16,145.15,79.38,147.42,371.95,Single-ply,SBD,F
Varsity,100.02,4,Luciana Zamora,Gregory-Portland,95.98,156.49,63.5,136.08,356.07,Single-ply,SBD,F
Varsity,100.02,5,Sarah Silverleaf,Beeville Jones,91.9,120.2,81.65,131.54,333.39,Single-ply,SBD,F
Varsity,100.02,6,Izabella Chapa,Sinton,99.52,131.54,52.16,129.27,312.98,Single-ply,SBD,F
Varsity,100.02+,1,Ashley Olivarez,Beeville Jones,109.32,158.76,117.93,151.95,428.64,Single-ply,SBD,F
Varsity,100.02+,2,Lorena Vera,San Diego,107.68,174.63,81.65,149.69,405.97,Single-ply,SBD,F
Varsity,100.02+,3,Lizzy Galvan,Robstown,103.96,158.76,63.5,156.49,378.75,Single-ply,SBD,F
Varsity,100.02+,4,Maizie Villarreal,George West,117.84,129.27,68.04,106.59,303.91,Single-ply,SBD,F
Varsity,100.02+,5,Dayna Mireles,Gregory-Portland,101.97,99.79,58.97,122.47,281.23,Single-ply,SBD,F
Varsity,100.02+,DQ,Jazmeen Sanchez,Corpus Christi West Oso,107.59,,,,,Single-ply,SBD,F
Varsity,100.02+,DQ,Mary Chavez,Corpus Christi Tuloso-Midway,135.17,,,,,Single-ply,SBD,F
Junior Varsity,44.23,1,Gabriella Zarate,San Diego,42,63.5,34.02,95.25,192.78,Single-ply,SBD,F
Junior Varsity,47.85,1,Shyanne Oviedo,Corpus Christi Calallen,47.54,74.84,36.29,95.25,206.38,Single-ply,SBD,F
Junior Varsity,47.85,2,Jordyn Smith,Corpus Christi Calallen,47.72,83.91,40.82,81.65,206.38,Single-ply,SBD,F
Junior Varsity,47.85,3,Brianna Garcia,Corpus Christi Tuloso-Midway,46.99,72.57,45.36,83.91,201.85,Single-ply,SBD,F
Junior Varsity,47.85,4,Brittany Rodriguez,San Diego,46.54,61.23,31.75,83.91,176.9,Single-ply,SBD,F
Junior Varsity,51.94,1,Miranda Reyes,Corpus Christi Tuloso-Midway,50.89,86.18,45.36,104.33,235.87,Single-ply,SBD,F
Junior Varsity,51.94,2,Justess Brewer,Corpus Christi Calallen,51.62,81.65,45.36,104.33,231.33,Single-ply,SBD,F
Junior Varsity,51.94,3,Camila Herrera,Gregory-Portland,51.62,88.45,34.02,88.45,210.92,Single-ply,SBD,F
Junior Varsity,56.02,1,Aubrey Zickerfoose,Corpus Christi Tuloso-Midway,55.97,102.06,49.9,120.2,272.16,Single-ply,SBD,F
Junior Varsity,56.02,2,Bailey Pastrano,San Diego,54.43,97.52,47.63,104.33,249.48,Single-ply,SBD,F
Junior Varsity,56.02,3,Joanna Vaseliades,Gregory-Portland,54.43,83.91,40.82,106.59,231.33,Single-ply,SBD,F
Junior Varsity,56.02,4,Alyssa Hernandez,Alice,52.07,92.99,36.29,92.99,222.26,Single-ply,SBD,F
Junior Varsity,56.02,5,Rauzlin Ybarra,Gregory-Portland,54.52,72.57,31.75,77.11,181.44,Single-ply,SBD,F
Junior Varsity,60.1,DQ,Isabella Alarcon,Corpus Christi Tuloso-Midway,57.52,,,,,Single-ply,SBD,F
Junior Varsity,67.36,1,Alexis Estringel,Alice,66.68,111.13,58.97,117.93,288.03,Single-ply,SBD,F
Junior Varsity,67.36,2,Kaitlyn Ramos,Corpus Christi Tuloso-Midway,61.05,102.06,49.9,106.59,258.55,Single-ply,SBD,F
Junior Varsity,67.36,DQ,Bree Tellada,Corpus Christi Tuloso-Midway,63.41,,,,,Single-ply,SBD,F
Junior Varsity,75.07,1,Anyssa Hernandez,San Diego,75.02,92.99,61.23,95.25,249.48,Single-ply,SBD,F
Junior Varsity,75.07,2,Ashley Ramirez,Gregory-Portland,73.21,79.38,45.36,102.06,226.8,Single-ply,SBD,F
