Division,WeightClassKg,Place,Name,Team,BodyweightKg,Best3SquatKg,Best3BenchKg,Best3DeadliftKg,TotalKg,Equipment,Event,Sex
Boys,51.71,1,Cody Strokos,New Caney,51.48,129.27,63.5,145.15,337.93,Single-ply,SBD,M
Boys,51.71,2,Noah Courvelle,Shepherd,49.49,104.33,56.7,113.4,274.42,Single-ply,SBD,M
Boys,51.71,3,Ross Cowart,Huntsville,50.03,81.65,61.23,124.74,267.62,Single-ply,SBD,M
Boys,55.79,4,Jonathan Pimentel,Conroe The Woodlands,51.94,90.72,49.9,113.4,254.01,Single-ply,SBD,M
Boys,51.71,5,Zac Jenkins,Shepherd,49.99,102.06,47.63,92.99,242.67,Single-ply,SBD,M
Boys,51.71,DQ,Ricardo Villafana,Splendora,50.71,,,,,Single-ply,SBD,M
Boys,55.79,1,Garrett Kelso,Splendora,54.93,154.22,88.45,156.49,399.16,Single-ply,SBD,M
Boys,55.79,DQ,Brandon Espinoza,New Caney,52.66,,,,,Single-ply,SBD,M
Boys,55.79,2,Cooper Houston,Montgomery,55.75,154.22,79.38,136.08,369.68,Single-ply,SBD,M
Boys,55.79,3,Grayson Danner,Conroe The Woodlands,52.44,138.35,88.45,133.81,360.61,Single-ply,SBD,M
Boys,55.79,4,Gavin Webster,Conroe The Woodlands,55.61,124.74,77.11,147.42,349.27,Single-ply,SBD,M
Boys,55.79,5,Chase Watson,Shepherd,54.25,111.13,65.77,120.2,297.1,Single-ply,SBD,M
Boys,55.79,6,Connor Orozco,Huffman Hargrave,54.39,102.06,54.43,92.99,249.48,Single-ply,SBD,M
Boys,55.79,DQ,Mikey Rodgers,Huffman Hargrave,52.84,,,,,Single-ply,SBD,M
Boys,59.87,1,Grayson Brown,Conroe The Woodlands,59.38,188.24,95.25,181.44,464.93,Single-ply,SBD,M
Boys,59.87,2,Brandon Coon,Conroe Caney Creek,59.51,158.76,77.11,165.56,401.43,Single-ply,SBD,M
Boys,59.87,3,Javier Vela,Shepherd,59.47,142.88,79.38,167.83,390.09,Single-ply,SBD,M
Boys,59.87,4,Trent Taylor,Shepherd,59.6,142.88,81.65,163.29,387.82,Single-ply,SBD,M
Boys,59.87,5,Cody Tunning,Montgomery,57.24,149.69,90.72,136.08,376.48,Single-ply,SBD,M
Boys,59.87,6,Christion Tejoda,Conroe,58.65,136.08,77.11,145.15,358.34,Single-ply,SBD,M
Boys,59.87,7,Dylan Jenkins,Montgomery,58.74,131.54,65.77,154.22,351.53,Single-ply,SBD,M
Boys,67.13,8,Alberto Pineda,Dayton,60.06,136.08,63.5,145.15,344.73,Single-ply,SBD,M
Boys,59.87,9,Jance Guynes,Shepherd,57.15,127.01,77.11,133.81,337.93,Single-ply,SBD,M
Boys,59.87,DQ,Ej Simith,Beaumont Ozen,59.87,,,,,Single-ply,SBD,M
Boys,59.87,DQ,Tyler Katz,Shepherd,56.25,154.22,,,,Single-ply,SBD,M
Boys,67.13,1,Garrett Shantz,Montgomery,64.64,185.97,115.67,204.12,505.76,Single-ply,SBD,M
Boys,67.13,2,Cesar Marroquin,Huffman Hargrave,66.13,158.76,102.06,158.76,419.57,Single-ply,SBD,M
Boys,67.13,3,De'Adrian Pratt,Conroe,65.23,154.22,95.25,147.42,396.89,Single-ply,SBD,M
Boys,67.13,4,David Rodas,Crosby,61.96,142.88,95.25,154.22,392.36,Single-ply,SBD,M
Boys,67.13,5,Nick Warner,Conroe Caney Creek,67.09,133.81,86.18,158.76,378.75,Single-ply,SBD,M
Boys,67.13,6,Hunter Bell,Huntsville,66.72,142.88,68.04,163.29,374.21,Single-ply,SBD,M
Boys,67.13,7,Tyler Idom,New Caney Porter,63.5,131.54,90.72,149.69,371.95,Single-ply,SBD,M
Boys,67.13,8,Elvin Martinez,Huntsville,63.73,131.54,81.65,158.76,371.95,Single-ply,SBD,M
Boys,74.84,9,Levi Hurley,Corrigan-Camden,67.18,142.88,70.31,149.69,362.87,Single-ply,SBD,M
Boys,67.13,10,Haze Richey,Shepherd,60.33,124.74,77.11,147.42,349.27,Single-ply,SBD,M
Boys,67.13,11,Josh Chaney,Conroe The Woodlands,65.59,129.27,72.57,138.35,340.19,Single-ply,SBD,M
Boys,67.13,12,Francisco Vargas,Splendora,66.54,131.54,70.31,138.35,340.19,Single-ply,SBD,M
Boys,67.13,13,Jacob Mears,Beaumont Ozen,63.32,108.86,86.18,136.08,331.12,Single-ply,SBD,M
Boys,67.13,14,Marcus Perkins,Shepherd,66.9,117.93,83.91,113.4,315.25,Single-ply,SBD,M
Boys,67.13,15,Devin Kelly,Huffman Hargrave,62.37,90.72,61.23,106.59,258.55,Single-ply,SBD,M
Boys,67.13,DQ,Rodney Winford,Beaumont Ozen,61.28,,,,,Single-ply,SBD,M
Boys,74.84,DQ,Keandre Rose,Dayton,67.36,174.63,,,,Single-ply,SBD,M
Boys,67.13,DQ,Fernando Mendes,Conroe Caney Creek,66.86,158.76,,,,Single-ply,SBD,M
Boys,74.84,DQ,Gavin Stowe,Splendora,67.27,104.33,,,,Single-ply,SBD,M
Boys,67.13,DQ,Hunter Carlisle,Splendora,64.86,,,,,Single-ply,SBD,M
Boys,74.84,1,Aj Box,Shepherd,73.94,195.04,145.15,185.97,526.17,Single-ply,SBD,M
Boys,74.84,2,Daniel Douglas,Dayton,73.94,183.7,113.4,213.19,510.29,Single-ply,SBD,M
Boys,74.84,3,Sterling Scott,Conroe The Woodlands,67.9,197.31,102.06,199.58,498.95,Single-ply,SBD,M
Boys,74.84,4,Dustin West,Shepherd,68.36,208.65,90.72,197.31,496.68,Single-ply,SBD,M
Boys,74.84,5,Marcel Foster,Dayton,73.75,197.31,92.99,201.85,492.15,Single-ply,SBD,M
Boys,74.84,6,Adam May,Conroe The Woodlands,74.25,176.9,106.59,170.1,453.59,Single-ply,SBD,M
Boys,74.84,7,Lance Cole,Crosby,74.62,158.76,108.86,165.56,433.18,Single-ply,SBD,M
Boys,74.84,8,LaKendrick Moore,Corrigan-Camden,72.3,183.7,74.84,170.1,428.64,Single-ply,SBD,M
Boys,74.84,9,Austin Markham,Splendora,71.8,167.83,95.25,163.29,426.38,Single-ply,SBD,M
Boys,82.1,10,Armando Cuevas,New Caney Porter,75.07,151.95,108.86,163.29,424.11,Single-ply,SBD,M
Boys,74.84,11,Jacob Gallatin,Montgomery,70.13,149.69,86.18,170.1,405.97,Single-ply,SBD,M
Boys,82.1,12,Josh Kiser,Conroe The Woodlands,75.07,142.88,83.91,167.83,394.63,Single-ply,SBD,M
Boys,74.84,13,Brandhon Martinez,Huntsville,72.39,131.54,88.45,167.83,387.82,Single-ply,SBD,M
Boys,74.84,14,Tim Clay,New Caney Porter,70.17,142.88,88.45,149.69,381.02,Single-ply,SBD,M
Boys,74.84,15,Humberto Avila,Huntsville,71.8,145.15,86.18,147.42,378.75,Single-ply,SBD,M
Boys,74.84,16,Justin Robbins,Corrigan-Camden,70.44,140.61,74.84,147.42,362.87,Single-ply,SBD,M
Boys,74.84,17,Jeffrey Monroe,Conroe Caney Creek,71.99,124.74,74.84,151.95,351.53,Single-ply,SBD,M
Boys,74.84,18,Thomas Casper,Corrigan-Camden,67.59,136.08,61.23,136.08,333.39,Single-ply,SBD,M
Boys,74.84,19,Robert Black,Trinity,69.35,106.59,86.18,131.54,324.32,Single-ply,SBD,M
Boys,74.84,20,Chris Reyes,Corrigan-Camden,69.04,97.52,47.63,136.08,281.23,Single-ply,SBD,M
Boys,74.84,21,Max Lorberg,Splendora,72.98,58.97,65.77,106.59,231.33,Single-ply,SBD,M
Boys,74.84,DQ,Taylor Martin,Trinity,74.84,,,,,Single-ply,SBD,M
Boys,74.84,DQ,Sarketian Thomas,Beaumont Ozen,74.84,,,,,Single-ply,SBD,M
Boys,74.84,DQ,Christopher Narcisse,Beaumont Ozen,74.84,,,,,Single-ply,SBD,M
Boys,74.84,DQ,Brandon Champion,Montgomery,74.84,,,,,Single-ply,SBD,M
Boys,74.84,DQ,Danny Sanders,Huntsville,73.03,102.06,,,,Single-ply,SBD,M
Boys,74.84,DQ,Logan Blackburn,Huffman Hargrave,68.95,,,,,Single-ply,SBD,M
Boys,74.84,DQ,Alex Semler,New Caney Porter,74.71,,,,,Single-ply,SBD,M
Boys,74.84,DQ,Chance Price,New Caney Porter,67.9,,,,,Single-ply,SBD,M
Boys,74.84,DQ,Kevin Henderson,Shepherd,68.99,149.69,,,,Single-ply,SBD,M
Boys,74.84,DQ,Kalique Ferguson,Beaumont Ozen,72.35,142.88,,,,Single-ply,SBD,M
Boys,82.1,1,Vernon Allen,Crosby,78.29,249.48,113.4,226.8,589.67,Single-ply,SBD,M
Boys,82.1,2,Travis Anderson,Crosby,80.97,226.8,131.54,226.8,585.13,Single-ply,SBD,M
Boys,82.1,3,Logan Phillips,Conroe Caney Creek,81.1,192.78,140.61,219.99,553.38,Single-ply,SBD,M
Boys,82.1,4,Brandon McBride,Dayton,78.83,210.92,120.2,204.12,535.24,Single-ply,SBD,M
Boys,82.1,5,Sheldrick Long,Dayton,78.79,192.78,120.2,210.92,523.9,Single-ply,SBD,M
Boys,82.1,6,Carson Neal,Montgomery,77.66,204.12,115.67,192.78,512.56,Single-ply,SBD,M
Boys,82.1,7,Joseph Dittman,New Caney,79.42,190.51,129.27,185.97,505.76,Single-ply,SBD,M
Boys,82.1,8,Trevor Larkin,Crosby,79.2,185.97,124.74,190.51,501.22,Single-ply,SBD,M
Boys,82.1,9,Anthony Lamb,Splendora,81.01,181.44,108.86,197.31,487.61,Single-ply,SBD,M
Boys,82.1,10,Donivan Orozco,Huffman Hargrave,81.87,167.83,127.01,176.9,471.74,Single-ply,SBD,M
Boys,89.81,11,Dillon Roberson,Conroe,82.15,185.97,102.06,181.44,469.47,Single-ply,SBD,M
Boys,82.1,12,David Marshall,Dayton,79.83,174.63,88.45,185.97,449.06,Single-ply,SBD,M
Boys,82.1,13,Dustin Baranowski,Conroe The Woodlands,80.56,158.76,92.99,183.7,435.45,Single-ply,SBD,M
Boys,82.1,14,Jesse Reyes,Trinity,81.19,151.95,111.13,172.37,435.45,Single-ply,SBD,M
Boys,82.1,15,Brad Neal,Dayton,77.47,170.1,95.25,167.83,433.18,Single-ply,SBD,M
Boys,82.1,16,Kyle Brennan,Conroe The Woodlands,75.84,163.29,95.25,170.1,428.64,Single-ply,SBD,M
Boys,82.1,17,Michael Chladny,Conroe,76.66,156.49,88.45,161.03,405.97,Single-ply,SBD,M
Boys,82.1,18,Joseph Leblanc,Shepherd,77.56,165.56,88.45,147.42,401.43,Single-ply,SBD,M
Boys,82.1,19,Josh Randolph,Shepherd,79.47,151.95,92.99,154.22,399.16,Single-ply,SBD,M
Boys,82.1,20,Parker Coleman,Conroe The Woodlands,78.47,133.81,99.79,158.76,392.36,Single-ply,SBD,M
Boys,82.1,21,Gerald Berry,Beaumont Ozen,79.65,113.4,104.33,158.76,376.48,Single-ply,SBD,M
Boys,82.1,DQ,Markell Perry,Beaumont Ozen,82.1,,,,,Single-ply,SBD,M
Boys,82.1,DQ,Dezmon Simpson,Beaumont Ozen,82.1,,,,,Single-ply,SBD,M
Boys,82.1,DQ,Alex Holsinger,Conroe Caney Creek,78.83,,,,,Single-ply,SBD,M
Boys,82.1,DQ,Eugene Bizer,Conroe The Woodlands,82.1,,,,,Single-ply,SBD,M
Boys,82.1,DQ,Austin McKean,Conroe Caney Creek,81.83,,,,,Single-ply,SBD,M
Boys,82.1,DQ,Grant Farley,Conroe The Woodlands,79.79,145.15,,,,Single-ply,SBD,M
Boys,82.1,DQ,Colton Wetuski,Montgomery,75.93,219.99,111.13,,,Single-ply,SBD,M
Boys,89.81,1,Haden Armstrong,Corrigan-Camden,88.9,201.85,140.61,229.06,571.53,Single-ply,SBD,M
Boys,99.79,2,Dante Woods,Willis,89.95,208.65,129.27,229.06,566.99,Single-ply,SBD,M
Boys,89.81,3,Cody Mullins,Montgomery,84.87,192.78,136.08,188.24,517.1,Single-ply,SBD,M
Boys,89.81,4,Tommy Garrett,New Caney,83.55,185.97,129.27,188.24,503.49,Single-ply,SBD,M
Boys,89.81,5,Jose Rangel,New Caney,88.13,201.85,117.93,183.7,503.49,Single-ply,SBD,M
Boys,89.81,6,Colby Clark,Shepherd,82.55,181.44,129.27,167.83,478.54,Single-ply,SBD,M
Boys,89.81,7,Kiethon Johnson,Shepherd,87.14,161.03,113.4,188.24,462.66,Single-ply,SBD,M
Boys,89.81,8,Zach Loane,Conroe The Woodlands,86.95,158.76,92.99,199.58,451.32,Single-ply,SBD,M
Boys,89.81,9,Joseph Edwards,New Caney,84.69,192.78,88.45,167.83,449.06,Single-ply,SBD,M
Boys,89.81,10,Cody Bradford,Shepherd,87.72,151.95,86.18,170.1,408.23,Single-ply,SBD,M
Boys,89.81,11,Uri Lujan,Conroe,88.41,151.95,97.52,158.76,408.23,Single-ply,SBD,M
Boys,89.81,12,Blake Carter,Shepherd,83.55,142.88,104.33,149.69,396.89,Single-ply,SBD,M
Boys,89.81,13,Tommy Mcdouglald,Conroe The Woodlands,88.04,136.08,88.45,156.49,381.02,Single-ply,SBD,M
Boys,89.81,14,Chase Tubbs,Corrigan-Camden,89.13,138.35,61.23,142.88,342.46,Single-ply,SBD,M
Boys,89.81,15,Joshua Price,Huntsville,87.14,115.67,77.11,136.08,328.85,Single-ply,SBD,M
Boys,89.81,DQ,Alex Holdaway,Conroe The Woodlands,89.81,,,,,Single-ply,SBD,M
Boys,89.81,DQ,Jordan Daigle,Beaumont Ozen,83.87,181.44,120.2,,,Single-ply,SBD,M
Boys,89.81,DQ,Austin Greer,Huffman Hargrave,83.64,113.4,63.5,,,Single-ply,SBD,M
Boys,89.81,DQ,John Moye,Shepherd,83.91,,,,,Single-ply,SBD,M
Boys,89.81,DQ,Keyshawn Gillaspie,Willis,84.78,142.88,,,,Single-ply,SBD,M
Boys,99.79,1,Mitchell Fountain,Conroe The Woodlands,99.29,317.51,183.7,306.17,807.39,Single-ply,SBD,M
Boys,99.79,2,Chase Nix,Crosby,98.11,274.42,174.63,254.01,703.07,Single-ply,SBD,M
Boys,99.79,3,Dustin Hoeffler,New Caney Porter,94.26,244.94,145.15,231.33,621.42,Single-ply,SBD,M
Boys,99.79,4,Cody Brown,Conroe,99.25,226.8,113.4,208.65,548.85,Single-ply,SBD,M
Boys,99.79,5,Louis Hickman,New Caney Porter,92.62,219.99,136.08,190.51,546.58,Single-ply,SBD,M
Boys,99.79,6,Ignacio Salinas,Conroe,95.71,210.92,136.08,197.31,544.31,Single-ply,SBD,M
Boys,99.79,7,Shaine Elkins,Conroe,98.34,199.58,129.27,163.29,492.15,Single-ply,SBD,M
Boys,99.79,8,Josh Valenta,Trinity,96.62,179.17,129.27,179.17,487.61,Single-ply,SBD,M
Boys,99.79,9,Zack Kapalski,Dayton,97.25,190.51,113.4,183.7,487.61,Single-ply,SBD,M
Boys,99.79,10,Dalton Cyr,Huntsville,98.66,183.7,115.67,183.7,483.08,Single-ply,SBD,M
Boys,99.79,11,Rene Troche,Conroe The Woodlands,91.22,179.17,83.91,204.12,467.2,Single-ply,SBD,M
Boys,99.79,12,Caleb Johnson,Huffman Hargrave,98.34,183.7,106.59,174.63,464.93,Single-ply,SBD,M
Boys,99.79,13,Brenton Tingle,Shepherd,96.16,149.69,102.06,201.85,453.59,Single-ply,SBD,M
Boys,99.79,14,Kevin Stephens,Shepherd,93.89,161.03,86.18,204.12,451.32,Single-ply,SBD,M
Boys,99.79,15,Dusin Nicholas,Huntsville,97.89,170.1,83.91,183.7,437.72,Single-ply,SBD,M
Boys,99.79,16,Jarrod Deneault,Huffman Hargrave,93.3,181.44,97.52,156.49,435.45,Single-ply,SBD,M
Boys,99.79,17,Cedric Green,Shepherd,93.26,142.88,102.06,181.44,426.38,Single-ply,SBD,M
Boys,99.79,18,Diundre Washington,Beaumont Ozen,92.67,147.42,113.4,147.42,408.23,Single-ply,SBD,M
Boys,99.79,19,Andrew Smith,Conroe The Woodlands,94.26,161.03,92.99,151.95,405.97,Single-ply,SBD,M
Boys,99.79,DQ,Diante Granger,Beaumont Ozen,99.79,,,,,Single-ply,SBD,M
Boys,99.79,DQ,Oris Granger,Beaumont Ozen,99.79,,,,,Single-ply,SBD,M
Boys,99.79,DQ,Desondric Selmon,Beaumont Ozen,99.79,,,,,Single-ply,SBD,M
Boys,99.79,DQ,Jean Carlo Perez,New Caney,99.79,,,,,Single-ply,SBD,M
Boys,99.79,DQ,Philip Holden,Shepherd,93.03,,,,,Single-ply,SBD,M
Boys,99.79,DQ,Cole Brumley,Huntsville,99.56,,,,,Single-ply,SBD,M
Boys,99.79,DQ,Pat Ward,Trinity,99.79,,,,,Single-ply,SBD,M
Boys,99.79,DQ,Coby Kluse,New Caney Porter,92.26,,,,,Single-ply,SBD,M
Boys,99.79,DQ,Chris Martin,Splendora,97.3,,,,,Single-ply,SBD,M
Boys,109.77,1,Parker Blount,Huntsville,108.82,265.35,170.1,244.94,680.39,Single-ply,SBD,M
Boys,109.77,2,Aaron Cunningham,Huffman Hargrave,108.32,206.38,138.35,190.51,535.24,Single-ply,SBD,M
Boys,124.74,3,Jordan Trahan,Dayton,109.81,219.99,120.2,195.04,535.24,Single-ply,SBD,M
Boys,109.77,4,Weston Thomas,Conroe,106.23,204.12,122.47,206.38,532.97,Single-ply,SBD,M
Boys,109.77,5,Aaron Hopper,Conroe The Woodlands,106.41,192.78,108.86,190.51,492.15,Single-ply,SBD,M
Boys,124.74,6,Brandon Mata,New Caney,109.86,185.97,108.86,167.83,462.66,Single-ply,SBD,M
Boys,124.74,7,Kevin Silva,Conroe The Woodlands,110,106.59,52.16,108.86,267.62,Single-ply,SBD,M
Boys,109.77,DQ,Clay McGuire,New Caney,109.77,,,,,Single-ply,SBD,M
Boys,109.77,DQ,Christian Rodriguez,Willis,107.32,,,,,Single-ply,SBD,M
Boys,124.74,DQ,Dylan Poindexter,New Caney,110,,,,,Single-ply,SBD,M
Boys,124.74,1,Will Demmings,Conroe,121.52,294.84,151.95,219.99,666.78,Single-ply,SBD,M
Boys,124.74,2,Jacoby Callahan,New Caney Porter,116.66,272.16,149.69,240.4,662.24,Single-ply,SBD,M
Boys,124.74,3,Joe Ogrodowicz,Willis,116.75,249.48,122.47,215.46,587.4,Single-ply,SBD,M
Boys,124.74,4,Cody Carter,Dayton,120.7,238.14,129.27,215.46,582.87,Single-ply,SBD,M
Boys,124.74,5,TJ Anderson,Conroe,120.61,235.87,117.93,204.12,557.92,Single-ply,SBD,M
Boys,124.74,6,Keyshawn Pettieway,Crosby,117.66,201.85,145.15,204.12,551.11,Single-ply,SBD,M
Boys,124.74,7,Torey Graham,Willis,117.75,240.4,102.06,190.51,532.97,Single-ply,SBD,M
Boys,124.74,8,Tristan Garza,New Caney,116.66,204.12,106.59,181.44,492.15,Single-ply,SBD,M
Boys,124.74+,9,Paul Suttle,Corrigan-Camden,124.87,204.12,97.52,188.24,489.88,Single-ply,SBD,M
Boys,124.74,10,Jimmy White,Willis,123.65,185.97,117.93,167.83,471.74,Single-ply,SBD,M
Boys,124.74,11,Sebastian Pecina,Corrigan-Camden,114.44,188.24,97.52,183.7,469.47,Single-ply,SBD,M
Boys,124.74,12,Destin Fox,Huffman Hargrave,123.2,113.4,90.72,183.7,387.82,Single-ply,SBD,M
Boys,124.74,DQ,Brent Holmes,Conroe Caney Creek,124.74,,,,,Single-ply,SBD,M
Boys,124.74,DQ,Josh Opiela,Crosby,123.79,124.74,,,,Single-ply,SBD,M
Boys,124.74,DQ,Lance Zeno,Beaumont Ozen,110.09,195.04,,,,Single-ply,SBD,M
Boys,124.74+,1,Des Johnson,Huntsville,134.17,251.74,174.63,233.6,659.98,Single-ply,SBD,M
Boys,124.74+,2,Keenan Murphy,Crosby,128.32,217.72,129.27,222.26,569.26,Single-ply,SBD,M
Boys,124.74+,3,Brandon Jones,Montgomery,143.56,226.8,120.2,199.58,546.58,Single-ply,SBD,M
Boys,124.74+,4,Edward Cook,Montgomery,130.36,192.78,147.42,190.51,530.7,Single-ply,SBD,M
Boys,124.74+,5,Matthew Gregory,Crosby,135.31,199.58,122.47,208.65,530.7,Single-ply,SBD,M
Boys,124.74+,6,Casey Cress,Willis,132.81,201.85,120.2,188.24,510.29,Single-ply,SBD,M
Boys,124.74+,7,Quinlan Beck,Shepherd,131.13,183.7,124.74,192.78,501.22,Single-ply,SBD,M
Boys,124.74+,8,Cody Hooks,Willis,134.31,192.78,102.06,190.51,485.34,Single-ply,SBD,M
Boys,124.74+,9,Colton Lowe,Conroe Caney Creek,139.66,195.04,106.59,172.37,474,Single-ply,SBD,M
Boys,124.74+,DQ,Quinton Smith,Beaumont Ozen,125.19,,,,,Single-ply,SBD,M
Boys,124.74+,DQ,Marshall Simpson,Conroe Caney Creek,147.42,,,,,Single-ply,SBD,M
