Name,Place,Division,Sex,Equipment,State,WeightClassKg,BodyweightKg,Age,Best3SquatKg,Squat4Kg,Best3BenchKg,Best3DeadliftKg,Deadlift4Kg,TotalKg,Event
Jordyn Schenk,1,Juniors 20-23,F,Raw,NY,52,50.53,21,105,,55,127.5,,287.5,SBD
Rachael Bielmeir,2,Juniors 20-23,F,Raw,NY,52,51.53,20,100,,52.5,112.5,,265,SBD
Tonie Ruttkiewicz,1,Juniors 13-15,F,Raw,NY,60,59.15,13,80,,42.5,107.5,,230,SBD
Juliana Colwell,2,Juniors 13-15,F,Raw,NY,60,59.6,13,62.5,,32.5,92.5,,187.5,SBD
Victoria Nehls,1,Juniors 18-19,F,Raw,NY,60,59.6,19,82.5,,45,112.5,,240,SBD
Amanda Gearhert,1,Open,F,Raw,NY,56,55.43,28,57.5,,42.5,105,,205,SBD
Allison Scrivo,1,Open,F,Raw,NY,67.5,66.68,25,97.5,,65,137.5,,300,SBD
Tracy Waterhouse,2,Open,F,Raw,NY,67.5,66.77,30,95,,62.5,125,,282.5,SBD
Donna Burke,3,Open,F,Raw,NY,67.5,66.04,45,87.5,,57.5,105,,250,SBD
Chelsea Gifford,4,Open,F,Raw,NY,67.5,63.68,25,70,,40,100,,210,SBD
Heather Pray,1,Open,F,Raw,NY,75,70.94,42,100,,65,140,,305,SBD
Riki Napiorkowski,1,Open,F,Raw,NY,82.5,77.84,27,122.5,,65,150,,337.5,SBD
Nichole Mombrea,2,Open,F,Raw,NY,82.5,82.37,39,92.5,,42.5,142.5,,277.5,SBD
Michelle Wynia,3,Open,F,Raw,NY,82.5,80.65,30,82.5,,47.5,122.5,,252.5,SBD
Niki Rodo,4,Open,F,Raw,NY,82.5,81.56,28,92.5,,50,107.5,,250,SBD
Crystal Smith,1,Open,F,Raw,NY,90,82.55,32,92.5,,57.5,122.5,,272.5,SBD
Alaine Barrea,2,Open,F,Raw,NY,90,89.18,28,75,,52.5,117.5,,245,SBD
Melissa Koser,1,Open,F,Raw,NY,90+,102.97,31,152.5,,77.5,182.5,,412.5,SBD
Colleen Lauzonhis,1,Submasters 35-39,F,Raw,NY,67.5,64.41,38,92.5,,60,142.5,,295,SBD
Everly Blank,2,Submasters 35-39,F,Raw,NY,67.5,64.41,34,95,,60,125,,280,SBD
Suzanne Jeffers,3,Submasters 35-39,F,Raw,NY,67.5,67.13,37,87.5,,55,100,,242.5,SBD
Kelly Colwell,1,Submasters 35-39,F,Raw,NY,75,74.66,37,75,,42.5,100,,217.5,SBD
Mary Pat Maloney,1,Submasters 35-39,F,Raw,NY,82.5,81.65,36,115,,60,157.5,,332.5,SBD
Tammy Whitmer,1,Masters 40-44,F,Raw,NY,60,59.87,42,80,,50,105,,235,SBD
Donna Burke,1,Masters 45-49,F,Raw,NY,67.5,66.04,45,87.5,,57.5,105,,250,SBD
Theresa Drzewiecki,1,Masters 60-64,F,Raw,NY,67.5,66.41,62,45,,35,92.5,,172.5,SBD
Heather Pray,1,Masters 40-44,F,Raw,NY,75,70.94,42,100,,65,140,,305,SBD
Susan Prisco,1,Masters 40-44,F,Raw,NY,82.5,77.47,44,62.5,,47.5,85,,195,SBD
Angelique Schweikowsky,1,Masters 40-44,F,Raw,NY,90+,114.49,43,102.5,,55,115,,272.5,SBD
Jake Copani,1,Juniors 20-23,M,Raw,NY,60,59.96,21,200,,127.5,235,,562.5,SBD
Jorian Holka,1,Juniors 16-17,M,Raw,NY,75,74.03,17,157.5,,107.5,195,198,460,SBD
Albert Marcantonio,1,Juniors 18-19,M,Raw,NY,75,74.57,19,175,,125,215,,515,SBD
John Tobin,2,Juniors 18-19,M,Raw,NY,75,74.57,19,182.5,,120,192.5,,495,SBD
Brian Fry,1,Juniors 20-23,M,Raw,NY,82.5,82.37,20,220,,105,237.5,,562.5,SBD
Ben Pearson,2,Juniors 20-23,M,Raw,NY,82.5,80.65,21,142.5,,107.5,210,,460,SBD
Michael Mobus,1,Juniors 20-23,M,Raw,NY,90,89.63,22,250,,182,250,,682,SBD
John Sakalian,1,Juniors 20-23,M,Raw,NY,100,96.52,21,177.5,,122.5,220,,520,SBD
Sean Casilio,1,Juniors 20-23,M,Raw,NY,110,108.68,23,200,,127.5,270,,597.5,SBD
Derek Winans,1,Open,M,Raw,NY,52,51.98,28,122.5,,100,182.5,,405,SBD
Jake Copani,1,Open,M,Raw,NY,60,59.96,21,200,,127.5,235,,562.5,SBD
Joseph Rebensky,1,Open,M,Raw,NY,75,73.75,24,167.5,,145,197.5,,510,SBD
Jorian Holka,2,Open,M,Raw,NY,75,74.03,17,157.5,,107.5,195,198,460,SBD
Tyler Magliazo,1,Open,M,Raw,NY,82.5,81.37,24,220,,150,255,,625,SBD
Alex Delle Bovi,2,Open,M,Raw,NY,82.5,82.1,26,207.5,,155,260,,622.5,SBD
Joshua Hunt,3,Open,M,Raw,NY,82.5,82.19,32,200,,162.5,235,,597.5,SBD
Salvatore Christopher,4,Open,M,Raw,NY,82.5,81.37,32,195,,157.5,237.5,,590,SBD
Rob Blickenstaff,5,Open,M,Raw,NY,82.5,81.37,25,190,,152.5,240,,582.5,SBD
Mike Mobus,1,Open,M,Raw,NY,90,89.63,22,250,,182.5,250,,682.5,SBD
Adam Miller #3,2,Open,M,Raw,NY,90,87.27,34,240,,150,257.5,,647.5,SBD
Nick Duchscherer,3,Open,M,Raw,NY,90,86.73,28,237.5,,152.5,245,,635,SBD
Jason Cwanek,4,Open,M,Raw,NY,90,88.09,28,212.5,,132.5,272.5,,617.5,SBD
Josh Foldare,DQ,Open,M,Raw,NY,90,88.54,26,180,,-132.5,,,,SBD
Jason Domingo,1,Open,M,Raw,NY,100,98.34,32,215,,175,285,,675,SBD
Jason Behnke,2,Open,M,Raw,NY,100,97.7,27,217.5,,142.5,242.5,,602.5,SBD
Ryan Ballentine,3,Open,M,Raw,NY,100,94.98,27,60,,95,145,,300,SBD
Luigi Fagiani,1,Open,M,Raw,NY,110,104.96,24,292.5,,197.5,350,,840,SBD
Greg Kubek,2,Open,M,Raw,NY,110,106.41,33,205,,137.5,240,,582.5,SBD
Ryan King #3,3,Open,M,Raw,NY,110,108.77,24,192.5,,105,247.5,,545,SBD
Bill Trudell,1,Masters 50-54,M,Raw,NY,82.5,81.65,54,135,145,85,195,,415,SBD
Bob Doll,1,Masters 70-74,M,Raw,NY,82.5,82.46,71,62.5,,70,130,,262.5,SBD
Robert Ballentine,1,Masters 55-59,M,Raw,NY,110,108.14,58,112.5,,115,142.5,,370,SBD
Thomas Stevenson,1,Masters 55-59,M,Raw,NY,140,129.18,58,185,,80,175,,440,SBD
Quinn Stevenson,1,Juniors 13-15,M,Wraps,NY,82.5,76.93,13,105,,55,115,,275,SBD
Michael Diletti,1,Juniors 20-23,M,Wraps,NY,100,99.06,22,210,,155,60,,425,SBD
Tyler Reasinger,1,Juniors 20-23,M,Raw,NY,125,121.47,23,257.5,,142.5,317.5,,717.5,SBD
Steve Decker,1,Open,M,Wraps,NY,75,74.48,29,212.5,,125,230,,567.5,SBD
Chris Sullivan,1,Open,M,Wraps,NY,90,87.54,26,247.5,,152.5,237.5,,637.5,SBD
Bruce Colwell,1,Open,M,Wraps,NY,100,99.16,38,200,,160,252.5,,612.5,SBD
Christopher Kuchta,2,Open,M,Wraps,NY,100,90.9,21,192.5,,147.5,227.5,,567.5,SBD
Michael Diletti,3,Open,M,Wraps,NY,100,99.06,22,210,,155,60,,425,SBD
Tyler Reasinger,1,Open,M,Wraps,NY,125,121.47,23,257.5,,142.5,317.5,,717.5,SBD
Bruce Colwell,1,Submasters 35-39,M,Wraps,NY,100,99.16,38,200,,160,252.5,,612.5,SBD
Paul Emmick,1,Open,M,Multi-ply,NY,110,109.41,28,365,,227.5,342.5,,935,SBD
Gina Battaglia,1,Open,F,Raw,NY,60,59.87,27,,,50,,,50,B
Lindsay Lewis,1,Open,F,Raw,NY,90,85.37,27,,,62.5,,,62.5,B
Becky Black,1,Open,F,Raw,NY,90+,108.95,38,,,55,,,55,B
Sarah Gravino,1,Submasters 35-39,F,Raw,NY,56,54.07,36,,,60,,,60,B
Becky Black,1,Submasters 35-39,F,Raw,NY,90+,108.95,38,,,55,,,55,B
Holly Klimowicz,2,Submasters 35-39,F,Raw,NY,90+,95.25,38,,,30,,,30,B
Dana Deluke,1,Masters 40-44,F,Raw,NY,56,54.52,42,,,40,,,40,B
Vicki Mehr,1,Masters 60-64,F,Raw,NY,56,53.89,60,,,35,,,35,B
Christa Ciccone,1,Masters 40-44,F,Raw,NY,75,74.21,42,,,87.5,,,87.5,B
Heather Nesic,1,Masters 40-44,F,Raw,NY,90+,107.23,43,,,82.5,,,82.5,B
Mary Walek,1,Masters 60-64,F,Raw,NY,90+,105.41,63,,,42.5,,,42.5,B
Blake Schweikowsky,1,Juniors 13-15,M,Raw,NY,110,108.05,14,,,50,,,50,B
Mitchell Collard,1,Open,M,Raw,NY,90,89.36,27,,,150,,,150,B
Jim Phraner,1,Open,M,Raw,NY,110,109.23,30,,,227.5,,,227.5,B
Joel Reed,1,Submasters 35-39,M,Raw,NY,90,88.54,37,,,165,,,165,B
Robert Schurr,1,Masters 45-49,M,Raw,NY,100,98.7,49,,,145,,,145,B
Paul Bencal,1,Masters 65-69,M,Raw,NY,110,106.41,66,,,120,,,120,B
Joe Hall,1,Masters 45-49,M,Raw,NY,140+,143.06,47,,,182.5,,,182.5,B
Jim Phraner,1,Open,M,Single-ply,NY,110,109.23,30,,,330,,,330,B
Lindsay Lewis,1,Open,F,Raw,NY,90,85.37,27,,,,150,,150,D
Becky Black,1,Open,F,Raw,NY,90+,108.95,38,,,,97.5,,97.5,D
Sarah Gravino,1,Submasters 35-39,F,Raw,NY,56,54.07,36,,,,102.5,,102.5,D
Becky Black,1,Submasters 35-39,F,Raw,NY,90+,108.95,38,,,,97.5,,97.5,D
Holly Klimowicz,2,Submasters 35-39,F,Raw,NY,90+,95.25,38,,,,67.5,,67.5,D
Wendy Belica,1,Masters 50-54,F,Raw,NY,52,51.98,51,,,,147.5,,147.5,D
Vicki Mehr,1,Masters 60-64,F,Raw,NY,56,55.79,60,,,,102.5,,102.5,D
Mary Walek,1,Masters 60-64,F,Raw,NY,90+,105.41,63,,,,102.5,,102.5,D
Paul Lane,1,Juniors 20-23,M,Raw,NY,90,86.36,22,,,,272.5,,272.5,D
Blake Schweikowsky,1,Juniors 13-15,M,Raw,NY,110,108.05,14,,,,105,,105,D
Derek Winans,1,Open,M,Raw,NY,52,51.98,28,,,,182.5,,182.5,D
Tyler Magliazo,1,Open,M,Raw,NY,82.5,81.37,24,,,,255,,255,D
Mitchell Collard,1,Open,M,Raw,NY,90,89.36,27,,,,265,,265,D
Paul Bencal,1,Masters 65-69,M,Raw,NY,110,106.41,66,,,,230,,230,D
