Division,WeightClassKg,Place,Name,Team,BodyweightKg,Best3SquatKg,Best3BenchKg,Best3DeadliftKg,TotalKg,Equipment,Event,Sex
Boys,51.71,1,Angel Garcia,Edinburg Idea College Prep,51.71,158.76,97.52,158.76,415.04,Single-ply,SBD,M
Boys,51.71,2,Victor Vidal,Pharr Valley View,51.26,120.2,68.04,138.35,326.59,Single-ply,SBD,M
Boys,51.71,3,Daniel Jeronimo,Hidalgo Early College,50.71,124.74,52.16,124.74,301.64,Single-ply,SBD,M
Boys,55.79,1,Tyler Salazar,Donna,55.79,172.37,102.06,170.1,444.52,Single-ply,SBD,M
Boys,55.79,2,Marco Pina,Donna North,55.34,154.22,102.06,163.29,419.57,Single-ply,SBD,M
Boys,55.79,3,Matthew Morales,Edinburg Quest College Prep,55.16,147.42,88.45,174.63,410.5,Single-ply,SBD,M
Boys,55.79,4,Benito Olivarez,Edcouch-Elsa,55.79,136.08,83.91,165.56,385.55,Single-ply,SBD,M
Boys,55.79,5,Daniel García,Edinburg Quest College Prep,55.79,120.2,83.91,147.42,351.53,Single-ply,SBD,M
Boys,55.79,6,Diego Gonzalez,Mercedes,55.79,120.2,79.38,136.08,335.66,Single-ply,SBD,M
Boys,55.79,7,Marc Sedillo,San Benito,52.16,127.01,65.77,136.08,328.85,Single-ply,SBD,M
Boys,59.87,1,Ricky Ortiz,Edcouch-Elsa,59.87,183.7,104.33,204.12,492.15,Single-ply,SBD,M
Boys,59.87,2,Marcus Ysaguirre,Donna,59.87,167.83,95.25,167.83,430.91,Single-ply,SBD,M
Boys,59.87,3,Christian Garcia,San Benito,58.97,158.76,90.72,176.9,426.38,Single-ply,SBD,M
Boys,59.87,4,Joshua Martinez,Hidalgo Early College,58.79,156.49,86.18,163.29,405.97,Single-ply,SBD,M
Boys,59.87,5,Andrew Nevarez,Edinburg Idea College Prep,59.6,161.03,86.18,158.76,405.97,Single-ply,SBD,M
Boys,59.87,6,Aaron Lozano,Edinburg Quest College Prep,59.24,145.15,65.77,167.83,378.75,Single-ply,SBD,M
Boys,59.87,7,Edwin Garcia,Pharr Valley View,59.42,147.42,81.65,145.15,374.21,Single-ply,SBD,M
Boys,59.87,DQ,Barajas Mike,Hidalgo Early College,58.51,219.99,,,,Single-ply,SBD,M
Boys,59.87,DQ,Miguel Tovar,Donna North,59.42,161.03,,,,Single-ply,SBD,M
Boys,67.13,1,Bryan Rodriguez,La Joya Juarez-Lincoln,62.41,197.31,97.52,185.97,480.81,Single-ply,SBD,M
Boys,67.13,2,Leo Cuellar,Pharr Valley View,65.32,183.7,108.86,183.7,476.27,Single-ply,SBD,M
Boys,67.13,3,Anthony de Leon,Edinburg Quest College Prep,67.13,156.49,102.06,190.51,449.06,Single-ply,SBD,M
Boys,67.13,4,David Belland,Edinburg Idea College Prep,66.86,167.83,92.99,181.44,442.25,Single-ply,SBD,M
Boys,67.13,5,Marcos Chavez,Donna,66.22,167.83,95.25,170.1,433.18,Single-ply,SBD,M
Boys,67.13,6,Ruben Garza,Donna North,66.22,149.69,106.59,174.63,430.91,Single-ply,SBD,M
Boys,67.13,7,Carlos Sanchez,San Benito,67.13,149.69,102.06,167.83,419.57,Single-ply,SBD,M
Boys,67.13,8,Joe Colunga,Mercedes,63.05,149.69,97.52,142.88,390.09,Single-ply,SBD,M
Boys,67.13,9,Edgardo Godoy,Edinburg Quest College Prep,64.77,127.01,83.91,142.88,353.8,Single-ply,SBD,M
Boys,67.13,10,Edgar Conde,Pharr Valley View,64.64,117.93,65.77,133.81,317.51,Single-ply,SBD,M
Boys,74.84,1,Adam Walle,Edcouch-Elsa,73.84,226.8,113.4,219.99,560.19,Single-ply,SBD,M
Boys,74.84,2,Richard Reza,San Benito,74.39,197.31,124.74,229.06,551.11,Single-ply,SBD,M
Boys,74.84,3,Jorge Cavazos,Mercedes,72.12,217.72,131.54,199.58,548.85,Single-ply,SBD,M
Boys,74.84,4,Jason Navaro,San Benito,73.94,192.78,113.4,204.12,510.29,Single-ply,SBD,M
Boys,74.84,5,Arath Martinez,Donna North,73.03,181.44,106.59,185.97,474,Single-ply,SBD,M
Boys,74.84,6,Armando Ayala,Pharr Valley View,68.95,165.56,86.18,163.29,415.04,Single-ply,SBD,M
Boys,74.84,7,Luis Cuellar,Pharr Valley View,72.57,106.59,72.57,136.08,315.25,Single-ply,SBD,M
Boys,82.1,1,Andres Hernandez,Hidalgo Early College,81.37,251.74,147.42,247.21,646.37,Single-ply,SBD,M
Boys,82.1,2,Joel Garcia,Pharr Valley View,82.1,240.4,108.86,229.06,578.33,Single-ply,SBD,M
Boys,82.1,3,Michael Valle,Hidalgo Early College,82.1,219.99,120.2,222.26,562.45,Single-ply,SBD,M
Boys,82.1,4,Mars Morales,San Benito,80.83,192.78,120.2,208.65,521.63,Single-ply,SBD,M
Boys,82.1,5,Angel Lopez,Donna North,80.29,204.12,127.01,183.7,514.83,Single-ply,SBD,M
Boys,82.1,6,Juan Rojas,Donna,82.1,199.58,108.86,201.85,510.29,Single-ply,SBD,M
Boys,82.1,7,Miguel Morones,Edcouch-Elsa,79.02,181.44,111.13,195.04,487.61,Single-ply,SBD,M
Boys,82.1,8,Eric Hinojosa,Mercedes,80.01,181.44,117.93,188.24,487.61,Single-ply,SBD,M
Boys,82.1,9,Jesse Garza,Edcouch-Elsa,78.47,192.78,108.86,183.7,485.34,Single-ply,SBD,M
Boys,82.1,10,Andrew Lozano,Edinburg Quest College Prep,82.1,185.97,102.06,190.51,478.54,Single-ply,SBD,M
Boys,82.1,11,Eddie Flores,Mercedes,78.29,170.1,97.52,174.63,442.25,Single-ply,SBD,M
Boys,82.1,12,Jose Guzman,Donna,78.38,154.22,74.84,145.15,374.21,Single-ply,SBD,M
Boys,82.1,DQ,Gabreil Chavez,Donna,81.65,,,,,Single-ply,SBD,M
Boys,89.81,1,Fernando Hernandez,La Joya Juarez-Lincoln,89.09,256.28,154.22,256.28,666.78,Single-ply,SBD,M
Boys,89.81,2,Ernesto Preciado,Pharr Valley View,88.45,233.6,156.49,233.6,623.69,Single-ply,SBD,M
Boys,89.81,3,Isaac Aleman,Hidalgo Early College,89.81,219.99,136.08,229.06,585.13,Single-ply,SBD,M
Boys,89.81,4,Carlo Vargas,Donna North,84.82,215.46,122.47,238.14,576.06,Single-ply,SBD,M
Boys,89.81,5,Hector Palencia,Donna,89.18,219.99,102.06,192.78,514.83,Single-ply,SBD,M
Boys,89.81,6,Ryan Perales,Donna,88.99,199.58,124.74,181.44,505.76,Single-ply,SBD,M
Boys,89.81,7,Aaron Vela,Edinburg Quest College Prep,89.81,167.83,120.2,181.44,469.47,Single-ply,SBD,M
Boys,89.81,8,Uriel Aguilar,Pharr Valley View,87.09,192.78,106.59,165.56,464.93,Single-ply,SBD,M
Boys,89.81,9,Anthony Yenscencio,Donna,88,142.88,90.72,156.49,390.09,Single-ply,SBD,M
Boys,89.81,DQ,Issac Rangel,Donna,89.81,,,,,Single-ply,SBD,M
Boys,99.79,1,Lazaro Bernabe,Hidalgo Early College,98.07,258.55,131.54,229.06,619.15,Single-ply,SBD,M
Boys,99.79,2,Julio Cardona,Edcouch-Elsa,95.25,249.48,151.95,204.12,605.55,Single-ply,SBD,M
Boys,99.79,3,Aaron Vasquez,Edcouch-Elsa,99.79,226.8,149.69,226.8,603.28,Single-ply,SBD,M
Boys,99.79,4,Israel Cerda,Donna North,97.98,229.06,142.88,199.58,571.53,Single-ply,SBD,M
Boys,99.79,5,Isaac de Anda,Edcouch-Elsa,99.7,240.4,102.06,226.8,569.26,Single-ply,SBD,M
Boys,99.79,6,Eric Curiel,San Benito,97.52,201.85,115.67,215.46,532.97,Single-ply,SBD,M
Boys,109.77,1,Juan Martinez,Donna North,107.95,319.78,163.29,294.84,777.91,Single-ply,SBD,M
Boys,109.77,2,Cody Alvarado,Edcouch-Elsa,109.77,294.84,158.76,256.28,709.87,Single-ply,SBD,M
Boys,109.77,3,Aliver Chapa,La Joya Juarez-Lincoln,107.05,235.87,158.76,226.8,621.42,Single-ply,SBD,M
Boys,109.77,4,Gilbert Romero,La Joya Juarez-Lincoln,101.7,242.67,151.95,215.46,610.08,Single-ply,SBD,M
Boys,109.77,5,Miguel Perales,Donna North,109.77,226.8,149.69,197.31,573.79,Single-ply,SBD,M
Boys,109.77,6,Rogelio Rada,Donna,105.69,195.04,163.29,188.24,546.58,Single-ply,SBD,M
Boys,109.77,7,Angel Guiterrez,Pharr Valley View,108.86,210.92,120.2,204.12,535.24,Single-ply,SBD,M
Boys,109.77,8,Sergio Pena,Edinburg Quest College Prep,102.15,183.7,92.99,174.63,451.32,Single-ply,SBD,M
Boys,109.77,9,John Jay Velasquez,Edinburg Quest College Prep,107.05,136.08,106.59,170.1,412.77,Single-ply,SBD,M
Boys,109.77,DQ,Jarek Gonzalez,Hidalgo Early College,106.59,238.14,,,,Single-ply,SBD,M
Boys,124.74,1,Jorge Soto,Edcouch-Elsa,124.74,285.76,192.78,240.4,718.94,Single-ply,SBD,M
Boys,124.74,2,Chris Vargas,San Benito,124.74,233.6,142.88,222.26,598.74,Single-ply,SBD,M
Boys,124.74,3,Miguel Rodriguez,Edcouch-Elsa,124.74,249.48,129.27,204.12,582.87,Single-ply,SBD,M
Boys,124.74,4,Ramon Sánchez,Hidalgo Early College,124.74,224.53,127.01,213.19,564.72,Single-ply,SBD,M
Boys,124.74,5,Enrique Guajardo,Pharr Valley View,113.4,219.99,124.74,208.65,553.38,Single-ply,SBD,M
Boys,124.74,6,Gerano Cantu,Pharr Valley View,114.31,183.7,104.33,156.49,444.52,Single-ply,SBD,M
Boys,124.74,DQ,Danny Melendez,Mercedes,124.74,267.62,,,,Single-ply,SBD,M
Boys,124.74+,1,Eli Olivo,Donna North,142.43,351.53,222.26,272.16,845.95,Single-ply,SBD,M
Boys,124.74+,2,Hector Garcia,San Benito,148.78,242.67,136.08,231.33,610.08,Single-ply,SBD,M
Boys,124.74+,3,Isaac Olvera,Donna North,146.51,233.6,127.01,199.58,560.19,Single-ply,SBD,M
Boys,124.74+,4,Nepoleon Garza,Hidalgo Early College,155.13,226.8,133.81,195.04,555.65,Single-ply,SBD,M
Boys,124.74+,DQ,Hector De Jesus,San Benito,125.46,,,,,Single-ply,SBD,M
Boys,,NS,Shehryar Khursheed,Edinburg Quest College Prep,,,,,,Single-ply,SBD,M
Boys,,NS,Jackson Littles,Edinburg Idea College Prep,,,,,,Single-ply,SBD,M
Boys,,NS,Josh DeLeon,Edinburg Quest College Prep,,,,,,Single-ply,SBD,M
