﻿                             ИТОГОВЫЕ ПРОТОКОЛЫ
                  ПЕРВЕНСТВА РОССИИ СРЕДИ ЮНИОРОВ ПО ПАУЭРЛИФТИНГУ
                 3 – 6 апреля 2003 г         г. Красноярск ДС им.И.Ярыгина
                           весовая категория 52 кг
1.Данилов Константин/86     52.00   Иркутская, Тулун           200.0   100.0   190.0   490.0 +МСМК   Жданов Н.
2.Исаев Иван/80             51.90   Самарская, Самара          170.0   120.0   162.5   452.5 +МС     Балашов В.
3.Петин Денис/83            51.25   Новосибирская, Барабинск   170.0   110.0   160.0   440.0  КМС    Болдин С.
4.Горкуша Виктор/87         52.00   Красноярский, Зеленогорск  160.0   115.0   160.0   435.0  КМС    Чекуш С.
5.Таланкин Владимир/85      50.25   Кемеровская, Кемерово      172.5    82.5   170.0   425.0  КМС    Валетский И.
6.Таватстшерна Артём/85     51.95   Калининградская, Мамоново  165.0   100.0   160.0   425.0  КМС    Гузенко А., Прокофьева О.
7.Корсункин Вячеслав/86     51.65   Томская, Северск           162.5    97.5   160.0   420.0  КМС    Шулдяков Ф.
Весовая категория 56кг
1.Петроченко Виталий/82     55.65   Иркутская, Иркутск         217.5   135.0   212.5   565.0  МСМК   Деханов А., Теслева С.
2.Тягушев Максим/81         55.35   Хабаровский, Хабаровск     210.0   120.0   220.0   545.0 +МСМК   Коршунов, Чернышов
3.Бычаев Евгений/85         56.00   Кемеровская, Белово        195.0   142.5   205.0   542.5 +МСМК   Алсуфьев Ю., Титов Э.
4.Пеньков Александр/86      55.85   Орловская, Орёл            222.5   122.5   195.0   540.0 +МСМК   Мишин Н., Ушаков А.
5.Каримов Евгений/83        55.95   Красноярский, Зеленогорск  190.0   130.0   190.0   510.0  МС     Чешук С.
6.Ильин Алексей/80          55.05   Читинская, Чита            180.0   110.0   190.0   480.0  КМС    Чернов В.
7.Красильников Антон/87     55.40   Томская, Томск             195.0   105.0   170.0   470.0  КМС    Зарапов В.
-.Буравов Михаил/86         55.80   ХМАО  Урай                 205.0   110.0  -210.0   0             Дунаев П.
                          весовая категория 60кг
1.Пеньков Михаил/83         59.05   Орловская, Орёл            225.0   127.5   207.5   560.0  МС     Мишин Н. Ушаков А.
2.Сотников Алексей/85       59.75   ХМАО Лангепас              210.0   120.0   222.5   552.5 +МС     Голубев Р.
3.Мощев Михаил/82           59.30   Брянская, Климово          200.0   135.0   215.0   550.0  МС     Ермаченко А.
4.Ушаков Евгений/82         59.85   Омская, Омск               210.0   110.0   230.0   550.0  МС     Те С.  Михеев В.
5.Польканов Андрей/83       59.95   Коми  Сыктывкар            207.5   117.5   210.0   535.0  МС     Маляренко А.
6.Капустин Александр/82     59.90   Иркутская, Братск          190.0   125.0   210.0   525.0  КМС    Мартышкин Ю.
7.Аксёненко Виталий/83      60.00   Кемеровская, Белово        215.0   107.5   195.0   517.5  КМС    Титов Э., Алсуфьев Ю.
8.Филатов Александр/80      59.70   Омская, Омск               205.0   107.5   200.0   512.5  КМС    Те С., Матук С.
9.Мухомедьянов Евгений/81   59.40   Красноярск                 192.5   122.5   187.5   502.5  КМС    Бычков К.
                          весовая категория 67.5кг
1.Меркулов Алексей/83       67.50   Алтайский, Барнаул         280.0   190.0   232.5   702.5  МСМК   Смищенко В.
2.Теплых Игорь/83           67.45   Башкортостан, Уфа          257.5   160.0   242.5   660.0 +МСМК   Гладких, Мухаматьянов Ф.
3.Черпинский Виктор/82      67.50   Красноярский  Боготол      250.0   162.5   235.0   647.5  МС     Кортунов В.
4.Звягинцев Андрей/80       63.35   Коми  Сыктывкар            247.5   160.0   237.5   645.0  МС     Маляренко А.
5.Одинцов Василий/84        67.30   Кировская, Киров           250.0   140.0   225.0   615.0  МС     Лекомцев А., ушков Р.
6.Валеев Альберт/83         67.30   Башкирия Нефтекамск        230.0   152.5   230.0   612.5  МС     Гильманов Р.
7.Смирнов Владимир/85       65.40   Кемеровская Новокузнецк    240.0   120.0   240.0   600.0  МС     Семёнов А.
8.Семёнов Дмитрий/83        67.10   Читинская, Чита            215.0   132.5   252.5   600.0 +МС     Чернов В.
9.Кочмарёв Денис/81         67.40   Томская, Томск             225.0   137.5   225.0   587.5  КМС    Зарянов В.
10.Санников Николай/83      67.40   Башкирия,  Месягутово      240.0   122.5   220.0   582.5  КМС    Гладков Д.
11.Гаранин Антон/86         67.25   Иркутская, Саянск          232.5   127.5   220.0   580.0  КМС    Котов А.
12.Величкович Евгений/85    66.95   Новосибирская, Куйбышев    215.0   137.5   225.0   577.5  КМС    Куликов А.
13.Чириков Александр/84     66.50   Томская, Северск           220.0   145.0   190.0   555.0  КМС    Расторгуев А.
-.Власов Алексей/81         65.75   Кемеровская, Новокузнецк   225.0   150.0  -200.0   0             Гуменный А.
-.Гнатюк Максим/82          67.40   Хабаровский, Хабаровск     252.5   152.5  -257.5   0             Андрейченко, Мулин
-.Кульков Павел/80          67.40   Москва                     260.0   147.5  -270.0   0             Буличев А. Косарев А.
-.Юрченко Иван/81           66.90   Коми  Сыктывкар            снят ГСК                              самост.
                          Весовая категория 75кг

1.Иваненко Дмитрий/81       73.65   Приморский, Владивосток    295.0   167.5   265.0   727.5  +МСМК  Ким В.
2.Эрнандес-Ортега Алексей/84 74.10  Владимирская, Владимир     280.0   187.5   245.0   712.5   МС    Храменков С.
3.Рябков Алексей/83         74.90   Иркутская  Иркутск         292.5   165.0   250.0   707.5   МС    Груздев П., Репин А.
4.Пинчук Антон/84           74.70   Амурская Благовещенск      260.0   185.0   252.5   697.5   МС    Лось С. Суров В.
5.Богданов Сергей/85        75.00   Алтайский Бийск            240.0   195.0   260.0   695.0  +МС    Смирнов А. Крылов С.
6.Камышный Максим/83        73.85   Хабаровский Хабаровск      250.0   175.0   250.0   675.0   МС    Коршунов, Чернышов
7.Попандо Евгений/80        74.85   Читинская Чита             250.0   165.0   245.0   660.0  +МС    Чернов В.
8.Иванов Александр/81       74.85   Красноярский Боготол       265.0   150.0   245.0   660.0   МС    Кортунов В.
9.Моглоев Борис/83          74.40   Бурятия  Улан-Уде          255.0   155.0   240.0   650.0  +МС    Колмаков В.
10.Шакуров Александр/83     74.50   Свердловская Новоуральск   265.0   147.5   237.5   650.0  +МС    Коркодинов В. Князев С.
11.Чурзин Сергей/81         74.50   Саратовская Балаково       250.0   157.5   242.5   650.0   МС    Ласориб А.
12.Курпенко Александр/82    74.70   ЯНАО Н.Уренгой             265.0   152.5   232.5   650.0  +МС    Мельник В.
13.Кириченко Алексей/82     74.80   Нижегородская Н.Новгород   255.0   145.0   250.0   650.0  +МС    Багров Н.
14.Ляпустин Виталий/85      74.90   Свердловская К-Уральск     255.0   147.5   240.0   642.5   КМС   Бикмулин Н.
15.Парфёнов Денис/86        73.95   Красноярский Назарово      245.0   175.0   215.0   635.0   КМС   Ратников В.
16.Турцын Анатолий/82       74.50   Новосибирская  Барабинск   250.0   127.5   250.0   627.5   КМС   Болдин С.
17.Белослюдцев Михаил/83    72.90   Томская  Томск             250.0   140.0   225.0   615.0   КМС   Заранов В.
18.Сарин Евгений/81         74.85   Кемеровская Л-Кузнецкий    240.0   145.0   230.0   615.0   КМС   Квиг В.
19.Марков Алексей/83        74.05   Новосибирская Новосибирск  220.0   130.0   200.0   550.0   КМС   Воловик А.
-.Никифоров Степан/81       74.55   Хабаровск                 -250.0   -----   ----    0             Андрейченко, Мулин
-.Коротыгин Артём/80        74.65   Башкирия  Уфа             -280.0   -----   ----    0             Кротов И. Шейко Б.

                          Весовая категория 82.5 кг
1.Лебеденко Константин/81   82.50   Иркутская  Иркутск         330.0   210.0   300.0   840.0   МСМК  Деханов А.,Теслева С.
2.Озеров Павел/80           79.30   Кемеровская Кемерово       305.0   215.0   295.0   815.0   МСМК  Журавлёв В., Козлов В.
3.Козловский Николай/81     82.30   Красноярский Лесосибирск   295.0   187.5   302.5   785.0  +МСМК  Черных А., Шадрин М
4.Жевтун Александр/80       79.75   Хабаровск                  300.0   175.0   307.5   782.5  +МСМК  Мулин В. Андрейченко А.
5.Заморников Вадим/82       82.00   Калужская Жуков            295.0   172.5   307.5   775.0  +МСМК  Никифоров Л.
6.Рябов Денис/83            81.50   Алтайский Бийск            300.0   180.0   270.0   750.0     МС  Смирнов А.
7.Смоляр Роман/83           81.95   Хабаровск                  290.0   180.0   277.5   747.5     МС  Щетина Б.
8.Пинский Роман/80          81.75   Приморский Владивосток     270.0   185.0   290.0   745.0     МС  Лаптинок П.
9.Кириченко Евгений/81      81.80   ХМАО  Нижневартовск        300.0   155.0   290.0   745.0     МС  Моров В. ,Помыткин С.
10.Пупышев Александр/82     81.60   Хабаровск                  290.0   180.0   270.0   740.0     МС  Пупышев Е.
11.Кошкин Александр/82      79.50   Алтайский Бийск            250.0   195.0   260.0   705.0     МС  Смирнов А.
12.Носарев Михаил/84        81.40   Свердловская К-Уральск     270.0   155.0   280.0   705.0    +МС  Бикмулин Н.
13.Рандин Николай/84        81.50   ХМАО Католым               282.5   170.0   250.0   702.5    +МС  Степаненко В.
14.Врублевский Евгений/81   79.10   Иркутская Иркутск          275.0   155.0   265.0   695.0     МС  Соболев И.
15.Щербаков Денис/82        81.20   Читинская  Чита            260.0   167.5   267.5   695.0    +МС  Чернов В.
16.Головинов Александр/83   82.10   Владимирская Владимир      270.0   157.5   240.0   667.5    КМС  Храменков С.
17.Семьянов Алексей/81      81.05   Новосибирск                260.0   145.0   250.0   655.0    КМС  Мандрыгин В.
18.Евдокимов Дмитрий/80     80.20   Самарская Н-Куйбышевск     230.0   132.5   255.0   617.5    КМС  Кононов В.
-.Кононов Александр/84      82.30   ЯНАО Н-Уренгой             275.0  -177.5   ----    0             самост.
-.Солонарь Виктор/84        82.20   ХМАО Лангепас              снят врачом                           Голубев Р.

УСТАНОВЛЕН ЮНИОРСКИЙ РЕКОРД РОССИИ: сумма троеборья – 840.0 – Лебедко К.
                            Весовая категория 90кг
1.Гановский Константин/82   89.85   Красноярск                 312.5   205.0   320.0   837.5    МСМК  Бычков А., Черных А.
2.Унт Максим/81             89.95   Новосибирск                320.0   182.5   315.0   817.5   +МСМК  Левченко Ю.
3.Зубок Максим/80           89.75   Хабаровск                  332.5   210.0   265.0   807.5   +МСМК  Щетина Б.
4.Исаков Павел/80           89.30   Новосибирск                320.0   185.0   300.0   805.0   +МСМК  Левченко Ю.
5.Коваленко Роман/80        89.75   Калужская, Калуга          332.5   155.0   310.0   797.5      МС  Чулков С.
6.Максимов Александр/84     88.55   Калужская, Калуга          310.0   177.5   300.0   787.5      МС  Цуканова Г., Цуканов В.
7.Ионов Андрей/84           89.35   Саратовская, Балаково      315.0   180.0   285.0   780.0      МС  Ласориб А.
8.Абдулкаримов Арсен/82     87.65   Ставрополь                 300.0   187.5   290.0   777.5      МС  Новаш В.
9.Салтыков Дмитрий/84       88.20   Башкирия, Уфа              310.0   185.0   280.0   775.0      МС  Алсуфьев Ю, Шейко Б.
10.Руднев Игорь/83          89.50   Красноярск                 287.5   200.0   280.0   767.5      МС  Вислоцкий С.
11.Поздеев Константин/84    87.00   Тульская Заокск            305.0   160.0   300.0   765.0      МС  Козырев С.
12.Подъяблонский Евгений/82 90.00   Кемеровская Л-Кузнецкий    297.5   182.5   285.0   765.0      МС  Квич О.
13.Карев Станислав/82       89.55   Хабаровск                  300.0   180.0   280.0   760.0      МС  Пупышев Е.
14.Колтаков Виктор/81       89.55   Читинская Чита             260.0   175.0   295.0   730.0     +МС  Чернов В.
15.Безпрозванных Евгений/81 87.35   Красноярск                 265.0   177.5   265.0   707.5     КМС  Румянцева Н.
16.Панков Андрей/86         88.55   ЯНАО Ноябрьск              275.0   175.0   240.0   690.0     КМС  Гороховский А.
УСТАНОВЛЕН ЮНИОРСКИЙ РЕКОРД РОССИИ: приседание – 332.5 – Зубков М
                                                 333.0 – Коваленко Р.
                           весовая категория 100 кг
1.Бутов Александр/81        99.50   Воронежская  Воронеж       360.0   225.0   335.0   920.0    МСМК  Бедняков А. Туриджев Г.
2.Руденко Владимир/81       99.45   Москва                     350.0   220.0   310.0   880.0    МСМК  Косарев С., Яровой 
3.Котенко Александр/81      99.70   Калужская, Жуков           360.0   187.5   312.5   860.0   +МСМК  Никифоров Л.
4.Филатов Егор/80           99.00   Новосибирск                320.0   177.5   350.0   647.5      МС  Ерлин А.
5.Гаврусик Роман/82         98.50   Красноярский, Норильск     320.0   212.5   290.0   822.5      МС  Ахмедов О.
6.Чанчиков Александр/80     97.70   Красноярск                 307.5   185.0   300.0   792.5      МС  Вислоцкий С.
7.Гильфанов Ильдар/82       99.40   Удмуртия, Сарапул          300.0   192.5   300.0   792.5      МС  Коростин Н.
8.Гуселетов Артём/81        91.50   Новосибирск                290.0   180.0   290.0   760.0      МС  Левченко Ю
9.Мусохранов Александр/80   95.85   Новосибирск                290.0   175.0   270.0   735.0     КМС  Левченко Ю.
10.Дмитриев Илья/84         99.45   Томская, Томск             265.0   175.0   265.0   705.0     КМС  Заранов В.
--.Михайлов Андрей/84       99.55   Иркутская, Иркутск         270.0   130.0  -240.0   0              Володько В.
                           весовая категория 110 кг
1.Котков Владимир/80       106.70   Владимирская, Мстера       360.0   227.5   330.0   917.5    МСМК  Иванов С., Багров Н.
2.Бухтояров Денис/80       106.60   Алтайский, Барнаул         350.0   210.0   330.0   890.0   +МСМК  Свидерских В.
3.Левченко Лев/81          103.30   Новосибирск                345.0   205.0   325.0   875.0   +МСМК  Левченко Ю.
4.Михайлов Станислав/80    105.30   Москва                     330.0   195.0   315.0   840.0      МС  Косарев С.
5.Нафиков Азат/82          109.80   ХМАО, Н-Вартовск           295.0   225.0   285.0   805.0     +МС  Мороз В., Полыткин
6.Загляда Алексей/83       104.95   Хабаровск                  320.0   207.5   272.5   800.0      МС  Коршунов В., Чернышов В.
7.Грицай Александр/84      107.15   ХМАО, Когалым              300.0   197.5   255.0   752.5     КМС  Степаненко В.
8.Мусихин Юрий/84          108.00   Кировская, Киров           290.0   172.5   275.0   737.5     КМС  Булычов Л.,Ушков Р.
                          весовая категория 125 кг
1.Медведев Игорь/85        111.20   Владимирская, Мстера       375.0   250.0   337.5   962.5    МСМК  Иванов С., Багров Н.
2.Мельников Роман/83       115.80   Владимирская, Владимир     340.0   215.0   270.0   825.0      МС  Храменков С.
3.Шпак Михаил/80           122.50   Новосибирск                320.0   190.0   290.0   800.0      МС  Воловик А.
4.Фокин Анатолий/82        122.70   Башкирия, Уфа              300.0   200.0   285.0   785.0     +МС  Охлюев Е., Гадиев Р.
5.Рахимов Дмитрий/80       124.00   Кемеровская, Л-Кузнецкий   302.5   207.5   275.0   785.0     +МС  Квич О.
6.Шевченко Алексей/82      112.00   Красноярск                 295.0   180.0   250.0   725.0     КМС  Бычков А.
УСТАНОВЛЕН ЮНИОРСКИЙ РЕКОРД РОССИИ: жим лёжа – 251.0; 255.0 – Медведев и.

                          Весовая категория +125 кг
1.Кибирев Антон/82        125.10    Хабаровск                  360.0   225.0   325.0   910.0      МС  Аксютин В.
2.Панков Алексей/83       125.80    ЯНАО, Ноябрьск             330.0   220.0   330.0   880.0      МС  Гороховский А.
3.Каштанов Александр/81   135.70    Башкирия, Уфа              335.0   227.5   300.0   862.5      МС  Гадиев Р.
4.Аксёнов Вячеслав/81     131.50    Калужская, Калуга          327.5   210.0   307.5   845.0      МС  Цуканов В., Федотов С.
5.Беликов Александр/82    131.60    Приморский, Владивосток    325.0   205.0   315.0   845.0      МС  Лаптенок П.
6.Скачков Дмитрий/82      142.00    ХМАО, Советский            335.0   210.0   300.0   845.0      МС  Терентьев Г., Скачков Л.
7.Дрянов Денис/84         126.00    Читинская, Чита            300.0   210.0   300.0   810.0     +МС  Чернов В.
8.Сараханов Константин/81 140.30    Свердловская, Лесной       285.0   185.0   230.0   700.0     КМС  Сапатов Д.
9.Плохотюк Сергей/84      131.00    Иркутская, Иркутск         200.0   107.5   195.0   502.5      1ю  Деханов А., Теслева С.

                          АБСОЛЮТНОЕ ПЕРВЕНСТВО
1.Медведев Игорь         Владимирская, Боготол     125     962.5   564.60
2.Лебеденко Константин   Иркутская     Иркутск     82.5    840.0   563.34
3.Бутов Александр        Воронежская   Воронеж     100     920.0   561.01
4.Коротков Владимир      Владимирская  Мстера      110     917.5   542.27
5.Меркулов Алексей       Алтайский  Барнаул        67.5    702.5   541.62
6.Гановский Константин   Красноярский Красноярск   90      837.5   535.12
7.Иваненко Дмитрий       Приморский  Владивосток   75      727.5   525.07
8.Кибирев Антон          Хабаровский  Хабаровск    +125    910.0   518.51
9.Петроченко Виталий     Иркутская    Иркутск      56      565.0   517.54
10.Пеньков Михаил        Орловская  Орёл           60      560.0   484.68
11.Данилов Константин    Иркутская  Тулун          52      490.0   480.83

                          КОМАНДНОЕ ПЕРВЕНСТВО
1.Иркутская       - 51        12.Томская        - 20     23.Амурская         - 7                                                                         
2.Красноярский    - 47        13.Орловская      - 19     24.Свердловская     - 6   
3.Новосибирская   - 47        14.Читинская      - 18     25.Калининградская  - 5
4.Хабаровский     - 44        15.Москва         - 16     26.Саратовская      - 5
5.Владимирская    - 43        16.Коми           - 13     27.Удмуртия         - 4
6.Алтайский       - 39        17.Воронежская    - 12     28.Ставропольский   - 3
7.Кемеровская     - 37        18.ЯНАО           - 11     29.Бурятия          - 2
8.Калужская       - 33        19.Самарская      - 10     30.Нижегородская    - 1 
9.Башкирия        - 31        20.Омская         - 10     31.Тульская         - 1 
10.ХМАО           - 29        21.Кировская      -  9
11.Приморский     - 25        22.Брянская       -  8

Участвовало 132 участника из 58 городов России 31 территорий
МСМК было: 13. Выполнило норматив: 24 (15 впервые)
МС было:   69. Выполнили норматив: 64 (17 впервые)

Главный судья соревнований        Ходосевич Г.В.    МК  г.Красноярск
Главный секретарь соревнований    Бычков А.Н.       НК  г.Красноярск

﻿                              ИТОГОВЫЕ ПРОТОКОЛЫ
                 ПЕРВЕНСТВА РОССИИ СРЕДИ ЮНИОРОВ ПО ПАУЭРЛИФТИНГУ
                 3 – 6 апреля 2003 г.   г.Красноярск  ДС им. Ярыгина

                            весовая категория 44 кг
1.Верменюк Валентина/86   43.60   Кемеровская, Белово       125.0    65.0   142.5   332.5  +МСМК  Титов Э., Алсуфьев Ю. 
2.Задорина Яна/82         44.00   Кемеровская, Белово       137.5    72.5   122.5   332.5  +МСМК  Титов Э., Алсуфьев Ю.
3.Неверова Елена/81       43.60   Алтайский, Барнаул        120.0    70.0   127.5   317.5  +МСМК  Смищенко В.
4.Глазова Марина/82       42.15   Омская, Омск              122.5    55.0   130.0   307.5  +МСМК  Те С.
5.Савченко Татьяна/81     40.95   Иркутская, Саянск         117.5    47.5   115.0   280.0     МС  Щербак Д,Ольховая А. 
6.Фёдорова Татьяна/85     43.45   Красноярск                100.0    40.0    95.0   235.0     КМС Вислоцкий
                            весовая категория 48 кг
1.Токарева Наталья/84     48.00   Кемеровская, Л-Кузнецкий  160.0    72.5   132.5   365.0   МСМК  Деревянко И., Кротов И.
2.Ваганова Надежда/83     47.50   Алтайский, Барнаул        130.0    85.0   125.0   340.0  +МСМК  Смищенко В.
3.Мазилова Наталья/86     47.25   Томская, Северск          132.5    62.5   140.0   335.0   МСМК  Расторгуев Н.
4.Соковнина Оксана/86     46.80   Кемеровская, Л-Кузнецкий  135.0    77.5   120.0   332.5  +МСМК  Небаев М. 
5.Борисова Инна/83        48.00   Иркутская, Иркутск        117.5    60.0   130.0   307.5     МС  Груздев П., Деханов А.
6.Шайнова Екатерина/81    46.90   Коми, Сыктывкар           115.0    57.5   127.5   300.0     МС  Агалаков Ю.
7.Королёва Татьяна/86     47.30   Удмуртия, Ижевск          120.0    50.0   125.0   295.0    +МС  Асанов Э.
8.Серебрякова Елена/84    47.80   Свердловская, Лесной      120.0    57.5   110.0   287.5    +МС  Хараузов А.
9.Марченко Анастасия/86   47.70   Иркутская, Саянск         110.0    50.0   110.0   270.0    +МС  Котов А.
10.Рогожникова Татьяна/82 47.60   Красноярск                107.5    47.5   110.0   265.0    КМС  Бычков А.Н.
11.Нефёдова Анастасия/81  47.70   Свердловская, Лесной      107.5    50.0   105.0   262.5    КМС  Хараузов А.
                            весовая категория 52 кг
1.Таирова Инна/80         51.95   Красноярский, Енисейск    170.0    95.0   170.0   435.0   МСМК  Таиров С.
2.Рыжкова Анна/86         51.70   Самарская, Н-Куйбышевск   175.0    85.0   155.0   415.0   МСМК  Кононов В.
3.Грачёва Оксана/80       52.00   Тульская, Тула            147.5    55.0   157.5   360.0  +МСМК  Жихарев И.
4.Суворова Ирина/82       51.60   Омская, Омск              150.0    55.0   135.0   340.0     МС  Матук С.
5.Ланкина Виктория/84     51.55   Иркутская, Иркутск        125.0    65.0   135.0   325.0     МС  Теслева С., Деханов А.
6.Назарова Лидия/84       51.75   Коми, Сыктывкар           122.5    70.0   122.5   315.0     МС  Маляренко А.
                             весовая категория 56 кг
1.Полетаева Ирина/82      56.00   Кемеровская, Л-Кузнецкий  175.0   122.5   175.0   472.5   МСМК  Писарев И.
2.Павловская Кира/83      55.35   Кемеровская, Кемерово     180.0    92.5   180.0   452.5   МСМК  Валетский И. Тимошенко А.
3.Устинова Ольга/84       55.60   Красноярск                175.0    85.0   160.0   420.0   МСМК  Ходосевич Г.
4.Усова Оксана/82         55.85   Красноярск                172.5    95.0   150.0   417.5   МСМК  Бычков А.Н.
5.Меньшина Алёна/84       55.30   Иркутская, Иркутск        165.0    85.0   160.0   410.0   МСМК  Орехова И., Соболев И.
6.Муратова Анна/83        55.30   Красноярск                160.0    80.0   150.0   390.0   МСМК  Ходосевич Г.
7.Иняева Юлия/82          55.60   Нижегородская, Арзамас    122.5    55.0   125.0   302.5    КМС  Шипов С., Багров Н.
УСТАНОВЛЕН ЮНИОРСКИЙ РЕКОРД РОССИИ: жим лёжа – 115.0; 122.5 – Полетаева И.
                             Весовая категория 60 кг
1.Барыбина Наталья/83     59.85   Кемеровская, Белово       192.5   110.0   190.0   492.5   МСМК  Алсуфьев Ю, Титов Э.
2.Сухачёва Анастасия/80   59.95   Башкирия, Кумертау        202.5    95.0   195.0   492.5   МСМК  Аладдин В.
3.Томиловская Евгения/82  59.90   Иркутская, Саянск         197.5    95.0   180.0   472.5   МСМК  Котов А., Деханов А.
4.Игошева Наталья/81      60.00   ЯНАО Ноябрьск             170.0   112.5   177.5   460.0   МСМК  Гороховский А.
5.Долгуй Татьяна/80       60.00   Алтайский, Барнаул        170.0   105.0   175.0   350.0   МСМК  Смищенко В.
6.Елистратова Татьяна/83  58.70   Иркутская, Иркутск        160.0    97.5   170.0   427.5   МСМК  Груздев П., Репин А.
7.Ромаданова Елена/81     59.60   Омская, Омск              170.0    90.0   150.0   410.0  +МСМК  Матук С.
8.Охапкина Ольга/80       60.00   Владимирская, Владимир    150.0    72.5   150.0   372.5     МС  Смирнов Н.
9.Пестунова Анастасия/83  60.00   ЯНАО Ноябрьск             120.0    60.0   125.0   315.0    КМС  Кобелев В.
-.Павлова Оксана/83       58.65   Омская, Омск              165.0   -90.0   0        0            Матук С.
                             весовая категория 67.5 кг
1.Поцелуева Галина/80     66.05   Брянская, Суземка         235.0   132.5   195.0   562.5   МСМК  Заложков С.
2.Яковлева Анастасия/83   65.70   Красноярский, Зеленогорск 220.0   127.5   205.0   552.5   МСМК  Пышкин П., Шадрин М.
3.Рощина Людмила/83       66.40   Брянская, Суземка         232.5   120.0   200.0   552.5   МСМК  Коротченков А.
4.Бурая Ирина/82          66.45   Алтайский, Бийск          192.5   105.0   190.0   487.5   МСМК  Смирнов А.
5.Валиуллина Анна/84      66.20   Свердловская, К-Уральск   180.0    75.0   195.0   450.0  +МСМК  Бикмулин Н.
6.Переломова Юлия/80      65.15   Красноярск                155.0   100.0   170.0   425.0     МС  Ходасевич Г.
7.Илларионова Юлия/86     62.65   Свердловская, К-Уральск   160.0    85.0   160.0   405.0    +МС  Перевалов В.
8.Прусская Людмила/87     66.15   Бурятия, Улан-Удэ         165.0    67.5   150.0   382.5    +МС  Колмаков В.
9.Горуновская Жанна/83    66.75   Кемеровская, Кемерово     135.0    60.0   125.0   320.0    КМС  Валетский И.
                             весовая категория 75 кг
1.Зауголова Юлия/81       73.85   Москва                    242.5   140.0   232.5   615.0   МСМК  Косарев С., Яровой Н.
2.Холявина Вера/84        72.00   Красноярский, Зеленогорск 200.0   120.0   170.0   490.0   МСМК  Чешук С.
3.Наумова Татьяна/82      74.15   Владимирская, Владимир    165.0    77.5   150.0   392.5    +МС  Храменков С.
-.Золотова Светлана/80    74.20   Владимирская, Владимир   -205.0                    0            Храменков С.
УСТАНОВЛЕН ЮНИОРСКИЙ РЕКОРД РОССИИ: приседание – 242.5 – Зауголова Ю.
                                          Тяга – 222.5; 232.5 – Зауголова Ю.
                               Сумма троеборья – 605.0; 615.0 – Зауголова Ю.
                             Весовая категория 82.5 кг
1.Мурашова Александра/82  81.05   Иркутская, Саянск         250.0   130.0   220.0   600.0   МСМК  Котова А.
2.Полянская Алина/84      81.40   Кемеровская, Новокузнецк  225.0   105.0   195.0   525.0   МСМК  Семёнов А.И.
3.Казакова Мария/82       75.20   Красноярск                200.0   127.5   192.5   520.0   МСМК  Бычков А.Н.
УСТАНОВЛЕН ЮНИОРСКИЙ РЕКОРД РОССИИ: приседание – 247.5; 250.0 – Мурашова А.
                             Весовая категория 90 кг
1.Кравченко Кристина/81   86.10   Новосибирская, Новосибирск 222.5  145.0   210.0   577.5   МСМК   Мандрыгин
2.Савиных Наталья/85      90.00   Челябинская, Челябинск    205.0    95.0   175.0   475.0     МС   Савиных В.
3.Некошнова Тамара/82     88.55   Красноярск                165.0   120.0   155.0   440.0     МС   Бычков А.Н.
4.Шпилько Елена/81        83.45   Калужская, Калуга         145.0    60.0   130.0   335.0     1р   Котельников В.
                             весовая категория +90 кг
1.Щеглова Валерия/83      90.65   Приморский, Владивосток   252.5   150.0   220.0   622.5   МСМК   Ким В.
2.Рогова Александра/84    99.10   Красноярск                180.0   112.5   175.0   467.5     МС   Вислоцкий С.
3.Гемалетдинова Ольга/86 102.10   ЯНАО  Тарно-Сале          180.0    90.0   182.5   452.5    +МС   Форсунов Э.
4.Зырянова Мария/83       93.75   Красноярск                 80.0    45.0   107.5   232.5          Вислоцкий С.
УСТАНОВЛЕН ЮНИОРСКИЙ РЕКОРД РОССИИ: тяга – 220.0 – Щеглова В.
                         Сумма троеборья – 602.5; 612.5; 622.5 – Щеглова В.

                      КОМАНДНОЕ ПЕРВЕНСТВО
1.Кемеровская        - 66          12.Владимирская   - 11
2.Красноярский       - 55          13.Коми           - 10
3.Иркутская          - 44          14-15.Челябинская - 9 
4.Алтайский          - 30          14-15.Самарская   - 9
5.Брянская           - 20          14-15.Башкирия    - 9
6.Омская             - 18          16.Свердловская   - 9
7.ЯНАО               - 17          17-18.Тульская    - 8
8.Свердловская       - 15          17-18.Томская     - 8
9-10. Приморский     - 12          19.Калужская      - 7 
9-11. Новосибирская  - 12          20.Нижегородская  - 5
9-11. Москва         - 12          21-22.Бурятия     - 4
                                   21-22.Удмуртия    - 4

                    АБСОЛЮТНОЕ ПЕРВЕНСТВО
1.Зауголова Юлия        Москва                    75     615.0   590.40
2.Поцелуева Галина      Брянская, Суземка         67.5   562.5   583.20
3.Полетаева Ирина       Кемеровская, Л-Кузнецкий  56     472.5   555.94
4.Барыбина Наталья      Кемеровская, Белово       60     492.5   550.14
5.Мурашова Александра   Иркутская, Саянск         82.5   600.0   545.10
6.Таирова Инна          Красноярский, Енисейск    52     435.0   542.68
7.Щеглова Валерия       Приморский, Владивосток   +90    622.5   536.28
8.Кравченко Кристина    Новосибирск                90    577.5   508.83
9.токарева Наталья      Кемеровская, Л-Кузнецкий   48    365.0   483.40
10.Верменюк Валентина   Кемеровская, Белово        44    332.5   471.01

64 участницы из 31 города России, 22 территории
МСМК было – 27, выполнили норматив – 34 (7 впервые)
МС было – 22, выполнили норматив – 20 (7 впервые)

Главный судья соревнований – Ходосевич Г.В.  МК   г. Красноярск
Главный секретарь          - Бычков А.Н.     НК   г. Красноярск                                                
