Division,WeightClassKg,Place,Name,Team,BodyweightKg,Best3SquatKg,Best3BenchKg,Best3DeadliftKg,TotalKg,Equipment,Event,Sex
Freshmen,51.71,1,Erik Oliva,Laredo United South,50.62,102.06,61.23,131.54,294.84,Single-ply,SBD,M
Freshmen,51.71,2,Francisco Fuentes,Zapata,45.99,108.86,56.7,113.4,278.96,Single-ply,SBD,M
Freshmen,51.71,3,Carlos Weckmann,Corpus Christi Tuloso-Midway,51.44,102.06,54.43,99.79,256.28,Single-ply,SBD,M
Freshmen,51.71,4,Rey Gomez,Laredo United South,47.99,83.91,45.36,102.06,231.33,Single-ply,SBD,M
Freshmen,51.71,5,Ray Johnson,Laredo Nixon,47.9,72.57,38.56,97.52,208.65,Single-ply,SBD,M
Freshmen,51.71,6,Austin Ramos,Corpus Christi Tuloso-Midway,32.48,74.84,31.75,68.04,174.63,Single-ply,SBD,M
Freshmen,51.71,DQ,Ramon Vasquez,San Antonio Memorial,49.9,,,,,Single-ply,SBD,M
Freshmen,55.79,1,Jerry Pena,Rio Grande City,55.61,113.4,61.23,122.47,297.1,Single-ply,SBD,M
Freshmen,55.79,2,Mario Gonzlez,Roma,53.71,102.06,63.5,108.86,274.42,Single-ply,SBD,M
Freshmen,55.79,3,Rudy Martinez,Carrizo Springs,53.61,83.91,63.5,124.74,272.16,Single-ply,SBD,M
Freshmen,59.87,4,Joel Lopez,Bruni,55.88,104.33,45.36,120.2,269.89,Single-ply,SBD,M
Freshmen,55.79,5,Edgar Barbosa,Laredo Cigarroa,55.34,88.45,68.04,108.86,265.35,Single-ply,SBD,M
Freshmen,55.79,DQ,Zack Cruz,Carrizo Springs,54.25,,,,,Single-ply,SBD,M
Freshmen,55.79,DQ,Matthew Bustamante,Carrizo Springs,54.7,88.45,,,,Single-ply,SBD,M
Freshmen,55.79,DQ,Raul Rangel,San Antonio Memorial,55.34,108.86,65.77,,,Single-ply,SBD,M
Freshmen,59.87,1,Ted Crain,Falfurrias,59.24,133.81,72.57,140.61,347,Single-ply,SBD,M
Freshmen,67.13,2,Martin Guardiola,Roma,59.96,124.74,61.23,140.61,326.59,Single-ply,SBD,M
Freshmen,59.87,3,Orlando Solis,Roma,58.24,124.74,63.5,136.08,324.32,Single-ply,SBD,M
Freshmen,59.87,4,Nick Garcia,San Antonio Memorial,58.51,111.13,83.91,122.47,317.51,Single-ply,SBD,M
Freshmen,59.87,5,Tanner Navjar,Corpus Christi Tuloso-Midway,59.87,108.86,72.57,131.54,312.98,Single-ply,SBD,M
Freshmen,67.13,6,Jj Cadena,Laredo United,59.96,113.4,65.77,129.27,308.44,Single-ply,SBD,M
Freshmen,67.13,7,Florentino Mireles,Rio Grande City,60.06,92.99,65.77,131.54,290.3,Single-ply,SBD,M
Freshmen,59.87,8,Gabrial Perez,Laredo Alexander,56.52,106.59,65.77,115.67,288.03,Single-ply,SBD,M
Freshmen,59.87,9,Costantino Hernandez,Roma,58.51,102.06,70.31,111.13,283.5,Single-ply,SBD,M
Freshmen,67.13,10,Liam McMahan,Bruni,60.06,83.91,52.16,122.47,258.55,Single-ply,SBD,M
Freshmen,59.87,11,John Flores,Rio Grande City,56.43,97.52,43.09,113.4,254.01,Single-ply,SBD,M
Freshmen,59.87,12,Eden Martinez,Carrizo Springs,59.51,88.45,61.23,90.72,240.4,Single-ply,SBD,M
Freshmen,59.87,DQ,Javier Facundo,Laredo United South,56.7,,,,,Single-ply,SBD,M
Freshmen,59.87,DQ,David Manzano,San Antonio Memorial,59.87,,,,,Single-ply,SBD,M
Freshmen,59.87,DQ,Eric Fonseca,San Antonio Memorial,58.97,,,,,Single-ply,SBD,M
Freshmen,59.87,DQ,Daniel Chavira,San Antonio Memorial,59.87,,,,,Single-ply,SBD,M
Freshmen,67.13,1,Kevin Guerrero,Hebbronville,65.05,172.37,97.52,158.76,428.64,Single-ply,SBD,M
Freshmen,67.13,2,Miguel Salazar,Corpus Christi Tuloso-Midway,65.05,142.88,92.99,124.74,360.61,Single-ply,SBD,M
Freshmen,67.13,3,Calton Hughes,Corpus Christi Tuloso-Midway,64.41,127.01,81.65,142.88,351.53,Single-ply,SBD,M
Freshmen,74.84,4,Jose Villarreal,Zapata,67.36,122.47,81.65,147.42,351.53,Single-ply,SBD,M
Freshmen,67.13,5,Justin Sobczak,Corpus Christi Tuloso-Midway,66.41,129.27,70.31,136.08,335.66,Single-ply,SBD,M
Freshmen,67.13,6,Derly Carrizales,Bruni,63.5,129.27,68.04,136.08,333.39,Single-ply,SBD,M
Freshmen,67.13,7,Isaac Espinoza,San Antonio Memorial,67.13,104.33,72.57,154.22,331.12,Single-ply,SBD,M
Freshmen,67.13,8,Xavione Skaggs,Laredo Alexander,62.78,111.13,77.11,138.35,326.59,Single-ply,SBD,M
Freshmen,67.13,9,Angel Guzman,RIO GRANDE CITY GRULLA,63.14,117.93,68.04,140.61,326.59,Single-ply,SBD,M
Freshmen,67.13,10,Zach Williams,Laredo United,63.5,113.4,70.31,142.88,326.59,Single-ply,SBD,M
Freshmen,67.13,11,Ruben Davila,Rio Grande City,65.14,113.4,70.31,138.35,322.05,Single-ply,SBD,M
Freshmen,74.84,12,Felipe Ramirez,Laredo United South,67.22,102.06,61.23,151.95,315.25,Single-ply,SBD,M
Freshmen,67.13,13,Adan Cantu,RIO GRANDE CITY GRULLA,66.41,127.01,58.97,115.67,301.64,Single-ply,SBD,M
Freshmen,67.13,14,Jose Mosqueda,Laredo Cigarroa,64.86,92.99,58.97,142.88,294.84,Single-ply,SBD,M
Freshmen,67.13,15,Clem De Cordore,San Antonio Memorial,67.13,108.86,54.43,127.01,290.3,Single-ply,SBD,M
Freshmen,67.13,16,Dorian Sanchez,Rio Grande City,64.23,102.06,52.16,124.74,278.96,Single-ply,SBD,M
Freshmen,67.13,17,Luis Lopez,Roma,60.33,104.33,56.7,111.13,272.16,Single-ply,SBD,M
Freshmen,67.13,18,Roy Medina,Laredo Nixon,61.6,72.57,52.16,117.93,242.67,Single-ply,SBD,M
Freshmen,67.13,19,Tadeo Gonzalez,Laredo Nixon,62.41,86.18,52.16,104.33,242.67,Single-ply,SBD,M
Freshmen,67.13,DQ,Jose Alfaro,Carrizo Springs,62.96,95.25,,,,Single-ply,SBD,M
Freshmen,67.13,DQ,Aj Mansano,San Antonio Memorial,66.22,,,,,Single-ply,SBD,M
Freshmen,74.84,1,Eloy Guerrero,Roma,69.67,156.49,77.11,147.42,381.02,Single-ply,SBD,M
Freshmen,74.84,2,Sergio Garcia,Laredo Nixon,70.22,151.95,74.84,142.88,369.68,Single-ply,SBD,M
Freshmen,82.1,3,Austin Garza,Hebbronville,75.02,122.47,83.91,136.08,342.46,Single-ply,SBD,M
Freshmen,82.1,4,Guillermo Silva,Rio Grande City,75.02,120.2,77.11,138.35,335.66,Single-ply,SBD,M
Freshmen,82.1,5,Mark Gonzales,San Antonio Memorial,75.07,113.4,63.5,151.95,328.85,Single-ply,SBD,M
Freshmen,74.84,6,Jesus Gonzalez,Laredo United,68.13,102.06,74.84,124.74,301.64,Single-ply,SBD,M
Freshmen,74.84,7,Jerry Villarreal,Laredo United,73.48,99.79,54.43,142.88,297.1,Single-ply,SBD,M
Freshmen,74.84,8,Luis Martinez,Laredo Alexander,70.58,102.06,56.7,129.27,288.03,Single-ply,SBD,M
Freshmen,74.84,9,Francisco Garcia,Laredo Martin,72.21,102.06,61.23,102.06,265.35,Single-ply,SBD,M
Freshmen,74.84,10,Francisco Flores,Rio Grande City,72.03,92.99,43.09,115.67,251.74,Single-ply,SBD,M
Freshmen,74.84,11,Darren Saenz,Falfurrias,72.57,111.13,,,111.13,Single-ply,S,M
Freshmen,74.84,12,Jaime Hinojosa,Laredo Alexander,70.67,92.99,,,92.99,Single-ply,S,M
Freshmen,82.1,1,Ac Martinez,Laredo United,76.75,183.7,68.04,167.83,419.57,Single-ply,SBD,M
Freshmen,82.1,2,Carlos Martinez,Laredo Nixon,76.48,142.88,90.72,163.29,396.89,Single-ply,SBD,M
Freshmen,82.1,3,Peter Perez,San Antonio Memorial,81.65,124.74,95.25,151.95,371.95,Single-ply,SBD,M
Freshmen,89.81,4,Marco DeLuna,Laredo United South,82.28,131.54,70.31,147.42,349.27,Single-ply,SBD,M
Freshmen,82.1,5,Roland Gutierrez,Corpus Christi West Oso,76.66,124.74,79.38,140.61,344.73,Single-ply,SBD,M
Freshmen,82.1,6,Sammy Esparza,Laredo United,78.02,124.74,74.84,142.88,342.46,Single-ply,SBD,M
Freshmen,82.1,7,Jose Garnica,Laredo United South,80.74,86.18,83.91,172.37,342.46,Single-ply,SBD,M
Freshmen,82.1,8,Alfredo Gomez,Laredo Alexander,78.56,106.59,74.84,142.88,324.32,Single-ply,SBD,M
Freshmen,82.1,9,Cory Read,Hebbronville,78.11,106.59,74.84,133.81,315.25,Single-ply,SBD,M
Freshmen,82.1,10,Alex Perez,Laredo United,77.56,106.59,65.77,136.08,308.44,Single-ply,SBD,M
Freshmen,82.1,11,Adrian Flores,Laredo Alexander,82.1,86.18,90.72,102.06,278.96,Single-ply,SBD,M
Freshmen,82.1,DQ,Martin Mendez,San Antonio Memorial,82.1,,,,,Single-ply,SBD,M
Freshmen,89.81,1,Max Flores,Laredo Alexander,89.81,136.08,81.65,149.69,367.41,Single-ply,SBD,M
Freshmen,89.81,2,Isai Perez,RIO GRANDE CITY GRULLA,85.28,149.69,72.57,122.47,344.73,Single-ply,SBD,M
Freshmen,89.81,3,Jose Lugo,Laredo United South,89.27,131.54,56.7,133.81,322.05,Single-ply,SBD,M
Freshmen,89.81,4,Kevin Gunn,Carrizo Springs,85.37,97.52,77.11,145.15,319.78,Single-ply,SBD,M
Freshmen,89.81,5,Juan Gomez,Hebbronville,85,92.99,77.11,136.08,306.17,Single-ply,SBD,M
Freshmen,89.81,6,Aldofo Espinoza,Laredo Nixon,86.18,81.65,61.23,111.13,254.01,Single-ply,SBD,M
Freshmen,99.79,1,Florencio Palmerin,Laredo Nixon,98.34,165.56,95.25,136.08,396.89,Single-ply,SBD,M
Freshmen,99.79,2,Santos Alvarado,Laredo United,99.25,142.88,90.72,163.29,396.89,Single-ply,SBD,M
Freshmen,99.79,3,George Martinez,Laredo United,91.72,142.88,97.52,136.08,376.48,Single-ply,SBD,M
Freshmen,99.79,4,Adrian Garza,Roma,99.79,145.15,86.18,142.88,374.21,Single-ply,SBD,M
Freshmen,99.79,5,Julio Barron,Laredo Cigarroa,95.25,120.2,102.06,136.08,358.34,Single-ply,SBD,M
Freshmen,99.79,6,Gustavo Valinciana,Rio Grande City,93.98,142.88,74.84,138.35,356.07,Single-ply,SBD,M
Freshmen,99.79,7,Luis Botello,Laredo Nixon,90.63,108.86,88.45,156.49,353.8,Single-ply,SBD,M
Freshmen,99.79,8,Manuel Garza,Rio Grande City,94.71,142.88,72.57,122.47,337.93,Single-ply,SBD,M
Freshmen,99.79,9,Gabriel Martinez,Laredo Nixon,95.07,108.86,63.5,142.88,315.25,Single-ply,SBD,M
Freshmen,109.77,10,Ram Martinez,Laredo United,100.02,122.47,58.97,108.86,290.3,Single-ply,SBD,M
Freshmen,99.79,DQ,Andrew Estrada,Carrizo Springs,93.53,140.61,,,,Single-ply,SBD,M
Freshmen,109.77,1,Guadalupe Gonzalez,Zapata,107.23,208.65,113.4,208.65,530.7,Single-ply,SBD,M
Freshmen,109.77,2,Francisco Moreno,Zapata,109.59,206.38,79.38,201.85,487.61,Single-ply,SBD,M
Freshmen,109.77,3,Ovidio Hernandez,Roma,107.59,174.63,92.99,167.83,435.45,Single-ply,SBD,M
Freshmen,109.77,4,Isael Claudio,Laredo Cigarroa,109.32,129.27,90.72,142.88,362.87,Single-ply,SBD,M
Freshmen,109.77,5,Victor Nenque,Laredo Nixon,104.42,129.27,90.72,138.35,358.34,Single-ply,SBD,M
Freshmen,109.77,6,Leonel Velasco,Laredo Alexander,105.6,142.88,77.11,136.08,356.07,Single-ply,SBD,M
Freshmen,109.77,7,Jose Rivera,Laredo United South,103.15,138.35,63.5,142.88,344.73,Single-ply,SBD,M
Freshmen,109.77,8,Joey Leyva,Laredo United,102.51,122.47,63.5,124.74,310.71,Single-ply,SBD,M
Freshmen,109.77,9,Sergio Alaman,Carrizo Springs,102.69,111.13,63.5,131.54,306.17,Single-ply,SBD,M
Freshmen,109.77,10,Isidro Ayala,Laredo Johnson,100.7,102.06,56.7,122.47,281.23,Single-ply,SBD,M
Freshmen,124.74,1,Manuel Navarro,Zapata,123.65,172.37,97.52,158.76,428.64,Single-ply,SBD,M
Freshmen,124.74,2,Josh Cavazos,Mission Sharyland,120.2,149.69,108.86,165.56,424.11,Single-ply,SBD,M
Freshmen,124.74,3,Richard Cervantes,Mission Sharyland,116.94,156.49,79.38,172.37,408.23,Single-ply,SBD,M
Freshmen,124.74,4,Eliseo Bernal,Laredo Johnson,115.94,129.27,86.18,129.27,344.73,Single-ply,SBD,M
Freshmen,124.74,5,Jesus Vasquez,Laredo Johnson,114.67,108.86,74.84,122.47,306.17,Single-ply,SBD,M
Freshmen,124.74,6,Gilbert Hernandez,Laredo Cigarroa,120.2,99.79,88.45,92.99,281.23,Single-ply,SBD,M
Freshmen,124.74+,1,Julio Escobedo,Laredo United South,175.45,142.88,81.65,183.7,408.23,Single-ply,SBD,M
Freshmen,124.74+,2,Enrique Rojos,Laredo Cigarroa,127.91,113.4,79.38,129.27,322.05,Single-ply,SBD,M
Freshmen,,NS,Isaac Castillo,Laredo Cigarroa,,,,,,Single-ply,SBD,M
Freshmen,,NS,Gilbert Hernandez,Laredo Cigarroa,,,,,,Single-ply,SBD,M
Boys,51.71,1,Rafael Morales,Laredo Cigarroa,51.71,154.22,88.45,165.56,408.23,Single-ply,SBD,M
Boys,51.71,2,Diego Pena,Roma,50.8,154.22,83.91,154.22,392.36,Single-ply,SBD,M
Boys,51.71,3,Martin Villarreal,Laredo United South,51.71,129.27,79.38,161.03,369.68,Single-ply,SBD,M
Boys,55.79,4,Jerry Alaniz,Laredo Alexander,51.94,127.01,86.18,156.49,369.68,Single-ply,SBD,M
Boys,51.71,5,Aaron Rocha,RIO GRANDE CITY GRULLA,50.44,127.01,72.57,151.95,351.53,Single-ply,SBD,M
Boys,51.71,6,Robert Ramos,Corpus Christi Tuloso-Midway,50.35,131.54,65.77,122.47,319.78,Single-ply,SBD,M
Boys,55.79,7,Chris Aguilar,San Antonio Memorial,51.94,113.4,,,113.4,Single-ply,S,M
Boys,55.79,1,Rudy Garay,Los Fresnos,52.89,208.65,102.06,204.12,514.83,Single-ply,SBD,M
Boys,59.87,2,Omar Puente,Los Fresnos,55.97,167.83,104.33,183.7,455.86,Single-ply,SBD,M
Boys,55.79,3,Enrique Alvarez,Laredo Cigarroa,54.88,190.51,92.99,167.83,451.32,Single-ply,SBD,M
Boys,55.79,4,Amado De La Fuente,Laredo United South,55.52,149.69,97.52,174.63,421.84,Single-ply,SBD,M
Boys,59.87,5,Michael Sauceda,Laredo United,56.02,156.49,79.38,161.03,396.89,Single-ply,SBD,M
Boys,59.87,6,Alexis Flores,Laredo Alexander,55.97,151.95,83.91,136.08,371.95,Single-ply,SBD,M
Boys,55.79,7,Ray Fernandez,Donna,53.52,133.81,74.84,161.03,369.68,Single-ply,SBD,M
Boys,55.79,8,Randy Castillo,Bruni,54.98,136.08,63.5,140.61,340.19,Single-ply,SBD,M
Boys,55.79,9,Rudy Davila,Laredo United,55.61,122.47,74.84,136.08,333.39,Single-ply,SBD,M
Boys,59.87,10,Israel Granados,Laredo Nixon,55.88,122.47,61.23,133.81,317.51,Single-ply,SBD,M
Boys,55.79,11,Eli Torres,Laredo Nixon,52.71,111.13,58.97,127.01,297.1,Single-ply,SBD,M
Boys,59.87,12,Gustavo Ayala,Cotulla,56.02,108.86,61.23,120.2,290.3,Single-ply,SBD,M
Boys,55.79,13,Matthew Narvarez,Carrizo Springs,54.7,56.7,47.63,97.52,201.85,Single-ply,SBD,M
Boys,55.79,DQ,Alfredo Arias,Laredo Alexander,54.61,,,,,Single-ply,SBD,M
Boys,59.87,1,John Bojanski,Laredo Alexander,59.69,204.12,83.91,183.7,471.74,Single-ply,SBD,M
Boys,59.87,2,Felipe Medina,Zapata,59.33,158.76,106.59,190.51,455.86,Single-ply,SBD,M
Boys,59.87,3,Cesar Alfaro,Laredo United South,59.06,154.22,106.59,181.44,442.25,Single-ply,SBD,M
Boys,59.87,4,Mario Cantu,Laredo Cigarroa,59.87,154.22,83.91,172.37,410.5,Single-ply,SBD,M
Boys,67.13,5,Juan Ramos,Hebbronville,60.1,129.27,90.72,165.56,385.55,Single-ply,SBD,M
Boys,59.87,6,Juan Delgado,Roma,59.06,133.81,83.91,163.29,381.02,Single-ply,SBD,M
Boys,67.13,7,Carlos Vedarte,Laredo United South,59.96,142.88,86.18,151.95,381.02,Single-ply,SBD,M
Boys,59.87,8,Christian Sanchez,Cotulla,56.61,133.81,83.91,156.49,374.21,Single-ply,SBD,M
Boys,59.87,9,Jairo Morales,Laredo Cigarroa,59.87,142.88,61.23,165.56,369.68,Single-ply,SBD,M
Boys,59.87,10,Xavier Delgado,Zapata,57.79,124.74,79.38,154.22,358.34,Single-ply,SBD,M
Boys,59.87,11,Mike Munoz,Bruni,59.69,120.2,65.77,142.88,328.85,Single-ply,SBD,M
Boys,59.87,12,Yoni Portilla,Laredo Nixon,59.87,124.74,65.77,131.54,322.05,Single-ply,SBD,M
Boys,67.13,13,Benito Salazar,Carrizo Springs,60.06,102.06,65.77,129.27,297.1,Single-ply,SBD,M
Boys,59.87,14,Lorenzo Cruz,Carrizo Springs,58.88,74.84,81.65,129.27,285.76,Single-ply,SBD,M
Boys,67.13,DQ,Jess Rutledge,Carrizo Springs,60.06,,,,,Single-ply,SBD,M
Boys,59.87,DQ,Albert Estrada,Laredo Martin,58.97,104.33,54.43,,,Single-ply,SBD,M
Boys,59.87,DQ,Raul Alfaro,Laredo Cigarroa,59.42,102.06,68.04,,,Single-ply,SBD,M
Boys,67.13,DQ,Alex Cruz,San Antonio Memorial,60.1,,,,,Single-ply,SBD,M
Boys,67.13,DQ,Nigel Cardenas,San Antonio Memorial,60.1,129.27,,,,Single-ply,SBD,M
Boys,59.87,DQ,Chris Castillo,Falfurrias,59.15,,,,,Single-ply,SBD,M
Boys,67.13,1,Ruben Salinas,Roma,66.86,222.26,129.27,208.65,560.19,Single-ply,SBD,M
Boys,74.84,2,Abram Ramirez,Hebbronville,67.31,181.44,131.54,204.12,517.1,Single-ply,SBD,M
Boys,67.13,3,Mike Benavides,Laredo Cigarroa,67.13,183.7,127.01,204.12,514.83,Single-ply,SBD,M
Boys,67.13,4,Matt Buentello,Corpus Christi Tuloso-Midway,65.95,204.12,106.59,197.31,508.02,Single-ply,SBD,M
Boys,74.84,5,Rene Molina,Hebbronville,67.31,201.85,106.59,181.44,489.88,Single-ply,SBD,M
Boys,67.13,6,Vicente Flores,Zapata,65.68,163.29,124.74,195.04,483.08,Single-ply,SBD,M
Boys,67.13,7,Carlos Castillo,Los Fresnos,62.69,174.63,102.06,183.7,460.4,Single-ply,SBD,M
Boys,67.13,8,Josue Valdez,Zapata,64.68,163.29,97.52,192.78,453.59,Single-ply,SBD,M
Boys,67.13,9,Benny Ray Castro,Cotulla,66.04,174.63,92.99,185.97,453.59,Single-ply,SBD,M
Boys,67.13,10,Luis Castillo,Laredo United South,61.14,179.17,108.86,163.29,451.32,Single-ply,SBD,M
Boys,67.13,11,Andres Freeman,Laredo United South,63.05,142.88,74.84,215.46,433.18,Single-ply,SBD,M
Boys,67.13,12,Joe Torres,Los Fresnos,64.32,158.76,102.06,165.56,426.38,Single-ply,SBD,M
Boys,67.13,13,Frank Rubalcava,Laredo Cigarroa,66.22,163.29,102.06,158.76,424.11,Single-ply,SBD,M
Boys,67.13,14,Mark Ruiz,Cotulla,67.04,158.76,95.25,170.1,424.11,Single-ply,SBD,M
Boys,74.84,15,Marcos Lopez,Donna,67.22,158.76,97.52,165.56,421.84,Single-ply,SBD,M
Boys,74.84,16,Elijio Montalvo,Falfurrias,67.31,151.95,88.45,179.17,419.57,Single-ply,SBD,M
Boys,67.13,17,Jerry Zamarripa,Laredo Cigarroa,66.22,156.49,83.91,158.76,399.16,Single-ply,SBD,M
Boys,67.13,18,Manuel Barrera,RIO GRANDE CITY GRULLA,65.41,154.22,88.45,154.22,396.89,Single-ply,SBD,M
Boys,67.13,19,Joel Garcia,Cotulla,60.69,147.42,79.38,163.29,390.09,Single-ply,SBD,M
Boys,67.13,20,Ricky Ayala,Cotulla,63.87,136.08,74.84,158.76,369.68,Single-ply,SBD,M
Boys,74.84,21,Ricky Zavala,Laredo Martin,67.31,142.88,79.38,142.88,365.14,Single-ply,SBD,M
Boys,67.13,22,Jose Carrillo,Laredo Johnson,64.86,133.81,86.18,142.88,362.87,Single-ply,SBD,M
Boys,67.13,23,Raul Martinez,Laredo Johnson,60.6,113.4,90.72,145.15,349.27,Single-ply,SBD,M
Boys,67.13,24,Jesus Contreras,Laredo Johnson,65.5,131.54,83.91,133.81,349.27,Single-ply,SBD,M
Boys,67.13,25,Dino Costilla,Falfurrias,61.51,108.86,77.11,147.42,333.39,Single-ply,SBD,M
Boys,67.13,26,Josh Romero,Laredo Alexander,63.05,142.88,92.99,,235.87,Single-ply,SB,M
Boys,67.13,DQ,Marcos Ortiz,Laredo Alexander,63.23,206.38,,,,Single-ply,SB,M
Boys,67.13,DQ,Jorge Silva,Laredo Nixon,66.32,140.61,79.38,,,Single-ply,SB,M
Boys,67.13,DQ,Eric Castaneda,San Antonio Memorial,67.13,156.49,,,,Single-ply,SB,M
Boys,74.84,1,Gus Sanchez,Los Fresnos,74.39,251.74,142.88,226.8,621.42,Single-ply,SBD,M
Boys,82.1,2,Cesar Castillo,Laredo United South,75.07,204.12,142.88,224.53,571.53,Single-ply,SBD,M
Boys,74.84,3,Danny Flores,Zapata,73.84,217.72,131.54,219.99,569.26,Single-ply,SBD,M
Boys,82.1,4,Andy Mohl,Corpus Christi Tuloso-Midway,75.07,226.8,136.08,206.38,569.26,Single-ply,SBD,M
Boys,74.84,5,Steven Leal,Corpus Christi Tuloso-Midway,73.12,217.72,117.93,206.38,542.04,Single-ply,SBD,M
Boys,74.84,6,Paul Lopez,Laredo United South,67.86,190.51,124.74,192.78,508.02,Single-ply,SBD,M
Boys,74.84,7,Edgar Mendiola,Laredo Nixon,74.16,195.04,122.47,188.24,505.76,Single-ply,SBD,M
Boys,74.84,8,Robert Cantu,Mission Sharyland,73.12,185.97,104.33,192.78,483.08,Single-ply,SBD,M
Boys,74.84,9,Carlos Ramirez,Laredo Alexander,71.67,165.56,124.74,174.63,464.93,Single-ply,SBD,M
Boys,74.84,10,Daniel Mercado,Zapata,74.21,158.76,129.27,174.63,462.66,Single-ply,SBD,M
Boys,74.84,11,Fermin Rendon,Laredo Nixon,71.49,172.37,92.99,190.51,455.86,Single-ply,SBD,M
Boys,74.84,12,Julio Cruz,Bruni,73.66,170.1,79.38,170.1,419.57,Single-ply,SBD,M
Boys,74.84,13,Lupe Saenz,Falfurrias,74.57,156.49,83.91,158.76,399.16,Single-ply,SBD,M
Boys,74.84,14,Austin Lofthouse,Corpus Christi Tuloso-Midway,70.94,136.08,86.18,174.63,396.89,Single-ply,SBD,M
Boys,74.84,15,Elud Renteria,Cotulla,73.39,142.88,104.33,149.69,396.89,Single-ply,SBD,M
Boys,74.84,16,Marcus Cortez,Falfurrias,71.85,149.69,92.99,151.95,394.63,Single-ply,SBD,M
Boys,74.84,17,Esteban Alfaro,Bruni,68.31,142.88,74.84,170.1,387.82,Single-ply,SBD,M
Boys,82.1,18,Woodrow Garcia,Cotulla,74.93,136.08,68.04,174.63,378.75,Single-ply,SBD,M
Boys,74.84,19,Cesar Segueda,Laredo Johnson,74.84,136.08,86.18,142.88,365.14,Single-ply,SBD,M
Boys,74.84,20,Edgar Trejo,Laredo United South,73.94,124.74,81.65,154.22,360.61,Single-ply,SBD,M
Boys,74.84,21,Daniel Briones,Laredo United South,72.85,127.01,72.57,147.42,347,Single-ply,SBD,M
Boys,74.84,22,Jon Ramos,Laredo Johnson,74.12,117.93,83.91,136.08,337.93,Single-ply,SBD,M
Boys,82.1,23,Octavio Solorio,Laredo United,74.93,149.69,,,149.69,Single-ply,S,M
Boys,74.84,24,David Reyes,Laredo Martin,71.94,117.93,,,117.93,Single-ply,S,M
Boys,74.84,25,Emilio Arce,Carrizo Springs,68.31,90.72,,,90.72,Single-ply,S,M
Boys,82.1,1,Kameron Handy,Corpus Christi Tuloso-Midway,80.74,238.14,140.61,210.92,589.67,Single-ply,SBD,M
Boys,82.1,2,Jose de la Rosa,Roma,81.01,215.46,120.2,222.26,557.92,Single-ply,SBD,M
Boys,82.1,3,Eliseo Garza,Los Fresnos,80.38,206.38,113.4,235.87,555.65,Single-ply,SBD,M
Boys,82.1,4,David Garza,Cotulla,79.65,179.17,124.74,226.8,530.7,Single-ply,SBD,M
Boys,82.1,5,Richard Ramos,Los Fresnos,82.1,192.78,106.59,197.31,496.68,Single-ply,SBD,M
Boys,82.1,6,Andrew Cura,Mission Sharyland,80.65,183.7,108.86,201.85,494.42,Single-ply,SBD,M
Boys,82.1,7,Marco Villarreal,Mission Sharyland,79.02,181.44,117.93,183.7,483.08,Single-ply,SBD,M
Boys,82.1,8,Edgar Gonzalez,Roma,81.28,172.37,102.06,208.65,483.08,Single-ply,SBD,M
Boys,89.81,9,Joe Garcia,Donna,82.28,176.9,120.2,183.7,480.81,Single-ply,SBD,M
Boys,82.1,10,Robert Leal,Corpus Christi Tuloso-Midway,81.47,195.04,108.86,163.29,467.2,Single-ply,SBD,M
Boys,82.1,11,Reno Saenz,Hebbronville,82.1,190.51,90.72,176.9,458.13,Single-ply,SBD,M
Boys,89.81,12,Angel Pena,Falfurrias,82.28,176.9,90.72,188.24,455.86,Single-ply,SBD,M
Boys,82.1,13,Ely Guzman,Roma,81.56,165.56,99.79,181.44,446.79,Single-ply,SBD,M
Boys,82.1,14,Alex Salinas,Laredo United,76.29,167.83,99.79,167.83,435.45,Single-ply,SBD,M
Boys,82.1,15,Trey Muriel,Cotulla,81.37,161.03,88.45,172.37,421.84,Single-ply,SBD,M
Boys,82.1,16,Tony Gonzalez,Falfurrias,79.74,158.76,111.13,149.69,419.57,Single-ply,SBD,M
Boys,82.1,17,AJ Alvarez,Donna,80.92,151.95,90.72,172.37,415.04,Single-ply,SBD,M
Boys,82.1,18,Evaristo Davalos,Laredo Nixon,79.92,142.88,74.84,170.1,387.82,Single-ply,SBD,M
Boys,82.1,19,JC Gutierrez,Laredo Johnson,76.11,145.15,86.18,149.69,381.02,Single-ply,SBD,M
Boys,82.1,20,Evelario Garza,Rio Grande City,79.02,142.88,92.99,145.15,381.02,Single-ply,SBD,M
Boys,89.81,21,Joel Lopez,Donna,82.28,151.95,77.11,151.95,381.02,Single-ply,SBD,M
Boys,82.1,22,Guillermo Paredes,Laredo Johnson,78.56,117.93,83.91,145.15,347,Single-ply,SBD,M
Boys,82.1,23,Richard Cortez,Corpus Christi West Oso,80.29,133.81,72.57,117.93,324.32,Single-ply,SBD,M
Boys,89.81,1,Richie Lopez,Laredo United South,86.27,240.4,145.15,235.87,621.42,Single-ply,SBD,M
Boys,99.79,2,Ramiro Flores,Los Fresnos,89.9,240.4,151.95,219.99,612.35,Single-ply,SBD,M
Boys,89.81,3,Silvano Cruces,Los Fresnos,87.91,210.92,140.61,213.19,564.72,Single-ply,SBD,M
Boys,89.81,4,Gilbert Garcia,Mission Sharyland,86.18,226.8,124.74,206.38,557.92,Single-ply,SBD,M
Boys,89.81,5,Justin Fuentes,Zapata,87.82,222.26,131.54,201.85,555.65,Single-ply,SBD,M
Boys,89.81,6,Cliff Salinas,Roma,89.36,188.24,115.67,213.19,517.1,Single-ply,SBD,M
Boys,89.81,7,Cruz Garcia,Roma,87.36,201.85,129.27,183.7,514.83,Single-ply,SBD,M
Boys,89.81,8,Fernando Flores,Corpus Christi Tuloso-Midway,85.28,188.24,106.59,213.19,508.02,Single-ply,SBD,M
Boys,89.81,9,JJ Vela,Falfurrias,88.36,204.12,97.52,195.04,496.68,Single-ply,SBD,M
Boys,89.81,10,Jerry Ayala,Laredo Johnson,82.74,188.24,102.06,201.85,492.15,Single-ply,SBD,M
Boys,89.81,11,Jose Herrera,Laredo United,84.55,195.04,97.52,195.04,487.61,Single-ply,SBD,M
Boys,89.81,12,Jordan Garcia,Cotulla,83.55,181.44,117.93,176.9,476.27,Single-ply,SBD,M
Boys,89.81,13,John Moreno,Hebbronville,89.63,167.83,113.4,181.44,462.66,Single-ply,SBD,M
Boys,89.81,14,Ivan Paredes,Laredo United South,83.55,161.03,102.06,188.24,451.32,Single-ply,SBD,M
Boys,99.79,15,Jesus Hernandez #2,San Antonio Memorial,90.04,192.78,102.06,154.22,449.06,Single-ply,SBD,M
Boys,89.81,16,Oscar Mohamed,Laredo United,84.91,163.29,106.59,172.37,442.25,Single-ply,SBD,M
Boys,89.81,17,Adrian Munoz,Laredo Martin,89.18,161.03,102.06,165.56,428.64,Single-ply,SBD,M
Boys,89.81,18,Arman Khaledi,Laredo Alexander,85,151.95,104.33,165.56,421.84,Single-ply,SBD,M
Boys,89.81,19,Ebert Gauna,Donna,89.45,149.69,102.06,163.29,415.04,Single-ply,SBD,M
Boys,89.81,20,Mike DeLeon,Falfurrias,85.73,151.95,106.59,149.69,408.23,Single-ply,SBD,M
Boys,89.81,21,Joey Herrera,Laredo United South,83.64,151.95,95.25,151.95,399.16,Single-ply,SBD,M
Boys,89.81,22,Andrew Walker,Laredo Johnson,84.1,129.27,104.33,145.15,378.75,Single-ply,SBD,M
Boys,99.79,23,Raymond Gonzalez,San Antonio Memorial,90.04,142.88,72.57,149.69,365.14,Single-ply,SBD,M
Boys,89.81,24,Zack Smith,Bruni,87.36,142.88,72.57,147.42,362.87,Single-ply,SBD,M
Boys,89.81,25,Jacob Romero,Corpus Christi West Oso,86.73,133.81,72.57,142.88,349.27,Single-ply,SBD,M
Boys,89.81,26,David Roman,Laredo United South,84.37,172.37,,,172.37,Single-ply,S,M
Boys,99.79,1,Alex Costilla,Falfurrias,93.17,290.3,170.1,226.8,687.19,Single-ply,SBD,M
Boys,99.79,2,Justin Sosa,Zapata,93.44,249.48,154.22,219.99,623.69,Single-ply,SBD,M
Boys,99.79,3,Jose Correas,Laredo Cigarroa,99.34,249.48,113.4,217.72,580.6,Single-ply,SBD,M
Boys,99.79,4,Daniel Mora,Mission Sharyland,97.89,219.99,120.2,213.19,553.38,Single-ply,SBD,M
Boys,99.79,5,Erick Fernandez,Laredo Nixon,99.79,206.38,133.81,210.92,551.11,Single-ply,SBD,M
Boys,99.79,6,Ricky Martinez,Laredo United,98.07,233.6,120.2,185.97,539.77,Single-ply,SBD,M
Boys,99.79,7,Heriberto Canales,Hebbronville,96.62,208.65,108.86,208.65,526.17,Single-ply,SBD,M
Boys,99.79,8,Chris Castillo,Corpus Christi Tuloso-Midway,91.53,197.31,117.93,206.38,521.63,Single-ply,SBD,M
Boys,99.79,9,Carlos Muñoz,Laredo Nixon,94.08,190.51,97.52,215.46,503.49,Single-ply,SBD,M
Boys,99.79,10,Edgar Martinez,Laredo United South,96.8,176.9,115.67,190.51,483.08,Single-ply,SBD,M
Boys,99.79,11,Tyler Vanderpool,Mission Sharyland,91.72,183.7,92.99,204.12,480.81,Single-ply,SBD,M
Boys,99.79,12,Esteban Arredondo,Hebbronville,94.71,163.29,106.59,210.92,480.81,Single-ply,SBD,M
Boys,109.77,13,Hector Castillo,San Antonio Memorial,100.02,192.78,113.4,174.63,480.81,Single-ply,SBD,M
Boys,99.79,14,Christopher Alonso,RIO GRANDE CITY GRULLA,97.79,192.78,102.06,181.44,476.27,Single-ply,SBD,M
Boys,99.79,15,Lencho Huerta,Hebbronville,95.98,176.9,102.06,192.78,471.74,Single-ply,SBD,M
Boys,99.79,16,Paul Gonzalez,Laredo United South,96.07,158.76,108.86,183.7,451.32,Single-ply,SBD,M
Boys,99.79,17,Jimmy Montalvo,Laredo United,96.98,181.44,111.13,158.76,451.32,Single-ply,SBD,M
Boys,99.79,18,Tony Saavedra,Laredo Johnson,98.34,170.1,99.79,165.56,435.45,Single-ply,SBD,M
Boys,99.79,19,Cody Reeves,Agua Dulce,95.98,167.83,120.2,145.15,433.18,Single-ply,SBD,M
Boys,99.79,20,Kalib Rubalcava,Donna,95.16,183.7,97.52,149.69,430.91,Single-ply,SBD,M
Boys,99.79,21,Danny Saenz,Bruni,91.63,145.15,90.72,161.03,396.89,Single-ply,SBD,M
Boys,99.79,22,Oscar Nava,Roma,95.35,158.76,90.72,142.88,392.36,Single-ply,SBD,M
Boys,99.79,23,Julio Fuentes,Carrizo Springs,97.16,108.86,86.18,133.81,328.85,Single-ply,SBD,M
Boys,99.79,24,Efrain Uvalle,Laredo Johnson,98.43,158.76,102.06,,260.82,Single-ply,SB,M
Boys,99.79,DQ,Juan Jasso,Zapata,97.43,192.78,,,,Single-ply,SB,M
Boys,99.79,DQ,George Gonzalez,Laredo United South,94.71,204.12,115.67,,,Single-ply,SB,M
Boys,109.77,1,Andy Costilla,Falfurrias,103.69,285.76,161.03,249.48,696.26,Single-ply,SBD,M
Boys,109.77,2,Ivan Gonzalez,Bruni,107.5,254.01,127.01,281.23,662.24,Single-ply,SBD,M
Boys,109.77,3,Victor Martinez,Laredo Martin,109.32,258.55,138.35,219.99,616.89,Single-ply,SBD,M
Boys,109.77,4,Jorge Martinez,Laredo United South,102.69,233.6,131.54,229.06,594.21,Single-ply,SBD,M
Boys,109.77,5,Raul Hinojosa,Zapata,107.86,238.14,149.69,183.7,571.53,Single-ply,SBD,M
Boys,109.77,6,Alonzo Villarreal,Laredo Alexander,103.33,215.46,124.74,226.8,566.99,Single-ply,SBD,M
Boys,124.74,7,Ricardo Aleman,San Antonio Memorial,110,208.65,131.54,206.38,546.58,Single-ply,SBD,M
Boys,124.74,8,Matt Watson,Corpus Christi Tuloso-Midway,110,208.65,131.54,199.58,539.77,Single-ply,SBD,M
Boys,109.77,9,Jorge Gutierrez,Zapata,105.23,188.24,142.88,204.12,535.24,Single-ply,SBD,M
Boys,124.74,10,Diego Almanzo,Mission Sharyland,109.95,233.6,117.93,183.7,535.24,Single-ply,SBD,M
Boys,109.77,11,Frank Villarreal,Laredo Martin,108.41,242.67,99.79,181.44,523.9,Single-ply,SBD,M
Boys,109.77,12,Tony Barrera,Corpus Christi Tuloso-Midway,102.42,192.78,115.67,183.7,492.15,Single-ply,SBD,M
Boys,109.77,13,Christian Rosas,Laredo Alexander,101.6,170.1,115.67,195.04,480.81,Single-ply,SBD,M
Boys,109.77,14,Robert Rodriguez,Laredo Cigarroa,108.86,206.38,115.67,158.76,480.81,Single-ply,SBD,M
Boys,109.77,15,Mateo Villarreal,Laredo Nixon,102.15,174.63,83.91,210.92,469.47,Single-ply,SBD,M
Boys,109.77,16,Joey Gonzalez,Carrizo Springs,106.05,158.76,133.81,156.49,449.06,Single-ply,SBD,M
Boys,109.77,17,RJ Santos,Carrizo Springs,109.68,183.7,106.59,142.88,433.18,Single-ply,SBD,M
Boys,109.77,18,Pedro Moctezuma,Carrizo Springs,104.87,124.74,111.13,136.08,371.95,Single-ply,SBD,M
Boys,109.77,19,Joseph Reyes,Falfurrias,108.68,172.37,,,172.37,Single-ply,S,M
Boys,124.74,1,D'Marco Smith,Corpus Christi Tuloso-Midway,112.04,285.76,151.95,229.06,666.78,Single-ply,SBD,M
Boys,124.74,2,Robert Garcia,Mission Sharyland,112.94,244.94,138.35,215.46,598.74,Single-ply,SBD,M
Boys,124.74,3,Abel Cruces,Los Fresnos,124.74,219.99,147.42,204.12,571.53,Single-ply,SBD,M
Boys,124.74,4,Roy Valdez,Los Fresnos,121.11,226.8,136.08,206.38,569.26,Single-ply,SBD,M
Boys,124.74,5,Jaime Cardona,Laredo Nixon,116.85,217.72,108.86,213.19,539.77,Single-ply,SBD,M
Boys,124.74,6,John de los Santos,Donna,114.31,183.7,140.61,204.12,528.44,Single-ply,SBD,M
Boys,124.74,7,Rolando Garza,Hebbronville,115.21,204.12,122.47,201.85,528.44,Single-ply,SBD,M
Boys,124.74,8,Joseph Guerrero,Donna,114.58,195.04,129.27,195.04,519.36,Single-ply,SBD,M
Boys,124.74,9,Clarence Burdett,Falfurrias,114.94,204.12,129.27,174.63,508.02,Single-ply,SBD,M
Boys,124.74,10,Jeffrey Garcia,Carrizo Springs,119.66,199.58,122.47,174.63,496.68,Single-ply,SBD,M
Boys,124.74,11,Alex De Luna,Laredo United South,110.95,190.51,102.06,190.51,483.08,Single-ply,SBD,M
Boys,124.74,12,Mathew Moya,Corpus Christi West Oso,110.95,181.44,102.06,190.51,474,Single-ply,SBD,M
Boys,124.74,13,Francisco Moreno,Laredo Cigarroa,123.83,181.44,,,181.44,Single-ply,S,M
Boys,124.74,DQ,Steven Blanco,Carrizo Springs,116.39,136.08,,,,Single-ply,S,M
Boys,124.74+,1,Adrian Cantu,RIO GRANDE CITY GRULLA,141.07,226.8,142.88,192.78,562.45,Single-ply,SBD,M
Boys,124.74+,2,Edward Garza,Laredo Johnson,146.69,219.99,136.08,183.7,539.77,Single-ply,SBD,M
Boys,124.74+,3,JR Sandoval,Laredo United,140.61,229.06,102.06,204.12,535.24,Single-ply,SBD,M
Boys,124.74+,4,Chris Kennard,Corpus Christi Tuloso-Midway,145.15,199.58,129.27,185.97,514.83,Single-ply,SBD,M
Boys,124.74+,5,Rick Perez,Donna,127.46,181.44,129.27,181.44,492.15,Single-ply,SBD,M
Boys,124.74+,6,Jose Gonzalez,Roma,157.31,172.37,127.01,192.78,492.15,Single-ply,SBD,M
Boys,124.74+,7,Jacob Ortiz,Agua Dulce,130.09,204.12,102.06,181.44,487.61,Single-ply,SBD,M
Boys,124.74+,8,Juan Moreno,Roma,125.19,190.51,115.67,176.9,483.08,Single-ply,SBD,M
Boys,124.74+,9,Jacob Chapa,Bruni,139.71,181.44,99.79,163.29,444.52,Single-ply,SBD,M
Boys,124.74+,10,Sammy Alarcon,Laredo Johnson,175.81,183.7,92.99,151.95,428.64,Single-ply,SBD,M
Boys,124.74+,11,Fred Romo,Laredo Alexander,126.1,163.29,102.06,102.06,367.41,Single-ply,SBD,M
Boys,124.74+,DQ,Josh Zambrano,Corpus Christi West Oso,127.73,,,,,Single-ply,SBD,M
