Division,WeightClassKg,Place,Name,Team,BodyweightKg,Best3SquatKg,Best3BenchKg,Best3DeadliftKg,TotalKg,Equipment,Event,Sex
Boys,51.71,1,Talon Romero,Amarillo Highland Park,50.53,122.47,86.18,138.35,347,Single-ply,SBD,M
Boys,51.71,2,Nathan Shadle,Clarendon,50.62,95.25,56.7,108.86,260.82,Single-ply,SBD,M
Boys,51.71,DQ,Vincenzo Mesza,Bovina,50.44,129.27,81.65,,,Single-ply,SBD,M
Boys,51.71,DQ,Josh Chavarria,Floydada,51.35,,,,,Single-ply,SBD,M
Boys,55.79,1,Kordell Lawerence,Dalhart,54.57,140.61,68.04,129.27,337.93,Single-ply,SBD,M
Boys,55.79,2,Ezekiel Cuellar,Perryton,55.61,117.93,65.77,142.88,326.59,Single-ply,SBD,M
Boys,55.79,3,Billy Lee,Amarillo Highland Park,54.25,117.93,74.84,127.01,319.78,Single-ply,SBD,M
Boys,55.79,4,Dakota Anaya,Perryton,54.07,115.67,52.16,145.15,312.98,Single-ply,SBD,M
Boys,55.79,5,Chris Zuniga,Plainview,53.98,102.06,61.23,113.4,276.69,Single-ply,SBD,M
Boys,55.79,6,Zach Walser,Canyon Randall,55.16,99.79,61.23,106.59,267.62,Single-ply,SBD,M
Boys,55.79,7,Patrick Pickens,Sunray,54.61,90.72,56.7,108.86,256.28,Single-ply,SBD,M
Boys,55.79,DQ,Bryan Tran,Amarillo Highland Park,55.25,129.27,,,,Single-ply,SBD,M
Boys,59.87,1,Hector Bustillos,Sunray,58.15,163.29,81.65,172.37,417.3,Single-ply,SBD,M
Boys,59.87,2,Esteban Fierro,Plainview,59.24,156.49,88.45,154.22,399.16,Single-ply,SBD,M
Boys,59.87,3,Matthew Gallegos,Plainview,59.06,147.42,81.65,151.95,381.02,Single-ply,SBD,M
Boys,59.87,4,Alex Lugo,Perryton,59.15,127.01,77.11,154.22,358.34,Single-ply,SBD,M
Boys,59.87,5,Jerrico Enriquez,Plainview,59.69,142.88,79.38,133.81,356.07,Single-ply,SBD,M
Boys,59.87,6,Bryan de la Torre,Bovina,58.97,129.27,74.84,149.69,353.8,Single-ply,SBD,M
Boys,67.13,7,Zack Sellinger,Amarillo Highland Park,60.1,127.01,61.23,161.03,349.27,Single-ply,SBD,M
Boys,59.87,8,Ray Jaramillo,Clarendon,57.79,142.88,83.91,113.4,340.19,Single-ply,SBD,M
Boys,59.87,9,Jonathan Chavira,Dumas,59.51,122.47,77.11,136.08,335.66,Single-ply,SBD,M
Boys,59.87,10,Ceasar Luther,Perryton,58.97,117.93,74.84,122.47,315.25,Single-ply,SBD,M
Boys,59.87,11,Zach Moore,Panhandle,56.15,106.59,54.43,117.93,278.96,Single-ply,SBD,M
Boys,59.87,12,Jeff Blashill,Canyon Randall,56.52,74.84,40.82,83.91,199.58,Single-ply,SBD,M
Boys,59.87,DQ,Juan Moreno,Amarillo Highland Park,58.24,,,,,Single-ply,SBD,M
Boys,67.13,DQ,Alex Alcantar,Sunray,60.1,,,,,Single-ply,SBD,M
Boys,67.13,1,Layton Lamberson,Panhandle,66.13,158.76,108.86,170.1,437.72,Single-ply,SBD,M
Boys,67.13,2,Joseph Jaramillo,Clarendon,66.86,158.76,97.52,176.9,433.18,Single-ply,SBD,M
Boys,67.13,3,Terrin Campbell,Amarillo Highland Park,64.59,174.63,90.72,163.29,428.64,Single-ply,SBD,M
Boys,67.13,4,Daniel Patterson,Sunray,64.86,151.95,79.38,174.63,405.97,Single-ply,SBD,M
Boys,67.13,5,Kaiden Summerville,Perryton,64.05,158.76,90.72,154.22,403.7,Single-ply,SBD,M
Boys,67.13,6,Alex Maruffo,Bovina,65.14,129.27,81.65,163.29,374.21,Single-ply,SBD,M
Boys,67.13,7,Dalton Stang,Stinnett West Texas,64.41,145.15,77.11,149.69,371.95,Single-ply,SBD,M
Boys,67.13,8,Brad Scott,Canyon Randall,66.04,138.35,83.91,145.15,367.41,Single-ply,SBD,M
Boys,67.13,9,Kristian Gonzales,Dumas,65.86,145.15,86.18,133.81,365.14,Single-ply,SBD,M
Boys,67.13,10,Isreal Espinoza,Bovina,63.5,127.01,81.65,154.22,362.87,Single-ply,SBD,M
Boys,67.13,11,Braxton Brogdon,Amarillo River Road,65.77,131.54,83.91,147.42,362.87,Single-ply,SBD,M
Boys,67.13,12,Bishop Parson,Bushland,65.05,122.47,95.25,142.88,360.61,Single-ply,SBD,M
Boys,67.13,13,Clint Franks,Clarendon,62.23,124.74,92.99,136.08,353.8,Single-ply,SBD,M
Boys,67.13,14,Nick Shadle,Clarendon,66.86,129.27,74.84,136.08,340.19,Single-ply,SBD,M
Boys,74.84,15,Bailey King,Bushland,67.36,136.08,83.91,120.2,340.19,Single-ply,SBD,M
Boys,67.13,16,Tony Inthirath,Dumas,60.42,113.4,52.16,140.61,306.17,Single-ply,SBD,M
Boys,67.13,17,Jayden Shaver,Panhandle,61.05,111.13,72.57,117.93,301.64,Single-ply,SBD,M
Boys,67.13,18,Donald Gibbens,Floydada,63.32,102.06,79.38,113.4,294.84,Single-ply,SBD,M
Boys,67.13,19,Noah Edwards,Amarillo River Road,61.23,90.72,49.9,120.2,260.82,Single-ply,SBD,M
Boys,74.84,1,Jarric Weber,Borger,71.85,188.24,122.47,215.46,526.17,Single-ply,SBD,M
Boys,74.84,2,Rolando Gill,Plainview,74.03,192.78,104.33,192.78,489.88,Single-ply,SBD,M
Boys,74.84,3,Ethan Brotherton,Sunray,73.03,172.37,104.33,195.04,471.74,Single-ply,SBD,M
Boys,74.84,4,Isaiah Perez,Dalhart,73.39,183.7,111.13,170.1,464.93,Single-ply,SBD,M
Boys,74.84,5,Aldo Ramirez,Perryton,73.94,185.97,99.79,179.17,464.93,Single-ply,SBD,M
Boys,74.84,6,Tristyn Hopkins,Panhandle,74.21,181.44,95.25,170.1,446.79,Single-ply,SBD,M
Boys,74.84,7,David Del Val Fraire,Perryton,72.71,167.83,88.45,179.17,435.45,Single-ply,SBD,M
Boys,74.84,8,Emilio Espinoza,Bovina,73.84,147.42,99.79,181.44,428.64,Single-ply,SBD,M
Boys,74.84,9,Devin Novak,Amarillo Highland Park,72.3,163.29,88.45,167.83,419.57,Single-ply,SBD,M
Boys,74.84,10,Garron Weber,Borger,69.85,147.42,97.52,172.37,417.3,Single-ply,SBD,M
Boys,74.84,11,Corbin McGill,Borger,69.13,158.76,99.79,151.95,410.5,Single-ply,SBD,M
Boys,74.84,12,Julio Sanchez,Perryton,72.94,149.69,99.79,158.76,408.23,Single-ply,SBD,M
Boys,74.84,13,Ely Hernandez,Dumas,72.67,136.08,83.91,170.1,390.09,Single-ply,SBD,M
Boys,74.84,15,Cody Alexander,Dalhart,71.49,142.88,70.31,156.49,369.68,Single-ply,SBD,M
Boys,74.84,16,Cedrick Pena,Dumas,69.49,149.69,72.57,142.88,365.14,Single-ply,SBD,M
Boys,74.84,17,Bryan McGovern,Bushland,74.21,124.74,77.11,142.88,344.73,Single-ply,SBD,M
Boys,74.84,18,Eduardo Gutierrez,Dumas,68.13,124.74,74.84,133.81,333.39,Single-ply,SBD,M
Boys,74.84,19,Callon Belcher,Dalhart,74.3,120.2,65.77,145.15,331.12,Single-ply,SBD,M
Boys,74.84,DQ,Noah Martinez,Dalhart,73.57,183.7,97.52,,,Single-ply,SBD,M
Boys,74.84,DQ,Coltan Ingle,Amarillo River Road,69.4,97.52,,,,Single-ply,SBD,M
Boys,74.84,DQ,Dat Luu,Amarillo Highland Park,73.03,142.88,79.38,,,Single-ply,SBD,M
Boys,82.1,1,Jaiden Puga,Dalhart,78.74,185.97,129.27,174.63,489.88,Single-ply,SBD,M
Boys,82.1,2,Blaine McGregor,Amarillo Highland Park,80.74,188.24,115.67,185.97,489.88,Single-ply,SBD,M
Boys,82.1,3,Cutter Paris,Canyon Randall,82.01,185.97,113.4,185.97,485.34,Single-ply,SBD,M
Boys,82.1,4,Reyes Lujan,Dalhart,80.2,183.7,115.67,158.76,458.13,Single-ply,SBD,M
Boys,82.1,6,Jace Taylor,Stinnett West Texas,77.38,165.56,97.52,163.29,426.38,Single-ply,SBD,M
Boys,82.1,7,Marco Sanchez,Bovina,77.38,138.35,104.33,176.9,419.57,Single-ply,SBD,M
Boys,82.1,8,Miguel Olivas,Perryton,76.75,145.15,95.25,172.37,412.77,Single-ply,SBD,M
Boys,82.1,9,Christian Sanchez,Dumas,81.47,142.88,92.99,172.37,408.23,Single-ply,SBD,M
Boys,82.1,10,Mason Holloway,Sunray,80.47,149.69,92.99,158.76,401.43,Single-ply,SBD,M
Boys,82.1,11,Taylor McClellan,Borger,81.83,165.56,79.38,151.95,396.89,Single-ply,SBD,M
Boys,82.1,12,Jt Banett,Stinnett West Texas,81.83,142.88,95.25,151.95,390.09,Single-ply,SBD,M
Boys,82.1,13,Angel Luther,Perryton,77.66,142.88,83.91,158.76,385.55,Single-ply,SBD,M
Boys,82.1,15,Jesus Gamon,Dumas,78.29,129.27,74.84,170.1,374.21,Single-ply,SBD,M
Boys,82.1,17,Keishawn Harper,Dumas,75.3,124.74,83.91,158.76,367.41,Single-ply,SBD,M
Boys,82.1,18,Garrett McIlroy,Panhandle,77.84,131.54,61.23,136.08,328.85,Single-ply,SBD,M
Boys,82.1,DQ,Cole Bacon,Panhandle,78.56,104.33,,,,Single-ply,SBD,M
Boys,89.81,1,Courtney Gravely,Amarillo Highland Park,87.09,195.04,131.54,219.99,546.58,Single-ply,SBD,M
Boys,89.81,2,Derek Ditto,Dumas,88.9,179.17,136.08,195.04,510.29,Single-ply,SBD,M
Boys,99.79,3,Bradley Coward,Borger,89.9,174.63,120.2,158.76,453.59,Single-ply,SBD,M
Boys,89.81,4,Colton Hubbard,Canyon Randall,82.83,176.9,104.33,167.83,449.06,Single-ply,SBD,M
Boys,89.81,5,Wesley Ward,Borger,83.64,158.76,102.06,183.7,444.52,Single-ply,SBD,M
Boys,89.81,6,Cesar Calderon,Sunray,88.99,172.37,102.06,158.76,433.18,Single-ply,SBD,M
Boys,89.81,7,Caden Lefever,Canyon Randall,87.82,142.88,104.33,167.83,415.04,Single-ply,SBD,M
Boys,99.79,8,Richard Garza,Dumas,90.04,142.88,108.86,161.03,412.77,Single-ply,SBD,M
Boys,89.81,9,Blaine Trimmell,Bushland,84.46,149.69,97.52,163.29,410.5,Single-ply,SBD,M
Boys,89.81,10,Aaron Rivas,Plainview,83.46,151.95,83.91,170.1,405.97,Single-ply,SBD,M
Boys,89.81,11,Victor Del Fierro,Canyon Randall,85.09,138.35,102.06,158.76,399.16,Single-ply,SBD,M
Boys,89.81,12,Austin Adams,Dumas,83.55,142.88,90.72,158.76,392.36,Single-ply,SBD,M
Boys,89.81,13,Estaban Casas,Borger,85.37,142.88,120.2,124.74,387.82,Single-ply,SBD,M
Boys,89.81,14,Joey Ramos,Dumas,88.81,122.47,81.65,147.42,351.53,Single-ply,SBD,M
Boys,89.81,15,Dawson Hodges,Amarillo River Road,83.1,113.4,68.04,122.47,303.91,Single-ply,SBD,M
Boys,89.81,DQ,Ryan Ortiz,Dalhart,87.91,136.08,,,,Single-ply,SBD,M
Boys,99.79,1,Kevin Flores,Sunray,94.44,206.38,131.54,204.12,542.04,Single-ply,SBD,M
Boys,99.79,2,Erik Young,Canyon Randall,95.44,210.92,145.15,170.1,526.17,Single-ply,SBD,M
Boys,99.79,3,Ethan Embry,Plainview,94.8,199.58,111.13,210.92,521.63,Single-ply,SBD,M
Boys,99.79,4,Mikey Hernandez,Canyon Randall,91.81,190.51,131.54,179.17,501.22,Single-ply,SBD,M
Boys,99.79,5,David Bustos,Plainview,91.9,195.04,113.4,183.7,492.15,Single-ply,SBD,M
Boys,99.79,6,Ezequiel Porras,Borger,97.52,204.12,115.67,167.83,487.61,Single-ply,SBD,M
Boys,99.79,7,Austin Archuleta,Panhandle,90.63,199.58,113.4,163.29,476.27,Single-ply,SBD,M
Boys,99.79,8,Angel Reyes,Plainview,90.54,183.7,120.2,161.03,464.93,Single-ply,SBD,M
Boys,99.79,9,Gage Alexander,Panhandle,94.71,154.22,102.06,188.24,444.52,Single-ply,SBD,M
Boys,99.79,10,Tj Barnes,Amarillo River Road,93.89,133.81,79.38,188.24,401.43,Single-ply,SBD,M
Boys,99.79,11,Justin Christopher,Clarendon,91.53,136.08,86.18,133.81,356.07,Single-ply,SBD,M
Boys,99.79,12,Patrick Cheney,Amarillo Highland Park,92.44,124.74,81.65,136.08,342.46,Single-ply,SBD,M
Boys,99.79,13,Braxton Novack,Amarillo Highland Park,92.71,106.59,88.45,120.2,315.25,Single-ply,SBD,M
Boys,99.79,14,Parker Oliver,Amarillo River Road,95.25,106.59,70.31,138.35,315.25,Single-ply,SBD,M
Boys,99.79,DQ,David Reyes,Dumas,96.25,,,,,Single-ply,SBD,M
Boys,109.77,1,D'Angelo Thomas,Plainview,102.78,229.06,145.15,210.92,585.13,Single-ply,SBD,M
Boys,109.77,2,Jacob Harris,Dalhart,100.2,226.8,117.93,226.8,571.53,Single-ply,SBD,M
Boys,109.77,3,Dakota McWhorter,Panhandle,108.23,210.92,117.93,204.12,532.97,Single-ply,SBD,M
Boys,109.77,4,Andrew Vasquez,Perryton,105.23,208.65,113.4,190.51,512.56,Single-ply,SBD,M
Boys,109.77,5,Ashton Canida,Panhandle,109.04,210.92,117.93,181.44,510.29,Single-ply,SBD,M
Boys,109.77,6,Jovan Acosta,Dumas,101.51,188.24,97.52,213.19,498.95,Single-ply,SBD,M
Boys,109.77,7,Aaron Williams,Sunray,101.7,170.1,102.06,195.04,467.2,Single-ply,SBD,M
Boys,109.77,8,Dom Velasquez,Amarillo River Road,104.33,165.56,97.52,179.17,442.25,Single-ply,SBD,M
Boys,109.77,9,Erick Balderas,Dumas,107.5,154.22,88.45,185.97,428.64,Single-ply,SBD,M
Boys,109.77,10,Manuel Alvidrez,Dumas,104.33,149.69,95.25,181.44,426.38,Single-ply,SBD,M
Boys,109.77,11,Brady Cooke,Panhandle,107.86,165.56,90.72,142.88,399.16,Single-ply,SBD,M
Boys,124.74,1,Adriel Flores,Plainview,119.57,233.6,131.54,226.8,591.94,Single-ply,SBD,M
Boys,124.74,2,Dalton Torres,Dalhart,123.47,233.6,113.4,231.33,578.33,Single-ply,SBD,M
Boys,124.74,3,Justin Barrera,Dalhart,121.56,224.53,113.4,224.53,562.45,Single-ply,SBD,M
Boys,124.74,4,Freddy Martinez,Dumas,113.13,206.38,131.54,215.46,553.38,Single-ply,SBD,M
Boys,124.74,5,Bruno Talamantes,Dumas,112.04,217.72,127.01,204.12,548.85,Single-ply,SBD,M
Boys,124.74,6,Jorge Sanchez,Dumas,115.21,183.7,133.81,204.12,521.63,Single-ply,SBD,M
Boys,124.74,7,Damian Provencio,Borger,115.67,188.24,117.93,204.12,510.29,Single-ply,SBD,M
Boys,124.74,8,Marcos Bribiesca,Canyon Randall,118.84,204.12,102.06,204.12,510.29,Single-ply,SBD,M
Boys,124.74,10,Skylar Howery,Canyon Randall,112.85,163.29,115.67,181.44,460.4,Single-ply,SBD,M
Boys,124.74,11,Brandon Tarango,Amarillo Highland Park,115.67,183.7,92.99,181.44,458.13,Single-ply,SBD,M
Boys,124.74,13,Zach Jones,Dalhart,115.67,161.03,83.91,167.83,412.77,Single-ply,SBD,M
Boys,124.74,14,Alfonso Cardenas,Dumas,114.58,140.61,95.25,167.83,403.7,Single-ply,SBD,M
Boys,124.74,15,Kole Barrow,Dalhart,118.39,158.76,92.99,149.69,401.43,Single-ply,SBD,M
Boys,124.74,16,Hayden Southall,Borger,114.31,136.08,83.91,142.88,362.87,Single-ply,SBD,M
Boys,124.74,17,Jack Moore,Clarendon,111.49,131.54,63.5,145.15,340.19,Single-ply,SBD,M
Boys,124.74,18,William Ortiz,Dalhart,121.11,120.2,65.77,117.93,303.91,Single-ply,SBD,M
Boys,124.74,DQ,Casey Stewart,Dalhart,122.83,229.06,133.81,,,Single-ply,SBD,M
Boys,124.74+,1,Edgar Guerrero,Friona,137.44,326.59,204.12,292.57,823.27,Single-ply,SBD,M
Boys,124.74+,2,Hector Martinez,Dalhart,131.54,185.97,111.13,185.97,483.08,Single-ply,SBD,M
Boys,124.74+,3,Rodrigo Calderon,Sunray,131.54,185.97,102.06,192.78,480.81,Single-ply,SBD,M
Boys,124.74+,4,Garrett Barnett,Panhandle,139.71,151.95,113.4,161.03,426.38,Single-ply,SBD,M
Boys,,NS,Michael Crone,Floydada,,,,,,Single-ply,SBD,M
