Place,Sex,Name,Event,Division,WeightClassKg,Equipment,State,BodyweightKg,Squat1Kg,Squat2Kg,Squat3Kg,Best3SquatKg,Bench1Kg,Bench2Kg,Bench3Kg,Best3BenchKg,Deadlift1Kg,Deadlift2Kg,Deadlift3Kg,Best3DeadliftKg,TotalKg,BirthYear
1,M,Michael Lippert,B,M-M1b,105,Single-ply,IL,98,,,,,165,175,182.5,182.5,,,,,182.5,1969
1,M,Gerald Portz,B,M-M2a,105,Single-ply,IL,103.1,,,,,-137.5,137.5,140,140,,,,,140,1964
1,M,Dana Rosenzweig,B,M-M2b,93,Single-ply,IL,92.5,,,,,-175,175,192.5,192.5,,,,,192.5,1957
1,M,Brad Lego,B,M-O,93,Single-ply,IL,92.8,,,,,-175,182.5,-192.5,182.5,,,,,182.5,1985
1,M,Josh Hunt,B,M-O,120+,Single-ply,IL,125.2,,,,,227.5,237.5,247.5,247.5,,,,,247.5,1982
1,M,Chrun Greg,B,MR-M3b,105,Raw,MO,104,,,,,105,,,105,,,,,105,1951
1,M,Mike Lawson,B,MR-M4b,59,Raw,IL,58.9,,,,,70,75,80,80,,,,,80,1941
1,M,Christopher Rogers,SBD,M-Jr,105,Single-ply,IL,99.3,210,-220,227.5,227.5,175,192.5,-200,192.5,215,235,257.5,257.5,677.5,1995
1,M,Michael Lippert,SBD,M-M1b,105,Single-ply,IL,98,182.5,-195,195,195,165,175,182.5,182.5,185,192.5,200,200,577.5,1969
1,M,Jimmy Freeman,SBD,M-O,120+,Single-ply,MO,135,270,285,292.5,292.5,152.5,160,170,170,267.5,-277.5,285,285,747.5,1988
1,M,Brandon Hill,SBD,MR-Jr,83,Raw,IL,82.6,180,192.5,205,205,142.5,150,157.5,157.5,215,-235,242.5,242.5,605,1994
1,M,Kenneth Osmoe,SBD,MR-Jr,93,Raw,IL,88.2,242.5,250,-265,250,160,167.5,-175,167.5,230,-250,-250,230,647.5,1992
1,M,Tony Nepute,SBD,MR-Jr,105,Raw,IL,102.1,220,230,242.5,242.5,150,160,-170,160,272.5,-287.5,,272.5,675,1992
1,M,Jeff Holzbauer,SBD,MR-M1a,74,Raw,IL,72.8,135,170,185,185,122.5,130,-135,130,205,215,225,225,540,1974
2,M,Sherman Voegtle,SBD,MR-M1a,74,Raw,IL,70.7,105,112.5,-115,112.5,85,92.5,-95,92.5,135,142.5,147.5,147.5,352.5,1976
1,M,Trent Dingwell,SBD,MR-M1a,105,Raw,IL,103.3,147.5,-160,-167.5,147.5,137.5,-142.5,-142.5,137.5,180,190,-202.5,190,475,1975
1,M,David Martin #1,SBD,MR-M1a,120,Raw,IL,110,202.5,-217.5,220,220,122.5,132.5,-140,132.5,217.5,230,-242.5,230,582.5,1976
2,M,Scott Green,SBD,MR-M1a,120,Raw,IL,114.4,-192.5,192.5,200,200,132.5,137.5,140,140,215,230,-235,230,570,1971
1,M,David Horner,SBD,MR-M1b,74,Raw,IL,72.8,185,-197.5,197.5,197.5,147.5,-152.5,-152.5,147.5,227.5,-235,-235,227.5,572.5,1970
1,M,Tim Taylor,SBD,MR-M2a,66,Raw,IL,65,130,147.5,155,155,120,127.5,-132.5,127.5,185,200,-220,200,482.5,1966
1,M,Bryce Paszkiewicz,SBD,MR-O,59,Raw,IL,58.8,132.5,140,-145,140,-85,85,-92.5,85,182.5,192.5,200,200,425,1997
2,M,Nick Paszkiewicz,SBD,MR-O,59,Raw,IL,53.2,82.5,87.5,-92.5,87.5,57.5,-62.5,-62.5,57.5,120,127.5,137.5,137.5,282.5,2001
1,M,Tim Taylor,SBD,MR-O,66,Raw,IL,65,130,147.5,155,155,120,127.5,-132.5,127.5,185,200,-220,200,482.5,1966
1,M,David Horner,SBD,MR-O,74,Raw,IL,72.8,185,-197.5,197.5,197.5,147.5,-152.5,-152.5,147.5,227.5,-235,-235,227.5,572.5,1970
2,M,Mark Harlow,SBD,MR-O,74,Raw,IL,72.6,145,160,167.5,167.5,117.5,125,127.5,127.5,205,220,230,230,525,1992
3,M,Robert Menard,SBD,MR-O,74,Raw,IL,70.9,152.5,165,182.5,182.5,100,105,-112.5,105,160,170,190,190,477.5,1991
4,M,Jeff Damasco,SBD,MR-O,74,Raw,IL,72,135,145,150,150,110,120,-127.5,120,165,175,185,185,455,1989
1,M,Nick Farison,SBD,MR-O,83,Raw,IL,79.4,92.5,215,227.5,227.5,127.5,142.5,-147.5,142.5,210,222.5,-230,222.5,592.5,1991
2,M,Chase Harris,SBD,MR-O,83,Raw,IL,80.2,145,155,162.5,162.5,100,-105,105,105,185,195,205,205,472.5,1989
3,M,Ryan Steerod,SBD,MR-O,83,Raw,IL,75,145,152.5,165,165,100,110,112.5,112.5,160,175,182.5,182.5,460,1969
4,M,Justin Doyle,SBD,MR-O,83,Raw,IL,81.4,135,147.5,160,160,100,107.5,-115,107.5,157.5,170,182.5,182.5,450,1988
1,M,Andy Odenwald,SBD,MR-O,93,Raw,IL,92,220,237.5,-250,237.5,145,160,-170,160,225,242.5,255,255,652.5,1985
2,M,Marcus Stover,SBD,MR-O,93,Raw,IL,92.9,215,225,-230,225,135,142.5,147.5,147.5,-240,240,275,275,647.5,1989
3,M,Timothy Hess,SBD,MR-O,93,Raw,IL,89.8,170,185,195,195,-125,137.5,-140,137.5,205,222.5,242.5,242.5,575,1990
4,M,Brett Vacek,SBD,MR-O,93,Raw,IL,91.4,192.5,200,-212.5,200,125,132.5,137.5,137.5,215,227.5,-232.5,227.5,565,1990
5,M,Johnny Vitatoe,SBD,MR-O,93,Raw,IL,92.3,190,197.5,-205,197.5,125,130,-135,130,205,215,222.5,222.5,550,1990
6,M,Adam De Fina,SBD,MR-O,93,Raw,IL,89.2,155,162.5,170,170,117.5,125,130,130,192.5,202.5,210,210,510,1991
1,M,Jerry Beach,SBD,MR-O,105,Raw,IL,102.2,227.5,237.5,250,250,160,175,-182.5,175,285,297.5,305,305,730,1990
2,M,Chris Powell,SBD,MR-O,105,Raw,IL,102.1,227.5,237.5,247.5,247.5,140,147.5,155,155,265,280,295,295,697.5,1991
3,M,Cort Severns,SBD,MR-O,105,Raw,IL,94.9,215,227.5,240,240,140,147.5,152.5,152.5,272.5,285,-292.5,285,677.5,1981
4,M,Joseph Filippello,SBD,MR-O,105,Raw,IL,99.9,225,240,250,250,132.5,-147.5,147.5,147.5,255,272.5,-285,272.5,670,1991
5,M,Gerrian Young Jr,SBD,MR-O,105,Raw,IL,101.9,205,215,230,230,150,157.5,-167.5,157.5,237.5,247.5,-260,247.5,635,1987
1,M,Tony Arakkal,SBD,MR-O,120,Raw,IL,117.3,242.5,257.5,265,265,140,150,-157.5,150,252.5,267.5,275,275,690,1978
2,M,Kyle Franke #2,SBD,MR-O,120,Raw,IL,109.7,222.5,235,242.5,242.5,132.5,-145,145,145,237.5,-257.5,-267.5,237.5,625,1991
3,M,David Martin #1,SBD,MR-O,120,Raw,IL,110,202.5,-217.5,220,220,122.5,132.5,-140,132.5,217.5,230,-242.5,230,582.5,1976
4,M,Trent Weston,SBD,MR-O,120,Raw,IL,112.3,-202.5,207.5,215,215,125,-135,-135,125,215,230,-235,230,570,1991
5,M,Marcus Crawford,SBD,MR-O,120,Raw,IL,117.5,180,190,195,195,120,127.5,-130,127.5,210,227.5,-232.5,227.5,550,1990
1,M,Zach Barcroft,SBD,MR-O,120+,Raw,IL,129.7,220,230,242.5,242.5,155,165,-172.5,165,230,247.5,260,260,667.5,1990
1,M,Nick Paskiewicz,SBD,MR-T1,59,Raw,IL,53.2,82.5,87.5,-92.5,87.5,57.5,-62.5,-62.5,57.5,120,127.5,137.5,137.5,282.5,2001
1,M,Tyler Grob,SBD,MR-T2,74,Raw,IL,73.7,137.5,142.5,160,160,92.5,95,-100,95,142.5,150,167.5,167.5,422.5,1998
1,M,Josh Zabor,SBD,MR-T2,83,Raw,IL,78.5,145,160,-170,160,-85,85,-90,85,180,187.5,-195,187.5,432.5,1999
1,M,Kory Johnson,SBD,MR-T2,93,Raw,IL,88,-137.5,137.5,142.5,142.5,97.5,-105,-105,97.5,165,185,195,195,435,1998
1,M,Dakota Meyers,SBD,MR-T2,120,Raw,IL,118.7,172.5,190,197.5,197.5,127.5,-132.5,132.5,132.5,205,215,-220,215,545,1998
1,M,Jose Ramirez,SBD,MR-T3,59,Raw,IL,57.2,120,127.5,-137.5,127.5,87.5,95,100,100,155,175,177.5,177.5,405,1990
1,M,Carson Allen,SBD,MR-T3,74,Raw,IL,73.4,-185,-185,185,185,105,117.5,122.5,122.5,142.5,182.5,210,210,517.5,1997
1,M,Thomas Hutchinson,SBD,MR-T3,93,Raw,IL,87.1,177.5,192.5,-202.5,192.5,115,125,-132.5,125,220,235,245,245,562.5,1996
2,M,Olubunmi Oyeleke,SBD,MR-T3,93,Raw,IL,93,135,145,160,160,80,90,-95,90,150,160,172.5,172.5,422.5,1996
1,F,Juno Dingwell,SBD,FR-Jr,63,Raw,IL,62.5,40,50,-55,50,37.5,-45,-45,37.5,47.5,52.5,57.5,57.5,145,1996
1,F,Alison Reeley,SBD,FR-M1b,84,Raw,IL,83.4,92.5,100,102.5,102.5,42.5,45,47.5,47.5,107.5,112.5,122.5,122.5,272.5,1971
1,F,Lisa Miller,SBD,FR-O,47,Raw,IL,46.7,62.5,67.5,-70,67.5,32.5,35,37.5,37.5,67.5,72.5,77.5,77.5,182.5,1994
1,F,Caresse Hollendor,SBD,FR-O,57,Raw,IL,56.5,90,97.5,102.5,102.5,52.5,57.5,60,60,130,142.5,145,145,307.5,1997
2,F,Denise Manker,SBD,FR-O,57,Raw,IL,55.7,87.5,95,-102.5,95,52.5,57.5,60,60,115,125,132.5,132.5,287.5,1972
1,F,Marlene Pizarro,SBD,FR-O,63,Raw,IL,61.3,120,130,137.5,137.5,60,62.5,67.5,67.5,137.5,145,150,150,355,1991
2,F,Sharice Odum,SBD,FR-O,63,Raw,IL,61.1,110,115,-117.5,115,52.5,57.5,60,60,142.5,152.5,155,155,330,1989
3,F,Jessica Keim,SBD,FR-O,63,Raw,IL,61.1,100,110,120,120,50,55,-62.5,55,120,130,137.5,137.5,312.5,1980
4,F,Mary Rebecca-Perlman,SBD,FR-O,63,Raw,IL,62.3,100,105,110,110,55,-60,62.5,62.5,97.5,105,-117.5,105,277.5,1983
1,F,Abby Citrin,SBD,FR-O,72,Raw,IL,70,132.5,140,145,145,67.5,70,75,75,150,160,167.5,167.5,387.5,1989
2,F,JT Tabeling,SBD,FR-O,72,Raw,IL,68.8,125,135,-142.5,135,-65,65,-70,65,-155,-155,155,155,355,1987
3,F,Michelle Sanford,SBD,FR-O,72,Raw,IL,71.4,92.5,102.5,107.5,107.5,-50,55,-60,55,112.5,122.5,-135,122.5,285,1986
1,F,Ashley Bell,SBD,FR-O,84,Raw,IL,83.3,125,137.5,140,140,55,60,-62.5,60,175,-185,-185,175,375,1987
2,F,Cheryl Venorsky,SBD,FR-O,84,Raw,IL,74.2,60,70,75,75,75,-82.5,-82.5,75,137.5,160,-177.5,160,310,1970
3,F,Alison Reeley,SBD,FR-O,84,Raw,IL,83.4,92.5,100,102.5,102.5,42.5,45,47.5,47.5,107.5,112.5,122.5,122.5,272.5,1971
1,F,Lauren Varosi-Garavaglia,SBD,FR-O,84+,Raw,IL,135.9,165,185,195,195,82.5,87.5,95,95,165,-180,180,180,470,1996
2,F,April Biddings,SBD,FR-O,84+,Raw,IL,92.9,147.5,152.5,160,160,67.5,75,-82.5,75,157.5,170,-175,170,405,1987
3,F,Nicole Burns,SBD,FR-O,84+,Raw,IL,85,105,115,122.5,122.5,55,60,-62.5,60,112.5,117.5,130,130,312.5,1978
1,F,Haleigh Shreffler,SBD,FR-T3,57,Raw,IL,57,90,100,-107.5,100,52.5,57.5,-60,57.5,110,120,130,130,287.5,1997
1,F,Emily Kauffman,SBD,FR-T3,84+,Raw,IL,98,97.5,105,115,115,60,65,-70,65,127.5,137.5,142.5,142.5,322.5,1997
2,F,Kelsey Brown #1,SBD,FR-T3,84+,Raw,IL,94.3,-112.5,120,127.5,127.5,45,47.5,-50,47.5,107.5,115,125,125,300,1996
