Division,WeightClassKg,Place,Name,Team,BodyweightKg,Best3SquatKg,Best3BenchKg,Best3DeadliftKg,TotalKg,Equipment,Event,Sex
Boys,51.71,1,Connor Moore,White Settlement Brewer,51.71,111.13,65.77,124.74,301.64,Single-ply,SBD,M
Boys,51.71,2,Nicholas Roark-Smith,Fort Worth Chisholm Trail,51.71,104.33,43.09,99.79,247.21,Single-ply,SBD,M
Boys,51.71,3,Dennis Mema,Saginaw,47.26,74.84,45.36,95.25,215.46,Single-ply,SBD,M
Boys,55.79,1,Arnold Delgidillo,White Settlement Brewer,55.34,124.74,77.11,124.74,326.59,Single-ply,SBD,M
Boys,59.87,2,Felipe Hernández,Saginaw,55.93,111.13,65.77,120.2,297.1,Single-ply,SBD,M
Boys,67.13,1,Anthony Cuevas,Saginaw,59.92,142.88,99.79,142.88,385.55,Single-ply,SBD,M
Boys,59.87,2,Michael Frantzen,Fort Worth Chisholm Trail,59.87,124.74,61.23,127.01,312.98,Single-ply,SBD,M
Boys,59.87,3,Tameron Clark,Fort Worth Chisholm Trail,59.87,102.06,74.84,122.47,299.37,Single-ply,SBD,M
Boys,67.13,1,Marquis Sanders,Saginaw,65.32,176.9,92.99,195.04,464.93,Single-ply,SBD,M
Boys,74.84,2,Maleek Tarver,Saginaw,67.31,174.63,106.59,158.76,439.98,Single-ply,SBD,M
Boys,67.13,3,Sawyer Wachel,Saginaw,63.23,165.56,77.11,142.88,385.55,Single-ply,SBD,M
Boys,67.13,4,Keneth McCleveland,Fort Worth Chisholm Trail,67.13,124.74,70.31,133.81,328.85,Single-ply,SBD,M
Boys,74.84,1,Jaytron Phillips,Fort Worth Chisholm Trail,74.84,170.1,92.99,181.44,444.52,Single-ply,SBD,M
Boys,74.84,2,Lewis Blackwell,Saginaw,72.39,172.37,97.52,167.83,437.72,Single-ply,SBD,M
Boys,74.84,3,Chris Hammond,Saginaw,73.75,158.76,83.91,167.83,410.5,Single-ply,SBD,M
Boys,74.84,4,Brennen Barrs,White Settlement Brewer,71.67,131.54,88.45,163.29,383.29,Single-ply,SBD,M
Boys,74.84,5,Halen Brown,Fort Worth Chisholm Trail,74.84,129.27,61.23,156.49,347,Single-ply,SBD,M
Boys,74.84,6,Marc Joseph,Fort Worth Chisholm Trail,74.84,,70.31,156.49,226.8,Single-ply,BD,M
Boys,82.1,1,Benji Perez,White Settlement Brewer,78.93,201.85,92.99,195.04,489.88,Single-ply,SBD,M
Boys,82.1,2,Kevin Perotti,White Settlement Brewer,78.93,176.9,117.93,183.7,478.54,Single-ply,SBD,M
Boys,82.1,3,John Hoystradt,Saginaw,77.29,163.29,90.72,158.76,412.77,Single-ply,SBD,M
Boys,82.1,4,Lane Brown,Fort Worth Chisholm Trail,82.1,136.08,81.65,181.44,399.16,Single-ply,SBD,M
Boys,82.1,5,Matt Brunk,Saginaw,76.66,133.81,88.45,158.76,381.02,Single-ply,SBD,M
Boys,82.1,6,Chance Richards,Saginaw,77.02,167.83,,176.9,344.73,Single-ply,SD,M
Boys,89.81,1,Juan Diaz,Saginaw,85,226.8,145.15,199.58,571.53,Single-ply,SBD,M
Boys,89.81,2,Stephen Smith,Saginaw,87.82,206.38,117.93,192.78,517.1,Single-ply,SBD,M
Boys,89.81,3,Joey Chandler,White Settlement Brewer,89.36,192.78,106.59,170.1,469.47,Single-ply,SBD,M
Boys,89.81,4,Daniel Raya,White Settlement Brewer,89.81,172.37,113.4,163.29,449.06,Single-ply,SBD,M
Boys,89.81,5,Will O'Steen,Fort Worth Chisholm Trail,89.81,154.22,90.72,156.49,401.43,Single-ply,SBD,M
Boys,89.81,6,Kalil Jones,Fort Worth Chisholm Trail,89.81,133.81,70.31,170.1,374.21,Single-ply,SBD,M
Boys,89.81,7,Dalton Pittman,Fort Worth Chisholm Trail,89.81,129.27,79.38,145.15,353.8,Single-ply,SBD,M
Boys,99.79,1,Robbie Williams,White Settlement Brewer,90.72,219.99,127.01,183.7,530.7,Single-ply,SBD,M
Boys,99.79,2,Stephen Evans,White Settlement Brewer,95.25,222.26,115.67,183.7,521.63,Single-ply,SBD,M
Boys,99.79,3,Cale Hatfield,Saginaw,98.97,183.7,120.2,199.58,503.49,Single-ply,SBD,M
Boys,99.79,4,Jan Garcia,Fort Worth Chisholm Trail,99.79,188.24,83.91,176.9,449.06,Single-ply,SBD,M
Boys,99.79,5,J Nkashama,Saginaw,91.9,163.29,90.72,170.1,424.11,Single-ply,SBD,M
Boys,99.79,6,Jacob McCarley,White Settlement Brewer,99.79,140.61,74.84,170.1,385.55,Single-ply,SBD,M
Boys,99.79,7,Devin Casillas,White Settlement Brewer,93.44,190.51,,,190.51,Single-ply,S,M
Boys,109.77,1,Daniel Martinez,White Settlement Brewer,107.95,226.8,120.2,208.65,555.65,Single-ply,SBD,M
Boys,109.77,2,Tommy Spaulding,White Settlement Brewer,109.32,231.33,120.2,183.7,535.24,Single-ply,SBD,M
Boys,109.77,3,Eron Williams,Saginaw,103.06,190.51,124.74,176.9,492.15,Single-ply,SBD,M
Boys,109.77,4,Joseph Lee,Fort Worth Chisholm Trail,109.77,176.9,90.72,181.44,449.06,Single-ply,SBD,M
Boys,109.77,5,Cole Wallis,White Settlement Brewer,103.42,176.9,92.99,170.1,439.98,Single-ply,SBD,M
Boys,109.77,6,Augustino Saladino,Fort Worth Chisholm Trail,109.77,170.1,106.59,154.22,430.91,Single-ply,SBD,M
Boys,109.77,7,Jordan Hernandez,Saginaw,104.96,151.95,106.59,,258.55,Single-ply,SB,M
Boys,124.74,1,Wylie Reinhardt,Saginaw,118.07,244.94,142.88,244.94,632.76,Single-ply,SBD,M
Boys,124.74,2,Ricky Chapa,White Settlement Brewer,114.76,201.85,99.79,190.51,492.15,Single-ply,SBD,M
Boys,124.74,3,Darrell Seely,White Settlement Brewer,120.2,188.24,104.33,176.9,469.47,Single-ply,SBD,M
Boys,124.74+,1,Joe Rosas,Saginaw,141.43,272.16,170.1,215.46,657.71,Single-ply,SBD,M
Boys,124.74+,2,Zac Wirts,White Settlement Brewer,133.81,226.8,151.95,222.26,601.01,Single-ply,SBD,M
