Division,WeightClassKg,Place,Name,Team,BodyweightKg,Best3SquatKg,Best3BenchKg,Best3DeadliftKg,TotalKg,Equipment,Event,Sex
Boys,51.71,1,Jaxon Evans,Beckville,47.26,92.99,47.63,108.86,249.48,Single-ply,SBD,M
Boys,51.71,2,Gabriel Hawver,Hemphill,50.98,65.77,36.29,111.13,213.19,Single-ply,SBD,M
Boys,51.71,3,Logan Williams,Shelbyville,45,65.77,24.95,81.65,172.37,Single-ply,SBD,M
Boys,55.79,1,Tyler Allen,San Augustine,55.34,102.06,38.56,124.74,265.35,Single-ply,SBD,M
Boys,59.87,1,Seth Sanders,Shelbyville,56.38,131.54,79.38,136.08,347,Single-ply,SBD,M
Boys,59.87,2,Brodie Chandler,Shelbyville,59.87,108.86,90.72,142.88,342.46,Single-ply,SBD,M
Boys,59.87,3,Milo Morrison,Beckville,58.69,113.4,77.11,127.01,317.51,Single-ply,SBD,M
Boys,59.87,4,Ethan Parrie,Hemphill,58.97,90.72,65.77,147.42,303.91,Single-ply,SBD,M
Boys,59.87,5,Max Gomez,Beckville,59.87,99.79,56.7,131.54,288.03,Single-ply,SBD,M
Boys,59.87,DQ,Trenton Ramsey,Joaquin,58.51,,,,,Single-ply,SBD,M
Boys,67.13,1,Nicholas Turner,Hemphill,63.87,142.88,72.57,165.56,381.02,Single-ply,SBD,M
Boys,67.13,2,JD Prince,Beckville,65.59,147.42,90.72,142.88,381.02,Single-ply,SBD,M
Boys,67.13,3,Luis Landaverde,San Augustine,63.14,124.74,95.25,142.88,362.87,Single-ply,SBD,M
Boys,67.13,4,Caleb Ridgeway,Shelbyville,64.5,129.27,68.04,145.15,342.46,Single-ply,SBD,M
Boys,67.13,5,Ian McRight,Beckville,64.59,117.93,61.23,147.42,326.59,Single-ply,SBD,M
Boys,67.13,6,Adam Gardner,Hemphill,67.04,102.06,74.84,147.42,324.32,Single-ply,SBD,M
Boys,67.13,7,Pedro Bahena,San Augustine,62.51,111.13,65.77,124.74,301.64,Single-ply,SBD,M
Boys,74.84,1,Oscar Molina,Chireno,68.58,183.7,106.59,201.85,492.15,Single-ply,SBD,M
Boys,74.84,2,Jacobi Jackson,Shelbyville,68.4,181.44,92.99,188.24,462.66,Single-ply,SBD,M
Boys,74.84,3,Peyton Goodwin,Chireno,74.21,127.01,102.06,172.37,401.43,Single-ply,SBD,M
Boys,74.84,4,Grady Clay,Shelbyville,74.57,140.61,79.38,161.03,381.02,Single-ply,SBD,M
Boys,74.84,5,Zackary Sonnier,Hemphill,69.13,136.08,104.33,136.08,376.48,Single-ply,SBD,M
Boys,74.84,6,Christian Burns,Hemphill,70.67,136.08,70.31,147.42,353.8,Single-ply,SBD,M
Boys,74.84,7,Dawson Windham,Shelbyville,71.58,131.54,72.57,142.88,347,Single-ply,SBD,M
Boys,74.84,DQ,Joseph Hogan,Hemphill,67.22,,,,,Single-ply,SBD,M
Boys,82.1,1,Ian Shahan,Joaquin,81.74,183.7,102.06,188.24,474,Single-ply,SBD,M
Boys,82.1,2,Trevor Jackson,Shelbyville,79.02,158.76,90.72,163.29,412.77,Single-ply,SBD,M
Boys,82.1,3,Zack Garcia,San Augustine,79.74,147.42,74.84,161.03,383.29,Single-ply,SBD,M
Boys,82.1,4,Carlos Campos,Beckville,79.92,151.95,70.31,154.22,376.48,Single-ply,SBD,M
Boys,82.1,5,Cade Tindol,Shelbyville,76.75,113.4,65.77,131.54,310.71,Single-ply,SBD,M
Boys,82.1,6,Jesus Bravo,Joaquin,81.74,183.7,,,183.7,Single-ply,S,M
Boys,89.81,1,Trystan Holland,Beckville,88,181.44,106.59,190.51,478.54,Single-ply,SBD,M
Boys,89.81,2,Carlos Acosta,San Augustine,89.36,124.74,65.77,127.01,317.51,Single-ply,SBD,M
Boys,99.79,1,Hunter Casey,Shelbyville,94.8,142.88,86.18,167.83,396.89,Single-ply,SBD,M
Boys,99.79,2,Malik Wilkerson,Hemphill,99.16,154.22,92.99,147.42,394.63,Single-ply,SBD,M
Boys,99.79,3,Gage Watlington,Joaquin,95.62,79.38,79.38,124.74,283.5,Single-ply,SBD,M
Boys,109.77,1,Christian Perez,Beckville,108.77,185.97,108.86,206.38,501.22,Single-ply,SBD,M
Boys,109.77,2,Logan Vickers,Hemphill,107.68,181.44,113.4,204.12,498.95,Single-ply,SBD,M
Boys,109.77,3,Alberto Castillo,Shelbyville,99.97,145.15,83.91,163.29,392.36,Single-ply,SBD,M
Boys,109.77,4,Lance Collins,Hemphill,105.51,124.74,77.11,136.08,337.93,Single-ply,SBD,M
Boys,109.77,5,Hunter Lambright,Beckville,103.33,102.06,65.77,124.74,292.57,Single-ply,SBD,M
Boys,109.77,6,Titus Harvey,Joaquin,107.05,170.1,,,170.1,Single-ply,S,M
Boys,109.77,7,Billy Davis,Hemphill,104.96,124.74,,,124.74,Single-ply,S,M
Boys,124.74,1,Ross Young,Beckville,113.22,172.37,99.79,165.56,437.72,Single-ply,SBD,M
Boys,124.74,2,Kolton Ross,Hemphill,116.48,156.49,106.59,147.42,410.5,Single-ply,SBD,M
Boys,124.74+,1,Zach Bell,Joaquin,149.96,249.48,170.1,260.82,680.39,Single-ply,SBD,M
Boys,124.74+,2,Jose Ocon,San Augustine,135.08,188.24,97.52,195.04,480.81,Single-ply,SBD,M
Boys,124.74+,3,Jashon Adams,Beckville,132.72,158.76,122.47,145.15,426.38,Single-ply,SBD,M
