Division,WeightClassKg,Place,Name,Team,BodyweightKg,Best3SquatKg,Best3BenchKg,Best3DeadliftKg,TotalKg,Equipment,Event,Sex
Boys,55.79,1,Rudy Garay,Los Fresnos,51.89,219.99,113.4,192.78,526.17,Single-ply,SBD,M
Boys,51.71,2,Rigo Pena,Pharr Valley View,51.26,156.49,99.79,170.1,426.38,Single-ply,SBD,M
Boys,55.79,3,Stevie Solis,PSJA Memorial,51.94,142.88,83.91,174.63,401.43,Single-ply,SBD,M
Boys,51.71,4,Jerry Lopez,Port Isabel,51.35,158.76,77.11,151.95,387.82,Single-ply,SBD,M
Boys,51.71,5,Pablo Gutierrez,Weslaco East,50.89,120.2,77.11,145.15,342.46,Single-ply,SBD,M
Boys,51.71,6,Jesus Morales,Port Isabel,51.71,111.13,74.84,108.86,294.84,Single-ply,SBD,M
Boys,59.87,1,Omar Puente,Los Fresnos,55.97,181.44,106.59,188.24,476.27,Single-ply,SBD,M
Boys,55.79,2,Daniel Rodriguez,PSJA,55.52,154.22,92.99,174.63,421.84,Single-ply,SBD,M
Boys,55.79,3,Josh Molina,Port Isabel,54.52,154.22,88.45,170.1,412.77,Single-ply,SBD,M
Boys,55.79,4,Juan Torres,San Benito,53.8,142.88,72.57,147.42,362.87,Single-ply,SBD,M
Boys,55.79,5,Christian Gonzalez,Weslaco,55.16,113.4,65.77,120.2,299.37,Single-ply,SBD,M
Boys,55.79,6,Eddie Garza,PSJA Southwest,55.7,99.79,49.9,122.47,272.16,Single-ply,SBD,M
Boys,59.87,DQ,Marcos Oyervides,PSJA,55.97,167.83,,,,Single-ply,SBD,M
Boys,59.87,1,Rolando Borjas,Los Fresnos,57.61,204.12,102.06,210.92,517.1,Single-ply,SBD,M
Boys,59.87,2,Gilbert Flores,Pharr Valley View,58.97,188.24,99.79,185.97,474,Single-ply,SBD,M
Boys,59.87,3,Isaias Carrasco,Pharr Valley View,58.97,179.17,95.25,188.24,462.66,Single-ply,SBD,M
Boys,59.87,4,Jesse Casarez,Mercedes,59.06,183.7,97.52,163.29,444.52,Single-ply,SBD,M
Boys,59.87,5,Augustin Soto,Mission,56.7,176.9,102.06,158.76,437.72,Single-ply,SBD,M
Boys,59.87,6,Isaac Diez,PSJA,58.6,170.1,102.06,154.22,426.38,Single-ply,SBD,M
Boys,59.87,7,Brandon Guzman,Weslaco East,57.42,147.42,74.84,158.76,381.02,Single-ply,SBD,M
Boys,59.87,8,Cesar Herbert,Port Isabel,58.6,147.42,77.11,147.42,371.95,Single-ply,SBD,M
Boys,67.13,9,John Cantu,Raymondville,59.96,136.08,72.57,158.76,367.41,Single-ply,SBD,M
Boys,59.87,10,James A Zaragoza,Raymondville,57.42,138.35,74.84,151.95,365.14,Single-ply,SBD,M
Boys,59.87,11,Robert Aranda,Mission Veterans Memorial,59.6,136.08,79.38,136.08,351.53,Single-ply,SBD,M
Boys,59.87,DQ,Miguel Cantu,Mission,59.51,104.33,,,,Single-ply,SBD,M
Boys,67.13,DQ,Michael Caceres,Weslaco,60.06,149.69,,,,Single-ply,SBD,M
Boys,67.13,1,Esteban Flores,Pharr Valley View,65.77,195.04,108.86,215.46,519.36,Single-ply,SBD,M
Boys,67.13,2,Joseph Zaragoza,Raymondville,64.14,199.58,124.74,190.51,514.83,Single-ply,SBD,M
Boys,67.13,3,Andrew Infante,Port Isabel,66.68,197.31,95.25,222.26,514.83,Single-ply,SBD,M
Boys,67.13,4,Edward Palomin,Weslaco,64.86,190.51,113.4,190.51,494.42,Single-ply,SBD,M
Boys,67.13,5,Carlos Castillo,Los Fresnos,67.13,181.44,106.59,190.51,478.54,Single-ply,SBD,M
Boys,67.13,6,Justin Gonzalez,Weslaco,64.5,188.24,95.25,192.78,476.27,Single-ply,SBD,M
Boys,67.13,7,Joe Bazaldua,Mercedes,64.77,181.44,106.59,183.7,471.74,Single-ply,SBD,M
Boys,67.13,8,Julian Morales,Weslaco,64.41,195.04,86.18,188.24,469.47,Single-ply,SBD,M
Boys,67.13,9,Martin Rodriguez,Hidalgo Early College,65.32,165.56,90.72,181.44,437.72,Single-ply,SBD,M
Boys,67.13,10,Alexis Guajardo,Pharr Valley View,65.32,174.63,108.86,154.22,437.72,Single-ply,SBD,M
Boys,67.13,11,David Martinez,Weslaco East,60.33,145.15,90.72,154.22,390.09,Single-ply,SBD,M
Boys,74.84,12,Rigo Ramirez,PSJA North,67.22,142.88,86.18,142.88,371.95,Single-ply,SBD,M
Boys,67.13,13,Martin Saldana,PSJA Southwest,63.96,142.88,72.57,136.08,351.53,Single-ply,SBD,M
Boys,74.84,14,Marco Arista,Port Isabel,67.36,127.01,68.04,129.27,324.32,Single-ply,SBD,M
Boys,67.13,15,Lorenzo Huerta,PSJA Southwest,61.6,106.59,63.5,145.15,315.25,Single-ply,SBD,M
Boys,67.13,16,Oliver Salander,Port Isabel,64.95,106.59,68.04,136.08,310.71,Single-ply,SBD,M
Boys,67.13,17,Elijah Aguilar,PSJA Southwest,63.23,92.99,52.16,131.54,276.69,Single-ply,SBD,M
Boys,67.13,DQ,Joe Torres,Los Fresnos,61.96,158.76,,,,Single-ply,SBD,M
Boys,74.84,DQ,Marcos Lopez,Donna,67.36,170.1,,,,Single-ply,SBD,M
Boys,74.84,1,Gus Sanchez,Los Fresnos,73.57,265.35,129.27,233.6,628.23,Single-ply,SBD,M
Boys,74.84,2,Adalberto Chavez,Hidalgo Early College,74.3,242.67,149.69,204.12,596.47,Single-ply,SBD,M
Boys,74.84,3,Abram Guerra,Rio Grande City,73.75,226.8,129.27,213.19,569.26,Single-ply,SBD,M
Boys,74.84,4,Ej Ybarra,Port Isabel,74.57,217.72,133.81,204.12,555.65,Single-ply,SBD,M
Boys,82.1,5,Aric Hernandez,Weslaco,75.02,204.12,117.93,226.8,548.85,Single-ply,SBD,M
Boys,74.84,6,Armin Solis,Rio Grande City,74.57,208.65,117.93,215.46,542.04,Single-ply,SBD,M
Boys,74.84,7,Mike Pena,Pharr Valley View,73.66,188.24,131.54,197.31,517.1,Single-ply,SBD,M
Boys,74.84,8,Isaac Garza,PSJA Memorial,70.85,183.7,129.27,199.58,512.56,Single-ply,SBD,M
Boys,74.84,9,Robert Cantu,Mission Sharyland,72.85,192.78,108.86,208.65,510.29,Single-ply,SBD,M
Boys,74.84,10,DJ Martinez,PSJA Memorial,74.48,188.24,120.2,199.58,508.02,Single-ply,SBD,M
Boys,74.84,11,Noel Zuniga,PSJA,70.22,204.12,104.33,197.31,505.76,Single-ply,SBD,M
Boys,74.84,12,Adrian Moncevaiz,Raymondville,73.66,201.85,104.33,199.58,505.76,Single-ply,SBD,M
Boys,74.84,13,Adrian Reyna,Rio Grande City,74.75,204.12,97.52,201.85,503.49,Single-ply,SBD,M
Boys,74.84,14,Jaime Rodriguez,Pharr Valley View,74.39,183.7,111.13,201.85,496.68,Single-ply,SBD,M
Boys,74.84,15,Matt Martinez,Port Isabel,73.03,199.58,104.33,181.44,485.34,Single-ply,SBD,M
Boys,74.84,16,Jesus Gonzalez,PSJA,73.03,161.03,115.67,174.63,451.32,Single-ply,SBD,M
Boys,74.84,17,Juan Servantes,PSJA Memorial,72.21,170.1,88.45,183.7,442.25,Single-ply,SBD,M
Boys,74.84,18,Erick Flores,Mission,68.22,156.49,88.45,176.9,421.84,Single-ply,SBD,M
Boys,74.84,19,Rene Codina,Mission Veterans Memorial,72.57,145.15,90.72,161.03,396.89,Single-ply,SBD,M
Boys,74.84,20,Mario Breck,PSJA North,72.3,147.42,97.52,147.42,392.36,Single-ply,SBD,M
Boys,74.84,21,Jesse Villareal,PSJA Southwest,69.22,151.95,74.84,158.76,385.55,Single-ply,SBD,M
Boys,74.84,22,Adonis Juarez,Mission,68.95,142.88,90.72,127.01,360.61,Single-ply,SBD,M
Boys,74.84,23,Elias Sierra,Weslaco East,73.94,136.08,70.31,145.15,351.53,Single-ply,SBD,M
Boys,74.84,24,Omar Alejos,PSJA Southwest,74.48,124.74,81.65,136.08,342.46,Single-ply,SBD,M
Boys,74.84,25,Alfredo Lozoya,Santa Maria,69.04,102.06,77.11,158.76,337.93,Single-ply,SBD,M
Boys,82.1,26,Isaac Martinez,Port Isabel,74.93,122.47,70.31,136.08,328.85,Single-ply,SBD,M
Boys,74.84,27,Daniel Rodriguez,Mission Veterans Memorial,71.67,124.74,77.11,124.74,326.59,Single-ply,SBD,M
Boys,74.84,DQ,Josh Arrevalo,PSJA North,74.84,151.95,,,,Single-ply,SBD,M
Boys,74.84,DQ,Leonard Ramirez,Raymondville,67.77,192.78,,,,Single-ply,SBD,M
Boys,82.1,1,Eliseo Garza,Los Fresnos,81.37,231.33,113.4,249.48,594.21,Single-ply,SBD,M
Boys,82.1,2,Luis Muñoz,Hidalgo Early College,82.1,235.87,138.35,219.99,594.21,Single-ply,SBD,M
Boys,82.1,3,Matt Galvan,San Benito,81.92,204.12,124.74,222.26,551.11,Single-ply,SBD,M
Boys,89.81,4,Edward Alaniz,PSJA North,82.28,208.65,120.2,217.72,546.58,Single-ply,SBD,M
Boys,82.1,5,Miguel Galvan,Pharr Valley View,81.19,195.04,129.27,199.58,523.9,Single-ply,SBD,M
Boys,82.1,6,Danny Cruz,Donna,75.84,215.46,120.2,185.97,521.63,Single-ply,SBD,M
Boys,82.1,7,Marco Villarreal,Mission Sharyland,78.93,192.78,120.2,190.51,503.49,Single-ply,SBD,M
Boys,82.1,8,Peter Gonzalez,Weslaco East,79.2,204.12,106.59,192.78,503.49,Single-ply,SBD,M
Boys,82.1,9,Randy de la Garza,Mission,79.65,192.78,124.74,185.97,503.49,Single-ply,SBD,M
Boys,89.81,10,Andrew Cura,Mission Sharyland,82.28,183.7,111.13,204.12,498.95,Single-ply,SBD,M
Boys,82.1,11,RJ Garza,Mercedes,80.74,183.7,133.81,165.56,483.08,Single-ply,SBD,M
Boys,82.1,12,Alberto Roque,Mission,81.01,185.97,106.59,185.97,478.54,Single-ply,SBD,M
Boys,82.1,13,Jesse Vega,Mercedes,78.2,170.1,120.2,181.44,471.74,Single-ply,SBD,M
Boys,82.1,14,Jose Luis Garcia,Santa Maria,77.2,185.97,86.18,192.78,464.93,Single-ply,SBD,M
Boys,82.1,15,Sabino Botello,Pharr Valley View,81.19,190.51,95.25,179.17,464.93,Single-ply,SBD,M
Boys,82.1,16,Ben Navarez,Edcouch-Elsa,78.65,156.49,92.99,183.7,433.18,Single-ply,SBD,M
Boys,82.1,17,AJ Alvarez,Donna,80.38,158.76,92.99,176.9,428.64,Single-ply,SBD,M
Boys,82.1,18,Ryan Anzaldua,PSJA North,80.56,142.88,102.06,156.49,401.43,Single-ply,SBD,M
Boys,82.1,19,Guillermo Silva,Rio Grande City,76.29,151.95,79.38,145.15,376.48,Single-ply,SBD,M
Boys,82.1,DQ,Erasmo Canales,Rio Grande City,76.66,,,,,Single-ply,SBD,M
Boys,82.1,DQ,Andrew Garza,Edcouch-Elsa,80.92,,,,,Single-ply,SBD,M
Boys,99.79,1,Justin Duran,Raymondville,89.99,306.17,195.04,269.89,771.11,Single-ply,SBD,M
Boys,89.81,2,Ivan Arrevalo,Pharr Valley View,88.45,249.48,138.35,274.42,662.24,Single-ply,SBD,M
Boys,89.81,3,Ramiro Flores,Los Fresnos,89.36,258.55,161.03,231.33,650.91,Single-ply,SBD,M
Boys,89.81,4,Ricardo Lopez Jr,Rio Grande City,83.82,244.94,136.08,208.65,589.67,Single-ply,SBD,M
Boys,89.81,5,Sylvano Cruces,Los Fresnos,89.18,226.8,136.08,226.8,589.67,Single-ply,SBD,M
Boys,89.81,6,Ernesto Tafolla,Weslaco,84.91,222.26,108.86,226.8,557.92,Single-ply,SBD,M
Boys,89.81,7,Jesus Ramirez,Port Isabel,88.54,217.72,129.27,201.85,548.85,Single-ply,SBD,M
Boys,89.81,8,Javier Perez,PSJA Memorial,85.64,204.12,122.47,201.85,528.44,Single-ply,SBD,M
Boys,89.81,9,Francisco Valle,Hidalgo Early College,86.09,217.72,122.47,176.9,517.1,Single-ply,SBD,M
Boys,89.81,10,Fernando Rivera,Port Isabel,89.63,208.65,127.01,181.44,517.1,Single-ply,SBD,M
Boys,89.81,11,John Arevalo,Weslaco East,86.82,192.78,104.33,208.65,505.76,Single-ply,SBD,M
Boys,89.81,12,Lee Gamez,Mercedes,89.45,195.04,99.79,195.04,489.88,Single-ply,SBD,M
Boys,89.81,13,Ej Ruiz,PSJA North,85.28,181.44,106.59,183.7,471.74,Single-ply,SBD,M
Boys,89.81,14,Kevin Alaniz,Rio Grande City,83.19,185.97,92.99,183.7,462.66,Single-ply,SBD,M
Boys,89.81,15,Jose Valdez,Hidalgo Early College,85.91,181.44,88.45,181.44,451.32,Single-ply,SBD,M
Boys,99.79,16,Ebert Gauna,Donna,90.04,149.69,97.52,174.63,421.84,Single-ply,SBD,M
Boys,89.81,17,Faustino Saldana,PSJA Southwest,86.18,163.29,86.18,158.76,408.23,Single-ply,SBD,M
Boys,89.81,18,Michael Hernandez,Mission Veterans Memorial,86.55,136.08,86.18,140.61,362.87,Single-ply,SBD,M
Boys,89.81,DQ,Charles Ybarra,Mission,84.46,124.74,,,,Single-ply,SBD,M
Boys,89.81,DQ,Jorge Berrones,PSJA North,89.09,179.17,95.25,149.69,,Single-ply,SBD,M
Boys,89.81,DQ,Jose Aldana,Mission,89.81,,,,,Single-ply,SBD,M
Boys,99.79,1,Mark Cavazos,Raymondville,97.16,260.82,197.31,224.53,682.66,Single-ply,SBD,M
Boys,99.79,2,William Relko,Mission,98.88,276.69,161.03,219.99,657.71,Single-ply,SBD,M
Boys,99.79,3,Victor Aguilar,Mercedes,99.52,240.4,149.69,217.72,607.81,Single-ply,SBD,M
Boys,99.79,4,Juan Villarreal,Edcouch-Elsa,92.44,235.87,113.4,219.99,569.26,Single-ply,SBD,M
Boys,99.79,5,Daniel Mora,Mission Sharyland,96.34,226.8,120.2,217.72,564.72,Single-ply,SBD,M
Boys,99.79,6,Jorge Garcia,Pharr Valley View,99.34,233.6,131.54,192.78,557.92,Single-ply,SBD,M
Boys,99.79,7,Joaquin Guillen,Mercedes,98.34,229.06,120.2,181.44,530.7,Single-ply,SBD,M
Boys,99.79,8,Blake Flores,PSJA Memorial,96.16,199.58,106.59,206.38,512.56,Single-ply,SBD,M
Boys,99.79,9,Mario Vera,Edcouch-Elsa,94.62,179.17,120.2,185.97,485.34,Single-ply,SBD,M
Boys,99.79,10,Kalub Rubaclaba,Donna,94.08,199.58,97.52,185.97,483.08,Single-ply,SBD,M
Boys,99.79,11,Angel Cruz,San Benito,99.25,192.78,102.06,176.9,471.74,Single-ply,SBD,M
Boys,99.79,12,Matt Rodriguez,PSJA,95.98,183.7,92.99,163.29,439.98,Single-ply,SBD,M
Boys,99.79,13,Alejandro Hernandez,Hidalgo Early College,91.53,165.56,90.72,181.44,437.72,Single-ply,SBD,M
Boys,99.79,14,Alan Gonzalez,Santa Maria,97.43,167.83,83.91,179.17,430.91,Single-ply,SBD,M
Boys,99.79,15,Javier Olmedo,Mission,99.06,161.03,77.11,133.81,371.95,Single-ply,SBD,M
Boys,99.79,16,Jose Martinez,PSJA Southwest,95.89,131.54,68.04,167.83,367.41,Single-ply,SBD,M
Boys,99.79,DQ,Robert Castillo,PSJA,99.61,272.16,,,,Single-ply,SBD,M
Boys,109.77,1,Gregory Juarez,Raymondville,103.42,297.1,156.49,226.8,680.39,Single-ply,SBD,M
Boys,124.74,2,Joe Cantu,Weslaco,109.86,306.17,129.27,226.8,662.24,Single-ply,SBD,M
Boys,109.77,3,Mauricio Verdin,Weslaco,101.15,285.76,129.27,229.06,644.1,Single-ply,SBD,M
Boys,109.77,4,Reuben Rubio,Mercedes,107.32,272.16,147.42,210.92,630.49,Single-ply,SBD,M
Boys,109.77,5,Anthony Rodriguez,Edcouch-Elsa,103.33,269.89,129.27,229.06,628.23,Single-ply,SBD,M
Boys,124.74,6,Jose Rubalcava,Rio Grande City,109.95,249.48,136.08,226.8,612.35,Single-ply,SBD,M
Boys,109.77,7,Robbie Garcia,Mercedes,105.78,226.8,142.88,185.97,555.65,Single-ply,SBD,M
Boys,109.77,8,Shawn Garcia,PSJA,104.42,213.19,129.27,188.24,530.7,Single-ply,SBD,M
Boys,109.77,9,Joe Martinez,Edcouch-Elsa,106.96,219.99,102.06,208.65,530.7,Single-ply,SBD,M
Boys,109.77,10,Justin Garza,PSJA North,108.41,199.58,120.2,181.44,501.22,Single-ply,SBD,M
Boys,124.74,11,Gilbert Galvan,PSJA Southwest,109.86,158.76,90.72,185.97,435.45,Single-ply,SBD,M
Boys,109.77,12,Jonathon Soto,PSJA Southwest,101.15,147.42,99.79,138.35,385.55,Single-ply,SBD,M
Boys,109.77,DQ,Joel Sanchez,Rio Grande City,108.05,274.42,,,,Single-ply,SBD,M
Boys,109.77,DQ,Elias Sanchez,Port Isabel,100.79,170.1,,,,Single-ply,SBD,M
Boys,109.77,DQ,Ruben Silva,Port Isabel,107.77,,,,,Single-ply,SBD,M
Boys,124.74,1,Jorge Alvarez,Edcouch-Elsa,120.11,272.16,174.63,219.99,666.78,Single-ply,SBD,M
Boys,124.74,2,Roy Valdez,Los Fresnos,120.66,265.35,136.08,244.94,646.37,Single-ply,SBD,M
Boys,124.74,3,Alejandro Villarreal,Hidalgo Early College,124.74,265.35,136.08,215.46,616.89,Single-ply,SBD,M
Boys,124.74,4,Robert Garcia,Mission Sharyland,113.4,258.55,136.08,219.99,614.62,Single-ply,SBD,M
Boys,124.74,5,Jose Castaneda,Raymondville,120.56,251.74,124.74,204.12,580.6,Single-ply,SBD,M
Boys,124.74,6,Ezequiel Lopez,San Benito,124.19,238.14,124.74,201.85,564.72,Single-ply,SBD,M
Boys,124.74,7,Art Camarillo,PSJA North,123.74,240.4,124.74,197.31,562.45,Single-ply,SBD,M
Boys,124.74,8,Andrew Cruz,PSJA North,114.03,226.8,138.35,195.04,560.19,Single-ply,SBD,M
Boys,124.74,9,Pedro Lozano,San Benito,118.93,201.85,140.61,208.65,551.11,Single-ply,SBD,M
Boys,124.74,10,Josh Cavazos,Mission Sharyland,117.93,226.8,115.67,204.12,546.58,Single-ply,SBD,M
Boys,124.74,11,Joseph Guerro,Donna,113.31,217.72,133.81,188.24,539.77,Single-ply,SBD,M
Boys,124.74,12,John de los Santos,Donna,114.4,204.12,140.61,195.04,539.77,Single-ply,SBD,M
Boys,124.74,13,Alfredo Cruz,PSJA Memorial,115.12,238.14,124.74,176.9,539.77,Single-ply,SBD,M
Boys,124.74,14,Juan Cantu,Mission,111.04,233.6,111.13,188.24,532.97,Single-ply,SBD,M
Boys,124.74,15,Francisco Cavazos,Mission Veterans Memorial,112.49,195.04,106.59,219.99,521.63,Single-ply,SBD,M
Boys,124.74,16,Memo Covarubias,San Benito,112.13,197.31,136.08,183.7,517.1,Single-ply,SBD,M
Boys,124.74,17,Isaac Escobedo,PSJA Memorial,121.02,172.37,129.27,172.37,474,Single-ply,SBD,M
Boys,124.74,18,Richard Cervantes,Mission Sharyland,115.67,170.1,83.91,170.1,424.11,Single-ply,SBD,M
Boys,124.74,19,Frank Alvarez,Port Isabel,110.77,156.49,86.18,167.83,410.5,Single-ply,SBD,M
Boys,124.74,20,Diego Deluna,Mission Veterans Memorial,119.2,113.4,86.18,124.74,324.32,Single-ply,SBD,M
Boys,124.74,DQ,Sammy Garcia,Mission Sharyland,117.93,192.78,,,,Single-ply,SBD,M
Boys,124.74,DQ,Guillermo Gomez,Mission,123.47,204.12,,,,Single-ply,SBD,M
Boys,124.74,DQ,Nathan Penaloza,Mission,110.5,229.06,,,,Single-ply,SBD,M
Boys,124.74,DQ,Andy Salinas,Port Isabel,111.04,,,,,Single-ply,SBD,M
Boys,124.74+,1,Jorge Mendez,Pharr Valley View,131.54,356.07,158.76,249.48,764.3,Single-ply,SBD,M
Boys,124.74+,2,Aaron Gonzalez,Raymondville,138.44,340.19,183.7,229.06,752.96,Single-ply,SBD,M
Boys,124.74+,3,Juan Zuniga,Mission,127.19,278.96,149.69,208.65,637.3,Single-ply,SBD,M
Boys,124.74+,4,Alvin Lofton,Edcouch-Elsa,136.62,215.46,124.74,210.92,551.11,Single-ply,SBD,M
Boys,124.74+,5,Danny Young,Mercedes,131.9,222.26,117.93,208.65,548.85,Single-ply,SBD,M
Boys,124.74+,6,Adrian Alcantar,PSJA Memorial,128.09,231.33,129.27,185.97,546.58,Single-ply,SBD,M
Boys,124.74+,7,Abraham Martinez,Mission Veterans Memorial,175.99,204.12,124.74,195.04,523.9,Single-ply,SBD,M
Boys,124.74+,8,Ray Guajardo,PSJA,154.13,226.8,115.67,167.83,510.29,Single-ply,SBD,M
Boys,124.74+,DQ,Mark Benevides,Port Isabel,148.42,244.94,133.81,,,Single-ply,SBD,M
Boys,124.74+,DQ,Jason Guerra,Rio Grande City,128.37,317.51,,,,Single-ply,SBD,M
Boys,124.74+,DQ,Alexander Yanez,Mission,129.27,249.48,,,,Single-ply,SBD,M
Boys,124.74+,DQ,Francisco Pedraza,Hidalgo Early College,134.81,226.8,115.67,,,Single-ply,SBD,M
