Place,Name,BirthYear,WeightClassKg,BodyweightKg,Country,Best3BenchKg,TotalKg,Sex,Division,Event,Equipment
1,Ingrid Grill,1962,44,43.2,Germany,67.5,67.5,F,Open,B,Single-ply
2,Eva Svajntekova,1973,44,43.2,Slovakia,62.5,62.5,F,Open,B,Single-ply
3,Marion Friedrich,1965,44,43.1,Germany,60,60,F,Open,B,Single-ply
4,Margit Wanko,1973,44,42.5,Austria,50,50,F,Open,B,Single-ply
1,Raija Koskinen-Jurkko,1963,48,47.3,Finland,82.5,82.5,F,Open,B,Single-ply
2,Hanna Svahn,1963,48,47.7,Denmark,82.5,82.5,F,Open,B,Single-ply
3,Pirjo Luomaluhta,1973,48,46.6,Finland,72.5,72.5,F,Open,B,Single-ply
4,Tatjana Eltsova,1978,48,47.9,Russia,72.5,72.5,F,Open,B,Single-ply
1,Anna Olsson-Lynge,1974,52,51.4,Sweden,107.5,107.5,F,Open,B,Single-ply
2,Irina Krylova,1978,52,48.3,Russia,105,105,F,Open,B,Single-ply
3,Kati Mäntylä,1964,52,51.5,Finland,95,95,F,Open,B,Single-ply
4,Angela Gueut,1965,52,51.9,Belgium,95,95,F,Open,B,Single-ply
5,Gabi Hirner,1965,52,50.9,Germany,92.5,92.5,F,Open,B,Single-ply
6,Marion Braun,1970,52,51,Austria,90,90,F,Open,B,Single-ply
7,Doris Illeditsch,1962,52,49.6,Germany,85,85,F,Open,B,Single-ply
8,Virpi Heikkinen,1970,52,50.7,Finland,85,85,F,Open,B,Single-ply
9,Allison Hough,1966,52,51,UK,57.5,57.5,F,Open,B,Single-ply
1,Lyuba Belova,1963,56,55.8,Belgium,120,120,F,Open,B,Single-ply
2,Dana Matejova,1975,56,55.7,Slovakia,100,100,F,Open,B,Single-ply
3,Marie Chr Puentes,1965,56,52.6,France,92.5,92.5,F,Open,B,Single-ply
4,Dagmar Wang,1948,56,52.6,Austria,87.5,87.5,F,Open,B,Single-ply
5,Ute Villwock,1967,56,55.7,Germany,85,85,F,Open,B,Single-ply
6,Mervi Sirkiä,1972,56,54.6,Finland,82.5,82.5,F,Open,B,Single-ply
DQ,Anette Thune,1967,56,55.1,Norway,,,F,Open,B,Single-ply
1,Helena Heiniluoma,1962,60,58.8,Finland,122.5,122.5,F,Open,B,Single-ply
2,Clara Kasbarian,1959,60,59.6,France,122.5,122.5,F,Open,B,Single-ply
3,Marion Hammang,1960,60,59.4,Luxembourg,117.5,117.5,F,Open,B,Single-ply
4,Svitlan Poplavska,1966,60,59.9,Ukraine,105,105,F,Open,B,Single-ply
5,Jessica Engdal,1972,60,59.8,Sweden,80,80,F,Open,B,Single-ply
1,Elena Fomina,1969,67.5,60.2,Russia,115,115,F,Open,B,Single-ply
2,Tatian Danilevich,1969,67.5,67.1,Russia,115,115,F,Open,B,Single-ply
3,Tamara Bagry,1974,67.5,65,Ukraine,102.5,102.5,F,Open,B,Single-ply
4,Heini Laitinen,1967,67.5,65.1,Finland,102.5,102.5,F,Open,B,Single-ply
5,Caudine Neumann,1963,67.5,61.2,Germany,100,100,F,Open,B,Single-ply
6,Lena Mattson,1964,67.5,64.6,Sweden,100,100,F,Open,B,Single-ply
7,Claudia Narovnigg,1972,67.5,67.3,Austria,97.5,97.5,F,Open,B,Single-ply
8,Carin Åkervall,1963,67.5,60.6,Sweden,95,95,F,Open,B,Single-ply
9,Elena Belova,1977,67.5,67.1,Belgium,90,90,F,Open,B,Single-ply
1,Elisabeth Singer,1963,75,72.7,Germany,130,130,F,Open,B,Single-ply
2,Bozena Lek,1970,75,72.8,Poland,125,125,F,Open,B,Single-ply
3,Sirpa Sandström,1964,75,69.7,Sweden,107.5,107.5,F,Open,B,Single-ply
4,Åsa Halvarsson,1961,75,73.1,Sweden,105,105,F,Open,B,Single-ply
5,And Ausserlechner,1969,75,72.3,Austria,100,100,F,Open,B,Single-ply
1,Leila Duhem,1963,82.5,77,France,117.5,117.5,F,Open,B,Single-ply
2,Svetlana Paltseva,1969,82.5,82.4,Russia,117.5,117.5,F,Open,B,Single-ply
1,Tarja Rantanen,1957,90,85.2,Finland,132.5,132.5,F,Open,B,Single-ply
1,Ganna Ganenko,1975,90+,90.1,Ukraine,135,135,F,Open,B,Single-ply
2,Elena Kurbakova,1976,90+,99.7,Russia,112.5,112.5,F,Open,B,Single-ply
3,Inge Preikszas,1955,90+,104.1,Germany,107.5,107.5,F,Open,B,Single-ply
1,Andrzej Stanaszek,1971,52,51.7,Poland,167.5,167.5,M,Open,B,Raw
2,Andrey Podpalny,1968,52,51.7,Russia,140,140,M,Open,B,Single-ply
3,Štefan Koľšovský,1961,52,51.8,Slovakia,130,130,M,Open,B,Single-ply
DQ,Mostaph Khaoraoui,,52,50.6,Sweden,,,M,Open,B,Single-ply
1,Konstantin Pavlov,1974,56,55.8,Russia,165,165,M,Open,B,Single-ply
2,Fanil Mukhamatyanov,1972,56,55.7,Russia,155,155,M,Open,B,Single-ply
3,Krzysztof Owsiany,1964,56,55.2,Poland,152.5,152.5,M,Open,B,Single-ply
4,Jonas Celin,1970,56,55.2,Sweden,140,140,M,Open,B,Single-ply
5,Peter Marcak,1970,56,55.9,Slovakia,135,135,M,Open,B,Single-ply
6,Petri Toivomäki,1976,56,55.5,Finland,130,130,M,Open,B,Single-ply
7,Pierre Gallart,1944,56,55.5,France,125,125,M,Open,B,Single-ply
8,Markus Cecon,1967,56,55.5,Austria,112.5,112.5,M,Open,B,Single-ply
1,Magnus Carlsson,1967,60,59.4,Sweden,180,180,M,Open,B,Single-ply
2,Vladimir Godunov,1974,60,59.9,Belgium,160,160,M,Open,B,Single-ply
3,Alphonse Cucuzella,1966,60,59.3,France,157.5,157.5,M,Open,B,Single-ply
4,Aleksandrs Radzēvičš,1963,60,59.5,Latvia,135,135,M,Open,B,Single-ply
5,Claude Sitruk,1960,60,58.1,France,130,130,M,Open,B,Single-ply
1,Sergey Ushakov,1974,67.5,67.3,Russia,177.5,177.5,M,Open,B,Single-ply
2,Marek Siedlecki,1957,67.5,67.2,Poland,172.5,172.5,M,Open,B,Single-ply
3,Andreas Röhr,1969,67.5,66.9,Germany,165,165,M,Open,B,Single-ply
4,Kari Veid,1961,67.5,67.1,Finland,162.5,162.5,M,Open,B,Single-ply
5,Stefan Plumat,1967,67.5,64.2,Spain,160,160,M,Open,B,Single-ply
6,Frode Berentsen,1976,67.5,67,Norway,155,155,M,Open,B,Single-ply
7,Alfred Holzer,1962,67.5,66.2,Austria,152.5,152.5,M,Open,B,Single-ply
8,Mark Hale,1960,67.5,64.7,UK,145,145,M,Open,B,Single-ply
9,Aygis Kurtniaks,1976,67.5,65,Latvia,140,140,M,Open,B,Single-ply
DQ,Vladimír Nebola,1970,67.5,66.5,Czechia,,,M,Open,B,Single-ply
1,Tomi Heinonen,1969,75,74.7,Finland,200,200,M,Open,B,Single-ply
2,Vladimir Tchadkov,1972,75,74.3,Russia,197.5,197.5,M,Open,B,Single-ply
3,Jan Wegiera,1965,75,74.8,Poland,197.5,197.5,M,Open,B,Single-ply
4,Michael Wegerer,1970,75,74.5,Austria,192.5,192.5,M,Open,B,Single-ply
5,Romero Fermin,1966,75,74.8,Spain,187.5,187.5,M,Open,B,Single-ply
6,Mikael Vegh,1968,75,74.3,Sweden,177.5,177.5,M,Open,B,Single-ply
7,Allan Riis,1971,75,74.7,Denmark,167.5,167.5,M,Open,B,Single-ply
8,Vegeir Knudsen,1973,75,70.9,Norway,162.5,162.5,M,Open,B,Single-ply
1,Kari Laitila,1958,82.5,82.1,Finland,222.5,222.5,M,Open,B,Single-ply
2,Lutz Gayek,1967,82.5,81.6,Germany,215,215,M,Open,B,Single-ply
3,Andreas Zeilinger,1968,82.5,80.9,Austria,212.5,212.5,M,Open,B,Single-ply
4,Marek Markwat,1952,82.5,81.4,Poland,212.5,212.5,M,Open,B,Single-ply
5,Evgeny Beletsky,1964,82.5,81.9,Russia,205,205,M,Open,B,Single-ply
6,Didier Compain,1959,82.5,81.7,France,195,195,M,Open,B,Single-ply
7,Miroslav Hubáček,1967,82.5,81.9,Czechia,195,195,M,Open,B,Single-ply
8,Manfred Sabathy,1961,82.5,82.3,Austria,175,175,M,Open,B,Single-ply
1,Alexander Lekomtsev,1965,90,88.3,Russia,232.5,232.5,M,Open,B,Single-ply
2,Jan Lindén,1955,90,87.9,Finland,220,220,M,Open,B,Single-ply
3,Uwe Haase,1964,90,89.4,Germany,217.5,217.5,M,Open,B,Single-ply
4,Ola Neselius,1968,90,89.9,Sweden,217.5,217.5,M,Open,B,Single-ply
5,Erwin Krokkee,1966,90,89.7,Netherlands,215,215,M,Open,B,Single-ply
6,Juha Ruokonen,1970,90,88.4,Finland,210,210,M,Open,B,Single-ply
DQ,Jan Luka,1949,90,87.8,Poland,,,M,Open,B,Single-ply
DQ,Dariusz Fornella,1970,90,88.9,Poland,,,M,Open,B,Single-ply
DQ,Peter Andersson,1970,90,89.4,Sweden,,,M,Open,B,Single-ply
1,Jerzy Furmanek,1952,100,98.9,Poland,235,235,M,Open,B,Single-ply
2,Peter Linberg,1958,100,96.8,Sweden,232.5,232.5,M,Open,B,Single-ply
3,Kenneth Mattson,1954,100,99.5,Sweden,232.5,232.5,M,Open,B,Single-ply
4,Björn G. Johansen,1971,100,99.2,Norway,225,225,M,Open,B,Single-ply
5,Ari Linna,1961,100,97.9,Finland,217.5,217.5,M,Open,B,Single-ply
6,Leif Nielsen,1964,100,99.1,Denmark,190,190,M,Open,B,Single-ply
7,Kim Olesen,1961,100,99.5,Denmark,190,190,M,Open,B,Single-ply
DQ,Alexander Dunaev,1970,100,99.2,Russia,,,M,Open,B,Single-ply
1,Yuri Khuazhev,1970,110,105.6,Russia,252.5,252.5,M,Open,B,Single-ply
2,Piet Faber,1962,110,109.9,Netherlands,250,250,M,Open,B,Single-ply
3,Vincent Urbaniak,1963,110,108.7,France,242.5,242.5,M,Open,B,Single-ply
4,Roland Eriksson,1964,110,108.3,Sweden,240,240,M,Open,B,Single-ply
5,Thorsten Weidlich,1963,110,109.7,Germany,225,225,M,Open,B,Single-ply
6,Jukka Lahikainen,1958,110,109.9,Finland,222.5,222.5,M,Open,B,Single-ply
7,Søren Eggebrecht,1959,110,109.9,Denmark,210,210,M,Open,B,Single-ply
8,Anthony Brown,1968,110,109.6,UK,200,200,M,Open,B,Single-ply
9,Vidar Ringvold,1955,110,109.7,Norway,200,200,M,Open,B,Single-ply
1,Reinhold Kases,1964,125,122.5,Austria,270,270,M,Open,B,Single-ply
2,Francisco Jiminez,1958,125,117,Spain,240,240,M,Open,B,Single-ply
3,Jarmo Rantanan,1961,125,119.4,Finland,235,235,M,Open,B,Single-ply
4,Ove Lehto,1972,125,114.9,Finland,215,215,M,Open,B,Single-ply
1,Michael Schetter,1975,125+,129,Germany,265,265,M,Open,B,Single-ply
2,Rif Gadiev,1964,125+,146.2,Russia,265,265,M,Open,B,Single-ply
3,Niels Stærkjær,1965,125+,143.4,Denmark,250,250,M,Open,B,Single-ply
4,Yngve Gustafsson,1959,125+,152.3,Sweden,250,250,M,Open,B,Single-ply
5,Auri Kortesalmi,1963,125+,126,Finland,240,240,M,Open,B,Single-ply
6,Lubomir Mikus,1961,125+,141.9,Slovakia,210,210,M,Open,B,Single-ply
7,Clive Lambert,1963,125+,139.6,UK,207.5,207.5,M,Open,B,Single-ply
