Division,WeightClassKg,Place,Name,Team,BodyweightKg,Best3SquatKg,Best3BenchKg,Best3DeadliftKg,TotalKg,Equipment,Event,Sex
Boys,51.71,1,Rudy Sanchez,Somerset,51.53,145.15,83.91,179.17,408.23,Single-ply,SBD,M
Boys,51.71,2,Marco Garza,Dilley,51.71,131.54,77.11,158.76,367.41,Single-ply,SBD,M
Boys,51.71,3,Alex Garcia,Cotulla,49.9,129.27,72.57,133.81,335.66,Single-ply,SBD,M
Boys,51.71,4,Ricardo Martinez,Pearsall,51.26,124.74,74.84,124.74,324.32,Single-ply,SBD,M
Boys,51.71,5,John Acosta,Crystal City,50.44,120.2,63.5,133.81,317.51,Single-ply,SBD,M
Boys,51.71,6,Francisco Villarreal,Laredo Nixon,49.8,97.52,74.84,122.47,294.84,Single-ply,SBD,M
Boys,55.79,1,Ernesto Consuegra,Cotulla,54.07,127.01,74.84,149.69,351.53,Single-ply,SBD,M
Boys,55.79,2,Orlando Mata,Crystal City,54.61,127.01,68.04,149.69,344.73,Single-ply,SBD,M
Boys,55.79,3,Alexander Comparan,Laredo Nixon,53.34,124.74,70.31,117.93,312.98,Single-ply,SBD,M
Boys,55.79,4,Jesus De La Rosa,Laredo Nixon,54.16,106.59,49.9,124.74,281.23,Single-ply,SBD,M
Boys,59.87,1,Rolando Aguilar,Laredo United,59.87,199.58,90.72,185.97,476.27,Single-ply,SBD,M
Boys,59.87,2,Jerome Martinez,Cotulla,59.78,158.76,95.25,154.22,408.23,Single-ply,SBD,M
Boys,59.87,3,Virgil Luna,Crystal City,59.87,142.88,74.84,161.03,378.75,Single-ply,SBD,M
Boys,67.13,1,Julian Rico,Somerset,66.68,240.4,149.69,204.12,594.21,Single-ply,SBD,M
Boys,67.13,2,Jorge González,Cotulla,66.68,176.9,117.93,170.1,464.93,Single-ply,SBD,M
Boys,67.13,3,Alex De La Rosa,Dilley,66.22,156.49,108.86,165.56,430.91,Single-ply,SBD,M
Boys,67.13,4,Lloyd Soto,Laredo United,67.13,183.7,86.18,158.76,428.64,Single-ply,SBD,M
Boys,67.13,5,Luis Guerra,Laredo Nixon,64.23,151.95,83.91,154.22,390.09,Single-ply,SBD,M
Boys,67.13,6,Ivan Diaz,Laredo Nixon,64.95,124.74,74.84,158.76,358.34,Single-ply,SBD,M
Boys,74.84,1,Mario Cabrera,Somerset,69.76,226.8,133.81,208.65,569.26,Single-ply,SBD,M
Boys,74.84,2,Mark Santillan,Laredo Johnson,72.94,204.12,124.74,217.72,546.58,Single-ply,SBD,M
Boys,74.84,3,Raul Bermea,Laredo Johnson,73.94,204.12,124.74,208.65,537.51,Single-ply,SBD,M
Boys,74.84,4,Richard Munoz,Carrizo Springs,69.22,210.92,124.74,183.7,519.36,Single-ply,SBD,M
Boys,74.84,5,Jose Trujillo,Carrizo Springs,74.84,185.97,102.06,215.46,503.49,Single-ply,SBD,M
Boys,74.84,6,Fabian Santos,Dilley,74.21,183.7,97.52,208.65,489.88,Single-ply,SBD,M
Boys,74.84,7,Martin Rios,Crystal City,74.75,192.78,102.06,192.78,487.61,Single-ply,SBD,M
Boys,74.84,8,Nemencio Tijerina,Poteet,73.39,183.7,106.59,183.7,474,Single-ply,SBD,M
Boys,74.84,9,Juan Guzman,Crystal City,73.39,185.97,113.4,170.1,469.47,Single-ply,SBD,M
Boys,74.84,10,Martin Lopez,Crystal City,74.39,190.51,104.33,165.56,460.4,Single-ply,SBD,M
Boys,74.84,11,Nathaniel Mena,Somerset,72.3,167.83,95.25,190.51,453.59,Single-ply,SBD,M
Boys,82.1,1,Gavin Vara,Uvalde,81.1,249.48,120.2,256.28,625.96,Single-ply,SBD,M
Boys,82.1,2,Giovanni Mendez,Cotulla,81.83,215.46,136.08,195.04,546.58,Single-ply,SBD,M
Boys,82.1,3,Issac Garcia,Crystal City,81.19,213.19,108.86,213.19,535.24,Single-ply,SBD,M
Boys,82.1,4,Ray Leal,Pearsall,81.74,195.04,104.33,229.06,528.44,Single-ply,SBD,M
Boys,82.1,5,Eden Fuentes,Pearsall,76.2,195.04,113.4,215.46,523.9,Single-ply,SBD,M
Boys,82.1,6,Ethan Acevedo,Poteet,81.74,185.97,86.18,174.63,446.79,Single-ply,SBD,M
Boys,82.1,7,Domingo Mendiola,Laredo Nixon,79.11,145.15,102.06,183.7,430.91,Single-ply,SBD,M
Boys,82.1,8,Alomar Ybarra,Somerset,81.28,158.76,83.91,158.76,401.43,Single-ply,SBD,M
Boys,89.81,1,Michael Gonzalez,Somerset,89.54,272.16,170.1,231.33,673.58,Single-ply,SBD,M
Boys,89.81,2,Elias Torres,Somerset,89.27,267.62,167.83,213.19,648.64,Single-ply,SBD,M
Boys,89.81,3,Josiah Marquez,Pearsall,85.28,254.01,124.74,240.4,619.15,Single-ply,SBD,M
Boys,89.81,4,Michael Gomez,Poteet,88.99,254.01,142.88,204.12,601.01,Single-ply,SBD,M
Boys,89.81,5,Aaron Ramirez,Dilley,88.9,242.67,127.01,217.72,587.4,Single-ply,SBD,M
Boys,89.81,6,Giovanni Narvaiz,Cotulla,86.18,231.33,138.35,204.12,573.79,Single-ply,SBD,M
Boys,89.81,7,Eli Gonzalez,Cotulla,89.72,204.12,127.01,172.37,503.49,Single-ply,SBD,M
Boys,99.79,1,Joseph Bueno,Somerset,97.52,324.32,199.58,274.42,798.32,Single-ply,SBD,M
Boys,99.79,2,Joseph Martinez,Cotulla,98.97,272.16,154.22,265.35,691.73,Single-ply,SBD,M
Boys,99.79,3,Moses Carrasco,Poteet,97.61,272.16,147.42,244.94,664.51,Single-ply,SBD,M
Boys,99.79,4,Tim Carrasco,Poteet,97.61,247.21,142.88,215.46,605.55,Single-ply,SBD,M
Boys,99.79,5,Andrew Velasquez,Cotulla,98.7,208.65,151.95,197.31,557.92,Single-ply,SBD,M
Boys,99.79,6,AJ Rodriguez,Carrizo Springs,97.89,231.33,97.52,199.58,528.44,Single-ply,SBD,M
Boys,99.79,7,Homer Arredondo,Crystal City,94.71,163.29,102.06,163.29,428.64,Single-ply,SBD,M
Boys,109.77,1,Elijah Cortez-Hernandez,Uvalde,104.33,294.84,129.27,226.8,650.91,Single-ply,SBD,M
Boys,109.77,2,Luis Rios,Laredo Johnson,109.13,226.8,151.95,226.8,605.55,Single-ply,SBD,M
Boys,109.77,3,Joe Gutierrez,Crystal City,108.14,283.5,111.13,195.04,589.67,Single-ply,SBD,M
Boys,109.77,4,Isaiah Valdez,Somerset,101.88,181.44,149.69,183.7,514.83,Single-ply,SBD,M
Boys,109.77,5,Phillip Valles,Carrizo Springs,103.87,190.51,106.59,197.31,494.42,Single-ply,SBD,M
Boys,109.77,6,Juan Flores,Somerset,109.77,174.63,106.59,174.63,455.86,Single-ply,SBD,M
Boys,109.77,7,Steven Terrazas,Somerset,102.97,151.95,124.74,156.49,433.18,Single-ply,SBD,M
Boys,124.74,1,Baldomero Ortega,Cotulla,122.47,272.16,133.81,244.94,650.91,Single-ply,SBD,M
Boys,124.74,2,Dustin Dominguez,Dilley,120.84,256.28,151.95,226.8,635.03,Single-ply,SBD,M
Boys,124.74,3,Alfonso Mata,Crystal City,119.39,263.08,149.69,217.72,630.49,Single-ply,SBD,M
Boys,124.74,DQ,Claudio Padilla,Laredo Johnson,123.47,263.08,136.08,,,Single-ply,SBD,M
Boys,124.74+,1,Seth Ritchey,Poteet,133.72,317.51,131.54,238.14,687.19,Single-ply,SBD,M
Boys,124.74+,2,Louis Rico,Somerset,129.73,244.94,183.7,195.04,623.69,Single-ply,SBD,M
Boys,124.74+,3,Javier Lopez,Cotulla,146.06,242.67,136.08,181.44,560.19,Single-ply,SBD,M
