Division,WeightClassKg,Place,Name,Team,BodyweightKg,Best3SquatKg,Best3BenchKg,Best3DeadliftKg,TotalKg,Equipment,Event,Sex
Boys,51.71,1,Andrick Ramirez,Fort Stockton,51.44,124.74,72.57,120.2,317.51,Single-ply,SBD,M
Boys,51.71,2,Jose Martinez,Crane,43.54,79.38,54.43,95.25,229.06,Single-ply,SBD,M
Boys,51.71,DQ,Jared Paredez,Big Spring,50.71,142.88,72.57,,,Single-ply,SBD,M
Boys,51.71,DQ,Christian Solis,Pecos,51.71,97.52,77.11,,,Single-ply,SBD,M
Boys,51.71,DQ,Kendrik Porras,Fort Stockton,51.21,,,,,Single-ply,SBD,M
Boys,55.79,1,Cruz Martinez,Big Spring,55.7,147.42,74.84,142.88,365.14,Single-ply,SBD,M
Boys,55.79,2,Zaniel Flores,Kermit,54.79,136.08,70.31,142.88,349.27,Single-ply,SBD,M
Boys,55.79,3,Mattox Evans,Big Spring,54.57,115.67,65.77,131.54,312.98,Single-ply,SBD,M
Boys,55.79,4,Alex Lujan,Fort Stockton,54.25,106.59,54.43,129.27,290.3,Single-ply,SBD,M
Boys,55.79,DQ,Ulises Pinales,McCamey,52.84,,,,,Single-ply,SBD,M
Boys,59.87,1,Joshua Lopez,Big Spring,58.56,151.95,86.18,183.7,421.84,Single-ply,SBD,M
Boys,59.87,2,Shawn Mendoza,Big Spring,59.6,145.15,81.65,156.49,383.29,Single-ply,SBD,M
Boys,59.87,3,Jackson Carroll,Pecos,58.92,111.13,70.31,124.74,306.17,Single-ply,SBD,M
Boys,59.87,4,Rene Heredia,Monahans,59.87,86.18,52.16,113.4,251.74,Single-ply,SBD,M
Boys,67.13,1,Juan Salgado,Fort Stockton,66.54,185.97,133.81,167.83,487.61,Single-ply,SBD,M
Boys,67.13,2,Isaac Noble,Pecos,66.95,138.35,95.25,161.03,394.63,Single-ply,SBD,M
Boys,67.13,3,Adan Gonzales,McCamey,61.82,129.27,77.11,127.01,333.39,Single-ply,SBD,M
Boys,67.13,4,Mario Yanez,Monahans,62.28,113.4,68.04,131.54,312.98,Single-ply,SBD,M
Boys,67.13,5,Xavier Urias,McCamey,62.82,113.4,72.57,117.93,303.91,Single-ply,SBD,M
Boys,67.13,6,Franklin Price,Kermit,66.32,108.86,70.31,99.79,278.96,Single-ply,SBD,M
Boys,67.13,7,Sawyer Jackson,Alpine,64.77,63.5,63.5,86.18,213.19,Single-ply,SBD,M
Boys,67.13,8,Marco Fernandez,Kermit,64.23,108.86,,,108.86,Single-ply,S,M
Boys,74.84,1,Ryan Orona,Pecos,74.84,183.7,131.54,219.99,535.24,Single-ply,SBD,M
Boys,74.84,2,Cesar Trejo,Fort Stockton,72.85,188.24,111.13,188.24,487.61,Single-ply,SBD,M
Boys,74.84,3,Gabriel Mendoza,Kermit,74.12,181.44,92.99,183.7,458.13,Single-ply,SBD,M
Boys,74.84,4,Devin Sala,Pecos,70.99,158.76,95.25,154.22,408.23,Single-ply,SBD,M
Boys,74.84,DQ,Jalen Ybarra,Crane,73.3,172.37,99.79,,,Single-ply,SBD,M
Boys,82.1,1,Ernesto Ornales,Monahans,80.74,195.04,147.42,195.04,537.51,Single-ply,SBD,M
Boys,82.1,2,Ethan Cortez,Big Spring,78.29,201.85,120.2,199.58,521.63,Single-ply,SBD,M
Boys,82.1,3,Sam Clendenen,Crane,81.56,154.22,106.59,183.7,444.52,Single-ply,SBD,M
Boys,82.1,4,Hernan Hernandez,Kermit,76.52,161.03,106.59,167.83,435.45,Single-ply,SBD,M
Boys,82.1,5,Grabe Muniz,Wink,78.65,147.42,92.99,158.76,399.16,Single-ply,SBD,M
Boys,82.1,6,Victor Salazar,Pecos,77.02,140.61,92.99,158.76,392.36,Single-ply,SBD,M
Boys,82.1,7,Jesus Lara,Kermit,79.15,131.54,90.72,140.61,362.87,Single-ply,SBD,M
Boys,82.1,8,Ivan Salinas,Wink,80.56,138.35,74.84,136.08,349.27,Single-ply,SBD,M
Boys,82.1,9,Rigo Molina,McCamey,81.19,138.35,58.97,138.35,335.66,Single-ply,SBD,M
Boys,82.1,10,Hazel Hernandez,McCamey,75.3,99.79,70.31,127.01,297.1,Single-ply,SBD,M
Boys,82.1,11,Aaron Boner,Kermit,81.78,88.45,70.31,117.93,276.69,Single-ply,SBD,M
Boys,82.1,12,Marco Martínez,Alpine,82.1,77.11,49.9,77.11,204.12,Single-ply,SBD,M
Boys,89.81,1,Mikiel Burralo,Kermit,89.04,181.44,111.13,181.44,474,Single-ply,SBD,M
Boys,89.81,2,Gustavo Marin,Fort Stockton,89.18,170.1,111.13,181.44,462.66,Single-ply,SBD,M
Boys,89.81,3,Axel Nuno,Crane,82.64,176.9,115.67,165.56,458.13,Single-ply,SBD,M
Boys,89.81,4,Sylis Vidana,Monahans,85.82,165.56,86.18,174.63,426.38,Single-ply,SBD,M
Boys,89.81,5,Ryan Gooch,Alpine,88.45,158.76,81.65,163.29,403.7,Single-ply,SBD,M
Boys,89.81,6,Jesus Rivas,Kermit,83.69,113.4,81.65,138.35,333.39,Single-ply,SBD,M
Boys,89.81,7,Domingo Reyes,Kermit,84.73,111.13,72.57,120.2,303.91,Single-ply,SBD,M
Boys,89.81,8,Ashton Vega,Alpine,85.28,70.31,56.7,104.33,231.33,Single-ply,SBD,M
Boys,99.79,1,Hayden Pilpken,Monahans,93.94,240.4,163.29,222.26,625.96,Single-ply,SBD,M
Boys,99.79,2,Isaiah Rodriguez,Big Spring,96.71,235.87,113.4,208.65,557.92,Single-ply,SBD,M
Boys,99.79,3,Donnie De La Cruz,Fort Stockton,99.06,226.8,122.47,181.44,530.7,Single-ply,SBD,M
Boys,99.79,4,Paul Walker,Crane,96.16,219.99,111.13,188.24,519.36,Single-ply,SBD,M
Boys,99.79,5,Josue Vasquez,Kermit,94.62,195.04,117.93,181.44,494.42,Single-ply,SBD,M
Boys,99.79,6,Angelo Lopez,Kermit,99.61,192.78,117.93,170.1,480.81,Single-ply,SBD,M
Boys,99.79,7,Candelario Saldana,McCamey,92.8,120.2,56.7,117.93,294.84,Single-ply,SBD,M
Boys,99.79,8,Clarence Farrow,Kermit,97.89,154.22,99.79,161.03,415.04,Single-ply,SBD,M
Boys,99.79,9,Mack Payne,Wink,91.04,154.22,86.18,142.88,383.29,Single-ply,SBD,M
Boys,99.79,10,Ethan Purcell,Wink,97.66,145.15,86.18,140.61,371.95,Single-ply,SBD,M
Boys,99.79,11,Caleb Noble,Pecos,98.75,124.74,92.99,147.42,365.14,Single-ply,SBD,M
Boys,99.79,12,Rey Vanlenzuela,Kermit,92.08,108.86,61.23,131.54,301.64,Single-ply,SBD,M
Boys,99.79,13,Devin Harris,Kermit,96.52,102.06,52.16,115.67,269.89,Single-ply,SBD,M
Boys,109.77,1,Andrew Castro,Fort Stockton,109.18,226.8,113.4,204.12,544.31,Single-ply,SBD,M
Boys,109.77,2,Matthew Underwood,Wink,108.95,235.87,127.01,172.37,535.24,Single-ply,SBD,M
Boys,109.77,3,Devon Butler,Crane,106.96,201.85,129.27,181.44,512.56,Single-ply,SBD,M
Boys,109.77,4,Aleyas Bland,Big Spring,100.02,195.04,113.4,170.1,478.54,Single-ply,SBD,M
Boys,109.77,5,Alejandro Valenzuela,Alpine,104.46,158.76,77.11,181.44,417.3,Single-ply,SBD,M
Boys,109.77,6,Fabian Rodriguez,Wink,101.79,158.76,92.99,158.76,410.5,Single-ply,SBD,M
Boys,109.77,7,Andrew Trejo,Pecos,106.1,147.42,106.59,122.47,376.48,Single-ply,SBD,M
Boys,109.77,8,Chritian Baca,Pecos,108.95,238.14,58.97,36.29,333.39,Single-ply,SBD,M
Boys,109.77,9,Eliseo Bonilla,Kermit,105.46,124.74,65.77,138.35,328.85,Single-ply,SBD,M
Boys,124.74,1,Jayson Pagan,McCamey,112.49,226.8,127.01,197.31,551.11,Single-ply,SBD,M
Boys,124.74,2,Andrew Roberts,Big Spring,114.89,206.38,151.95,190.51,548.85,Single-ply,SBD,M
Boys,124.74,3,Darius Pando,Kermit,122.2,226.8,113.4,206.38,546.58,Single-ply,SBD,M
Boys,124.74,4,Gerry Salazar,McCamey,111.31,197.31,113.4,199.58,510.29,Single-ply,SBD,M
Boys,124.74,5,Daniel Roberts,Big Spring,119.88,176.9,122.47,181.44,480.81,Single-ply,SBD,M
Boys,124.74,6,Kyle Coffee,Monahans,113.4,181.44,102.06,195.04,478.54,Single-ply,SBD,M
Boys,124.74,7,Isaiah Garcia,McCamey,113.22,195.04,92.99,181.44,469.47,Single-ply,SBD,M
Boys,124.74+,1,Alexis Rosas,Crane,127.14,272.16,156.49,231.33,659.98,Single-ply,SBD,M
Boys,124.74+,2,Jonathan Gomez,Fort Stockton,140.57,242.67,104.33,181.44,528.44,Single-ply,SBD,M
Boys,124.74+,3,Devin Boisvert,Big Spring,136.08,156.49,63.5,163.29,383.29,Single-ply,SBD,M
Boys,124.74+,DQ,Ralf Navarette,Crane,155.58,244.94,131.54,,,Single-ply,SBD,M
Boys,124.74+,DQ,Jerry Perez,Kermit,138.71,,,,,Single-ply,SBD,M
Boys,124.74+,DQ,Albert Aguilar,Pecos,148.46,,,,,Single-ply,SBD,M
