Division,WeightClassKg,Place,Name,Team,BodyweightKg,Best3SquatKg,Best3BenchKg,Best3DeadliftKg,TotalKg,Equipment,Event,Sex
Boys,51.71,1,Randy Soliz,Hebbronville,51.44,174.63,97.52,195.04,467.2,Single-ply,SBD,M
Boys,51.71,2,LA Gonzalez,Alice,51.17,176.9,90.72,163.29,430.91,Single-ply,SBD,M
Boys,55.79,3,Joey Heard,Orange Grove,51.8,102.06,74.84,136.08,312.98,Single-ply,SBD,M
Boys,55.79,4,Blake Suarez,Corpus Christi Tuloso-Midway,51.8,111.13,70.31,127.01,308.44,Single-ply,SBD,M
Boys,51.71,5,Cody Juarez,Alice,45.36,106.59,70.31,113.4,290.3,Single-ply,SBD,M
Boys,55.79,1,Richard Saenz,Hebbronville,55.16,163.29,81.65,163.29,408.23,Single-ply,SBD,M
Boys,55.79,2,Joel Garza,Corpus Christi Calallen,55.7,127.01,70.31,145.15,342.46,Single-ply,SBD,M
Boys,55.79,3,Juan Alvarez,Orange Grove,54.25,99.79,52.16,129.27,281.23,Single-ply,SBD,M
Boys,55.79,4,Marcus Schuessler,Freer,53.71,83.91,49.9,83.91,217.72,Single-ply,SBD,M
Boys,55.79,DQ,Ulysses Botello,Banquete,53.71,,,,,Single-ply,SBD,M
Boys,55.79,DQ,Bylan Breland,Banquete,55.52,,,,,Single-ply,SBD,M
Boys,67.13,1,Chantz Mickens,Corpus Christi Tuloso-Midway,60.06,172.37,86.18,174.63,433.18,Single-ply,SBD,M
Boys,59.87,2,Patrick Ayala,Banquete,59.69,149.69,92.99,188.24,430.91,Single-ply,SBD,M
Boys,59.87,3,Alex Gonzalez,Alice,59.87,158.76,86.18,170.1,415.04,Single-ply,SBD,M
Boys,59.87,4,Brandon Perez,Alice,59.42,158.76,81.65,142.88,383.29,Single-ply,SBD,M
Boys,59.87,5,Joseph Reyes,Alice,58.97,158.76,61.23,147.42,367.41,Single-ply,SBD,M
Boys,59.87,6,Jaime Rodriguez,Jourdanton,57.7,149.69,65.77,149.69,365.14,Single-ply,SBD,M
Boys,59.87,7,Trevor DeLuna,Corpus Christi Tuloso-Midway,57.24,149.69,77.11,136.08,362.87,Single-ply,SBD,M
Boys,59.87,8,Ben Uribe,Jourdanton,59.42,138.35,81.65,136.08,356.07,Single-ply,SBD,M
Boys,67.13,9,Sergio Marin,Freer,60.06,129.27,81.65,142.88,353.8,Single-ply,SBD,M
Boys,67.13,10,Christian Vasquez,Corpus Christi Calallen,60.06,124.74,70.31,142.88,337.93,Single-ply,SBD,M
Boys,59.87,11,Noel Pena,Corpus Christi Calallen,57.97,117.93,77.11,136.08,331.12,Single-ply,SBD,M
Boys,59.87,12,Garrett Hight,Corpus Christi Calallen,59.69,113.4,77.11,140.61,331.12,Single-ply,SBD,M
Boys,59.87,DQ,Gabriel Quinones,Gregory-Portland,57.15,,,,,Single-ply,SBD,M
Boys,74.84,1,Aaron Martinez,Corpus Christi Calallen,67.31,204.12,120.2,213.19,537.51,Single-ply,SBD,M
Boys,67.13,2,Estevan Galvan,Freer,60.24,174.63,113.4,210.92,498.95,Single-ply,SBD,M
Boys,67.13,3,Rene Luna,Alice,66.68,183.7,115.67,197.31,496.68,Single-ply,SBD,M
Boys,67.13,4,Aaron Garcia,Alice,64.86,181.44,113.4,183.7,478.54,Single-ply,SBD,M
Boys,74.84,5,Dmitri Flores,Falfurrias,67.31,176.9,102.06,188.24,467.2,Single-ply,SBD,M
Boys,67.13,6,Anthony Huerta,Gregory-Portland,63.32,161.03,113.4,188.24,462.66,Single-ply,SBD,M
Boys,74.84,7,Brandon De Los Santos,Jourdanton,67.31,183.7,92.99,170.1,446.79,Single-ply,SBD,M
Boys,67.13,8,Brandon Davis,Jourdanton,62.23,170.1,81.65,167.83,419.57,Single-ply,SBD,M
Boys,67.13,9,Nathaniel McRae,Hebbronville,66.13,149.69,83.91,185.97,419.57,Single-ply,SBD,M
Boys,67.13,10,Isaiah Dennis,Pettus,66.86,156.49,92.99,163.29,412.77,Single-ply,SBD,M
Boys,74.84,11,Derrick Carroll,Beeville Jones,67.22,154.22,81.65,172.37,408.23,Single-ply,SBD,M
Boys,67.13,12,Arin Saenz,Freer,66.77,158.76,70.31,167.83,396.89,Single-ply,SBD,M
Boys,67.13,13,Josy Figuerroa,Corpus Christi Tuloso-Midway,62.41,158.76,92.99,133.81,385.55,Single-ply,SBD,M
Boys,67.13,14,Edward Valderas,Three Rivers,63.5,140.61,83.91,151.95,376.48,Single-ply,SBD,M
Boys,67.13,15,Brandon Charles,Corpus Christi Calallen,66.68,136.08,90.72,149.69,376.48,Single-ply,SBD,M
Boys,67.13,16,Reed Anastasio,Gregory-Portland,65.86,136.08,86.18,151.95,374.21,Single-ply,SBD,M
Boys,67.13,17,Cristian Alvarado,Corpus Christi Calallen,65.23,133.81,81.65,147.42,362.87,Single-ply,SBD,M
Boys,74.84,1,Aaron Serrato,Freer,73.57,233.6,140.61,235.87,610.08,Single-ply,SBD,M
Boys,74.84,2,Samuel Navarro,Beeville Jones,69.94,219.99,131.54,226.8,578.33,Single-ply,SBD,M
Boys,74.84,3,Gabriel Cantu,Corpus Christi Calallen,72.39,208.65,120.2,242.67,571.53,Single-ply,SBD,M
Boys,74.84,4,Christian Salazar,Corpus Christi Tuloso-Midway,74.75,231.33,129.27,210.92,571.53,Single-ply,SBD,M
Boys,74.84,5,JP Ruth,Gregory-Portland,70.76,183.7,102.06,199.58,485.34,Single-ply,SBD,M
Boys,74.84,6,Chris Madrigal,Beeville Jones,73.3,156.49,92.99,190.51,439.98,Single-ply,SBD,M
Boys,74.84,7,Jesus Martinez,Freer,69.04,172.37,104.33,154.22,430.91,Single-ply,SBD,M
Boys,74.84,8,Valentin Sanchez,Three Rivers,70.4,151.95,79.38,158.76,390.09,Single-ply,SBD,M
Boys,74.84,9,Alan Bridge,Pettus,68.13,117.93,74.84,174.63,367.41,Single-ply,SBD,M
Boys,74.84,10,Latario Gonzalez,Freer,69.22,136.08,79.38,145.15,360.61,Single-ply,SBD,M
Boys,74.84,11,JOnathon Solomon,Pettus,74.66,108.86,70.31,120.2,299.37,Single-ply,SBD,M
Boys,74.84,DQ,Javier Rodriguez,San Diego,74.21,206.38,151.95,,,Single-ply,SBD,M
Boys,89.81,1,Arnold Sauceda,Hebbronville,82.28,231.33,149.69,233.6,614.62,Single-ply,SBD,M
Boys,82.1,2,Jonathan Gonzalez,San Diego,75.93,226.8,158.76,217.72,603.28,Single-ply,SBD,M
Boys,89.81,3,Angel Casas,Corpus Christi Tuloso-Midway,82.28,199.58,138.35,222.26,560.19,Single-ply,SBD,M
Boys,82.1,4,Sean Gonzales,Corpus Christi Calallen,81.37,197.31,133.81,208.65,539.77,Single-ply,SBD,M
Boys,82.1,5,Jacob Garza,Hebbronville,80.2,217.72,124.74,174.63,517.1,Single-ply,SBD,M
Boys,82.1,6,Leonel Salinas,San Diego,76.2,204.12,113.4,192.78,510.29,Single-ply,SBD,M
Boys,82.1,7,Justin Rodriguez,Corpus Christi Tuloso-Midway,81.1,217.72,99.79,170.1,487.61,Single-ply,SBD,M
Boys,82.1,8,Elijah Valencia,Orange Grove,79.74,179.17,104.33,181.44,464.93,Single-ply,SBD,M
Boys,89.81,9,JoeAllen Herrera,Beeville Jones,82.28,151.95,111.13,183.7,446.79,Single-ply,SBD,M
Boys,82.1,10,Patrick Prieto,Beeville Jones,77.66,136.08,79.38,181.44,396.89,Single-ply,SBD,M
Boys,82.1,11,Tanner Garcia,Orange Grove,75.39,102.06,52.16,92.99,247.21,Single-ply,SBD,M
Boys,82.1,DQ,Paul Almendarez,Three Rivers,77.11,181.44,,,,Single-ply,SBD,M
Boys,82.1,DQ,Josh Perez,Beeville Jones,75.75,151.95,97.52,,,Single-ply,SBD,M
Boys,82.1,DQ,Ben Torres,Alice,80.29,197.31,,,,Single-ply,SBD,M
Boys,89.81,1,Andrew Garza,Falfurrias,88.99,244.94,149.69,265.35,659.98,Single-ply,SBD,M
Boys,99.79,2,Rolly Torres,San Diego,89.9,226.8,147.42,183.7,557.92,Single-ply,SBD,M
Boys,89.81,3,Rene Corona,San Diego,87.45,213.19,117.93,219.99,551.11,Single-ply,SBD,M
Boys,89.81,4,Gilbert Aguirre,Three Rivers,85.82,181.44,124.74,190.51,496.68,Single-ply,SBD,M
Boys,89.81,5,John Engelmann,Jourdanton,88.54,195.04,115.67,183.7,494.42,Single-ply,SBD,M
Boys,89.81,6,Manuel Vacca,Jourdanton,88.99,181.44,117.93,156.49,455.86,Single-ply,SBD,M
Boys,89.81,7,Librado Carrillo,Freer,84.01,174.63,106.59,163.29,444.52,Single-ply,SBD,M
Boys,89.81,8,Dylan Hofstetter,Freer,89.63,151.95,86.18,136.08,374.21,Single-ply,SBD,M
Boys,89.81,DQ,Abel Rodriguez,Corpus Christi Tuloso-Midway,88.63,,,,,Single-ply,SBD,M
Boys,99.79,1,Jose Moreno,San Diego,97.61,249.48,131.54,256.28,637.3,Single-ply,SBD,M
Boys,109.77,2,Aaron Rodriguez,Beeville Jones,99.97,260.82,163.29,204.12,628.23,Single-ply,SBD,M
Boys,99.79,3,Frank Lopez,Corpus Christi Tuloso-Midway,99.34,272.16,145.15,204.12,621.42,Single-ply,SBD,M
Boys,99.79,4,Aaron Puga,Beeville Jones,95.07,215.46,136.08,204.12,555.65,Single-ply,SBD,M
Boys,99.79,5,Frank Rossi,Hebbronville,99.52,226.8,115.67,213.19,555.65,Single-ply,SBD,M
Boys,99.79,6,Xavier Flores,Corpus Christi Calallen,93.71,170.1,131.54,213.19,514.83,Single-ply,SBD,M
Boys,99.79,7,Cameron Calvillo,Orange Grove,97.52,183.7,129.27,188.24,501.22,Single-ply,SBD,M
Boys,109.77,8,Aaron Hinojosa,San Diego,99.88,204.12,133.81,163.29,501.22,Single-ply,SBD,M
Boys,99.79,9,Charles West,Gregory-Portland,95.16,183.7,115.67,199.58,498.95,Single-ply,SBD,M
Boys,99.79,10,John Reinhart,Gregory-Portland,92.17,183.7,120.2,181.44,485.34,Single-ply,SBD,M
Boys,109.77,11,John Tanguma,Corpus Christi Calallen,100.02,170.1,102.06,201.85,474,Single-ply,SBD,M
Boys,99.79,12,Ilias Rodriguez,Three Rivers,96.52,181.44,92.99,170.1,444.52,Single-ply,SBD,M
Boys,99.79,13,Tommy Munoz,Banquete,96.89,142.88,92.99,127.01,362.87,Single-ply,SBD,M
Boys,99.79,14,Andruw Espinoza,Freer,94.62,131.54,74.84,113.4,319.78,Single-ply,SBD,M
Boys,109.77,1,Andres Arizu,Alice,108.41,297.1,172.37,260.82,730.28,Single-ply,SBD,M
Boys,109.77,2,Vince Gutierrez,Corpus Christi Tuloso-Midway,107.41,249.48,149.69,217.72,616.89,Single-ply,SBD,M
Boys,109.77,3,Ruben Casas,Falfurrias,102.15,251.74,151.95,208.65,612.35,Single-ply,SBD,M
Boys,109.77,4,Richard Lichtenberger,Freer,108.32,240.4,136.08,204.12,580.6,Single-ply,SBD,M
Boys,109.77,5,Jose Soliz,Orange Grove,106.59,226.8,142.88,204.12,573.79,Single-ply,SBD,M
Boys,109.77,6,Adrian Puga,Beeville Jones,105.69,226.8,140.61,204.12,571.53,Single-ply,SBD,M
Boys,109.77,7,William Withers,Gregory-Portland,104.69,215.46,124.74,215.46,555.65,Single-ply,SBD,M
Boys,109.77,8,Billy Singleton,Orange Grove,103.06,181.44,108.86,215.46,505.76,Single-ply,SBD,M
Boys,109.77,9,Jose Chavera,Banquete,103.51,142.88,79.38,176.9,399.16,Single-ply,SBD,M
Boys,109.77,10,John Castilla,Beeville Jones,106.5,120.2,81.65,140.61,342.46,Single-ply,SBD,M
Boys,124.74,1,Jacob Rodriguez,Corpus Christi Tuloso-Midway,123.01,283.5,151.95,249.48,684.92,Single-ply,SBD,M
Boys,124.74,2,William Olson,Jourdanton,120.66,283.5,165.56,233.6,682.66,Single-ply,SBD,M
Boys,124.74,3,Isaac Salinas,Gregory-Portland,118.93,265.35,158.76,233.6,657.71,Single-ply,SBD,M
Boys,124.74,4,Jose Marquez,Hebbronville,112.94,215.46,111.13,201.85,528.44,Single-ply,SBD,M
Boys,124.74,5,Seth Watts,Gregory-Portland,112.22,181.44,117.93,199.58,498.95,Single-ply,SBD,M
Boys,124.74,6,Jagger Weatherford,Gregory-Portland,121.47,174.63,102.06,163.29,439.98,Single-ply,SBD,M
Boys,124.74+,1,Jonathan Lopez,Banquete,133.17,254.01,165.56,199.58,619.15,Single-ply,SBD,M
Boys,124.74+,2,Angel Salinas,Orange Grove,162.48,199.58,154.22,213.19,566.99,Single-ply,SBD,M
Boys,124.74+,3,John Lazo,Alice,154.22,235.87,142.88,158.76,537.51,Single-ply,SBD,M
Boys,124.74+,4,Jonathon Tuner,Three Rivers,162.93,170.1,90.72,172.37,433.18,Single-ply,SBD,M
Boys,124.74+,5,Billy Moon,Pettus,158.76,54.43,45.36,104.33,204.12,Single-ply,SBD,M
Boys,124.74+,DQ,Jesse Jame Saldivar,Alice,147.42,224.53,,,,Single-ply,SBD,M
