Division,WeightClassKg,Place,Name,Team,BodyweightKg,Best3SquatKg,Best3BenchKg,Best3DeadliftKg,TotalKg,Equipment,Event,Sex
Boys,51.71,1,Jesus Rios,Vanderbilt Industrial,51.35,113.4,92.99,147.42,353.8,Single-ply,SBD,M
Boys,51.71,2,Devin Medina,Kenedy,51.44,127.01,74.84,138.35,340.19,Single-ply,SBD,M
Boys,51.71,3,Bradley McGill,Vanderbilt Industrial,51.35,115.67,70.31,122.47,308.44,Single-ply,SBD,M
Boys,51.71,4,Jose Hernandez,Karnes City,51.07,104.33,68.04,108.86,281.23,Single-ply,SBD,M
Boys,51.71,5,Hunter Kutach,Cuero,49.44,92.99,36.29,88.45,217.72,Single-ply,SBD,M
Boys,55.79,1,Marcus Hernandez,Victoria West,55.7,167.83,88.45,183.7,439.98,Single-ply,SBD,M
Boys,55.79,2,Tom Palacio,Nixon Smiley,55.43,129.27,83.91,140.61,353.8,Single-ply,SBD,M
Boys,59.87,3,Devin McMahan,Stockdale,55.97,124.74,74.84,154.22,353.8,Single-ply,SBD,M
Boys,55.79,4,Parth Patel,Kenedy,55.16,127.01,81.65,138.35,347,Single-ply,SBD,M
Boys,55.79,5,Victor Monsevias,Kenedy,55.52,120.2,65.77,142.88,328.85,Single-ply,SBD,M
Boys,55.79,6,Kayden Kurtz,Vanderbilt Industrial,53.89,113.4,61.23,131.54,306.17,Single-ply,SBD,M
Boys,55.79,7,Rigo Franco,Poth,52.34,111.13,65.77,106.59,283.5,Single-ply,SBD,M
Boys,59.87,8,Ryan Vrana,Victoria East,55.88,86.18,68.04,113.4,267.62,Single-ply,SBD,M
Boys,59.87,1,Miguel Hernandez,Nixon Smiley,58.88,161.03,88.45,183.7,433.18,Single-ply,SBD,M
Boys,59.87,2,Trenton Thedford,Vanderbilt Industrial,59.24,165.56,97.52,151.95,415.04,Single-ply,SBD,M
Boys,59.87,3,Lane Faust,Yoakum,59.15,149.69,104.33,158.76,412.77,Single-ply,SBD,M
Boys,67.13,4,Dylan Torres,Runge,59.96,154.22,83.91,172.37,410.5,Single-ply,SBD,M
Boys,59.87,5,Rhett Musser,Vanderbilt Industrial,59.78,165.56,83.91,145.15,394.63,Single-ply,SBD,M
Boys,67.13,6,Mark Livesay,Floresville,59.96,149.69,90.72,149.69,390.09,Single-ply,SBD,M
Boys,59.87,7,Beau Burns,Victoria West,58.33,147.42,86.18,147.42,381.02,Single-ply,SBD,M
Boys,59.87,8,Ryan Rodriguez,Cuero,59.78,138.35,83.91,151.95,374.21,Single-ply,SBD,M
Boys,67.13,9,Jacob Hinojosa,Kenedy,59.96,127.01,81.65,149.69,358.34,Single-ply,SBD,M
Boys,59.87,10,Buster Dodge,Refugio,59.06,122.47,68.04,127.01,317.51,Single-ply,SBD,M
Boys,67.13,11,Dylan Belcik,Yoakum,59.96,102.06,70.31,113.4,285.76,Single-ply,SBD,M
Boys,59.87,12,Chris Eastwood,Goliad,57.06,95.25,63.5,120.2,278.96,Single-ply,SBD,M
Boys,67.13,1,Darion McMahan,Stockdale,65.77,226.8,147.42,226.8,601.01,Single-ply,SBD,M
Boys,67.13,2,Matt Valadez,Stockdale,66.5,206.38,122.47,217.72,546.58,Single-ply,SBD,M
Boys,67.13,3,David Ledbetter,Victoria West,66.59,199.58,120.2,204.12,523.9,Single-ply,SBD,M
Boys,67.13,4,Caleb Marek,Victoria West,66.13,195.04,99.79,183.7,478.54,Single-ply,SBD,M
Boys,74.84,5,Colby Berger,Goliad,67.22,185.97,83.91,181.44,451.32,Single-ply,SBD,M
Boys,67.13,6,Tristen Barefield,Cuero,62.14,161.03,88.45,172.37,421.84,Single-ply,SBD,M
Boys,67.13,7,Thomas Aranda,Refugio,60.69,142.88,74.84,149.69,367.41,Single-ply,SBD,M
Boys,67.13,8,Alan Johns,Poth,65.32,113.4,106.59,147.42,367.41,Single-ply,SBD,M
Boys,67.13,9,Daniel Santillan,Vanderbilt Industrial,62.51,138.35,74.84,149.69,362.87,Single-ply,SBD,M
Boys,67.13,10,Logan Muehlstein,Goliad,65.14,127.01,74.84,161.03,362.87,Single-ply,SBD,M
Boys,67.13,11,Jadran Ramirez,Kenedy,63.59,127.01,77.11,151.95,356.07,Single-ply,SBD,M
Boys,67.13,12,Andrew Aguero,Kenedy,60.33,131.54,79.38,136.08,347,Single-ply,SBD,M
Boys,67.13,13,Hunter Jansky,Poth,65.86,120.2,79.38,142.88,342.46,Single-ply,SBD,M
Boys,67.13,14,Joaquin Munoz,Stockdale,60.96,106.59,77.11,154.22,337.93,Single-ply,SBD,M
Boys,67.13,15,Luke Blundell,Victoria East,65.68,102.06,81.65,147.42,331.12,Single-ply,SBD,M
Boys,67.13,16,Marvin Yanta,Runge,64.86,102.06,56.7,136.08,294.84,Single-ply,SBD,M
Boys,67.13,DQ,Aj Carter,Victoria East,63.05,104.33,68.04,122.47,,Single-ply,SBD,M
Boys,67.13,DQ,Jonathan Ramirez,Victoria East,62.51,104.33,,,,Single-ply,SBD,M
Boys,74.84,1,Jhony Zalaya,Victoria East,73.57,201.85,117.93,188.24,508.02,Single-ply,SBD,M
Boys,74.84,2,Paul Almendarez,Three Rivers,72.03,176.9,81.65,195.04,453.59,Single-ply,SBD,M
Boys,74.84,3,Marco Chavarria,Vanderbilt Industrial,73.94,174.63,102.06,176.9,453.59,Single-ply,SBD,M
Boys,82.1,4,Anton Franklin,Victoria East,75.02,149.69,97.52,192.78,439.98,Single-ply,SBD,M
Boys,74.84,5,Caleb Schendel,Yorktown,71.85,158.76,104.33,163.29,426.38,Single-ply,SBD,M
Boys,74.84,6,Matthew Zimmerman,Yoakum,74.84,142.88,97.52,165.56,405.97,Single-ply,SBD,M
Boys,74.84,7,Hector Compose,Nixon Smiley,67.68,138.35,92.99,170.1,401.43,Single-ply,SBD,M
Boys,74.84,8,Travis Dibble,Victoria West,70.85,142.88,88.45,151.95,383.29,Single-ply,SBD,M
Boys,74.84,9,Anthony McGuill,Refugio,72.85,136.08,86.18,149.69,371.95,Single-ply,SBD,M
Boys,82.1,10,Kevin Holdgraf,Vanderbilt Industrial,75.02,136.08,81.65,149.69,367.41,Single-ply,SBD,M
Boys,74.84,11,Bobby Morris,Victoria East,69.58,136.08,68.04,156.49,360.61,Single-ply,SBD,M
Boys,74.84,12,Drew Williamson,Cuero,72.03,147.42,61.23,142.88,351.53,Single-ply,SBD,M
Boys,74.84,13,Davantae Herron,Victoria East,68.49,113.4,86.18,136.08,335.66,Single-ply,SBD,M
Boys,74.84,14,Shawn Bryant,Victoria East,69.22,129.27,56.7,149.69,335.66,Single-ply,SBD,M
Boys,74.84,DQ,Trey Martinez,Victoria East,68.22,136.08,74.84,154.22,,Single-ply,SBD,M
Boys,74.84,DQ,John Evans,Cuero,68.95,,,,,Single-ply,SBD,M
Boys,82.1,1,Conner McLaughlin,Stockdale,80.92,185.97,115.67,226.8,528.44,Single-ply,SBD,M
Boys,89.81,2,Eli Milner,Vanderbilt Industrial,82.19,192.78,120.2,192.78,505.76,Single-ply,SBD,M
Boys,82.1,3,Cj Felux,Floresville,75.48,192.78,102.06,199.58,494.42,Single-ply,SBD,M
Boys,82.1,4,Jamison Smolka,Poth,76.57,195.04,122.47,174.63,492.15,Single-ply,SBD,M
Boys,82.1,5,Nick Quintanilla,Karnes City,77.29,190.51,102.06,188.24,480.81,Single-ply,SBD,M
Boys,82.1,6,Jesse Chavarria,Vanderbilt Industrial,76.66,167.83,102.06,158.76,428.64,Single-ply,SBD,M
Boys,82.1,7,Wesley Roberts,Cuero,79.92,170.1,102.06,149.69,421.84,Single-ply,SBD,M
Boys,82.1,8,Ricky Camarillo,Yoakum,78.65,165.56,97.52,151.95,415.04,Single-ply,SBD,M
Boys,82.1,9,Raul Tovar,Nixon Smiley,80.56,156.49,99.79,156.49,412.77,Single-ply,SBD,M
Boys,82.1,10,Ryan Saucedo,Runge,81.83,158.76,79.38,174.63,412.77,Single-ply,SBD,M
Boys,82.1,11,Andres Moncada,Karnes City,78.02,142.88,72.57,142.88,358.34,Single-ply,SBD,M
Boys,82.1,12,Hunter Doggett,Cuero,78.11,133.81,79.38,138.35,351.53,Single-ply,SBD,M
Boys,82.1,13,Eli Villa,Victoria East,79.74,127.01,79.38,136.08,342.46,Single-ply,SBD,M
Boys,82.1,DQ,Devon Debord,Yoakum,81.56,170.1,,,,Single-ply,SBD,M
Boys,99.79,1,Derek Franke,Yorktown,89.9,238.14,165.56,231.33,635.03,Single-ply,SBD,M
Boys,89.81,2,Alex Valdez,Refugio,88.45,219.99,147.42,208.65,576.06,Single-ply,SBD,M
Boys,89.81,3,Jordan Branum,Vanderbilt Industrial,84.28,206.38,131.54,199.58,537.51,Single-ply,SBD,M
Boys,89.81,4,Dustin Hempel,Vanderbilt Industrial,87.27,206.38,129.27,199.58,535.24,Single-ply,SBD,M
Boys,89.81,5,Merle Garza,Goliad,87.27,204.12,120.2,197.31,521.63,Single-ply,SBD,M
Boys,89.81,6,Matthew Zavala,Poth,88.72,183.7,136.08,167.83,487.61,Single-ply,SBD,M
Boys,89.81,7,Brian Hickner,Victoria East,84.19,170.1,104.33,199.58,474,Single-ply,SBD,M
Boys,89.81,8,Quenton Pena,Victoria East,85.55,167.83,106.59,192.78,467.2,Single-ply,SBD,M
Boys,89.81,9,Brandon Trevino,Cuero,88.09,188.24,102.06,172.37,462.66,Single-ply,SBD,M
Boys,89.81,10,Shawn Martinez,Victoria West,88.54,192.78,102.06,165.56,460.4,Single-ply,SBD,M
Boys,89.81,11,Sean Bastain,Vanderbilt Industrial,87.45,179.17,113.4,165.56,458.13,Single-ply,SBD,M
Boys,89.81,12,Lain Hermes,Goliad,88.27,181.44,97.52,179.17,458.13,Single-ply,SBD,M
Boys,89.81,13,Oscar Torres,Nixon Smiley,89.09,161.03,104.33,192.78,458.13,Single-ply,SBD,M
Boys,89.81,14,Edward Rubio,Goliad,84.91,156.49,86.18,210.92,453.59,Single-ply,SBD,M
Boys,89.81,15,Micheal Rios,Runge,87.27,140.61,86.18,163.29,390.09,Single-ply,SBD,M
Boys,89.81,16,Trenton Bridges,Yoakum,88,140.61,83.91,161.03,385.55,Single-ply,SBD,M
Boys,89.81,17,Coty Garza,Runge,86.27,136.08,79.38,142.88,358.34,Single-ply,SBD,M
Boys,89.81,18,Kevelin Franklin-Williams,Goliad,87.45,136.08,81.65,136.08,353.8,Single-ply,SBD,M
Boys,89.81,19,Brandon Nunez,Runge,89.45,97.52,56.7,102.06,256.28,Single-ply,SBD,M
Boys,89.81,DQ,Josh Guerra,Victoria St. Joseph,89.81,201.85,,,,Single-ply,SBD,M
Boys,89.81,DQ,Stephon Shelton,Victoria East,86.82,181.44,,,,Single-ply,SBD,M
Boys,99.79,1,Thomas Kennemer,Victoria East,94.17,195.04,124.74,195.04,514.83,Single-ply,SBD,M
Boys,99.79,2,Travis Alexander,Vanderbilt Industrial,98.34,183.7,115.67,170.1,469.47,Single-ply,SBD,M
Boys,99.79,3,Cody Park,Goliad,97.61,188.24,88.45,190.51,467.2,Single-ply,SBD,M
Boys,99.79,4,Alex Coleman,Victoria St. Joseph,95.35,170.1,92.99,192.78,455.86,Single-ply,SBD,M
Boys,99.79,5,Aaron Lopez,Karnes City,92.62,181.44,106.59,165.56,453.59,Single-ply,SBD,M
Boys,99.79,6,Ryan Edwards,Goliad,94.98,172.37,113.4,167.83,453.59,Single-ply,SBD,M
Boys,99.79,7,Russell Gregory,Victoria East,93.35,136.08,79.38,174.63,390.09,Single-ply,SBD,M
Boys,99.79,8,Brad Vickery,Vanderbilt Industrial,99.7,154.22,90.72,136.08,381.02,Single-ply,SBD,M
Boys,99.79,9,Colt Demming,Runge,90.81,113.4,102.06,151.95,367.41,Single-ply,SBD,M
Boys,99.79,10,Josh Garcia,Runge,91.81,120.2,79.38,151.95,351.53,Single-ply,SBD,M
Boys,99.79,11,Christian Mascorro,Refugio,94.26,102.06,95.25,127.01,324.32,Single-ply,SBD,M
Boys,99.79,12,Luke Holub,Victoria St. Joseph,96.25,92.99,54.43,102.06,249.48,Single-ply,SBD,M
Boys,99.79,DQ,Joseph Perez,Refugio,97.52,204.12,,,,Single-ply,SBD,M
Boys,109.77,1,Alexander Trevino,Floresville,105.23,238.14,140.61,238.14,616.89,Single-ply,SBD,M
Boys,109.77,2,Mason Davis,Vanderbilt Industrial,106.78,229.06,133.81,226.8,589.67,Single-ply,SBD,M
Boys,109.77,3,Gabriel García,Yoakum,108.68,238.14,136.08,213.19,587.4,Single-ply,SBD,M
Boys,109.77,4,Austin Block,Karnes City,103.33,226.8,127.01,215.46,569.26,Single-ply,SBD,M
Boys,109.77,5,Nick Guzman,Karnes City,106.05,179.17,127.01,199.58,505.76,Single-ply,SBD,M
Boys,109.77,6,Matt Ramirez,Victoria West,102.42,172.37,120.2,185.97,478.54,Single-ply,SBD,M
Boys,109.77,7,Krystian Brzozowski,Yoakum,105.23,147.42,136.08,188.24,471.74,Single-ply,SBD,M
Boys,109.77,8,Neal Formalo,Yoakum,106.87,183.7,113.4,170.1,467.2,Single-ply,SBD,M
Boys,109.77,9,Darren Torres,Runge,103.15,165.56,104.33,185.97,455.86,Single-ply,SBD,M
Boys,109.77,10,Treven Hopkins,Cuero,106.59,149.69,142.88,142.88,435.45,Single-ply,SBD,M
Boys,109.77,11,Bryan Winters,Runge,109.13,170.1,95.25,151.95,417.3,Single-ply,SBD,M
Boys,109.77,12,Josh Ramon,Victoria East,109.13,104.33,72.57,145.15,322.05,Single-ply,SBD,M
Boys,109.77,DQ,Weston Block,Karnes City,100.06,233.6,,,,Single-ply,SBD,M
Boys,124.74,1,J'Von Thomas,Cuero,124.65,340.19,158.76,226.8,725.75,Single-ply,SBD,M
Boys,124.74,2,Benny Ximenez,Floresville,114.4,285.76,156.49,226.8,669.05,Single-ply,SBD,M
Boys,124.74,3,Austin Speed,Goliad,116.48,233.6,145.15,238.14,616.89,Single-ply,SBD,M
Boys,124.74,4,Gabriel Garza,Yorktown,120.11,263.08,142.88,210.92,616.89,Single-ply,SBD,M
Boys,124.74,5,Logan McMain,Nixon Smiley,112.58,240.4,147.42,213.19,601.01,Single-ply,SBD,M
Boys,124.74,6,Travis Vickery,Kenedy,124.38,195.04,115.67,172.37,483.08,Single-ply,SBD,M
Boys,124.74,7,Ben Morgan,Victoria West,112.22,170.1,120.2,181.44,471.74,Single-ply,SBD,M
Boys,124.74,8,David Miles,Nixon Smiley,114.94,174.63,113.4,179.17,467.2,Single-ply,SBD,M
Boys,124.74,9,Nathan Hernandez,Kenedy,124.74,174.63,106.59,176.9,458.13,Single-ply,SBD,M
Boys,124.74,10,Levi Lewis,Runge,124.65,147.42,102.06,158.76,408.23,Single-ply,SBD,M
Boys,124.74,11,Carson Kloesel,Yoakum,112.04,124.74,77.11,136.08,337.93,Single-ply,SBD,M
Boys,124.74,DQ,Trevor Reyna,Victoria St. Joseph,122.47,,,,,Single-ply,SBD,M
Boys,124.74+,1,Bo Pullin,Victoria East,134.08,238.14,124.74,226.8,589.67,Single-ply,SBD,M
Boys,124.74+,2,Trent Enriquez,Karnes City,128,215.46,127.01,215.46,557.92,Single-ply,SBD,M
Boys,124.74+,3,Danny Sanchez,Victoria West,129.91,231.33,111.13,170.1,512.56,Single-ply,SBD,M
Boys,124.74+,4,James Cooksey,Kenedy,131.63,201.85,104.33,190.51,496.68,Single-ply,SBD,M
Boys,124.74+,5,Levi Perry,Vanderbilt Industrial,136.71,172.37,124.74,142.88,439.98,Single-ply,SBD,M
Boys,124.74+,6,Robby Gutierrez,Kenedy,136.17,174.63,86.18,176.9,437.72,Single-ply,SBD,M
Boys,124.74+,7,Pedro Guerra,Runge,129.27,147.42,90.72,181.44,419.57,Single-ply,SBD,M
Boys,124.74+,DQ,Hudson Haas,Cuero,145.24,235.87,,,,Single-ply,SBD,M
