Division,WeightClassKg,Place,Name,Team,BodyweightKg,Best3SquatKg,Best3BenchKg,Best3DeadliftKg,TotalKg,Equipment,Event,Sex
Boys,55.79,1,John Hernandez,Malakoff,51.89,104.33,49.9,111.13,265.35,Single-ply,SBD,M
Boys,51.71,2,Mason Jones,Buffalo,48.99,97.52,40.82,97.52,235.87,Single-ply,SBD,M
Boys,55.79,1,Austin Peppers,Rice,55.7,149.69,65.77,147.42,362.87,Single-ply,SBD,M
Boys,55.79,2,Kelbee Cupit,Jewett Leon,54.16,115.67,63.5,133.81,312.98,Single-ply,SBD,M
Boys,55.79,3,Manty Stewart,Jewett Leon,54.61,113.4,65.77,129.27,308.44,Single-ply,SBD,M
Boys,55.79,4,Bryce Fulmer,Buffalo,54.98,122.47,56.7,122.47,301.64,Single-ply,SBD,M
Boys,55.79,5,Jeremy Hopkins,Centerville,53.89,106.59,61.23,113.4,281.23,Single-ply,SBD,M
Boys,59.87,1,Codie Pair,Rice,59.24,154.22,115.67,165.56,435.45,Single-ply,SBD,M
Boys,59.87,2,Ryne Moore,Oakwood,59.69,145.15,79.38,140.61,365.14,Single-ply,SBD,M
Boys,59.87,3,Brant Cox,Cayuga,59.15,122.47,74.84,113.4,310.71,Single-ply,SBD,M
Boys,59.87,4,Wade Horn,Malakoff,59.87,104.33,65.77,127.01,297.1,Single-ply,SBD,M
Boys,67.13,1,Tate Hartley,Buffalo,65.68,190.51,99.79,190.51,480.81,Single-ply,SBD,M
Boys,67.13,2,Blake Guldjord,Cayuga,65.95,181.44,106.59,181.44,469.47,Single-ply,SBD,M
Boys,67.13,3,Vester Fulmer,Buffalo,65.68,172.37,86.18,181.44,439.98,Single-ply,SBD,M
Boys,67.13,4,Tristan Lachapelle,Rice,64.5,170.1,108.86,147.42,426.38,Single-ply,SBD,M
Boys,67.13,5,Payton Wallace,Cayuga,66.32,154.22,102.06,156.49,412.77,Single-ply,SBD,M
Boys,67.13,6,Osvaldo Solis,Rice,66.22,158.76,86.18,154.22,399.16,Single-ply,SBD,M
Boys,67.13,7,Caleb Parker,Centerville,65.59,142.88,92.99,156.49,392.36,Single-ply,SBD,M
Boys,67.13,8,Jalen Burns,Palestine Westwood,61.14,151.95,70.31,163.29,385.55,Single-ply,SBD,M
Boys,67.13,9,Omar Gonzales,Malakoff,66.68,136.08,72.57,170.1,378.75,Single-ply,SBD,M
Boys,74.84,10,Felipe Reyes,Malakoff,67.22,145.15,83.91,142.88,371.95,Single-ply,SBD,M
Boys,67.13,11,Chamar Wiley-Harris,Crockett,66.86,158.76,77.11,124.74,360.61,Single-ply,SBD,M
Boys,67.13,12,Austin Garcia,Jewett Leon,62.69,127.01,86.18,145.15,358.34,Single-ply,SBD,M
Boys,67.13,13,Dylan Grimm,Malakoff,65.5,124.74,79.38,149.69,353.8,Single-ply,SBD,M
Boys,67.13,14,Will Morales,Tyler Bishop T.K. Gorman Catholic,67.13,131.54,83.91,131.54,347,Single-ply,SBD,M
Boys,67.13,15,Sheldon Deeds,Crockett,61.33,133.81,74.84,124.74,333.39,Single-ply,SBD,M
Boys,74.84,16,Ribert Black,Trinity,67.31,88.45,79.38,111.13,278.96,Single-ply,SBD,M
Boys,67.13,17,Mason Coker,Malakoff,61.78,102.06,61.23,99.79,263.08,Single-ply,SBD,M
Boys,67.13,18,Will Barnett,Oakwood,62.23,79.38,52.16,108.86,240.4,Single-ply,SBD,M
Boys,67.13,DQ,Victor Rangel,Crockett,60.69,92.99,,,,Single-ply,SBD,M
Boys,74.84,1,Jesus Lopez,Buffalo,69.94,181.44,95.25,199.58,476.27,Single-ply,SBD,M
Boys,74.84,2,Trenton Holt,Centerville,71.58,174.63,117.93,181.44,474,Single-ply,SBD,M
Boys,74.84,3,Sir Thompson,Palestine,70.67,158.76,111.13,174.63,444.52,Single-ply,SBD,M
Boys,74.84,4,Haiden Zarate,Centerville,72.12,149.69,102.06,172.37,424.11,Single-ply,SBD,M
Boys,74.84,5,Zack Brister,Palestine Westwood,74.21,151.95,95.25,167.83,415.04,Single-ply,SBD,M
Boys,74.84,6,Kevin Martinez,Palestine,71.35,149.69,106.59,154.22,410.5,Single-ply,SBD,M
Boys,74.84,7,Kolby Venoy,Palestine Westwood,71.3,176.9,70.31,151.95,399.16,Single-ply,SBD,M
Boys,74.84,8,Ty Bryson,Buffalo,73.21,158.76,90.72,147.42,396.89,Single-ply,SBD,M
Boys,74.84,9,Tyler Bodiford,Jewett Leon,73.94,140.61,83.91,163.29,387.82,Single-ply,SBD,M
Boys,74.84,10,Matthew Casle,Malakoff,72.3,124.74,97.52,163.29,385.55,Single-ply,SBD,M
Boys,74.84,11,Trey Williams,Centerville,72.67,138.35,92.99,154.22,385.55,Single-ply,SBD,M
Boys,74.84,12,Christopher Nash,Jewett Leon,68.76,149.69,88.45,145.15,383.29,Single-ply,SBD,M
Boys,74.84,13,Trent Petersen,Centerville,72.39,142.88,74.84,147.42,365.14,Single-ply,SBD,M
Boys,74.84,14,Zach Jarrott,Malakoff,67.86,129.27,72.57,158.76,360.61,Single-ply,SBD,M
Boys,74.84,15,Aj Dixon,Malakoff,67.77,131.54,74.84,151.95,358.34,Single-ply,SBD,M
Boys,74.84,16,Tyler Parker,Centerville,74.03,102.06,70.31,122.47,294.84,Single-ply,SBD,M
Boys,74.84,17,Roy Kuykeudall,Oakwood,74.3,68.04,61.23,117.93,247.21,Single-ply,SBD,M
Boys,82.1,1,Jose Dominguez,Buffalo,80.74,254.01,151.95,247.21,653.17,Single-ply,SBD,M
Boys,82.1,2,Carlos Aguinaga,Cayuga,79.92,181.44,127.01,199.58,508.02,Single-ply,SBD,M
Boys,82.1,3,Christian Bremmett,Oakwood,79.11,181.44,95.25,190.51,467.2,Single-ply,SBD,M
Boys,82.1,4,Isaich Mitchell,Palestine,77.11,172.37,108.86,163.29,444.52,Single-ply,SBD,M
Boys,82.1,5,Emmanuel Gonzales,Malakoff,76.48,167.83,83.91,185.97,437.72,Single-ply,SBD,M
Boys,82.1,6,Cesar Lopez,Buffalo,77.93,172.37,86.18,163.29,421.84,Single-ply,SBD,M
Boys,82.1,7,Kirkland Terrell,Malakoff,76.93,147.42,95.25,176.9,419.57,Single-ply,SBD,M
Boys,82.1,8,Jesse Reyes,Trinity,77.29,142.88,102.06,172.37,417.3,Single-ply,SBD,M
Boys,82.1,9,Samuel Gresham,Centerville,80.38,133.81,106.59,165.56,405.97,Single-ply,SBD,M
Boys,82.1,10,Ricardo Hidalgo,Crockett,76.38,151.95,77.11,151.95,381.02,Single-ply,SBD,M
Boys,82.1,11,Cameron Witchfield,Oakwood,80.74,140.61,90.72,149.69,381.02,Single-ply,SBD,M
Boys,82.1,12,Wally Shrout,Malakoff,81.56,147.42,77.11,140.61,365.14,Single-ply,SBD,M
Boys,82.1,13,Gabriel Cruces,Malakoff,79.92,138.35,70.31,154.22,362.87,Single-ply,SBD,M
Boys,82.1,14,Rawling Dixon,Malakoff,78.02,138.35,70.31,149.69,358.34,Single-ply,SBD,M
Boys,82.1,15,Maurice Emanuel,Oakwood,80.29,102.06,88.45,154.22,344.73,Single-ply,SBD,M
Boys,82.1,DQ,Kyle Harris,Centerville,82.01,,,,,Single-ply,SBD,M
Boys,89.81,1,Louis Collins,Oakwood,84.1,204.12,140.61,190.51,535.24,Single-ply,SBD,M
Boys,89.81,2,Blake Reeves,Centerville,85,183.7,120.2,181.44,485.34,Single-ply,SBD,M
Boys,89.81,3,James Roach,Centerville,88.27,183.7,106.59,190.51,480.81,Single-ply,SBD,M
Boys,89.81,4,Steven Slater,Cayuga,87.72,170.1,102.06,167.83,439.98,Single-ply,SBD,M
Boys,99.79,5,Cory Rosa,Malakoff,89.99,161.03,102.06,161.03,424.11,Single-ply,SBD,M
Boys,89.81,6,Seth Folsom,Buffalo,86.09,158.76,77.11,181.44,417.3,Single-ply,SBD,M
Boys,89.81,7,Javarious Taylor,Crockett,87.09,165.56,79.38,154.22,399.16,Single-ply,SBD,M
Boys,89.81,8,Thomas Nicholson,Oakwood,85.64,131.54,83.91,145.15,360.61,Single-ply,SBD,M
Boys,89.81,9,Gus Forsterer,Palestine Westwood,86.91,106.59,92.99,158.76,358.34,Single-ply,SBD,M
Boys,89.81,DQ,Devin Chambers,Crockett,85.09,206.38,,,,Single-ply,SBD,M
Boys,99.79,1,Ty Tunstall,Cayuga,98.88,208.65,136.08,229.06,573.79,Single-ply,SBD,M
Boys,99.79,2,Aaron Foxworth,Cayuga,97.7,208.65,108.86,204.12,521.63,Single-ply,SBD,M
Boys,99.79,3,Tim Schmitt,Tyler Bishop T.K. Gorman Catholic,96.52,183.7,111.13,204.12,498.95,Single-ply,SBD,M
Boys,109.77,4,Diego Medina,Malakoff,99.97,204.12,108.86,181.44,494.42,Single-ply,SBD,M
Boys,99.79,5,Jacob Boyd,Cayuga,92.35,183.7,129.27,176.9,489.88,Single-ply,SBD,M
Boys,99.79,6,Nolan Mays,Palestine,91.63,185.97,106.59,192.78,485.34,Single-ply,SBD,M
Boys,99.79,7,Josh Valenta,Trinity,93.98,156.49,117.93,147.42,421.84,Single-ply,SBD,M
Boys,99.79,8,Kevin Valladares,Palestine Westwood,94.08,167.83,86.18,161.03,415.04,Single-ply,SBD,M
Boys,99.79,9,Montrelle Williams,Malakoff,98.34,156.49,90.72,147.42,394.63,Single-ply,SBD,M
Boys,99.79,10,Conor Wright,Tyler Bishop T.K. Gorman Catholic,99.52,120.2,79.38,142.88,342.46,Single-ply,SBD,M
Boys,99.79,11,Glenn Bonner,Trinity,97.7,120.2,95.25,120.2,335.66,Single-ply,SBD,M
Boys,99.79,12,Ty Warren,Centerville,92.26,113.4,74.84,117.93,306.17,Single-ply,SBD,M
Boys,109.77,1,Ragan Henderson,Rice,108.5,272.16,158.76,294.84,725.75,Single-ply,SBD,M
Boys,109.77,2,Johnt'A Maxey,Palestine,100.24,226.8,136.08,181.44,544.31,Single-ply,SBD,M
Boys,109.77,3,Nelson Ochoa,Malakoff,107.05,217.72,106.59,195.04,519.36,Single-ply,SBD,M
Boys,109.77,4,Kurtis Parker,Centerville,106.05,181.44,117.93,174.63,474,Single-ply,SBD,M
Boys,109.77,5,Dakotah Manning,Grapeland,106.78,142.88,124.74,165.56,433.18,Single-ply,SBD,M
Boys,109.77,DQ,Marc McLeod,Centerville,100.79,149.69,,,,Single-ply,SBD,M
Boys,109.77,DQ,Ty Saindle,Palestine,104.78,183.7,,,,Single-ply,SBD,M
Boys,124.74,1,Daniel Jock,Cayuga,113.58,226.8,170.1,204.12,601.01,Single-ply,SBD,M
Boys,124.74,2,Patrick Cross,Palestine,114.76,238.14,117.93,201.85,557.92,Single-ply,SBD,M
Boys,124.74,3,Israel Chavez,Malakoff,117.03,185.97,102.06,167.83,455.86,Single-ply,SBD,M
Boys,124.74,DQ,Jacob Deboide,Buffalo,114.03,,,,,Single-ply,SBD,M
Boys,124.74+,1,Manuel Solis,Palestine,137.44,188.24,99.79,183.7,471.74,Single-ply,SBD,M
Boys,124.74+,2,Christian Slade,Buffalo,147.24,176.9,106.59,158.76,442.25,Single-ply,SBD,M
Boys,124.74+,3,Cody Braun,Crockett,125.28,133.81,72.57,142.88,349.27,Single-ply,SBD,M
Boys,124.74+,4,Colton Moody,Cayuga,159.66,117.93,68.04,117.93,303.91,Single-ply,SBD,M
