Place,Name,State,WeightClassKg,BodyweightKg,Age,Best3SquatKg,Best3BenchKg,Best3DeadliftKg,TotalKg,Sex,Division,Equipment,Event
1,Katya Hernandez,IA,52,51.2,17,75,32.5,72.5,180,F,Juniors 16-17,Raw,SBD
1,Alexis Fry,IA,56,55.4,22,95,42.5,125,262.5,F,Juniors 20-23,Raw,SBD
1,Samantha Garner,IA,67.5,60.8,23,85,50,102.5,237.5,F,Juniors 20-23,Raw,SBD
DQ,Kelsey Purdy,IA,67.5,67.1,20,52.5,,,,F,Juniors 20-23,Raw,SBD
1,Giselle Gamez,IA,75,69.2,22,82.5,50,95,227.5,F,Juniors 20-23,Raw,SBD
1,Tiffany Thamanaleth,IA,48,47.5,32,107.5,60,137.5,305,F,Open,Raw,SBD
1,Sylvia Lovanrack,MO,56,54.2,27,132.5,77.5,160,370,F,Open,Raw,SBD
2,Valona Aliu,IA,56,55.3,25,115,50,137.5,302.5,F,Open,Raw,SBD
3,Alexis Fry,IA,56,55.4,22,95,42.5,125,262.5,F,Open,Raw,SBD
1,Jaime Palma,WI,60,57.9,30,122.5,55,160,337.5,F,Open,Raw,SBD
2,Miranda Good,IA,60,59.6,26,110,57.5,122.5,290,F,Open,Raw,SBD
1,Kelsey Miranda,IA,67.5,66,31,117.5,57.5,137.5,312.5,F,Open,Raw,SBD
2,Tabitha Todd,MO,67.5,65.5,34,102.5,50,117.5,270,F,Open,Raw,SBD
1,Hunter Henderson,KS,75,73.9,23,185,102.5,202.5,490,F,Open,Raw,SBD
2,Cydney Bushue,MO,75,73.3,22,137.5,75,175,387.5,F,Open,Raw,SBD
3,Mellissa Housh,IA,75,72.3,35,117.5,87.5,155,360,F,Open,Raw,SBD
4,Jenna Price,MO,75,72.7,33,117.5,75,145,337.5,F,Open,Raw,SBD
5,Cassie Maguire,IA,75,73.5,29,125,60,140,325,F,Open,Raw,SBD
6,Becky Vandermark,IA,75,72.8,32,97.5,50,117.5,265,F,Open,Raw,SBD
7,Emily Keith,NE,75,74.8,21,80,50,125,255,F,Open,Raw,SBD
1,Ashlie Coady,IA,82.5,81.6,25,110,57.5,145,312.5,F,Open,Raw,SBD
1,Sarah Whitford,NE,90,88,40,95,62.5,125,282.5,F,Open,Raw,SBD
1,Jenelle Korneman,MO,90+,112.7,34,142.5,75,137.5,355,F,Open,Raw,SBD
2,Gabby Gard,NE,90+,111,27,130,70,147.5,347.5,F,Open,Raw,SBD
DQ,Holly Sullivan,ME,90+,110.7,38,110,,,,F,Open,Raw,SBD
DQ,Holly Sullivan,NE,90+,110.7,38,110,,,,F,Submasters 35-39,Raw,SBD
1,Carol Smolsky,NE,60,58.9,59,92.5,47.5,115,255,F,Masters 55-59,Raw,SBD
1,Lauri Brown,IL,67.5,64.7,40,95,60,137.5,292.5,F,Masters 40-44,Raw,SBD
1,Stacie Spaur,IA,75,73.8,44,97.5,47.5,117.5,262.5,F,Masters 40-44,Raw,SBD
1,Sarah Whitford,NE,90,88,40,95,62.5,125,282.5,F,Masters 40-44,Raw,SBD
1,Kincaid Ryken,SD,60,59.8,15,115,67.5,122.5,305,M,Juniors 13-15,Raw,SBD
1,Devon Richards,IA,75,72.4,23,197.5,140,245,582.5,M,Juniors 20-23,Raw,SBD
2,TJ Devine,IA,75,71.3,22,200,132.5,230,562.5,M,Juniors 20-23,Raw,SBD
1,Hunter Veech,IA,82.5,79.8,23,227.5,157.5,252.5,637.5,M,Juniors 20-23,Raw,SBD
2,Connor Duffy,IA,82.5,80.7,22,182.5,120,220,522.5,M,Juniors 20-23,Raw,SBD
3,Grant Shea,IL,82.5,80.3,22,182.5,110,205,497.5,M,Juniors 20-23,Raw,SBD
1,Keivyn Rivas,IA,90,88.3,17,195,112.5,240,547.5,M,Juniors 16-17,Raw,SBD
1,Nathan Heckart,IA,100,97,17,210,127.5,257.5,595,M,Juniors 16-17,Raw,SBD
1,Danny Nguyen,IA,100,97.8,23,232.5,142.5,260,635,M,Juniors 20-23,Raw,SBD
2,Joshua Benge,IA,100,93.1,20,207.5,140,242.5,590,M,Juniors 20-23,Raw,SBD
1,Joel Byram,IA,110,107.5,19,240,155,242.5,637.5,M,Juniors 18-19,Raw,SBD
1,Will Van Soelen,IA,110,104.3,22,222.5,137.5,237.5,597.5,M,Juniors 20-23,Raw,SBD
1,Casey Grapsas,IA,140,127.7,23,205,122.5,230,557.5,M,Juniors 20-23,Raw,SBD
DQ,Josh Davis,NE,67.5,63,22,137.5,,177.5,,M,Open,Raw,SBD
1,Devon Richards,IA,75,72.4,23,197.5,140,245,582.5,M,Open,Raw,SBD
2,TJ Devine,IA,75,71.3,22,200,132.5,230,562.5,M,Open,Raw,SBD
3,Wizer Hamilton,IA,75,73.3,28,165,82.5,187.5,435,M,Open,Raw,SBD
1,Ethan Radin,IA,82.5,78,27,225,160,260,645,M,Open,Raw,SBD
2,Hunter Veech,IA,82.5,79.8,23,227.5,157.5,252.5,637.5,M,Open,Raw,SBD
3,Sai Kit Wong,MO,82.5,79.2,39,217.5,142.5,252.5,612.5,M,Open,Raw,SBD
4,Kyle Vitzthum,IA,82.5,81.2,33,220,145,237.5,602.5,M,Open,Raw,SBD
5,Greg Huse,IA,82.5,79.5,37,200,117.5,217.5,535,M,Open,Raw,SBD
6,Ben Meredith,IA,82.5,81.2,30,187.5,115,207.5,510,M,Open,Raw,SBD
1,Ben Worrell,IA,90,89.5,25,227.5,185,242.5,655,M,Open,Raw,SBD
2,Dan Schneider,IA,90,86,28,217.5,130,235,582.5,M,Open,Raw,SBD
3,Curtis Robbins,IA,90,88.7,27,187.5,132.5,225,545,M,Open,Raw,SBD
1,Justin Kirby,IA,100,99.3,27,282.5,182.5,300,765,M,Open,Raw,SBD
2,Grant McCaulley,IA,100,92.8,37,270,177.5,297.5,745,M,Open,Raw,SBD
3,Craig Konrardy,IA,100,96.7,24,280,145,257.5,682.5,M,Open,Raw,SBD
4,Jordan Gusman,MO,100,96.1,26,247.5,145,275,667.5,M,Open,Raw,SBD
5,Danny Nguyen,IA,100,97.8,23,232.5,142.5,260,635,M,Open,Raw,SBD
6,Robert Taylor,IA,100,98.3,24,190,120,227.5,537.5,M,Open,Raw,SBD
7,Brandon Hills,IA,100,96.2,30,182.5,132.5,212.5,527.5,M,Open,Raw,SBD
8,Joshua Veech,IA,100,99.6,25,190,127.5,205,522.5,M,Open,Raw,SBD
DQ,Anthony Brooks,IA,100,100,30,,,,,M,Open,Raw,SBD
1,Brandon Brown,IA,110,106.7,34,285,197.5,295,777.5,M,Open,Raw,SBD
2,Joel Byram,IA,110,107.5,19,240,155,242.5,637.5,M,Open,Raw,SBD
3,Jacob Hendrix,IL,110,108.7,27,197.5,152.5,250,600,M,Open,Raw,SBD
1,Nick Anderson,IA,125,121,32,245,140,305,690,M,Open,Raw,SBD
2,Dain Wadsworth,IA,125,122.7,37,237.5,165,250,652.5,M,Open,Raw,SBD
3,Manuel Garcia,IA,125,120.2,26,212.5,125,225,562.5,M,Open,Raw,SBD
DQ,Matthew Hansman,IA,125,115,28,250,192.5,,,M,Open,Raw,SBD
1,Ross Ager,IA,140,134.6,29,227.5,137.5,230,595,M,Open,Raw,SBD
1,Hidajet Dzanic,IA,140+,164.2,25,240,142.5,275,657.5,M,Open,Raw,SBD
1,Greg Huse,IA,82.5,79.5,37,200,117.5,217.5,535,M,Submasters 35-39,Raw,SBD
1,Seth Ramaeker,IA,100,98.4,39,237.5,161,260,658.5,M,Submasters 35-39,Raw,SBD
1,Anthony Bowen,IA,82.5,80.6,44,182.5,170,192.5,545,M,Masters 40-44,Raw,SBD
1,Tony Nurre,IA,100,98.9,41,160,110,200,470,M,Masters 40-44,Raw,SBD
1,Don Modlin,IA,100,97.1,54,195,120,195,510,M,Masters 50-54,Raw,SBD
1,Brad Lantto,MN,110,104.6,44,275,137.5,275,687.5,M,Masters 40-44,Raw,SBD
1,Wayne Hammes,IA,140,127,60,190,170,260,620,M,Masters 60-64,Raw,SBD
1,Justine Johnson,IA,90+,110.2,30,137.5,92.5,172.5,402.5,F,Open,Wraps,SBD
1,Questen McFarland,IA,75,73.7,20,182.5,147.5,237.5,567.5,M,Juniors 20-23,Wraps,SBD
1,Cameron Waldrep,IA,82.5,81.3,18,205,125,205,535,M,Juniors 18-19,Wraps,SBD
1,Jacob Foss,IL,90,87,18,215,120,212.5,547.5,M,Juniors 18-19,Wraps,SBD
1,Justin Zimmerman,IA,90,89.6,23,285,137.5,250,672.5,M,Juniors 20-23,Wraps,SBD
1,Luke Dreifurst,IA,110,108.5,17,280,190,270,740,M,Juniors 16-17,Wraps,SBD
1,Eddie Barajas,KS,125,121.8,20,227.5,132.5,250,610,M,Juniors 20-23,Wraps,SBD
1,David Thompson,IA,82.5,82.5,25,295,177.5,285,757.5,M,Open,Wraps,SBD
2,Brian Morehouse,MO,82.5,78.2,24,215,115,210,540,M,Open,Wraps,SBD
1,Andy Gjerstad,IA,100,97.6,38,320,187.5,292.5,800,M,Open,Wraps,SBD
2,Jacob Smith,IA,100,92.8,27,282.5,155,272.5,710,M,Open,Wraps,SBD
3,Mitch Foster,IA,100,98.7,29,227.5,147.5,237.5,612.5,M,Open,Wraps,SBD
1,James Davidson,IA,110,106,31,330,177.5,312.5,820,M,Open,Wraps,SBD
2,Heath Johnson,IA,110,109.4,36,277.5,192.5,305,775,M,Open,Wraps,SBD
1,Zach Severin,IA,140+,157.2,26,350,237.5,317.5,905,M,Open,Wraps,SBD
DQ,Jeremy Brown,IA,90,86.1,40,227.5,155,,,M,Masters 40-44,Wraps,SBD
1,Wayne Hammes,IA,140,127,60,,,260,260,M,Masters 60-64,Raw,D
1,Wayne Hammes,IA,140,127,60,,,245,245,M,Masters 60-64,Single-ply,D
1,Troy Becker,NE,75,74,24,,125,267.5,392.5,M,Open,Raw,BD
1,Seth Thompson,IA,110,107.2,27,,142.5,272.5,415,M,Open,Raw,BD
