Place,Name,CyrillicName,Tested,Event,Equipment,Sex,WeightClassKg,Division,BirthDate,BodyweightKg,Squat1Kg,Squat2Kg,Squat3Kg,Squat4Kg,Best3SquatKg,Bench1Kg,Bench2Kg,Bench3Kg,Bench4Kg,Best3BenchKg,Deadlift1Kg,Deadlift2Kg,Deadlift3Kg,Deadlift4Kg,Best3DeadliftKg,TotalKg
1,Kseniya Golikova,Ксения Голикова,No,SBD,Wraps,F,52,Open,1989-03-21,49.6,60,65,70,,70,42.5,47.5,50,,50,-70,75,85,,85,205
1,Viktoriya Isaeva,Виктория Исаева,No,SBD,Wraps,F,56,Teen 13-15,1998-12-01,54.2,50,60,65,,65,40,45,-50,,45,80,90,-105,,90,200
1,Natalya Ayvazova,Наталья Айвазова,No,SBD,Wraps,F,60,Open,1989-11-15,59.9,80,90,100,,100,45,-50,50,,50,100,115,125,,125,275
2,Natalya Velichko,Наталья Величко,No,SBD,Wraps,F,60,Open,1981-10-19,56.6,60,70,80,,80,35,37.5,-40,,37.5,80,100,-112.5,,100,217.5
3,Mariya Kulagina,Мария Кулагина,No,SBD,Wraps,F,60,Open,1984-06-14,56.8,50,-55,60,,60,30,-35,-35,,30,80,-85,-90,,80,170
1,Alena Maslennikova,Алена Масленникова,No,SBD,Wraps,F,67.5,Juniors,1991-04-09,62,85,-90,-95,,85,50,57.5,60,,60,85,95,100,,100,245
1,Marina Vishnevskaya,Марина Вишневская,No,SBD,Wraps,F,67.5,Open,1985-10-26,67.2,110,120,130,,130,70,72.5,75,,75,160,175,-185,,175,380
2,Nina Mukhortova,Нина Мухортова,No,SBD,Wraps,F,67.5,Open,1966-10-02,64.8,100,110,-120,,110,90,95,100,,100,130,-140,,,130,340
3,Elmira Efendieva,Эльмира Эфендиева,No,SBD,Wraps,F,67.5,Open,1976-03-20,67.5,-80,80,100,,100,50,57.5,62.5,,62.5,100,-110,110,,110,272.5
4,Margaritta Lyubach,Маргаритта Любач,No,SBD,Wraps,F,67.5,Open,1991-07-17,67.2,-85,90,95,,95,40,45,-47.5,,45,90,100,-110,,100,240
1,Viktoriya Doga,Виктория Дога,No,SBD,Wraps,F,82.5,Open,1982-02-04,77.7,100,107.5,-112.5,,107.5,75,80,-82.5,,80,-147.5,147.5,160,,160,347.5
1,Tatyana Merezhko,Татьяна Мережко,No,SBD,Wraps,F,90,Open,1978-07-05,83.7,200,210,215,,215,102.5,110,-115,,110,215,227.5,235,-241,235,560
1,Mikhail Mirzakhanyan,Михаил Мирзаханян,No,SBD,Wraps,M,52,Teen 13-15,1999-07-06,50.2,60,65,70,,70,50,-55,-60,,50,90,100,-115,,100,220
1,Nikolay Martyanov,Николай Мартьянов,No,SBD,Wraps,M,56,Teen 16-17,1997-10-11,54.9,100,110,,,110,60,65,,,65,125,-135,-135,,125,300
1,Igor Kuznetsov,Игорь Кузнецов,No,SBD,Wraps,M,67.5,Open,1989-08-17,67.4,210,220,-225,,220,145,155,,,155,235,245,255,,255,630
1,Aleksandr Dambinov,Александр Дамбинов,No,SBD,Wraps,M,67.5,Masters 75-79,1936-03-12,65.4,90,100,102.5,,102.5,65,-70,,,65,155,160,-165,,160,327.5
1,Ivan Rogozhkin,Иван Рогожкин,No,SBD,Wraps,M,75,Teen 18-19,1995-10-24,71.2,140,150,160,,160,85,92.5,100,,100,160,-175,-175,,160,420
1,Yuriy Natarov,Юрий Натаров,No,SBD,Wraps,M,75,Juniors,1993-02-03,74.3,130,140,-155,,140,90,105,110,,110,145,155,170,,170,420
1,Narek Mirzoyan,Нарек Мирзоян,No,SBD,Wraps,M,75,Open,1988-04-04,72.2,130,140,150,,150,125,130,-135,,130,-180,190,-205,,190,470
1,Vladislav Smolyakov,Владислав Смоляков,No,SBD,Wraps,M,82.5,Teen 13-15,1998-09-09,82.3,160,170,180,,180,100,110,-115,,110,160,175,190,,190,480
1,Artem Krylov,Артем Крылов,No,SBD,Wraps,M,82.5,Juniors,1990-09-03,82.5,200,220,230,,230,130,145,155,,155,240,255,270,,270,655
2,Dmitriy Sukhinin,Дмитрий Сухинин,No,SBD,Wraps,M,82.5,Juniors,1991-06-06,82.4,185,195,-205,,195,160,170,175,,175,255,270,280,,280,650
3,Yan Zabrotskiy,Ян Заброцкий,No,SBD,Wraps,M,82.5,Juniors,1992-11-07,81.8,170,180,-185,,180,130,137.5,-142.5,,137.5,205,215,,,215,532.5
1,Artem Krylov,Артем Крылов,No,SBD,Wraps,M,82.5,Open,1990-09-03,82.5,200,220,230,,230,130,145,155,,155,240,255,270,,270,655
2,Aleksandr Prikhodko,Александр Приходько,No,SBD,Wraps,M,82.5,Open,1989-11-26,80.8,-170,-180,180,,180,100,-110,-110,,100,200,210,220,,220,500
1,Valeriy Stoyanov,Валерий Стоянов,No,SBD,Wraps,M,82.5,Masters 55-59,1957-11-25,81.5,150,165,172.5,,172.5,110,115,120,,120,170,190,-207.5,,190,482.5
1,Vasiliy Savchenko,Василий Савченко,No,SBD,Wraps,M,90,Teen 16-17,1997-01-17,87,-160,160,165,,165,-115,120,-125,,120,-210,215,-225,,215,500
1,Sergey Afanasev,Сергей Афанасьев,No,SBD,Wraps,M,90,Juniors,1990-05-02,85.1,180,190,200,,200,110,120,127.5,,127.5,-220,220,240,,240,567.5
2,Ilya Nedilko,Илья Недилько,No,SBD,Wraps,M,90,Juniors,1992-02-29,89.7,190,-200,-200,,190,165,-175,,,165,210,-220,,,210,565
1,Boris Grigorchuk,Борис Григорчук,No,SBD,Wraps,M,90,Open,1988-02-22,89,190,-205,-205,,190,160,165,170,,170,-190,190,205,,205,565
2,Leonid Kovrizhnykh,Леонид Коврижных,No,SBD,Wraps,M,90,Open,1986-05-03,87.2,-185,185,195,,195,150,-155,155,,155,200,210,-220,,210,560
1,Danil Kotenko,Данил Котенко,No,SBD,Wraps,M,100,Teen 16-17,1996-07-17,94.1,-165,175,-200,,175,125,132.5,-135,,132.5,175,185,195,,195,502.5
1,Artem Levchenko,Артем Левченко,No,SBD,Wraps,M,100,Open,1983-10-20,98,225,240,250,,250,175,180,185,,185,230,247.5,265,,265,700
2,Aleksey Vorobyov,Алексей Воробьёв,No,SBD,Wraps,M,100,Open,1983-05-30,96.2,240,250,-260,,250,125,135,,,135,250,260,270,,270,655
3,Artem Artemenko,Артем Артеменко,No,SBD,Wraps,M,100,Open,1989-03-17,99.5,210,220,-230,,220,185,-192.5,192.5,,192.5,230,,,,230,642.5
4,Maksim Kolodyazhnyy,Максим Колодяжный,No,SBD,Wraps,M,100,Open,1989-10-13,99.4,225,-235,-235,,225,127.5,135,-140,,135,270,280,-290,,280,640
1,Evgeniy Dokumov,Евгений Докумов,No,SBD,Wraps,M,100,Masters 40-44,1973-02-06,94.9,220,-235,-235,,220,120,130,-135,,130,220,235,240,,240,590
1,Aslambek Abaev,Асламбек Абаев,No,SBD,Wraps,M,100,Masters 50-54,1959-06-28,98.7,260,275,285,,285,190,200,205,,205,250,265,-270,,265,755
1,Dmitriy Funtov,Дмитрий Фунтов,No,SBD,Wraps,M,110,Juniors,1991-03-12,106.2,-220,-220,220,,220,180,-190,-190,,180,240,255,-265,,255,655
1,Yashar Shavoev,Яшар Шавоев,No,SBD,Wraps,M,110,Open,1986-10-02,110,260,-275,,,260,180,190,-200,,190,240,250,-260,,250,700
2,Oleg Tsokolov,Олег Цоколов,No,SBD,Wraps,M,110,Open,1974-12-15,103,160,185,200,,200,130,140,-150,,140,200,215,235,,235,575
3,Semen Vetryakov,Семен Ветряков,No,SBD,Wraps,M,110,Open,1984-12-10,103,-180,180,195,,195,130,140,-150,,140,190,205,215,,215,550
4,Aleksey Kostenko,Алексей Костенко,No,SBD,Wraps,M,110,Open,1982-10-15,109.5,170,-180,180,,180,115,125,132.5,,132.5,-180,190,-210,,190,502.5
DQ,Aleksandr Komkov,Александр Комков,No,SBD,Wraps,M,110,Open,1983-11-26,109.4,-240,-240,-240,,,,,,,,,,,,,
1,Andrey Kvochkin,Андрей Квочкин,No,SBD,Wraps,M,125,Juniors,1991-03-21,121.1,280,290,300,,300,205,212.5,217.5,,217.5,320,335,-350,-350,335,852.5
1,Stanislav Shvetsov,Станислав Швецов,No,SBD,Wraps,M,125,Open,1988-02-08,122.4,300,320,-330,,320,215,230,240,,240,300,315,-330,,315,875
2,Andrey Kvochkin,Андрей Квочкин,No,SBD,Wraps,M,125,Open,1991-03-21,121.1,280,290,300,,300,205,212.5,217.5,,217.5,320,335,-350,-350,335,852.5
3,Valentin Trepshin,Валентин Трепшин,No,SBD,Wraps,M,125,Open,1987-06-10,112.9,265,280,290,,290,165,180,190,,190,250,260,270,,270,750
4,Anton Bespoludin,Антон Бесполудин,No,SBD,Wraps,M,125,Open,1976-12-27,118,-250,250,-260,,250,-160,160,-170,,160,230,240,250,,250,660
1,Kirill Gulevskiy,Кирилл Гулевский,No,SBD,Wraps,M,140,Open,1987-10-07,138,-285,285,-300,,285,170,180,-185,,180,315,330,340,,340,805
2,Evgeniy Kuchur,Евгений Кучур,No,SBD,Wraps,M,140,Open,1982-01-22,127.1,240,-260,-260,,240,190,200,205,,205,230,240,-250,,240,685
1,Sergey Tatarenko,Сергей Татаренко,No,SBD,Wraps,M,140,Masters 40-44,1970-01-03,135,175,190,200,,200,135,145,-150,,145,200,220,-235,,220,565
1,Aleksey Zavalishin,Алексей Завалишин,No,SBD,Single-ply,M,75,Juniors,1991-11-01,75,190,210,220,,220,140,150,-160,,150,180,190,220,,220,590
1,Nikolay Korshunov,Николай Коршунов,No,SBD,Single-ply,M,82.5,Teen 18-19,1995-03-07,81.9,205,-225,230,,230,130,140,150,,150,190,200,-210,,200,580
1,Roman Khaustov,Роман Хаустов,No,SBD,Single-ply,M,82.5,Open,1983-08-24,82.4,305,320,330,,330,160,170,,,170,262.5,275,280,,280,780
2,Ivan Pakhomov,Иван Пахомов,No,SBD,Single-ply,M,82.5,Open,1986-08-23,80.5,-230,-245,245,,245,130,145,155,,155,220,240,-262.5,,240,640
DQ,Vladimir Bakshaliev,Владимир Бакшалиев,No,SBD,Single-ply,M,90,Open,1983-08-04,88.3,-285,-300,-300,,,,,,,,,,,,,
1,Aleksey Sova,Алексей Сова,No,SBD,Single-ply,M,100,Juniors,1991-09-22,97.4,230,240,250,,250,140,,,,140,220,-240,240,,240,630
1,Aleksandr Danshin,Александр Даньшин,No,SBD,Single-ply,M,125,Juniors,1991-09-11,116.7,-270,270,-285,,270,175,,,,175,250,265,-290,,265,710
1,Asadula Isadibirov,Асадула Исадибиров,No,SBD,Single-ply,M,125,Open,1986-10-29,110.6,250,-260,-260,,250,170,,,,170,200,,,,200,620
1,Kaplan Tlevtsezhev,Каплан Тлевцежев,No,SBD,Multi-ply,M,82.5,Masters 55-59,1956-02-13,82.5,190,,,,190,105,,,,105,215,,,,215,510
1,Vasiliy Shpodarev,Василий Шподарев,No,SBD,Multi-ply,M,140,Open,1989-01-13,126,260,290,,,290,240,,,,240,270,300,,,300,830
1,Igor Nastynov,Игорь Настынов,No,SBD,Multi-ply,M,140+,Open,1961-03-14,141.9,250,280,,,280,170,,,,170,280,,,,280,730
1,Kseniya Golikova,Ксения Голикова,No,B,Raw,F,52,Open,1989-03-21,49.6,,,,,,40,42.5,45,,45,,,,,,45
1,Irina Ignatovich,Ирина Игнатович,No,B,Raw,F,56,Open,1982-07-20,56,,,,,,70,80,-85,,80,,,,,,80
1,Lyubov Maltseva,Любовь Мальцева,No,B,Raw,F,67.5,Open,1976-07-05,66.6,,,,,,90,95,100,,100,,,,,,100
1,Natalya Goncharova,Наталья Гончарова,No,B,Raw,F,67.5,Masters 45-49,1964-09-06,67.5,,,,,,90,95,100,,100,,,,,,100
1,Anna Turaeva,Анна Тураева,No,B,Raw,F,82.5,Open,1978-08-18,81.5,,,,,,122.5,130,135,,135,,,,,,135
1,Andrey Govorov,Андрей Говоров,No,B,Raw,M,60,Juniors,1992-07-04,59.5,,,,,,100,-110,-110,,100,,,,,,100
1,Aleksey Krapivka,Алексей Крапивка,No,B,Raw,M,60,Open,1987-10-06,58,,,,,,115,-120,-120,,115,,,,,,115
1,Albert Martirosyan,Альберт Мартиросян,No,B,Raw,M,67.5,Teen 16-17,1997-12-04,63.4,,,,,,60,65,-70,,65,,,,,,65
1,Richard Melkonyan,Ричард Мелконян,No,B,Raw,M,75,Teen 13-15,1998-09-23,67.7,,,,,,60,67.5,-75,,67.5,,,,,,67.5
1,Yuriy Kuryachiy,Юрий Курячий,No,B,Raw,M,75,Teen 16-17,1997-12-23,73.8,,,,,,135,142.5,-150,,142.5,,,,,,142.5
1,Pavel Petrosyan,Павел Петросян,No,B,Raw,M,75,Juniors,1991-10-09,73.8,,,,,,160,-162.5,162.5,,162.5,,,,,,162.5
1,Pavel Petrosyan,Павел Петросян,No,B,Raw,M,75,Open,1991-10-09,73.8,,,,,,160,-162.5,162.5,,162.5,,,,,,162.5
2,Stanislav Parkhachev,Станислав Пархачев,No,B,Raw,M,75,Open,1982-09-09,75,,,,,,150,-160,-160,,150,,,,,,150
3,Narek Mirzoyan,Нарек Мирзоян,No,B,Raw,M,75,Open,1988-04-04,72.2,,,,,,125,130,-135,,130,,,,,,130
1,Vladislav Smolyakov,Владислав Смоляков,No,B,Raw,M,82.5,Teen 13-15,1998-09-09,82.3,,,,,,100,110,-115,,110,,,,,,110
1,Andranik Grigoryan,Андраник Григорян,No,B,Raw,M,82.5,Teen 16-17,1996-09-27,82.4,,,,,,-160,160,-170,,160,,,,,,160
1,Rasim Oydinov,Расим Ойдинов,No,B,Raw,M,82.5,Juniors,1991-09-23,80.7,,,,,,157.5,-167.5,-170,,157.5,,,,,,157.5
DQ,Evgeniy Vasilev,Евгений Васильев,No,B,Raw,M,82.5,Open,1980-12-02,78.7,,,,,,-147.5,,,,,,,,,,
1,Sergey Krvashyam,Сергей Крвашям,No,B,Raw,M,82.5,Masters 40-44,1973-12-12,82.2,,,,,,145,150,-155,,150,,,,,,150
1,Valeriy Stoyanov,Валерий Стоянов,No,B,Raw,M,82.5,Masters 55-59,1957-11-25,81.5,,,,,,110,115,120,,120,,,,,,120
1,Andrey Gabuev,Андрей Габуев,No,B,Raw,M,90,Teen 16-17,1996-09-30,86.7,,,,,,112.5,117.5,120,,120,,,,,,120
1,Evgeniy Starodubtsev,Евгений Стародубцев,No,B,Raw,M,90,Juniors,1991-12-17,89.5,,,,,,155,162.5,165,,165,,,,,,165
2,Evgeniy Smirkin,Евгений Смиркин,No,B,Raw,M,90,Juniors,1992-09-24,88.3,,,,,,157.5,162.5,-167.5,,162.5,,,,,,162.5
3,Oleg Leukov,Олег Леуков,No,B,Raw,M,90,Juniors,1993-05-14,84.5,,,,,,140,150,-157.5,,150,,,,,,150
1,Murat Zhanimov,Мурат Жанимов,No,B,Raw,M,90,Open,1990-05-01,87.1,,,,,,-210,210,215,220,215,,,,,,215
2,Igor Datuashvili,Игорь Датуашвили,No,B,Raw,M,90,Open,1986-07-26,87.5,,,,,,160,-162.5,-162.5,,160,,,,,,160
3,Andrey Nesterenko,Андрей Нестеренко,No,B,Raw,M,90,Open,1980-08-21,90,,,,,,145,-155,-155,,145,,,,,,145
4,Aleksandr Beletskiy,Александр Белецкий,No,B,Raw,M,90,Open,1976-01-03,87.7,,,,,,135,-142.5,-142.5,,135,,,,,,135
1,Oleg Ulomskiy,Олег Уломский,No,B,Raw,M,90,Masters 50-54,1964-03-30,86.6,,,,,,100,105,-107.5,,105,,,,,,105
1,Aleksey Gribov,Алексей Грибов,No,B,Raw,M,100,Teen 16-17,1996-09-10,95.4,,,,,,135,140,-147.5,,140,,,,,,140
1,Aleksandr Grevtsev,Александр Гревцев,No,B,Raw,M,100,Juniors,1991-12-02,96,,,,,,-180,190,195,,195,,,,,,195
1,Evgeniy Batorevich,Евгений Баторевич,No,B,Raw,M,100,Open,1986-11-28,97.3,,,,,,185,195,200,,200,,,,,,200
2,Nikolay Kuprichenkov,Николай Куприченков,No,B,Raw,M,100,Open,1979-09-20,99,,,,,,190,195,200,,200,,,,,,200
3,Ivan Galiguzov,Иван Галигузов,No,B,Raw,M,100,Open,1983-08-21,98,,,,,,180,190,195,,195,,,,,,195
4,Dmitriy Nadzha,Дмитрий Наджа,No,B,Raw,M,100,Open,1975-10-10,99,,,,,,190,-200,-200,,190,,,,,,190
DQ,Artem Artemenko,Артем Артеменко,No,B,Raw,M,100,Open,1989-03-17,99.5,,,,,,-202.5,-202.5,-202.5,,,,,,,,
1,Roman Sharipov,Роман Шарипов,No,B,Raw,M,100,Masters 40-44,1970-05-23,93.2,,,,,,165,172.5,-180,,172.5,,,,,,172.5
1,Aleksey Prinyov,Алексей Принёв,No,B,Raw,M,100,Masters 45-49,1968-12-29,99.7,,,,,,140,150,155,,155,,,,,,155
1,Dmitriy Tenetko,Дмитрий Тенетко,No,B,Raw,M,110,Open,1975-08-11,109,,,,,,240,255,-262.5,,255,,,,,,255
2,Ruben Odabashyan,Рубен Одабашян,No,B,Raw,M,110,Open,1986-08-27,108.7,,,,,,-195,195,-205,,195,,,,,,195
3,Dmitriy Tyurin,Дмитрий Тюрин,No,B,Raw,M,110,Open,1988-08-14,104,,,,,,180,190,-200,,190,,,,,,190
4,Sergey Zverkhovskiy,Сергей Зверховский,No,B,Raw,M,110,Open,1984-03-06,110,,,,,,180,190,-197.5,,190,,,,,,190
1,Valeriy Akentyev,Валерий Акентьев,No,B,Raw,M,110,Masters 55-59,1958-03-13,105.9,,,,,,160,167.5,,,167.5,,,,,,167.5
1,Dmitriy Prachev,Дмитрий Прачев,No,B,Raw,M,125,Juniors,1993-07-30,118,,,,,,185,195,-207.5,,195,,,,,,195
1,Yuriy Khuazhev,Юрий Хуажев,No,B,Raw,M,125,Open,1970-09-02,120,,,,,,255,267.5,275,,275,,,,,,275
2,Vishal Khanna,,No,B,Raw,M,125,Open,1980-12-09,125,,,,,,227.5,235,240,,240,,,,,,240
3,Andrey Likhman,Андрей Лихман,No,B,Raw,M,125,Open,1977-05-01,113,,,,,,220,-227.5,-227.5,,220,,,,,,220
4,Vitaliy Belyakov,Виталий Беляков,No,B,Raw,M,125,Open,1983-07-10,114,,,,,,220,-230,,,220,,,,,,220
5,Nikolay Orlov,Николай Орлов,No,B,Raw,M,125,Open,1971-01-05,120.2,,,,,,200,210,215,,215,,,,,,215
6,Mikhail Sekov,Михаил Секов,No,B,Raw,M,125,Open,1986-09-01,115.9,,,,,,180,190,200,,200,,,,,,200
7,Yuriy Khalipa,Юрий Халипа,No,B,Raw,M,125,Open,1986-09-04,119.9,,,,,,190,200,-207.5,,200,,,,,,200
8,Vadim Bespalov,Вадим Беспалов,No,B,Raw,M,125,Open,1979-04-20,112.9,,,,,,175,182.5,187.5,,187.5,,,,,,187.5
9,Mukhamed Sabiev,Мухамед Сабиев,No,B,Raw,M,125,Open,1982-03-13,117.5,,,,,,155,-170,-170,,155,,,,,,155
DQ,Sergey Vinokurov,Сергей Винокуров,No,B,Raw,M,125,Open,1977-07-27,114.9,,,,,,-180,,,,,,,,,,
1,Nikolay Orlov,Николай Орлов,No,B,Raw,M,125,Masters 40-44,1971-01-05,120.2,,,,,,200,215,,,215,,,,,,215
1,Andrey Litvinenko,Андрей Литвиненко,No,B,Raw,M,125,Masters 50-54,1962-04-19,113.2,,,,,,130,140,-145,,140,,,,,,140
1,Aslanbek Kushkhov,Асланбек Кушхов,No,B,Raw,M,140,Open,1984-05-16,132,,,,,,245,255,260,,260,,,,,,260
2,Denis Muratov,Денис Муратов,No,B,Raw,M,140,Open,1984-08-18,137.2,,,,,,237.5,247.5,-250,,247.5,,,,,,247.5
1,Evgeniy Solovev,Евгений Соловьев,No,B,Single-ply,M,100,Open,1988-09-20,94.3,,,,,,170,-190,190,,190,,,,,,190
DQ,Aleksey Kiselev,Алексей Киселев,No,B,Single-ply,M,110,Open,1974-04-27,108.4,,,,,,-210,-210,-210,,,,,,,,
1,Vadim Evtushenko,Вадим Евтушенко,No,B,Single-ply,M,125,Open,1974-09-18,116,,,,,,260,-285,-285,,260,,,,,,260
1,Dmitriy Kochevatkin,Дмитрий Кочеваткин,No,B,Multi-ply,M,82.5,Open,1976-02-18,81.9,,,,,,220,-235,-235,,220,,,,,,220
1,Vladislav Kornikh,Владислав Корних,No,B,Multi-ply,M,90,Juniors,1992-06-29,89.9,,,,,,195,-202.5,202.5,,202.5,,,,,,202.5
1,Aleksandr Verbitskiy,Александр Вербицкий,No,B,Multi-ply,M,90,Open,1989-03-04,90,,,,,,200,210,-220,,210,,,,,,210
DQ,Nikolay Fort,Николай Форт,No,B,Multi-ply,M,100,Juniors,1990-12-04,99.7,,,,,,-270,-270,-280,,,,,,,,
1,Evgeniy Solovev,Евгений Соловьев,No,B,Multi-ply,M,100,Open,1988-09-20,94.3,,,,,,170,-190,190,,190,,,,,,190
1,Aleksandr Ivanov,Александр Иванов,No,B,Multi-ply,M,110,Open,1976-04-10,107.2,,,,,,270,-280,-280,,270,,,,,,270
2,Aleksandr Tarasov,Александр Тарасов,No,B,Multi-ply,M,110,Open,1980-05-28,103.9,,,,,,240,-250,-250,,240,,,,,,240
1,Valeriy Akentyev,Валерий Акентьев,No,B,Multi-ply,M,110,Masters 55-59,1958-03-13,105.9,,,,,,250,255,260,262.5,260,,,,,,260
1,Sergey Starodubskiy,Сергей Стародубский,No,B,Multi-ply,M,125,Open,1977-12-20,117.6,,,,,,280,300,-310,,300,,,,,,300
2,Aleksey Shlykov,Алексей Шлыков,No,B,Multi-ply,M,125,Open,1984-08-13,125,,,,,,270,282.5,290,,290,,,,,,290
3,Aleksey Tarasov,Алексей Тарасов,No,B,Multi-ply,M,125,Open,1976-03-21,117,,,,,,260,-270,-270,,260,,,,,,260
1,Anatoliy Talovasov,Анатолий Таловасов,No,B,Multi-ply,M,125,Masters 50-54,1960-12-01,121.4,,,,,,140,150,-162.5,,150,,,,,,150
1,Irina Ignatovich,Ирина Игнатович,No,D,Raw,F,56,Open,1982-07-20,56,,,,,,,,,,,175,182.5,-187.5,,182.5,182.5
1,Viktoriya Isaeva,Виктория Исаева,No,D,Raw,F,56,Open,1998-12-01,54.2,,,,,,,,,,,90,100,-110,,100,100
1,Mariya Kulagina,Мария Кулагина,No,D,Raw,F,60,Open,1984-06-14,56.8,,,,,,,,,,,80,-90,90,,90,90
1,Marina Vishnevskaya,Марина Вишневская,No,D,Raw,F,67.5,Open,1985-10-26,67.2,,,,,,,,,,,170,185,-190,,185,185
1,Andrey Govorov,Андрей Говоров,No,D,Raw,M,60,Open,1992-07-04,59.5,,,,,,,,,,,90,110,120,,120,120
1,Nikolay Fedotov,Николай Федотов,No,D,Raw,M,67.5,Open,1988-01-21,65.4,,,,,,,,,,,155,165,170,,170,170
1,Igor Kondrashov,Игорь Кондрашов,No,D,Raw,M,75,Open,1986-07-01,74.7,,,,,,,,,,,230,240,-250,,240,240
2,Narek Mirzoyan,Нарек Мирзоян,No,D,Raw,M,75,Open,1988-04-04,72.2,,,,,,,,,,,180,200,-210,,200,200
1,Rasim Oydinov,Расим Ойдинов,No,D,Raw,M,82.5,Open,1991-09-23,80.7,,,,,,,,,,,210,227.5,242.5,,242.5,242.5
2,Dmitriy Samokhvalov,Дмитрий Самохвалов,No,D,Raw,M,82.5,Open,1973-04-11,81.5,,,,,,,,,,,220,230,-240,,230,230
3,Valeriy Stoyanov,Валерий Стоянов,No,D,Raw,M,82.5,Open,1957-11-25,81.5,,,,,,,,,,,170,185,200,,200,200
4,Vitaliy Satov,Виталий Сатов,No,D,Raw,M,82.5,Open,1981-12-23,82.5,,,,,,,,,,,180,190,197.5,,197.5,197.5
1,Timur Anchabadze,Тимур Анчабадзе,No,D,Raw,M,90,Open,1988-03-24,89.3,,,,,,,,,,,230,240,260,,260,260
2,Andrey Nesterenko,Андрей Нестеренко,No,D,Raw,M,90,Open,1980-08-21,90,,,,,,,,,,,220,240,250,,250,250
3,Murat Gozov,Мурат Гозов,No,D,Raw,M,90,Open,1986-06-05,88.7,,,,,,,,,,,200,230,240,,240,240
1,Dmitriy Borisenko,Дмитрий Борисенко,No,D,Raw,M,100,Open,1982-11-15,100,,,,,,,,,,,280,290,-295,,290,290
2,Nikolay Omelchenko,Николай Омельченко,No,D,Raw,M,100,Open,1987-04-10,96.1,,,,,,,,,,,270,275,280,,280,280
3,Kirill Kiselev,Кирилл Киселев,No,D,Raw,M,100,Open,1986-12-07,98.1,,,,,,,,,,,260,277.5,-285,,277.5,277.5
4,Sergey Aseev,Сергей Асеев,No,D,Raw,M,100,Open,1980-06-14,95.7,,,,,,,,,,,235,250,-277.5,,250,250
5,Sergey Nosachyov,Сергей Носачёв,No,D,Raw,M,100,Open,1987-10-19,91.6,,,,,,,,,,,150,180,195,,195,195
1,Dmitriy Tyurin,Дмитрий Тюрин,No,D,Raw,M,110,Open,1988-08-14,104,,,,,,,,,,,265,280,297.5,,297.5,297.5
2,Aleksey Kiselev,Алексей Киселев,No,D,Raw,M,110,Open,1974-04-27,108.4,,,,,,,,,,,260,-280,,,260,260
3,Ruben Odabashyan,Рубен Одабашян,No,D,Raw,M,110,Open,1986-08-27,108.7,,,,,,,,,,,230,250,,,250,250
1,Sergey Vinokurov,Сергей Винокуров,No,D,Raw,M,125,Open,1977-07-27,114.9,,,,,,,,,,,280,295,305,,305,305
2,Yuriy Khalipa,Юрий Халипа,No,D,Raw,M,125,Open,1986-09-04,119.9,,,,,,,,,,,220,240,250,,250,250
3,Sergey Sviridov,Сергей Свиридов,No,D,Raw,M,125,Open,1980-07-01,121.5,,,,,,,,,,,200,220,230,,230,230
1,Denis Makeev,Денис Макеев,No,D,Raw,M,140,Open,1983-04-22,128,,,,,,,,,,,275,295,300,,300,300
1,Vladimir Zhabin,Владимир Жабин,No,D,Multi-ply,M,90,Open,1980-06-27,90,,,,,,,,,,,310,325,-335,,325,325
2,Aleksandr Verbitskiy,Александр Вербицкий,No,D,Multi-ply,M,90,Open,1989-03-04,90,,,,,,,,,,,220,-230,-230,,220,220
1,Ilya Luchnikov,Илья Лучников,No,D,Multi-ply,M,110,Open,1974-03-11,107.9,,,,,,,,,,,300,320,330,,330,330
1,Irina Timoshchenko,Ирина Тимощенко,Yes,B,Raw,F,48,Juniors,1991-12-17,47.2,,,,,,35,,,,35,,,,,,35
1,Natalya Pashkova,Наталья Пашкова,Yes,B,Raw,F,48,Open,1977-06-30,47.7,,,,,,52.5,,,,52.5,,,,,,52.5
1,Marina Bogandova,Марина Богандова,Yes,B,Raw,F,52,Open,1986-06-04,50.8,,,,,,55,,,,55,,,,,,55
2,Nina Kulakova-Gogoleva,Нина Кулакова-Гоголева,Yes,B,Raw,F,52,Open,1981-09-30,49.9,,,,,,50,,,,50,,,,,,50
1,Viktoriya Merkulova,Виктория Меркулова,Yes,B,Raw,F,52,Teen 16-17,1997-11-14,49.9,,,,,,42.5,,,,42.5,,,,,,42.5
1,Elena Podyacheva,Елена Подъячева,Yes,B,Raw,F,52,Open,1984-09-10,51.3,,,,,,40,,,,40,,,,,,40
1,Kristina Aynetdinova,Кристина Айнетдинова,Yes,B,Raw,F,56,Open,1986-10-11,55.2,,,,,,62.5,,,,62.5,,,,,,62.5
1,Nadezhda Gmyrya,Надежда Гмыря,Yes,B,Raw,F,60,Juniors,1990-04-27,60,,,,,,55,,,,55,,,,,,55
1,Tatyana Cherodchenko,Татьяна Черодченко,Yes,B,Raw,F,60,Open,1975-03-13,58.9,,,,,,57.5,,,,57.5,,,,,,57.5
2,Olga Golovacheva,Ольга Головачева,Yes,B,Raw,F,60,Open,1985-05-26,59.9,,,,,,52.5,57.5,-60,,57.5,,,,,,57.5
3,Irina Burakova,Ирина Буракова,Yes,B,Raw,F,60,Open,1985-05-01,60,,,,,,45,,,,45,,,,,,45
1,Olga Teryasova,Ольга Терясова,Yes,B,Raw,F,67.5,Teen 16-17,1996-10-24,66.6,,,,,,50,,,,50,,,,,,50
1,Tamara Vyazova,Тамара Вязова,Yes,B,Raw,F,75,Open,1984-07-09,73.5,,,,,,65,,,,65,,,,,,65
1,Viktoriya Nelina,Виктория Нелина,Yes,B,Raw,F,90+,Juniors,1990-07-27,92.2,,,,,,45,,,,45,,,,,,45
1,Igor Zhuk #2,Игорь Жук,Yes,B,Raw,M,56,Teen 13-15,1999-06-16,55.1,,,,,,72.5,,,,72.5,,,,,,72.5
1,Ilya Solovev,Илья Соловьев,Yes,B,Raw,M,56,Juniors,1991-07-03,55.5,,,,,,-77.5,77.5,-85,,77.5,,,,,,77.5
1,Andrey Larin,Андрей Ларин,Yes,B,Raw,M,60,Juniors,1992-01-20,59.4,,,,,,102.5,,,,102.5,,,,,,102.5
1,Andrey Larin,Андрей Ларин,Yes,B,Raw,M,60,Open,1992-01-20,59.4,,,,,,102.5,,,,102.5,,,,,,102.5
2,Oleg Shakirov,Олег Шакиров,Yes,B,Raw,M,60,Open,1981-09-24,58.7,,,,,,90,,,,90,,,,,,90
1,Vladislav Konogray,Владислав Конограй,Yes,B,Raw,M,67.5,Teen 16-17,1997-09-06,66.2,,,,,,107.5,,,,107.5,,,,,,107.5
2,Maksim Chigrin,Максим Чигрин,Yes,B,Raw,M,67.5,Teen 16-17,1997-06-13,65.4,,,,,,80,,,,80,,,,,,80
1,Shamil Apazaov,Шамиль Апазаов,Yes,B,Raw,M,67.5,Teen 18-19,1994-05-23,64.7,,,,,,125,,,,125,,,,,,125
2,Sergey Vareldzhan,Сергей Варельджан,Yes,B,Raw,M,67.5,Teen 18-19,1995-07-13,66.2,,,,,,112.5,,,,112.5,,,,,,112.5
3,Vladislav Detkov,Владислав Детков,Yes,B,Raw,M,67.5,Teen 18-19,1995-07-04,67.1,,,,,,110,,,,110,,,,,,110
4,Vladimir Marchenko,Владимир Марченко,Yes,B,Raw,M,67.5,Teen 18-19,1995-11-05,67.1,,,,,,97.5,,,,97.5,,,,,,97.5
DQ,Alik Petrosyan,Алик Петросян,Yes,B,Raw,M,67.5,Teen 18-19,1995-11-20,67.5,,,,,,-110,,,,,,,,,,
1,Maksim Gridnev,Максим Гриднев,Yes,B,Raw,M,67.5,Juniors,1992-10-31,65.5,,,,,,142.5,,,,142.5,,,,,,142.5
2,Stanislav Kucherov,Станислав Кучеров,Yes,B,Raw,M,67.5,Juniors,1992-03-24,65,,,,,,130,,,,130,,,,,,130
1,Aleksey Shishkin,Алексей Шишкин,Yes,B,Raw,M,67.5,Open,1987-10-25,63.5,,,,,,115,,,,115,,,,,,115
2,Pavel Dugin,Павел Дугин,Yes,B,Raw,M,67.5,Open,1978-02-06,65,,,,,,65,,,,65,,,,,,65
1,Aleksandr Evsyukov,Александр Евсюков,Yes,B,Raw,M,75,Teen 13-15,1999-12-27,67.7,,,,,,80,,,,80,,,,,,80
1,Adam Gubzhev,Адам Губжев,Yes,B,Raw,M,75,Teen 16-17,1996-09-11,73.4,,,,,,110,,,,110,,,,,,110
2,Dmitriy Burukhin,Дмитрий Бурухин,Yes,B,Raw,M,75,Teen 16-17,1997-06-17,72.5,,,,,,105,,,,105,,,,,,105
3,Oleg Ivlev,Олег Ивлев,Yes,B,Raw,M,75,Teen 16-17,1997-04-13,71.9,,,,,,82.5,,,,82.5,,,,,,82.5
1,Rezuan Vorokov,Резуан Вороков,Yes,B,Raw,M,75,Teen 18-19,1994-12-14,71,,,,,,135,,,,135,,,,,,135
1,Roman Korshunov,Роман Коршунов,Yes,B,Raw,M,75,Juniors,1991-12-09,74.1,,,,,,135,,,,135,,,,,,135
2,Aleksandr Matvienko,Александр Матвиенко,Yes,B,Raw,M,75,Juniors,1990-05-29,74.5,,,,,,120,,,,120,,,,,,120
3,Azamat Atmurzaev,Азамат Атмурзаев,Yes,B,Raw,M,75,Juniors,1991-02-28,74.5,,,,,,117.5,,,,117.5,,,,,,117.5
4,Aleksandr Lozovoy,Александр Лозовой,Yes,B,Raw,M,75,Juniors,1990-08-17,73.2,,,,,,115,,,,115,,,,,,115
5,Ilya Serebryakov,Илья Серебряков,Yes,B,Raw,M,75,Juniors,1990-05-22,74.2,,,,,,107.5,,,,107.5,,,,,,107.5
1,Vadim Kudryavtsev,Вадим Кудрявцев,Yes,B,Raw,M,75,Open,1987-12-02,74.9,,,,,,140,,,,140,,,,,,140
2,Adam Tsechoev,Адам Цечоев,Yes,B,Raw,M,75,Open,1987-12-08,73.3,,,,,,135,,,,135,,,,,,135
3,Denis Makarov,Денис Макаров,Yes,B,Raw,M,75,Open,1986-06-08,74.5,,,,,,135,,,,135,,,,,,135
4,Aleksandr Ogly,Александр Оглы,Yes,B,Raw,M,75,Open,1986-03-31,70,,,,,,130,,,,130,,,,,,130
5,Roman Apenyshev,Роман Апенышев,Yes,B,Raw,M,75,Open,1986-11-19,74.7,,,,,,117.5,,,,117.5,,,,,,117.5
1,Vladimir Kosmynin,Владимир Космынин,Yes,B,Raw,M,75,Masters 50-54,1960-06-12,73.8,,,,,,130,,,,130,,,,,,130
1,Ramil Rasulov,Рамиль Расулов,Yes,B,Raw,M,82.5,Teen 16-17,1997-07-25,80.2,,,,,,130,,,,130,,,,,,130
2,Mark Samurganov,Марк Самурганов,Yes,B,Raw,M,82.5,Teen 16-17,1997-05-28,81.7,,,,,,87.5,,,,87.5,,,,,,87.5
1,Ruslan Vorokov,Руслан Вороков,Yes,B,Raw,M,82.5,Teen 18-19,1994-10-13,79.9,,,,,,155,,,,155,,,,,,155
2,Davud Atajanov,,Yes,B,Raw,M,82.5,Teen 18-19,1994-06-30,81.5,,,,,,115,,,,115,,,,,,115
1,Artem Gukov,Артем Гуков,Yes,B,Raw,M,82.5,Juniors,1991-11-03,80.5,,,,,,127.5,,,,127.5,,,,,,127.5
1,Vladimir Vanyan,Владимир Ванян,Yes,B,Raw,M,82.5,Open,1989-10-14,82.5,,,,,,172.5,,,,172.5,,,,,,172.5
2,Vladimir Rybalko,Владимир Рыбалко,Yes,B,Raw,M,82.5,Open,1987-05-04,82.5,,,,,,160,,,,160,,,,,,160
3,Sergey Rudenko,Сергей Руденко,Yes,B,Raw,M,82.5,Open,1959-07-11,81.9,,,,,,157.5,,,,157.5,,,,,,157.5
4,Dmitriy Lyanguzov,Дмитрий Лянгузов,Yes,B,Raw,M,82.5,Open,1988-11-15,79.2,,,,,,145,,,,145,,,,,,145
5,Evgeniy Kardonov,Евгений Кардонов,Yes,B,Raw,M,82.5,Open,1986-05-29,81.7,,,,,,145,,,,145,,,,,,145
6,Nikolay Filatov,Николай Филатов,Yes,B,Raw,M,82.5,Open,1988-06-20,82.5,,,,,,130,,,,130,,,,,,130
7,Vladimir Gorbunov,Владимир Горбунов,Yes,B,Raw,M,82.5,Open,1990-01-06,82.5,,,,,,117.5,,,,117.5,,,,,,117.5
8,Semyon Efimtsov,Семён Ефимцов,Yes,B,Raw,M,82.5,Open,1983-07-03,77.4,,,,,,115,,,,115,,,,,,115
9,Aleksandr Sytnik,Александр Сытник,Yes,B,Raw,M,82.5,Open,1976-01-27,81.9,,,,,,115,-122.5,-122.5,,115,,,,,,115
1,Sergey Rudenko,Сергей Руденко,Yes,B,Raw,M,82.5,Masters 50-54,1959-07-11,81.9,,,,,,157.5,,,,157.5,,,,,,157.5
1,Vladimir Rogach,Владимир Рогач,Yes,B,Raw,M,82.5,Masters 55-59,1955-09-19,81.2,,,,,,100,,,,100,,,,,,100
1,Aleksandr Tkachuk,Александр Ткачук,Yes,B,Raw,M,82.5,Masters 70-74,1940-03-19,78.1,,,,,,100,,,,100,,,,,,100
1,Nikita Efimov,Никита Ефимов,Yes,B,Raw,M,90,Teen 16-17,1997-03-04,88.2,,,,,,140,150,152.5,,152.5,,,,,,152.5
2,Vladislav Lyubchenko,Владислав Любченко,Yes,B,Raw,M,90,Teen 16-17,1997-02-05,88.5,,,,,,-147.5,-152.5,152.5,,152.5,,,,,,152.5
3,Sultan Vorokov,Султан Вороков,Yes,B,Raw,M,90,Teen 16-17,1997-03-24,88,,,,,,90,-110,120,,120,,,,,,120
1,Asker Mukofov,Аскер Мукофов,Yes,B,Raw,M,90,Teen 18-19,1995-03-22,87.9,,,,,,90,110,-115,,110,,,,,,110
1,Vitaliy Burlakov,Віталій Бурлаков,Yes,B,Raw,M,90,Juniors,1993-03-29,89.9,,,,,,140,-152.5,-152.5,,140,,,,,,140
2,Sergey Lupandin,Сергей Лупандин,Yes,B,Raw,M,90,Juniors,1991-03-06,84.7,,,,,,125,132.5,-137.5,,132.5,,,,,,132.5
3,Viktor Prutkov,Виктор Прутков,Yes,B,Raw,M,90,Juniors,1993-07-01,87,,,,,,125,132.5,-135,,132.5,,,,,,132.5
4,Viktor Krutilin,Виктор Крутилин,Yes,B,Raw,M,90,Juniors,1990-07-14,88.8,,,,,,127.5,132.5,-145,,132.5,,,,,,132.5
1,Murat Zhashuev,Мурат Жашуев,Yes,B,Raw,M,90,Open,1983-10-21,87.9,,,,,,-150,175,-180,,175,,,,,,175
2,Mikhail Zakharov,Михаил Захаров,Yes,B,Raw,M,90,Open,1987-07-01,88.9,,,,,,155,165,-167.5,,165,,,,,,165
3,Aleksandr Petrov,Александр Петров,Yes,B,Raw,M,90,Open,1986-05-26,87.5,,,,,,152.5,157.5,160,,160,,,,,,160
4,Konstantin Smychenko,Константин Смыченко,Yes,B,Raw,M,90,Open,1983-09-07,89.7,,,,,,155,-165,-170,,155,,,,,,155
5,Nikolay Munaev,Николай Мунаев,Yes,B,Raw,M,90,Open,1986-10-30,89.3,,,,,,145,152.5,-160,,152.5,,,,,,152.5
6,Roman Sypkov,Роман Сыпков,Yes,B,Raw,M,90,Open,1980-11-01,88.3,,,,,,135,140,-142.5,,140,,,,,,140
7,Takhir Kuliev,Тахир Кулиев,Yes,B,Raw,M,90,Open,1980-08-08,84.4,,,,,,125,132.5,-152.5,,132.5,,,,,,132.5
8,Gennadiy Zulkarneev,Геннадий Зулкарнеев,Yes,B,Raw,M,90,Open,1989-04-15,88.1,,,,,,-120,120,132.5,,132.5,,,,,,132.5
9,Andrey Zhdanov,Андрей Жданов,Yes,B,Raw,M,90,Open,1986-08-25,89,,,,,,127.5,132.5,-135,,132.5,,,,,,132.5
10,Igor Bataev,Игорь Батаев,Yes,B,Raw,M,90,Open,1974-08-08,89.3,,,,,,125,-132.5,-132.5,,125,,,,,,125
11,Artur Guduyan,Артур Гудуян,Yes,B,Raw,M,90,Open,1988-08-01,88.1,,,,,,-120,120,-132.5,,120,,,,,,120
DQ,Aleksandr Meshcherin,Александр Мещерин,Yes,B,Raw,M,90,Open,1979-07-22,86.5,,,,,,-130,-132.5,-132.5,,,,,,,,
DQ,Ilya Perepelkin,Илья Перепелкин,Yes,B,Raw,M,90,Open,1989-03-18,89.8,,,,,,-127.5,-132.5,-132.5,,,,,,,,
1,Vladimir Konchakov,Владимир Кончаков,Yes,B,Raw,M,90,Masters 40-44,1973-05-25,90,,,,,,190,200,-203.5,,200,,,,,,200
1,Suren Kochumyan,Сурен Кочумян,Yes,B,Raw,M,90,Masters 50-54,1960-07-24,88.4,,,,,,125,132.5,-135,,132.5,,,,,,132.5
1,Nikolay Reshetov,Николай Решетов,Yes,B,Raw,M,90,Masters 55-59,1959-02-23,88.4,,,,,,135,140,-145,,140,,,,,,140
1,Viktor Bregeda,Виктор Брегеда,Yes,B,Raw,M,90,Masters 70-74,1941-07-27,89,,,,,,-60,60,65,,65,,,,,,65
1,Daniil Terziyan,Даниил Терзиян,Yes,B,Raw,M,100,Teen 16-17,1996-08-15,99.8,,,,,,130,-140,140,,140,,,,,,140
1,Artur Vysotskiy,Артур Высоцкий,Yes,B,Raw,M,100,Juniors,1990-09-10,97.8,,,,,,162.5,175,-185,,175,,,,,,175
2,Stepan Egyan,Степан Егян,Yes,B,Raw,M,100,Juniors,1994-03-13,98.6,,,,,,155,160,,,160,,,,,,160
3,Aleksey Lazukin,Алексей Лазукин,Yes,B,Raw,M,100,Juniors,1990-05-03,98.5,,,,,,145,-150,-150,,145,,,,,,145
DQ,Ilya Chenkurov,Илья Ченкуров,Yes,B,Raw,M,100,Juniors,1991-06-07,99.2,,,,,,-125,-132.5,-140,,,,,,,,
1,Aleksandr Chebotarev,Александр Чеботарев,Yes,B,Raw,M,100,Open,1988-03-26,97.8,,,,,,200,210,-215,,210,,,,,,210
2,Ruslan Ostapenko,Руслан Остапенко,Yes,B,Raw,M,100,Open,1982-08-09,99.4,,,,,,-180,190,-192.5,,190,,,,,,190
3,Abdul Rashid Metrishev,Абдул Рашид Метришев,Yes,B,Raw,M,100,Open,1974-01-10,97.6,,,,,,175,180,187.5,,187.5,,,,,,187.5
4,Maksim Shevchenko,Максим Шевченко,Yes,B,Raw,M,100,Open,1985-02-16,93.4,,,,,,140,150,-155,,150,,,,,,150
5,Aleksey Podsytnik,Алексей Подсытник,Yes,B,Raw,M,100,Open,1982-06-08,100,,,,,,145,-155,-162.5,,145,,,,,,145
6,Zhiraslan Sokhov,Жираслан Сохов,Yes,B,Raw,M,100,Open,1988-08-22,96.7,,,,,,110,140,-162.5,,140,,,,,,140
7,Konstantin Donchenko,Константин Донченко,Yes,B,Raw,M,100,Open,1984-07-05,96.7,,,,,,130,140,-142.5,,140,,,,,,140
DQ,Vladimir Vasilev,Владимир Васильев,Yes,B,Raw,M,100,Open,1983-07-17,91.9,,,,,,-157.5,-157.5,-157.5,,,,,,,,
1,Abdul Rashid Metrishev,Абдул Рашид Метришев,Yes,B,Raw,M,100,Masters 40-44,1974-01-10,97.6,,,,,,175,187.5,,,187.5,,,,,,187.5
1,Vladimir Zakharov,Владимир Захаров,Yes,B,Raw,M,100,Masters 55-59,1955-07-07,99.2,,,,,,180,185,-187.5,,185,,,,,,185
2,Vladimir Muran,Владимир Муран,Yes,B,Raw,M,100,Masters 55-59,1957-05-19,96.5,,,,,,170,-173,-177.5,,170,,,,,,170
3,Igor Kornev,Игорь Корнев,Yes,B,Raw,M,100,Masters 55-59,1957-08-30,93.3,,,,,,130,135,140,,140,,,,,,140
DQ,Artur Tozliyan,Артур Тозлиян,Yes,B,Raw,M,110,Teen 16-17,1996-11-22,105.6,,,,,,-150,-150,,,,,,,,,
1,Ruslan Kulebyakin,Руслан Кулебякин,Yes,B,Raw,M,110,Juniors,1991-02-26,107.8,,,,,,170,175,-180,,175,,,,,,175
1,Vitaliy Mordvinov,Виталий Мордвинов,Yes,B,Raw,M,110,Open,1987-04-24,109.1,,,,,,215,-220,-225,,215,,,,,,215
2,Telman Aliev,Тельман Алиев,Yes,B,Raw,M,110,Open,1981-07-04,108.9,,,,,,180,190,-195,,190,,,,,,190
3,Igor Evdokimov,Игорь Евдокимов,Yes,B,Raw,M,110,Open,1971-04-22,109.9,,,,,,180,-195.5,,,180,,,,,,180
4,Ruslan Kulebyakin,Руслан Кулебякин,Yes,B,Raw,M,110,Open,1991-02-26,107.8,,,,,,170,175,-180,,175,,,,,,175
5,Vitaliy Gorshkov,Виталий Горшков,Yes,B,Raw,M,110,Open,1977-12-05,104.7,,,,,,160,-167.5,167.5,,167.5,,,,,,167.5
6,Andrey Petrov,Андрей Петров,Yes,B,Raw,M,110,Open,1977-05-27,106.2,,,,,,155,167.5,-175,,167.5,,,,,,167.5
7,Pavel Nazarov,Павел Назаров,Yes,B,Raw,M,110,Open,1979-04-24,108.7,,,,,,145,155,160,,160,,,,,,160
8,Dmitriy Dyatlov,Дмитрий Дятлов,Yes,B,Raw,M,110,Open,1979-02-06,109.7,,,,,,160,-167.5,-167.5,,160,,,,,,160
1,Igor Evdokimov,Игорь Евдокимов,Yes,B,Raw,M,110,Masters 40-44,1971-04-22,109.9,,,,,,180,-195.5,,,180,,,,,,180
1,Georgiy Pirtskhelava,Георгий Пирцхелава,Yes,B,Raw,M,125,Juniors,1991-04-24,125,,,,,,180,187.5,192.5,,192.5,,,,,,192.5
1,Artur Gulyan,Артур Гулян,Yes,B,Raw,M,125,Open,1982-01-23,124.9,,,,,,240,-245,245,-251,245,,,,,,245
2,Dmitriy Rezaykin,Дмитрий Резайкин,Yes,B,Raw,M,125,Open,1984-02-12,123.1,,,,,,220,230,-235,,230,,,,,,230
3,Roman Bykov,Роман Быков,Yes,B,Raw,M,125,Open,1979-05-29,117.4,,,,,,200,-202.5,-202.5,,200,,,,,,200
4,Egor Nagornyy,Егор Нагорный,Yes,B,Raw,M,125,Open,1980-04-19,119.2,,,,,,177.5,-182.5,-182.5,,177.5,,,,,,177.5
5,Andrey Pivovarov,Андрей Пивоваров,Yes,B,Raw,M,125,Open,1981-07-20,124.5,,,,,,155,165,177.5,,177.5,,,,,,177.5
6,Denis Kashparov,Денис Кашпаров,Yes,B,Raw,M,125,Open,1985-01-27,120,,,,,,-170,170,-180,,170,,,,,,170
DQ,Evgeniy Gaevoy,Евгений Гаевой,Yes,B,Raw,M,125,Open,1985-03-20,123.9,,,,,,-180,-180,-180,,,,,,,,
1,Vladimir Chernyshov,Владимир Чернышов,Yes,B,Raw,M,125,Masters 65-69,1948-09-04,123.5,,,,,,130,-140,-140,,130,,,,,,130
1,Dmitriy Brushnevskiy,Дмитрий Брушневский,Yes,B,Raw,M,140,Open,1978-01-31,125.9,,,,,,170,180,190,,190,,,,,,190
2,Andrey Dunaevskiy,Андрей Дунаевский,Yes,B,Raw,M,140,Open,1980-06-20,128.9,,,,,,170,175,-182.5,,175,,,,,,175
1,Sergey Ivlev,Сергей Ивлев,Yes,B,Raw,M,140,Masters 40-44,1971-03-18,135,,,,,,180,-187.5,-187.5,,180,,,,,,180
1,Vladimir Gorinov,Владимир Горинов,Yes,B,Raw,M,140+,Open,1985-02-19,183,,,,,,200,212.5,-225,,212.5,,,,,,212.5
1,Boris Trofimov,Борис Трофимов,Yes,B,Raw,M,140+,Masters 40-44,1972-03-21,143,,,,,,212.5,217.5,-222.5,,217.5,,,,,,217.5
2,Oleg Ogienko,Олег Огиенко,Yes,B,Raw,M,140+,Masters 40-44,1972-02-10,141.5,,,,,,160,165,-167.5,,165,,,,,,165
1,Svetlana Maletskaya,Светлана Малецкая,Yes,B,Single-ply,F,56,Open,1983-06-04,55.8,,,,,,85,-90,,,85,,,,,,85
1,Stepan Pogosyan,Степан Погосян,Yes,B,Single-ply,M,82.5,Open,1985-04-18,82.5,,,,,,200,,,,200,,,,,,200
2,Vladimir Rybalko,Владимир Рыбалко,Yes,B,Single-ply,M,82.5,Open,1987-05-04,82.4,,,,,,180,,,,180,,,,,,180
DQ,Vladimir Vanyan,Владимир Ванян,Yes,B,Single-ply,M,82.5,Open,1989-10-14,82.5,,,,,,-205,-205,-205,,,,,,,,
1,Nikolay Reshetov,Николай Решетов,Yes,B,Single-ply,M,90,Open,1959-02-23,88.4,,,,,,165,,,,165,,,,,,165
1,Nikolay Reshetov,Николай Решетов,Yes,B,Single-ply,M,90,Masters 55-59,1959-02-23,88.4,,,,,,165,,,,165,,,,,,165
1,Aleksey Veselov,Алексей Веселов,Yes,B,Single-ply,M,100,Open,1979-08-01,98.7,,,,,,200,,,,200,,,,,,200
DQ,Maksim Tatarin,Максим Татарин,Yes,B,Single-ply,M,110,Open,1988-11-26,110,,,,,,-210,,,,,,,,,,
1,Anastasiya Sergienko,Анастасия Сергиенко,Yes,B,Multi-ply,F,48,Open,1987-09-14,47.5,,,,,,70,75,80,,80,,,,,,80
1,Nadezhda Komarova,Надежда Комарова,Yes,B,Multi-ply,F,56,Open,1980-09-05,55.1,,,,,,-75,75,-80,,75,,,,,,75
1,Armen Khachaturyan,Армен Хачатурян,Yes,B,Multi-ply,M,75,Open,1978-07-18,75,,,,,,-180,180,-197.5,,180,,,,,,180
DQ,Ivan Likhovitskiy,Иван Лиховицкий,Yes,B,Multi-ply,M,100,Juniors,1990-08-20,98.5,,,,,,-250,-250,-250,,,,,,,,
1,Ruslan Kulebyakin,Руслан Кулебякин,Yes,B,Multi-ply,M,110,Juniors,1991-02-26,107.8,,,,,,225,236,242.5,,242.5,,,,,,242.5
1,Ruslan Kulebyakin,Руслан Кулебякин,Yes,B,Multi-ply,M,110,Open,1991-02-26,107.8,,,,,,225,236,242.5,,242.5,,,,,,242.5
DQ,Anatoliy Panchenko,Анатолій Панченко,Yes,B,Multi-ply,M,110,Masters 40-44,1973-11-07,109.2,,,,,,-220,-220,-220,,,,,,,,
DQ,Artem Sedov,Артем Седов,Yes,B,Multi-ply,M,125,Open,1979-03-18,122.1,,,,,,-260,-260,-260,,,,,,,,
1,Aleksandr Ballod,Александр Баллод,Yes,B,Multi-ply,M,140,Open,1979-08-17,134.6,,,,,,240,255,270,,270,,,,,,270
1,Natalya Tokareva,Наталья Токарева,Yes,D,Raw,F,48,Open,1973-05-06,47.5,,,,,,,,,,,92.5,100,107.5,,107.5,107.5
1,Alina Likhota,Алина Лихота,Yes,D,Raw,F,48,Open,1992-12-01,47.3,,,,,,,,,,,85,-92.5,-92.5,,85,85
1,Fatima Tatarova,Фатима Татарова,Yes,D,Raw,F,56,Open,1964-06-08,54.1,,,,,,,,,,,80,85,-92.5,,85,85
DQ,Antonina Podlaboshnikova,Антонина Подлабошникова,Yes,D,Raw,F,56,Open,1971-02-02,54,,,,,,,,,,,-80,-80,-80,,,
1,Anastasiya Noskova,Анастасия Носкова,Yes,D,Raw,F,60,Open,1984-02-14,57,,,,,,,,,,,142.5,145,,,145,145
2,Lyubov Denisenko,Любовь Денисенко,Yes,D,Raw,F,60,Open,1991-09-28,57.9,,,,,,,,,,,120,130,-140,,130,130
3,Olga Golovacheva,Ольга Головачева,Yes,D,Raw,F,60,Open,1985-05-26,59.9,,,,,,,,,,,125,-135,-135,,125,125
4,Irina Burakova,Ирина Буракова,Yes,D,Raw,F,60,Open,1985-05-01,60,,,,,,,,,,,90,110,115,,115,115
1,Olga Teryasova,Ольга Терясова,Yes,D,Raw,F,67.5,Open,1996-10-24,66.6,,,,,,,,,,,117.5,135,,,135,135
1,Elena Tankova,Елена Танкова,Yes,D,Raw,F,75,Open,1977-07-18,72.9,,,,,,,,,,,80,85,92.5,,92.5,92.5
1,Ilya Solovev,Илья Соловьев,Yes,D,Raw,M,56,Open,1991-07-03,55.6,,,,,,,,,,,142.5,-152.5,-152.5,,142.5,142.5
1,Maksim Sukhobok,Максим Сухобок,Yes,D,Raw,M,60,Open,1965-01-01,59.9,,,,,,,,,,,200,212.5,-217.5,,212.5,212.5
2,Islam Misostishkhov,Ислам Мисостишхов,Yes,D,Raw,M,60,Open,1991-07-15,58.9,,,,,,,,,,,180,210,-225,,210,210
1,Kirill Melnikov,Кирилл Мельников,Yes,D,Raw,M,67.5,Open,1992-12-09,65,,,,,,,,,,,210,-220,220,,220,220
2,Vitaliy Evsyukov,Виталий Евсюков,Yes,D,Raw,M,67.5,Open,1983-09-22,67.5,,,,,,,,,,,200,205,212.5,,212.5,212.5
3,Vladislav Kashirin,Владислав Каширин,Yes,D,Raw,M,67.5,Open,1989-09-09,67.5,,,,,,,,,,,195,-210,210,,210,210
4,Aleksey Demin,Алексей Демин,Yes,D,Raw,M,67.5,Open,1994-11-12,65.7,,,,,,,,,,,-175,190,200,,200,200
5,Zaur Argashokov,Заур Аргашоков,Yes,D,Raw,M,67.5,Open,1998-04-01,67.5,,,,,,,,,,,140,-165,165,,165,165
1,Sergey Tikhonov,Сергей Тихонов,Yes,D,Raw,M,75,Juniors,1992-10-06,73.5,,,,,,,,,,,185,,,,185,185
1,Dmitry Nasonov,Дмитрий Насонов,Yes,D,Raw,M,75,Open,1992-02-13,74.4,,,,,,,,,,,265,275,280,,280,280
2,Rustam Mamatov,Рустам Маматов,Yes,D,Raw,M,75,Open,1995-11-17,72.5,,,,,,,,,,,-210,215,222.5,,222.5,222.5
3,Aydamir Khuazhev,Айдамир Хуажев,Yes,D,Raw,M,75,Open,1992-12-20,74.5,,,,,,,,,,,202.5,-210,217.5,,217.5,217.5
4,Vadim Kudryavtsev,Вадим Кудрявцев,Yes,D,Raw,M,75,Open,1987-12-02,74.9,,,,,,,,,,,200,210,217.5,,217.5,217.5
5,Ruslan Magomedov,Руслан Магомедов,Yes,D,Raw,M,75,Open,1991-12-04,73,,,,,,,,,,,175,-205,205,,205,205
6,Sergey Tikhonov,Сергей Тихонов,Yes,D,Raw,M,75,Open,1992-10-06,73.5,,,,,,,,,,,185,195,205,,205,205
7,Ivan Yakovenko,Иван Яковенко,Yes,D,Raw,M,75,Open,1988-09-13,70.1,,,,,,,,,,,177.5,190,-195,,190,190
8,Armen Khachaturyan,Армен Хачатурян,Yes,D,Raw,M,75,Open,1978-07-18,74.9,,,,,,,,,,,190,-205,-210,,190,190
9,Rezuan Vorokov,Резуан Вороков,Yes,D,Raw,M,75,Open,1994-12-14,71,,,,,,,,,,,160,185,-205,,185,185
10,Renat Khatuaev,Ренат Хатуаев,Yes,D,Raw,M,75,Open,1988-06-11,68.7,,,,,,,,,,,165,172.5,177.5,,177.5,177.5
11,Roman Vylitok,Роман Вылиток,Yes,D,Raw,M,75,Open,1989-04-18,71,,,,,,,,,,,-167.5,-177.5,177.5,,177.5,177.5
12,Roman Apenyshev,Роман Апенышев,Yes,D,Raw,M,75,Open,1986-11-19,74.7,,,,,,,,,,,140,177.5,-202.5,,177.5,177.5
13,Azamat Atmurzaev,Азамат Атмурзаев,Yes,D,Raw,M,75,Open,1991-02-28,74.5,,,,,,,,,,,-140,150,175,,175,175
DQ,Adam Gubzhev,Адам Губжев,Yes,D,Raw,M,75,Open,1996-09-11,73.4,,,,,,,,,,,-180,-205,-205,,,
1,Anton Miklyaev,Антон Микляев,Yes,D,Raw,M,82.5,Open,1982-06-15,81.7,,,,,,,,,,,195,215,225,,225,225
2,Ruslan Vorokov,Руслан Вороков,Yes,D,Raw,M,82.5,Open,1994-10-13,79.9,,,,,,,,,,,-217.5,220,-230,,220,220
3,Ilya Panagushin,Илья Панагушин,Yes,D,Raw,M,82.5,Open,1980-08-15,80.9,,,,,,,,,,,200,215,220,,220,220
4,Pavel Protsenko,Павел Проценко,Yes,D,Raw,M,82.5,Open,1994-05-11,79.5,,,,,,,,,,,190,205,215,,215,215
5,Maksim Matvienko,Максим Матвиенко,Yes,D,Raw,M,82.5,Open,1988-02-23,77.9,,,,,,,,,,,205,-215,-215,,205,205
6,Nikolay Bukreev,Николай Букреев,Yes,D,Raw,M,82.5,Open,1992-05-28,80,,,,,,,,,,,200,-215,,,200,200
7,Semyon Efimtsov,Семён Ефимцов,Yes,D,Raw,M,82.5,Open,1983-07-03,77.4,,,,,,,,,,,175,185,195,,195,195
8,Dmitriy Lyanguzov,Дмитрий Лянгузов,Yes,D,Raw,M,82.5,Open,1988-11-15,79.2,,,,,,,,,,,185,195,-200,,195,195
9,Ivan Mezentsev,Иван Мезенцев,Yes,D,Raw,M,82.5,Open,1993-02-24,77.2,,,,,,,,,,,185,190,-200,,190,190
1,Nikita Efimov,Никита Ефимов,Yes,D,Raw,M,90,Open,1997-03-04,88.2,,,,,,,,,,,240,247.5,260,,260,260
2,Vyacheslav Evsyukov,Вячеслав Евсюков,Yes,D,Raw,M,90,Open,1986-02-07,89.4,,,,,,,,,,,235,250,-262.5,,250,250
3,Vladimir Timoshchuk,Владимир Тимощук,Yes,D,Raw,M,90,Open,1988-06-04,86,,,,,,,,,,,195,215,222.5,,222.5,222.5
4,Takhir Kuliev,Тахир Кулиев,Yes,D,Raw,M,90,Open,1980-08-08,84.4,,,,,,,,,,,195,-222.5,-222.5,,195,195
5,Ivan Kurs,Иван Курс,Yes,D,Raw,M,90,Open,1996-03-27,86.7,,,,,,,,,,,170,195,-200,,195,195
6,Asker Mukofov,Аскер Мукофов,Yes,D,Raw,M,90,Open,1995-03-22,87.9,,,,,,,,,,,190,-210,-215,,190,190
7,Dmitriy Polyakov,Дмитрий Поляков,Yes,D,Raw,M,90,Open,1998-08-14,83.9,,,,,,,,,,,150,175,-195,,175,175
1,Roman Petrov,Роман Петров,Yes,D,Raw,M,100,Open,1988-03-10,95.4,,,,,,,,,,,280,-290,-290,,280,280
2,Zhiraslan Sokhov,Жираслан Сохов,Yes,D,Raw,M,100,Open,1988-08-22,96.7,,,,,,,,,,,-220,232.5,-267.5,,232.5,232.5
3,Yuriy Kudelya,Юрий Куделя,Yes,D,Raw,M,100,Open,1995-07-14,98.6,,,,,,,,,,,210,220,232.5,,232.5,232.5
4,Ivan Ivashchenko,Иван Иващенко,Yes,D,Raw,M,100,Open,1993-03-10,97.2,,,,,,,,,,,205,220,-232.5,,220,220
5,Ivan Shlyandin,Иван Шляндин,Yes,D,Raw,M,100,Open,1986-10-18,97.5,,,,,,,,,,,205,220,-232.5,,220,220
6,David Egyan,Давид Егян,Yes,D,Raw,M,100,Open,1997-09-01,97.5,,,,,,,,,,,-190,200,207.5,,207.5,207.5
7,Konstantin Kryuk,Константин Крюк,Yes,D,Raw,M,100,Open,1987-07-18,96.8,,,,,,,,,,,200,-220,-220,,200,200
1,Aleksandr Kalinichenko,Александр Калиниченко,Yes,D,Raw,M,110,Open,1985-09-10,101.9,,,,,,,,,,,220,-240,240,,240,240
2,Andrey Petrov,Андрей Петров,Yes,D,Raw,M,110,Open,1977-05-27,106.2,,,,,,,,,,,210,240,-250,,240,240
3,Valeriy Leshko,Валерий Лешко,Yes,D,Raw,M,110,Open,1984-07-22,108.5,,,,,,,,,,,220,240,-270,,240,240
1,Ridvan Aliev,Ридван Алиев,Yes,D,Raw,M,125,Open,1993-06-29,111,,,,,,,,,,,240,250,262.5,,262.5,262.5
2,Roman Lukoshkin,Роман Лукошкин,Yes,D,Raw,M,125,Open,1975-12-23,111.5,,,,,,,,,,,240,250,262.5,,262.5,262.5
3,Denis Kashparov,Денис Кашпаров,Yes,D,Raw,M,125,Open,1985-01-27,120,,,,,,,,,,,225,247.5,-265,,247.5,247.5
1,Anastasiya Noskova,Анастасия Носкова,Yes,D,Multi-ply,F,60,Open,1984-02-14,57,,,,,,,,,,,130,137.5,145,-150,145,145
1,Roman Apenyshev,Роман Апенышев,Yes,D,Multi-ply,M,75,Open,1986-11-19,74.7,,,,,,,,,,,140,-177.5,,,140,140
1,Bukreev,Букреев,Yes,D,Multi-ply,M,82.5,Open,1992-05-19,80,,,,,,,,,,,200,-220,-235,,200,200
2,Viktor Banman,Виктор Банман,Yes,D,Multi-ply,M,82.5,Open,1957-01-18,81.5,,,,,,,,,,,180,-205,-205,,180,180
1,Andrey Ivankov,Андрей Иванков,Yes,D,Multi-ply,M,90,Open,1989-01-29,87.5,,,,,,,,,,,220,245,-267.5,,245,245
1,Vasiliy Kobylin,Василий Кобылин,Yes,D,Multi-ply,M,110,Open,1985-10-14,100.4,,,,,,,,,,,220,240,-255,,240,240
1,Vladimir Polivanov,Владимир Поливанов,Yes,D,Multi-ply,M,125,Open,1963-01-20,122.5,,,,,,,,,,,260,280,-292.5,,280,280
1,Yuliya Katalova,Юлия Каталова,Yes,SBD,Wraps,F,44,Open,1980-08-21,43.3,72.5,-75,75,,75,42.5,-45,47.5,,47.5,-80,-90,90,,90,212.5
1,Natalya Krikunova,Наталья Крикунова,Yes,SBD,Wraps,F,48,Open,1981-07-19,46.4,77.5,85,90,,90,52.5,57.5,62.5,,62.5,107.5,120,-132.5,,120,272.5
1,Inna Shabazgerieva,Инна Шабазгериева,Yes,SBD,Wraps,F,56,Juniors,1993-10-25,54,70,77.5,82.5,,82.5,45,47.5,-50,,47.5,85,92.5,97.5,,97.5,227.5
1,Tatyana Kotlyarova,Татьяна Котлярова,Yes,SBD,Wraps,F,56,Open,1994-06-06,56,105,-110,110,,110,62.5,65,-68,,65,120,130,137.5,,137.5,312.5
1,Antonina Podlaboshnikova,Антонина Подлабошникова,Yes,SBD,Wraps,F,56,Masters 40-44,1971-02-02,55,55,-60,60,,60,32.5,-35,-35,,32.5,-65,65,-80,,65,157.5
1,Lyubov Denisenko,Любовь Денисенко,Yes,SBD,Wraps,F,60,Juniors,1991-09-28,57.9,-90,-90,90,,90,55,60,-65,,60,120,130,140,,140,290
1,Irina Nikiforova,Ирина Никифорова,Yes,SBD,Wraps,F,60,Open,1985-10-24,59.7,105,112.5,-117.5,,112.5,60,-65,-65,,60,115,120,122.5,,122.5,295
2,Olga Golovacheva,Ольга Головачева,Yes,SBD,Wraps,F,60,Open,1985-05-26,60,90,95,-100,,95,52.5,57.5,-60,,57.5,122.5,127.5,-132.5,,127.5,280
1,Roman Lastovnik,Роман Ластовник,Yes,SBD,Wraps,M,60,Teen 16-17,1997-01-16,59,-85,90,95,,95,60,65,-70,,65,-100,110,115,,115,275
1,Nikita Glivenko,Никита Гливенко,Yes,SBD,Wraps,M,67.5,Teen 16-17,1996-11-05,67.3,140,150,-160,,150,90,95,100,,100,170,180,-190,,180,430
1,Volodya Khachatryan,Володя Хачатрян,Yes,SBD,Wraps,M,67.5,Teen 18-19,1995-11-26,66,145,155,160,,160,100,-107.5,-107.5,,100,175,187.5,195,,195,455
2,Vartan Demiryan,Вартан Демирьян,Yes,SBD,Wraps,M,67.5,Teen 18-19,1995-07-21,67.4,140,-150,-150,,140,90,-100,-105,,90,160,-180,180,,180,410
1,Evgeniy Boznyakov,Евгений Бозняков,Yes,SBD,Wraps,M,67.5,Juniors,1992-05-09,67.1,-160,165,175,,175,110,115,-120,,115,170,185,-200,,185,475
1,Vladislav Kashirin,Владислав Каширин,Yes,SBD,Wraps,M,67.5,Open,1989-09-09,67.5,135,145,150,,150,92.5,-100,100,,100,180,190,200,,200,450
1,Grigor Manukyan,Григор Манукян,Yes,SBD,Wraps,M,75,Teen 13-15,1999-05-16,71.8,135,145,155,,155,90,95,-100,,95,165,175,180,,180,430
1,Rustam Mamatov,Рустам Маматов,Yes,SBD,Wraps,M,75,Teen 18-19,1995-11-17,73.5,-130,135,150,,150,110,-115,115,,115,210,235,-240,,235,500
1,Konstantin Popov,Константин Попов,Yes,SBD,Wraps,M,75,Juniors,1991-01-11,73.1,-110,110,-115,,110,90,95,-100,,95,120,130,140,,140,345
1,Dmitry Nasonov,Дмитрий Насонов,Yes,SBD,Wraps,M,75,Open,1992-02-13,74.4,195,-205,210,,210,127.5,135,-140,,135,275,285,295,,295,640
2,Sergey Polshin,Сергей Польшин,Yes,SBD,Wraps,M,75,Open,1986-08-23,69.1,160,165,167.5,,167.5,125,130,137.5,,137.5,185,195,205,,205,510
1,Denis Milchenko,Денис Мильченко,Yes,SBD,Wraps,M,82.5,Teen 18-19,1994-09-19,81.6,-170,180,187.5,,187.5,105,110,112.5,,112.5,180,190,200,,200,500
1,Roman Stupnikov,Роман Ступников,Yes,SBD,Wraps,M,82.5,Open,1988-01-21,79.1,190,200,-210,,200,140,142.5,-145,,142.5,240,257.5,277.5,,277.5,620
2,Vladimir Rybalko,Владимир Рыбалко,Yes,SBD,Wraps,M,82.5,Open,1987-05-04,82.4,190,200,205,,205,155,160,165,,165,230,240,250,,250,620
3,Nikolay Khaustov,Николай Хаустов,Yes,SBD,Wraps,M,82.5,Open,1985-09-30,81.2,170,185,-200,,185,150,160,165,,165,220,240,-262.5,,240,590
4,Andrey Vasilevskiy,Андрей Василевский,Yes,SBD,Wraps,M,82.5,Open,1980-09-15,81.1,160,167.5,175,,175,-122.5,125,-130,,125,200,210,215,,215,515
5,Evgeniy Matsegorov,Евгений Мацегоров,Yes,SBD,Wraps,M,82.5,Open,1986-05-06,82.2,165,-180,180,,180,115,120,-125,,120,200,210,215,,215,515
6,Sergey Laskatelev,Сергей Ласкателев,Yes,SBD,Wraps,M,82.5,Open,1988-09-22,81.9,155,170,177.5,,177.5,132.5,140,-145,,140,190,-200,-200,,190,507.5
7,Albert Musailov,Альберт Мусаилов,Yes,SBD,Wraps,M,82.5,Open,1988-08-09,81.5,145,150,157.5,,157.5,120,125,130,,130,185,-192.5,202.5,,202.5,490
8,Vitaliy Meremkulov,Виталий Меремкулов,Yes,SBD,Wraps,M,82.5,Open,1984-06-18,81.5,145,150,-155,,150,95,100,-105,,100,150,155,160,,160,410
1,Nikolay Novikov,Николай Новиков,Yes,SBD,Wraps,M,82.5,Masters 65-69,1947-05-24,81.5,-145,145,-150,,145,75,-80,-80,,75,180,185,,,185,405
1,Nikita Efimov,Никита Ефимов,Yes,SBD,Wraps,M,90,Teen 16-17,1997-03-04,89.8,190,210,-215,,210,140,150,-155,,150,240,250,260,,260,620
1,Vladimir Ulev,Владимир Ульев,Yes,SBD,Wraps,M,90,Teen 18-19,1994-06-30,88.6,130,150,170,,170,115,130,-140,,130,165,180,200,,200,500
DQ,Murad Demirov,Мурад Демиров,Yes,SBD,Wraps,M,90,Teen 18-19,1994-04-22,89.1,-180,-180,-180,,,,,,,,,,,,,
1,Bogdan Matushkin,Богдан Матушкин,Yes,SBD,Wraps,M,90,Juniors,1992-11-09,87.7,-180,-180,180,,180,110,-115,115,,115,180,190,195,,195,490
1,Vladimir Ivantsov,Владимир Иванцов,Yes,SBD,Wraps,M,90,Open,1985-04-23,89.4,230,245,-255,,245,150,157.5,-162.5,,157.5,235,245,-252.5,,245,647.5
2,Igor Kazykhanov,Игорь Казыханов,Yes,SBD,Wraps,M,90,Open,1985-09-12,89,200,-210,215,,215,150,-160,-160,,150,250,-260,-260,,250,615
3,Aleksandr Krivoy,Александр Кривой,Yes,SBD,Wraps,M,90,Open,1986-08-22,88.3,190,200,-205,,200,130,135,140,,140,-220,225,235,,235,575
4,Ivan Fedorov,Иван Федоров,Yes,SBD,Wraps,M,90,Open,1976-05-06,88.5,-140,150,160,,160,130,132.5,135,,135,190,200,-205,,200,495
DQ,Andrey Plyuta,Андрей Плюта,Yes,SBD,Wraps,M,90,Open,1982-01-15,84.6,-160,-165,-167.5,,,,,,,,,,,,,
1,Nikolay Ipatov,Николай Ипатов,Yes,SBD,Wraps,M,90,Masters 40-44,1971-07-06,88.4,165,175,-180,,175,135,145,150,,150,190,205,210,,210,535
2,Aleksandr Novikov,Александр Новиков,Yes,SBD,Wraps,M,90,Masters 40-44,1973-03-19,89.5,160,170,-180,,170,120,125,,,125,200,215,-220,,215,510
1,Yuriy Kudelya,Юрий Куделя,Yes,SBD,Wraps,M,100,Teen 18-19,1995-07-14,97.2,140,-160,160,,160,120,130,135,,135,210,,,,210,505
1,Vladimir Shcherba,Владимир Щерба,Yes,SBD,Wraps,M,100,Juniors,1992-04-09,95.7,-230,235,-250,,235,170,180,-185,,180,260,270,-280,,270,685
2,Maksim Arestov,Максим Арестов,Yes,SBD,Wraps,M,100,Juniors,1991-04-02,97.4,180,185,190,,190,130,135,-140,,135,200,210,215,,215,540
1,Vladimir Zakharov,Владимир Захаров,Yes,SBD,Wraps,M,100,Open,1955-07-07,98.9,210,-215,,,210,175,180,185,,185,210,220,230,,230,625
2,Vladislav Karpenko,Владислав Карпенко,Yes,SBD,Wraps,M,100,Open,1987-11-02,97.8,-190,195,200,,200,150,160,-165,,160,230,240,-245,,240,600
3,Valeriy Antonenko,Валерий Антоненко,Yes,SBD,Wraps,M,100,Open,1987-01-06,97.2,185,200,-205,,200,155,165,-170,,165,202.5,215,225,,225,590
4,Aslan Serkush,Аслан Серкуш,Yes,SBD,Wraps,M,100,Open,1987-09-24,94.6,195,205,-210,,205,150,155,160,,160,200,220,-227.5,,220,585
5,Denis Legostaev,Денис Легостаев,Yes,SBD,Wraps,M,100,Open,1983-06-28,97.8,-160,160,170,,170,140,147.5,157.5,,157.5,182.5,200,-210,,200,527.5
1,Vladimir Zakharov,Владимир Захаров,Yes,SBD,Wraps,M,100,Masters 55-59,1955-07-07,98.9,210,-215,,,210,175,180,185,,185,210,220,230,,230,625
1,Dmitriy Pshenichnyy,Дмитрий Пшеничный,Yes,SBD,Wraps,M,110,Teen 18-19,1995-03-13,105.4,210,225,235,,235,-150,150,-157.5,,150,240,255,270,,270,655
2,Roman Cherepov,Роман Черепов,Yes,SBD,Wraps,M,110,Teen 18-19,1995-05-11,106.6,180,200,-205,,200,120,130,-132.5,,130,220,230,237.5,,237.5,567.5
1,Aleksey Tikhomirov,Алексей Тихомиров,Yes,SBD,Wraps,M,110,Open,1980-01-22,103.2,-150,-150,150,,150,130,135,-140,,135,220,-240,240,,240,525
1,Vladimir Chernyshev,Владимир Чернышев,Yes,SBD,Wraps,M,125,Masters 65-69,1948-09-04,123.5,185,205,220,,220,127.5,135,140,,140,210,220,230,,230,590
1,Lidiya Orudzhova,Лидия Оруджова,Yes,SBD,Single-ply,F,67.5,Teen 18-19,1995-07-15,64,125,135,145,,145,82.5,92.5,100,,100,-140,-140,140,,140,385
1,Igor Emelyanov,Игорь Емельянов,Yes,SBD,Single-ply,M,82.5,Open,1992-01-07,78.1,-230,230,-250,,230,-145,145,-155,,145,-215,215,-225,,215,590
1,Sergey Marchenko,Сергей Марченко,Yes,SBD,Single-ply,M,100,Masters 50-54,1959-06-29,99.3,-200,210,-225,,210,-140,155,,,155,190,220,-232.5,,220,585
1,Darya Churyumova,Дарья Чурюмова,Yes,SBD,Multi-ply,F,,Open,1989-12-07,51.9,122.5,-127.5,-127.5,,122.5,57.5,62.5,65,,65,117.5,-127.5,-127.5,,117.5,305
