Division,WeightClassKg,Place,Name,Team,BodyweightKg,Best3SquatKg,Best3BenchKg,Best3DeadliftKg,TotalKg,Equipment,Event,Sex
Boys,51.71,1,Cain Gala,Hallsville,51.71,127.01,79.38,145.15,351.53,Single-ply,SBD,M
Boys,51.71,2,Jayden Prince,Waskom,51.66,83.91,72.57,133.81,290.3,Single-ply,SBD,M
Boys,51.71,3,Shmar Garrett,Carthage,48.17,86.18,70.31,97.52,254.01,Single-ply,SBD,M
Boys,51.71,DQ,Patrick Dreesen,Linden-Kildare,51.62,,,,,Single-ply,SBD,M
Boys,55.79,1,Simon Schuler,Hallsville,55.02,127.01,83.91,154.22,365.14,Single-ply,SBD,M
Boys,55.79,2,Jordan Prignet,Atlanta,55.7,111.13,56.7,136.08,303.91,Single-ply,SBD,M
Boys,55.79,3,Jace Link,Hallsville,55.11,117.93,,136.08,254.01,Single-ply,SD,M
Boys,59.87,1,Roshabrius Garrett,Carthage,59.51,149.69,99.79,158.76,408.23,Single-ply,SBD,M
Boys,59.87,2,Dalton Johnson,Atlanta,59.83,136.08,79.38,156.49,371.95,Single-ply,SBD,M
Boys,59.87,3,Caleb Purifoy,Hallsville,58.65,124.74,77.11,127.01,328.85,Single-ply,SBD,M
Boys,59.87,4,Nathan Johnson,Atlanta,59.78,106.59,86.18,131.54,324.32,Single-ply,SBD,M
Boys,59.87,5,Dayton Hamilton,Linden-Kildare,59.83,117.93,65.77,136.08,319.78,Single-ply,SBD,M
Boys,59.87,6,Thomas Steward,Atlanta,59.87,108.86,70.31,117.93,297.1,Single-ply,SBD,M
Boys,59.87,DQ,Brett Piazza,Atlanta,59.06,,,,,Single-ply,SBD,M
Boys,67.13,1,Austin Brown,Atlanta,66.86,142.88,86.18,199.58,428.64,Single-ply,SBD,M
Boys,67.13,2,Pedro Rodriguez,Waskom,63.14,163.29,102.06,140.61,405.97,Single-ply,SBD,M
Boys,67.13,3,Charles Phagan,Waskom,66.22,133.81,77.11,142.88,353.8,Single-ply,SBD,M
Boys,67.13,4,Bryan Holland,Waskom,63.5,117.93,72.57,142.88,333.39,Single-ply,SBD,M
Boys,67.13,5,Thomas Scott,Atlanta,67.13,108.86,77.11,145.15,331.12,Single-ply,SBD,M
Boys,67.13,6,Camon Phillips,Waskom,63.96,117.93,56.7,138.35,312.98,Single-ply,SBD,M
Boys,67.13,7,Tyler Bumpers,Waskom,61.69,102.06,68.04,127.01,297.1,Single-ply,SBD,M
Boys,67.13,8,Erik Fowler,Linden-Kildare,65.32,106.59,61.23,129.27,297.1,Single-ply,SBD,M
Boys,74.84,1,Christopher Stafford,Waskom,72.98,181.44,115.67,195.04,492.15,Single-ply,SBD,M
Boys,74.84,2,Clayton Mosley,Atlanta,74.8,183.7,113.4,192.78,489.88,Single-ply,SBD,M
Boys,74.84,3,Jalen Brooks,Carthage,73.84,183.7,102.06,195.04,480.81,Single-ply,SBD,M
Boys,74.84,4,Dominique Felder,Hallsville,74.84,183.7,92.99,183.7,460.4,Single-ply,SBD,M
Boys,74.84,5,Jacob Nash,Atlanta,74.84,163.29,104.33,185.97,453.59,Single-ply,SBD,M
Boys,74.84,6,Caleb Drake,Hallsville,69.99,170.1,102.06,174.63,446.79,Single-ply,SBD,M
Boys,74.84,7,Nate Holloway,Linden-Kildare,70.17,151.95,79.38,170.1,401.43,Single-ply,SBD,M
Boys,74.84,8,Chad West,Carthage,71.12,158.76,74.84,151.95,385.55,Single-ply,SBD,M
Boys,74.84,9,Christopher Nelson,Waskom,74.8,142.88,83.91,142.88,369.68,Single-ply,SBD,M
Boys,74.84,10,Konner Durham,Linden-Kildare,74.21,170.1,,165.56,335.66,Single-ply,SD,M
Boys,82.1,1,Joshua Cole,Waskom,78.93,192.78,97.52,204.12,494.42,Single-ply,SBD,M
Boys,82.1,2,Greg Hurst,Carthage,79.65,167.83,102.06,204.12,474,Single-ply,SBD,M
Boys,89.81,1,Nick Cooper,Atlanta,87.45,244.94,136.08,254.01,635.03,Single-ply,SBD,M
Boys,89.81,2,Zee Barfoot,Atlanta,87.91,204.12,136.08,199.58,539.77,Single-ply,SBD,M
Boys,89.81,3,Reggie Blaylock,Atlanta,88.5,188.24,108.86,185.97,483.08,Single-ply,SBD,M
Boys,89.81,4,Draydon Delese,Linden-Kildare,89.72,158.76,97.52,185.97,442.25,Single-ply,SBD,M
Boys,89.81,5,Jordan Alvarez,Atlanta,86.09,158.76,108.86,172.37,439.98,Single-ply,SBD,M
Boys,89.81,6,Nic Kunze,Linden-Kildare,87.27,124.74,77.11,181.44,383.29,Single-ply,SBD,M
Boys,89.81,7,Martin Figuroa,Hallsville,88.22,183.7,,,183.7,Single-ply,S,M
Boys,99.79,1,Mykel Gates,Carthage,97.7,233.6,122.47,240.4,596.47,Single-ply,SBD,M
Boys,99.79,2,Luis Acosta,Hallsville,97.16,181.44,102.06,192.78,476.27,Single-ply,SBD,M
Boys,99.79,3,Jared Cowgill,Atlanta,95.62,181.44,104.33,167.83,453.59,Single-ply,SBD,M
Boys,99.79,4,Jack Henderson,Atlanta,96.8,161.03,97.52,170.1,428.64,Single-ply,SBD,M
Boys,99.79,5,Francisco Martinez,Atlanta,96.25,158.76,99.79,167.83,426.38,Single-ply,SBD,M
Boys,99.79,6,Cade Fant,Atlanta,90.63,161.03,86.18,158.76,405.97,Single-ply,SBD,M
Boys,99.79,7,Jeremy Hankins,Linden-Kildare,95.84,131.54,81.65,145.15,358.34,Single-ply,SBD,M
Boys,99.79,8,Garon Dupree,Atlanta,90.67,124.74,79.38,124.74,328.85,Single-ply,SBD,M
Boys,99.79,DQ,Jacoby Rogers,Atlanta,97.84,,,,,Single-ply,SBD,M
Boys,109.77,1,Tristan Allen,Atlanta,101.79,185.97,122.47,235.87,544.31,Single-ply,SBD,M
Boys,109.77,2,Hunter Gauger,Carthage,102.15,158.76,99.79,204.12,462.66,Single-ply,SBD,M
Boys,109.77,3,Darrian Ingram,Carthage,102.6,167.83,117.93,172.37,458.13,Single-ply,SBD,M
Boys,109.77,4,Josh Wiley,Atlanta,104.05,170.1,108.86,176.9,455.86,Single-ply,SBD,M
Boys,109.77,5,Kaleb Bass,Waskom,102.97,183.7,86.18,172.37,442.25,Single-ply,SBD,M
Boys,109.77,6,Tanner Koenig,Hallsville,101.79,165.56,90.72,181.44,437.72,Single-ply,SBD,M
Boys,109.77,7,Jacob Humphrey,Atlanta,104.78,131.54,61.23,154.22,347,Single-ply,SBD,M
Boys,109.77,8,Luke Rogers,Linden-Kildare,109.68,122.47,,136.08,258.55,Single-ply,SD,M
Boys,124.74,1,Cecil Johnson,Hallsville,113.49,233.6,124.74,213.19,571.53,Single-ply,SBD,M
Boys,124.74,2,Hunter Hudson,Carthage,122.52,181.44,136.08,215.46,532.97,Single-ply,SBD,M
Boys,124.74,3,Antonio Ortiz,Hallsville,116.3,199.58,131.54,179.17,510.29,Single-ply,SBD,M
Boys,124.74,4,Dylan Russell,Hallsville,111.81,176.9,115.67,185.97,478.54,Single-ply,SBD,M
Boys,124.74,5,Dre'Shawn Williams,Linden-Kildare,114.12,188.24,83.91,192.78,464.93,Single-ply,SBD,M
Boys,124.74+,1,Jack Smith,Waskom,150.46,208.65,127.01,201.85,537.51,Single-ply,SBD,M
Boys,124.74+,2,Dustin Williams,Atlanta,129.36,195.04,131.54,181.44,508.02,Single-ply,SBD,M
Boys,124.74+,3,Dillon Ebarb,Carthage,130.27,185.97,117.93,195.04,498.95,Single-ply,SBD,M
Boys,124.74+,4,Kam'ron Luster,Waskom,138.35,183.7,115.67,172.37,471.74,Single-ply,SBD,M
Boys,124.74+,5,Rylan Tipton,Hallsville,124.87,181.44,95.25,190.51,467.2,Single-ply,SBD,M
Boys,124.74+,6,Blake Trainor,Hallsville,138.12,190.51,,,190.51,Single-ply,S,M
Boys,124.74+,DQ,Casey Jones,Carthage,135.76,,,,,Single-ply,SBD,M
