Name,Sex,Event,Division,WeightClassKg,Equipment,Best3SquatKg,Best3BenchKg,Best3DeadliftKg,TotalKg,Place
Hideaki Inaba,M,SBD,Open,56,Single-ply,233,115,232.5,580.5,1
Y. Fukuya,M,SBD,Open,56,Single-ply,160,90,180,430,2
S. Arase,M,SBD,Open,75,Single-ply,205,110,190,505,1
A. Ihara,M,SBD,Open,75,Single-ply,180,112.5,200,492.5,2
Tatsufumi Nakao,M,SBD,Open,82.5,Single-ply,300,180,290,770,1
E. Ueda,M,SBD,Open,82.5,Single-ply,235,162.5,230,627.5,2
S. Yoshida,M,SBD,Open,100,Single-ply,260,172.5,260,692.5,1
