Division,WeightClassKg,Event,Name,Best3SquatKg,Best3BenchKg,Best3DeadliftKg,TotalKg,Equipment,Sex,Place
Teenage 16-17,52,B,Trevor Tyson,,90.72,,90.72,Raw,M,1
Teenage 16-17,52,D,Trevor Tyson,,,124.74,124.74,Raw,M,1
Juniors,60,D,Kelsey Wilson,,,154.22,154.22,Raw,F,1
Submasters,67.5,B,Ralph Hillipad,,120.2,,120.2,Raw,M,1
Teenage 16-17,67.5,B,Timothy Thompson,,133.81,,133.81,Raw,M,1
Teenage 13-15,67.5,B,Matthew Day,,99.79,,99.79,Raw,M,1
Submasters,67.5,D,Ralph Hillipad,,,199.58,199.58,Raw,M,1
Open,67.5,B,Bryan Albert,,188.24,,188.24,Single-ply,M,1
Masters 70-74,75,D,Ken Brown,,,124.74,124.74,Raw,M,1
Masters 60-64,75,BD,Jerry Crow,,113.4,183.7,297.1,Raw,M,1
Open,75,BD,Aaron Walsh,,124.74,192.78,317.51,Raw,M,1
Teenage 18-19,82.5,B,Nick Cain,,124.74,,124.74,Raw,M,1
Juniors,82.5,B,John Callihen,,147.42,,147.42,Raw,M,1
Masters 70-74,82.5,B,Zak Layfield,,81.65,,81.65,Raw,M,1
Open,82.5,B,Herbert Kellem II,,142.88,,142.88,Raw,M,1
Teenage 18-19,82.5,D,Grovanni Montes,,,226.8,226.8,Raw,M,1
Juniors,82.5,D,John Callihen,,,195.04,195.04,Raw,M,1
Open,82.5,D,Walter Bynum,,,204.12,204.12,Raw,M,1
Submasters,82.5,BD,Ezell Dawes,,172.37,233.6,405.97,Raw,M,1
Teenage 18-19,82.5,BD,John Garrison,,102.06,197.31,299.37,Raw,M,1
Teenage 16-17,82.5,BD,Corben Bell,,90.72,183.7,274.42,Raw,M,1
Open,90,B,Alex Surin,,154.22,,154.22,Raw,M,1
Juniors,90,BD,Cody Bellflower,,131.54,185.97,317.51,Raw,M,2
Juniors,90,BD,Even Messer,,183.7,238.14,421.84,Raw,M,1
Masters 45-49,90,BD,Cody Potts,,106.59,163.29,269.89,Raw,M,1
Open,90,BD,Marcell Allen,,190.51,272.16,462.66,Raw,M,1
Open,90,BD,Eric Head,,167.83,165.56,333.39,Raw,M,2
Masters 65-69,90,B,Rufus Maddox,,136.08,,136.08,Single-ply,M,1
Juniors,100,BD,Zachary Waites,,140.61,210.92,351.53,Multi-ply,M,1
Submasters,100,B,Kevin Thoman,,140.61,,140.61,Raw,M,3
Submasters,100,B,Matt Bell,,165.56,,165.56,Raw,M,1
Submasters,100,B,Brad Phillips,,142.88,,142.88,Raw,M,2
Masters 50-54,100,B,Ricky Durden,,45.36,,45.36,Raw,M,1
Special Olympics,100,B,Ricky Durden,,45.36,,45.36,Raw,M,1
Masters 55-59,100,B,Robert Williams,,142.88,,142.88,Raw,M,1
Masters 55-59,100,B,Menk Patrick,,124.74,,124.74,Raw,M,2
Open,100,B,Harry Hays,,201.85,,201.85,Raw,M,1
Open,100,B,Harry Hays,,201.85,,201.85,Raw,M,2
Submasters,100,D,Matt Bell,,,238.14,238.14,Raw,M,1
Masters 45-49,100,D,Rick Padgett,,,297.1,297.1,Raw,M,1
Masters 55-59,100,D,Menk Patrick,,,204.12,204.12,Raw,M,1
Masters 60-64,100,BD,Gary Glen,,147.42,170.1,317.51,Raw,M,1
Open,100,BD,Chad Davis,,183.7,278.96,462.66,Raw,M,1
Masters 40-44,100,BD,John Greaves,,149.69,238.14,387.82,Raw,M,1
Teenage 18-19,100,B,Hanna Poyter,,61.23,,61.23,Raw,F,1
Submasters,110,BD,Adam Plagens,,174.63,258.55,433.18,Multi-ply,M,1
Masters 40-44,110,B,Eric Donald,,217.72,,217.72,Raw,M,1
Masters 45-49,110,B,Peter Lanstrom,,97.52,,97.52,Raw,M,1
Masters 70-74,110,B,Jim Hall,,156.49,,156.49,Raw,M,1
Masters 60-64,110,B,Steve Phillips,,113.4,,113.4,Raw,M,2
Masters 40-44,110,B,Clarence Jackson,,181.44,,181.44,Raw,M,2
Masters 60-64,110,B,Randell Clark,,115.67,,115.67,Raw,M,1
Police and Fire,110,B,Chris Whitehead,,165.56,,165.56,Raw,M,1
Masters 70-74,110,D,Jim Hall,,,185.97,185.97,Raw,M,1
Masters 60-64,110,D,Randell Clark,,,201.85,201.85,Raw,M,1
Open,110,D,Justin Sumner,,,238.14,238.14,Raw,M,1
Open,110,BD,Justin Bethune,,199.58,317.51,517.1,Raw,M,1
Open,110,BD,Hunter McClusky,,210.92,260.82,471.74,Raw,M,2
Masters 50-54,110,BD,William Lattimore,,145.15,226.8,371.95,Raw,M,1
Open,110,BD,Cody Thorton,,176.9,267.62,444.52,Raw,M,3
Masters 70-74,110,B,Micky Glasco,,142.88,,142.88,Single-ply,M,1
Masters 60-64,110,B,Ron Proctor,,149.69,,149.69,Single-ply,M,1
Masters 55-59,118,B,Zack Presley,,179.17,,179.17,Raw,M,1
Submasters,118,BD,Michael Renfro,,222.26,256.28,478.54,Raw,M,1
Juniors,118,BD,Ronnie Adams,,142.88,192.78,335.66,Raw,M,2
Juniors,118,BD,Ian Mangini,,165.56,260.82,426.38,Raw,M,1
Masters 45-49,118,BD,John Lamp,,170.1,238.14,408.23,Raw,M,1
Submasters,125,B,Tim Evens,,251.74,,251.74,Raw,M,1
Juniors,125,BD,Julian Banton,,181.44,317.51,498.95,Raw,M,1
Masters 45-49,125,BD,Steve Shepherd,,156.49,260.82,417.3,Raw,M,1
Masters 50-54,125,BD,Chris Murdock,,183.7,226.8,410.5,Single-ply,M,1
Open,140,D,Shane Hammock,,,399.16,399.16,Multi-ply,M,1
Submasters,140,B,Chris Dianci,,149.69,,149.69,Raw,M,1
Open,140,B,Chris Stanfield,,192.78,,192.78,Raw,M,1
Open,140,BD,Blake Pearce,,183.7,288.03,471.74,Raw,M,1
Submasters,140,BD,Jason Banks,,192.78,306.17,498.95,Raw,M,1
Masters 50-54,140,BD,Tim Moon,,331.12,226.8,557.92,Single-ply,M,1
Masters 45-49,140+,B,Henry Mincey,,238.14,,238.14,Raw,M,1
Open,140+,BD,Zack Williams,,190.51,233.6,424.11,Raw,M,1
Juniors,56,D,Abigail Moore,,,104.33,104.33,Raw,F,1
Teenage 18-19,56,D,Monna Kubat,,,90.72,90.72,Raw,F,1
Open,60,B,Keren Dean,,56.7,,56.7,Raw,F,1
Masters,60,B,Keren Dean,,56.7,,56.7,Raw,F,1
Submasters,67.5,BD,Alicia Neblett,,43.09,122.47,165.56,Raw,F,2
Submasters,67.5,BD,Angeles Centeno,,58.97,151.95,210.92,Raw,F,1
Open,67.5,BD,Toni Lynn Kirby,,65.77,138.35,204.12,Raw,F,1
Masters 40-44,75,BD,Kana Anderson,,74.84,138.35,213.19,Raw,F,1
Masters 55-59,75,B,Mary Beth Byrd,,63.5,,63.5,Single-ply,F,1
Masters 55-59,75,D,Mary Beth Byrd,,,120.2,120.2,Raw,F,1
Teenage 16-17,75,B,Sydney Bennett,,43.09,,43.09,Raw,F,1
Teenage 16-17,75,D,Sydney Bennett,,,142.88,142.88,Raw,F,1
Juniors,75,D,Meggan Gillham,,,83.91,83.91,Raw,F,1
Open,82.5,BD,Jerry Gaines,,43.09,108.86,151.95,Raw,F,1
Open,90,B,Leslie Denhendt,,43.09,,43.09,Raw,F,1
Open,90,D,Leslie Denhendt,,,113.4,113.4,Raw,F,1
Teenage 18-19,90+,D,Hanna Poyter,,,122.47,122.47,Raw,F,1
Masters 60-64,90+,B,Tricia Beanstein,,47.63,,47.63,Raw,F,1
Masters 60-64,90+,D,Tricia Beanstein,,,113.4,113.4,Raw,F,1
Open,90+,B,Lou Alex,,88.45,,88.45,Raw,F,1
Open,90+,D,Lou Alex,,,136.08,136.08,Raw,F,1
Masters 45-49,90+,B,Ylander Ross,,81.65,,81.65,Raw,F,1
Teenage 13-15,90+,B,Dhaima Smith,,43.09,,43.09,Raw,F,1
Teenage 13-15,90+,D,Dhaima Smith,,,113.4,113.4,Raw,F,1
Open,90+,D,Kathy Wilbanks,,,102.06,102.06,Raw,F,2
