Division,WeightClassKg,Place,Name,Team,BodyweightKg,Best3SquatKg,Best3BenchKg,Best3DeadliftKg,TotalKg,Equipment,Event,Sex
Boys,51.71,1,Rodney Barnes,Everman,51.35,183.7,90.72,185.97,460.4,Single-ply,SBD,M
Boys,51.71,2,Justin Lindsey,Kennedale,51.07,170.1,90.72,158.76,419.57,Single-ply,SBD,M
Boys,51.71,3,Mainglee Bou,Fort Worth Paschal,46.95,79.38,47.63,111.13,238.14,Single-ply,SBD,M
Boys,51.71,4,Marc Vasquez,Aubrey,51.66,74.84,34.02,83.91,192.78,Single-ply,SBD,M
Boys,51.71,5,Lj Byork,Gainesville,45.5,34.02,22.68,58.97,115.67,Single-ply,SBD,M
Boys,59.87,1,Jordan Estell,North Mesquite,55.97,133.81,77.11,183.7,394.63,Single-ply,SBD,M
Boys,55.79,2,Alejandro Cosio,Fort Worth North Side,55.29,142.88,68.04,151.95,362.87,Single-ply,SBD,M
Boys,55.79,3,Daylon Jackson,Everman,55.47,115.67,70.31,124.74,310.71,Single-ply,SBD,M
Boys,59.87,4,Ozawaldo Medina,Gainesville,56.02,124.74,68.04,117.93,310.71,Single-ply,SBD,M
Boys,55.79,5,Juan Mares,Bowie,54.07,111.13,72.57,111.13,294.84,Single-ply,SBD,M
Boys,55.79,6,Angel Garza,Decatur,53.52,106.59,56.7,120.2,283.5,Single-ply,SBD,M
Boys,55.79,7,Jabril Clayborne,North Crowley,53.07,102.06,54.43,108.86,265.35,Single-ply,SBD,M
Boys,55.79,8,Simeon Blow,North Mesquite,52.93,90.72,45.36,113.4,249.48,Single-ply,SBD,M
Boys,59.87,9,Koby Johnston,Keller Fossil Ridge,55.84,88.45,56.7,86.18,231.33,Single-ply,SBD,M
Boys,55.79,10,Mike Martinez,Fort Worth Western Hills,54.93,47.63,29.48,106.59,183.7,Single-ply,SBD,M
Boys,55.79,DQ,Jake Morris,Bowie,52.44,,,,,Single-ply,SBD,M
Boys,59.87,DQ,Ryan Holmen,Aubrey,55.93,92.99,,,,Single-ply,SBD,M
Boys,67.13,1,Cristian Martinez,Bowie,60.06,174.63,97.52,190.51,462.66,Single-ply,SBD,M
Boys,67.13,2,Chris Hairston,Cedar Hill,59.92,170.1,95.25,188.24,453.59,Single-ply,SBD,M
Boys,59.87,3,Daniel Rodriguez,Fort Worth Paschal,59.83,136.08,65.77,158.76,360.61,Single-ply,SBD,M
Boys,59.87,4,Jacob Spradlin,Fort Worth Western Hills,58.79,92.99,70.31,151.95,315.25,Single-ply,SBD,M
Boys,59.87,5,Kory Myers,Maypearl,56.79,113.4,56.7,124.74,294.84,Single-ply,SBD,M
Boys,59.87,6,Marc Lara,Decatur,58.6,111.13,63.5,120.2,294.84,Single-ply,SBD,M
Boys,59.87,DQ,Darius Jones,Dallas Life Oak Cliff,57.42,,,,,Single-ply,SBD,M
Boys,59.87,DQ,Darius Jones,Dallas Life Oak Cliff,57.42,,,,,Single-ply,SBD,M
Boys,59.87,DQ,Cesar Saucedo,Gainesville,59.87,,,,,Single-ply,SBD,M
Boys,74.84,1,Kenny Stafford,Everman,67.31,233.6,120.2,226.8,580.6,Single-ply,SBD,M
Boys,74.84,2,A'Daireon Madlock,North Mesquite,67.18,192.78,92.99,210.92,496.68,Single-ply,SBD,M
Boys,67.13,3,Tyler Williams,Aubrey,66.27,183.7,104.33,192.78,480.81,Single-ply,SBD,M
Boys,74.84,4,Darius Sockwell,Cedar Hill,67.18,185.97,92.99,190.51,469.47,Single-ply,SBD,M
Boys,74.84,5,Brandon Jackson,Cedar Hill,67.31,183.7,115.67,170.1,469.47,Single-ply,SBD,M
Boys,74.84,6,Stephen Linares,Kennedale,67.27,183.7,97.52,181.44,462.66,Single-ply,SBD,M
Boys,67.13,7,Zamir Upshur,Keller Timber Creek,63.64,185.97,97.52,158.76,442.25,Single-ply,SBD,M
Boys,67.13,8,Hayden Dibble,North Crowley,62.46,181.44,79.38,174.63,435.45,Single-ply,SBD,M
Boys,67.13,9,Christian Nedd,Cedar Hill,65.63,154.22,92.99,181.44,428.64,Single-ply,SBD,M
Boys,67.13,10,Marcos Morales,Decatur,64.05,151.95,97.52,172.37,421.84,Single-ply,SBD,M
Boys,74.84,11,Brandon Garza,Decatur,67.31,165.56,99.79,154.22,419.57,Single-ply,SBD,M
Boys,67.13,12,Nick Haslam,Northwest Nelson,66,154.22,102.06,158.76,415.04,Single-ply,SBD,M
Boys,67.13,13,AJ Garcia,Kennedale,66.45,145.15,95.25,163.29,403.7,Single-ply,SBD,M
Boys,67.13,14,Nick Matthews,Dallas Life Oak Cliff,66.54,151.95,72.57,167.83,392.36,Single-ply,SBD,M
Boys,67.13,14,Nick Matthews,Dallas Life Oak Cliff,66.54,151.95,72.57,167.83,392.36,Single-ply,SBD,M
Boys,67.13,15,DeAndre Jones,Dallas Life Oak Cliff,62.14,136.08,92.99,158.76,387.82,Single-ply,SBD,M
Boys,67.13,15,DeAndre Jones,Dallas Life Oak Cliff,62.14,136.08,92.99,158.76,387.82,Single-ply,SBD,M
Boys,67.13,16,Jesus Gam,Decatur,63.73,142.88,86.18,147.42,376.48,Single-ply,SBD,M
Boys,67.13,17,Tim Lewis,North Mesquite,65.68,131.54,70.31,165.56,367.41,Single-ply,SBD,M
Boys,67.13,18,Didier Chavez,Fort Worth North Side,66,122.47,72.57,170.1,365.14,Single-ply,SBD,M
Boys,74.84,19,Leo Sustatia,Gainesville,67.27,136.08,79.38,147.42,362.87,Single-ply,SBD,M
Boys,74.84,20,Eliseo Cooper,Justin Northwest,67.31,138.35,86.18,136.08,360.61,Single-ply,SBD,M
Boys,67.13,21,Dominique Pierce,North Garland,66.77,131.54,81.65,140.61,353.8,Single-ply,SBD,M
Boys,67.13,22,Christopher Muldrow,Justin Northwest,63.78,133.81,81.65,136.08,351.53,Single-ply,SBD,M
Boys,67.13,23,Cameron Moore,Aubrey,62.41,124.74,74.84,145.15,344.73,Single-ply,SBD,M
Boys,67.13,24,Jesse Neagle,Chico,64.82,113.4,70.31,142.88,326.59,Single-ply,SBD,M
Boys,67.13,25,Cole Sciba,Aubrey,63.5,117.93,77.11,127.01,322.05,Single-ply,SBD,M
Boys,67.13,26,Brady Macaulay,Everman,60.51,129.27,61.23,124.74,315.25,Single-ply,SBD,M
Boys,67.13,27,Angel Rincon,Gainesville,63.87,113.4,56.7,145.15,315.25,Single-ply,SBD,M
Boys,74.84,28,Eric Goodman,Keller Fossil Ridge,67.22,113.4,88.45,113.4,315.25,Single-ply,SBD,M
Boys,67.13,29,Sawyer Przilas,Bowie,64.05,106.59,56.7,129.27,292.57,Single-ply,SBD,M
Boys,67.13,30,Anrica Bailey,Lancaster,60.92,102.06,54.43,106.59,263.08,Single-ply,SBD,M
Boys,67.13,31,Robert Castillo,Fort Worth North Side,61.23,72.57,52.16,88.45,213.19,Single-ply,SBD,M
Boys,67.13,DQ,Marquise Foreman,Cedar Hill,67.13,,,,,Single-ply,SBD,M
Boys,67.13,DQ,Billy Brown,Bowie,67.13,,,,,Single-ply,SBD,M
Boys,74.84,1,Jarod Hill,Everman,70.26,247.21,140.61,260.82,648.64,Single-ply,SBD,M
Boys,74.84,2,Cardea Cauley,Everman,74.8,206.38,127.01,199.58,532.97,Single-ply,SBD,M
Boys,74.84,3,Jeffrey Gage,Keller Timber Creek,69.4,192.78,124.74,210.92,528.44,Single-ply,SBD,M
Boys,74.84,4,Tres Cox,Northwest Nelson,73.21,199.58,127.01,181.44,508.02,Single-ply,SBD,M
Boys,74.84,5,Abraham Landaverde,Bowie,68.99,190.51,113.4,181.44,485.34,Single-ply,SBD,M
Boys,74.84,6,Dominique McBride,North Mesquite,70.44,183.7,102.06,192.78,478.54,Single-ply,SBD,M
Boys,74.84,7,Kaiser McGlothen,Kennedale,67.77,172.37,106.59,185.97,464.93,Single-ply,SBD,M
Boys,74.84,8,Justice Hudley,Arlington Seguin,73.57,197.31,88.45,172.37,458.13,Single-ply,SBD,M
Boys,74.84,9,Maurice Saunders,Keller Timber Creek,72.17,161.03,106.59,176.9,444.52,Single-ply,SBD,M
Boys,74.84,10,Logan Jordan,Fort Worth Western Hills,71.58,147.42,120.2,165.56,433.18,Single-ply,SBD,M
Boys,82.1,11,Armie Hicks,Cedar Hill,75.02,156.49,102.06,174.63,433.18,Single-ply,SBD,M
Boys,74.84,12,Devon Wilkerson,Fort Worth Western Hills,69.17,151.95,92.99,174.63,419.57,Single-ply,SBD,M
Boys,74.84,13,Chris Pitts,North Crowley,69.54,151.95,102.06,154.22,408.23,Single-ply,SBD,M
Boys,82.1,14,Russ Morrow,Aubrey,74.89,149.69,86.18,172.37,408.23,Single-ply,SBD,M
Boys,74.84,15,Christian Lynch Jordan,Dallas Life Oak Cliff,71.67,133.81,83.91,188.24,405.97,Single-ply,SBD,M
Boys,74.84,15,Christian Lynch Jordan,Dallas Life Oak Cliff,71.67,133.81,83.91,188.24,405.97,Single-ply,SBD,M
Boys,74.84,16,Crese Redman,Chico,67.95,158.76,79.38,163.29,401.43,Single-ply,SBD,M
Boys,74.84,17,Isaiah Washington,Everman,73.53,142.88,102.06,149.69,394.63,Single-ply,SBD,M
Boys,74.84,18,Davion Brown,Everman,70.26,151.95,74.84,165.56,392.36,Single-ply,SBD,M
Boys,74.84,19,Cameron Chiles,Justin Northwest,72.44,149.69,88.45,154.22,392.36,Single-ply,SBD,M
Boys,74.84,20,Marcus Seignon,Keller Fossil Ridge,70.31,151.95,74.84,151.95,378.75,Single-ply,SBD,M
Boys,74.84,21,Courtland Clark,Arlington Seguin,69.72,156.49,74.84,142.88,374.21,Single-ply,SBD,M
Boys,74.84,22,Jacob Branch,Arlington Seguin,73.84,136.08,81.65,156.49,374.21,Single-ply,SBD,M
Boys,74.84,23,Sam Hammonds,Maypearl,68.54,145.15,68.04,147.42,360.61,Single-ply,SBD,M
Boys,74.84,24,Isaiah Guajardo,Fort Worth Paschal,70.85,133.81,65.77,147.42,347,Single-ply,SBD,M
Boys,74.84,25,Santos Bazon,Fort Worth Western Hills,74.12,120.2,61.23,147.42,328.85,Single-ply,SBD,M
Boys,74.84,26,Ertle Jett,Keller,70.08,106.59,72.57,142.88,322.05,Single-ply,SBD,M
Boys,74.84,27,Jacob Overdirth,Maypearl,68.22,99.79,77.11,136.08,312.98,Single-ply,SBD,M
Boys,74.84,28,Logan Lebrun,Keller Timber Creek,70.08,115.67,61.23,136.08,312.98,Single-ply,SBD,M
Boys,74.84,29,Flavio Godoy,Fort Worth North Side,72.08,106.59,47.63,129.27,283.5,Single-ply,SBD,M
Boys,74.84,DQ,Brian Aguilar,Everman,71.99,,,,,Single-ply,SBD,M
Boys,74.84,DQ,Kamion Bell,Fort Worth Western Hills,68.27,,,,,Single-ply,SBD,M
Boys,82.1,DQ,David Cancino,Gainesville,75.02,,,,,Single-ply,SBD,M
Boys,74.84,DQ,Dwight Tucker,Everman,74.84,,,,,Single-ply,SBD,M
Boys,74.84,DQ,Jeremiah Johnson,Maypearl,74.84,,,,,Single-ply,SBD,M
Boys,74.84,DQ,Jacobey Law,North Crowley,74.84,,,,,Single-ply,SBD,M
Boys,74.84,DQ,Dustin Greeson,Maypearl,74.84,,,,,Single-ply,SBD,M
Boys,82.1,1,Sedrick Antwine,Cedar Hill,81.56,226.8,129.27,204.12,560.19,Single-ply,SBD,M
Boys,82.1,2,Darrell Pinkston,Everman,79.74,238.14,113.4,201.85,553.38,Single-ply,SBD,M
Boys,89.81,3,Alexeev Dismuke,Lancaster,82.28,204.12,124.74,192.78,521.63,Single-ply,SBD,M
Boys,82.1,4,Jewmonte Lewis,Cedar Hill,76.07,190.51,124.74,174.63,489.88,Single-ply,SBD,M
Boys,89.81,5,Christian Carter,Northwest Nelson,82.33,183.7,122.47,181.44,487.61,Single-ply,SBD,M
Boys,82.1,6,Blake Ibarra,Justin Northwest,79.11,197.31,115.67,163.29,476.27,Single-ply,SBD,M
Boys,82.1,7,James Worthy,Everman,81.83,192.78,92.99,190.51,476.27,Single-ply,SBD,M
Boys,82.1,8,Austin Persons,North Garland,80.29,174.63,97.52,174.63,446.79,Single-ply,SBD,M
Boys,89.81,9,Mugabe Bigirimana,Keller Timber Creek,82.28,188.24,99.79,158.76,446.79,Single-ply,SBD,M
Boys,82.1,10,Abraham Flores,Fort Worth North Side,79.47,147.42,90.72,192.78,430.91,Single-ply,SBD,M
Boys,82.1,11,Daniel Secrease,Dallas Life Oak Cliff,80.56,156.49,97.52,174.63,428.64,Single-ply,SBD,M
Boys,82.1,11,Daniel Secrease,Dallas Life Oak Cliff,80.56,156.49,97.52,174.63,428.64,Single-ply,SBD,M
Boys,82.1,12,Thai Ton,North Garland,81.96,174.63,77.11,170.1,421.84,Single-ply,SBD,M
Boys,82.1,13,Sir Charles Frost,Lancaster,80.2,151.95,106.59,158.76,417.3,Single-ply,SBD,M
Boys,82.1,14,Tim Oree,Arlington Seguin,80.06,176.9,72.57,151.95,401.43,Single-ply,SBD,M
Boys,82.1,15,Jayson Gonzales,Keller Fossil Ridge,77.29,142.88,88.45,161.03,392.36,Single-ply,SBD,M
Boys,82.1,16,Soihl Matthew,Keller,78.02,147.42,97.52,147.42,392.36,Single-ply,SBD,M
Boys,82.1,17,Lane James,Justin Northwest,78.2,133.81,97.52,149.69,381.02,Single-ply,SBD,M
Boys,82.1,18,Alexander Rollins,Lancaster,79.47,117.93,104.33,158.76,381.02,Single-ply,SBD,M
Boys,82.1,19,Henry Romero,Kennedale,79.7,136.08,108.86,136.08,381.02,Single-ply,SBD,M
Boys,82.1,20,Devonte Wilkerson,Fort Worth Western Hills,80.42,124.74,88.45,165.56,378.75,Single-ply,SBD,M
Boys,82.1,21,Jacob Powers,Justin Northwest,81.65,145.15,86.18,140.61,371.95,Single-ply,SBD,M
Boys,82.1,22,Johnathan Wright,Lancaster,77.97,104.33,90.72,172.37,367.41,Single-ply,SBD,M
Boys,82.1,23,Branden Logan,Keller,78.24,133.81,83.91,145.15,362.87,Single-ply,SBD,M
Boys,82.1,24,Kelvin Eckhator,North Garland,78.43,124.74,65.77,129.27,319.78,Single-ply,SBD,M
Boys,82.1,25,Edgar Reyes,North Crowley,76.02,108.86,79.38,124.74,312.98,Single-ply,SBD,M
Boys,82.1,DQ,Jonathan Troung,Keller Fossil Ridge,82.1,,,,,Single-ply,SBD,M
Boys,89.81,1,Vincent Ajagebu,North Crowley,88.68,226.8,124.74,242.67,594.21,Single-ply,SBD,M
Boys,89.81,2,Jaylon Parmes,Everman,84.37,238.14,113.4,238.14,589.67,Single-ply,SBD,M
Boys,89.81,3,Chase Coleman,North Crowley,89.18,197.31,124.74,242.67,564.72,Single-ply,SBD,M
Boys,89.81,4,Stacy Sublett,North Mesquite,83.42,226.8,102.06,226.8,555.65,Single-ply,SBD,M
Boys,89.81,5,Cameron Williams,Keller,86.64,197.31,131.54,208.65,537.51,Single-ply,SBD,M
Boys,89.81,6,Hunter Powell,Keller Timber Creek,87.27,210.92,120.2,197.31,528.44,Single-ply,SBD,M
Boys,89.81,7,Alfred Villalobos,North Garland,84.28,174.63,113.4,181.44,469.47,Single-ply,SBD,M
Boys,89.81,8,Taylor Hood,Chico,84.87,181.44,111.13,165.56,458.13,Single-ply,SBD,M
Boys,89.81,9,Brendan Brumley,Aubrey,89.63,165.56,108.86,183.7,458.13,Single-ply,SBD,M
Boys,89.81,10,Davion Jones,Keller Timber Creek,87.45,188.24,97.52,170.1,455.86,Single-ply,SBD,M
Boys,89.81,11,Jonathon Carrillo,Fort Worth Paschal,82.92,142.88,120.2,174.63,437.72,Single-ply,SBD,M
Boys,89.81,12,Hunter Tole,Keller Timber Creek,85.09,174.63,90.72,156.49,421.84,Single-ply,SBD,M
Boys,89.81,13,Adrian Cantu,Decatur,87.09,170.1,92.99,158.76,421.84,Single-ply,SBD,M
Boys,89.81,14,Cory Duffey,Justin Northwest,85.46,124.74,106.59,142.88,374.21,Single-ply,SBD,M
Boys,89.81,15,Orlando Pineda,North Garland,85.05,129.27,74.84,149.69,353.8,Single-ply,SBD,M
Boys,89.81,DQ,Kadarius Jones,Lancaster,84.64,,,,,Single-ply,SBD,M
Boys,99.79,DQ,Matt Roberson,Maypearl,89.9,145.15,,,,Single-ply,SBD,M
Boys,89.81,DQ,Nick Guidry,Northwest Nelson,87,,,,,Single-ply,SBD,M
Boys,89.81,DQ,Khaeman Edwards,Everman,84.19,,,,,Single-ply,SBD,M
Boys,89.81,DQ,Enrique Perez,Aubrey,87.95,176.9,,,,Single-ply,SBD,M
Boys,89.81,DQ,Shadarion Jacobs,Dallas Life Oak Cliff,89.81,,,,,Single-ply,SBD,M
Boys,89.81,DQ,Shadarion Jacobs,Dallas Life Oak Cliff,89.81,,,,,Single-ply,SBD,M
Boys,99.79,1,Trevor Goree,Keller Timber Creek,98.38,272.16,142.88,204.12,619.15,Single-ply,SBD,M
Boys,99.79,2,Tim Hutchins,Cedar Hill,93.17,235.87,140.61,222.26,598.74,Single-ply,SBD,M
Boys,99.79,3,Dakota Williams,Decatur,98.88,222.26,129.27,235.87,587.4,Single-ply,SBD,M
Boys,99.79,4,Ian Masakini,Keller Timber Creek,96.21,226.8,142.88,210.92,580.6,Single-ply,SBD,M
Boys,99.79,5,Houston Miller,Keller,98.93,210.92,124.74,244.94,580.6,Single-ply,SBD,M
Boys,99.79,6,Josh Brown,North Crowley,96.84,238.14,122.47,208.65,569.26,Single-ply,SBD,M
Boys,99.79,7,Colton Hall,Kennedale,93.67,217.72,115.67,210.92,544.31,Single-ply,SBD,M
Boys,99.79,8,Cameron Starnes,Chico,91.94,226.8,104.33,181.44,512.56,Single-ply,SBD,M
Boys,99.79,9,Kevin Williams,Aubrey,96.43,181.44,136.08,195.04,512.56,Single-ply,SBD,M
Boys,99.79,10,Ezavian Franklin-Mosqueda,Dallas Life Oak Cliff,95.44,201.85,115.67,183.7,501.22,Single-ply,SBD,M
Boys,99.79,10,Ezavian Franklin-Mosqueda,Dallas Life Oak Cliff,95.44,201.85,115.67,183.7,501.22,Single-ply,SBD,M
Boys,109.77,11,Alonso Alvarado,Fort Worth Paschal,99.88,192.78,115.67,174.63,483.08,Single-ply,SBD,M
Boys,99.79,12,Randall Vasquez,Fort Worth Western Hills,90.95,142.88,115.67,206.38,464.93,Single-ply,SBD,M
Boys,99.79,13,Luke Livingston,Northwest Nelson,91.26,156.49,127.01,181.44,464.93,Single-ply,SBD,M
Boys,99.79,14,Domingo Lucius,North Garland,97.7,165.56,99.79,192.78,458.13,Single-ply,SBD,M
Boys,99.79,15,Kevin Pouncil,North Mesquite,90.72,151.95,117.93,183.7,453.59,Single-ply,SBD,M
Boys,99.79,16,Edwin Robles,North Garland,95.16,176.9,102.06,172.37,451.32,Single-ply,SBD,M
Boys,99.79,17,Leimbacher David,Keller,95.16,142.88,111.13,195.04,449.06,Single-ply,SBD,M
Boys,99.79,18,Carlton Dirickson,Maypearl,90.17,163.29,113.4,165.56,442.25,Single-ply,SBD,M
Boys,99.79,19,Justin Wheeler,Arlington Seguin,94.12,156.49,113.4,172.37,442.25,Single-ply,SBD,M
Boys,99.79,20,Tyler Alexander,Chico,99.29,158.76,92.99,181.44,433.18,Single-ply,SBD,M
Boys,99.79,21,Efhenga Bahena,Arlington Seguin,96.98,201.85,90.72,131.54,424.11,Single-ply,SBD,M
Boys,99.79,22,Seymour Battle,Arlington Seguin,99.06,149.69,92.99,181.44,424.11,Single-ply,SBD,M
Boys,99.79,23,Jarel Steward,Everman,96.84,142.88,90.72,172.37,405.97,Single-ply,SBD,M
Boys,99.79,24,Cody Armstrong,Chico,92.71,163.29,74.84,156.49,394.63,Single-ply,SBD,M
Boys,99.79,25,Ezekial Veal,Everman,92.22,136.08,90.72,158.76,385.55,Single-ply,SBD,M
Boys,99.79,26,Alex Alvarado,Keller Fossil Ridge,97.11,129.27,95.25,151.95,376.48,Single-ply,SBD,M
Boys,99.79,27,Micah German,Justin Northwest,92.62,131.54,95.25,142.88,369.68,Single-ply,SBD,M
Boys,99.79,28,Michael Banda,North Garland,92.67,133.81,90.72,142.88,367.41,Single-ply,SBD,M
Boys,99.79,29,Jarret Pettigrew,Keller Fossil Ridge,90.31,133.81,88.45,142.88,365.14,Single-ply,SBD,M
Boys,99.79,30,Knowlton Jacob,Keller,98.16,136.08,79.38,149.69,365.14,Single-ply,SBD,M
Boys,99.79,31,Haldeman Carson,Keller,94.03,113.4,72.57,142.88,328.85,Single-ply,SBD,M
Boys,99.79,32,Cruz Villegas,Everman,92.53,113.4,74.84,136.08,324.32,Single-ply,SBD,M
Boys,99.79,DQ,David Wilson,Justin Northwest,97.7,147.42,,,,Single-ply,SBD,M
Boys,99.79,DQ,Ruben Hernandez,Gainesville,97.57,192.78,,,,Single-ply,SBD,M
Boys,99.79,DQ,Elvir Nurkic,Keller Fossil Ridge,91.81,,,,,Single-ply,SBD,M
Boys,99.79,DQ,Aaron Mitchell,Keller Timber Creek,91.94,,,,,Single-ply,SBD,M
Boys,99.79,DQ,Andy Cantu,Maypearl,92.99,,,,,Single-ply,SBD,M
Boys,99.79,DQ,Warren Brandon,Keller,99.79,,,,,Single-ply,SBD,M
Boys,109.77,1,Jalon Scott,North Mesquite,107.86,272.16,142.88,249.48,664.51,Single-ply,SBD,M
Boys,109.77,2,Chase Dennis,Keller Timber Creek,107,272.16,154.22,226.8,653.17,Single-ply,SBD,M
Boys,109.77,3,Javier Alva,Fort Worth North Side,105.64,240.4,131.54,226.8,598.74,Single-ply,SBD,M
Boys,109.77,4,Matthew Naugle,Kennedale,109.45,231.33,136.08,197.31,564.72,Single-ply,SBD,M
Boys,109.77,5,Graham Cowdrey,Decatur,107.64,219.99,142.88,199.58,562.45,Single-ply,SBD,M
Boys,109.77,6,Calin Hardin,Gainesville,104.42,208.65,124.74,226.8,560.19,Single-ply,SBD,M
Boys,109.77,7,Jermal Warren,Dallas Life Oak Cliff,105.46,204.12,156.49,183.7,544.31,Single-ply,SBD,M
Boys,109.77,7,Jermal Warren,Dallas Life Oak Cliff,105.46,204.12,156.49,183.7,544.31,Single-ply,SBD,M
Boys,109.77,8,Rogelio Medina,Maypearl,107.23,213.19,122.47,181.44,517.1,Single-ply,SBD,M
Boys,109.77,9,Matthew Dotson,Northwest Nelson,106.96,185.97,140.61,181.44,508.02,Single-ply,SBD,M
Boys,109.77,10,Salvador Romero,North Garland,101.7,185.97,111.13,201.85,498.95,Single-ply,SBD,M
Boys,109.77,11,David Gray,Aubrey,108.45,183.7,115.67,183.7,483.08,Single-ply,SBD,M
Boys,109.77,12,Terry Lee Hogan,Decatur,107.05,181.44,115.67,179.17,476.27,Single-ply,SBD,M
Boys,109.77,13,Wilson Tran,Gainesville,104.83,170.1,90.72,176.9,437.72,Single-ply,SBD,M
Boys,109.77,14,Trey Walker,Lancaster,106.14,147.42,102.06,181.44,430.91,Single-ply,SBD,M
Boys,109.77,15,Oscar Marin,North Garland,103.15,158.76,99.79,170.1,428.64,Single-ply,SBD,M
Boys,109.77,16,Keenon Ponder,Dallas Life Oak Cliff,104.1,147.42,113.4,156.49,417.3,Single-ply,SBD,M
Boys,109.77,16,Keenon Ponder,Dallas Life Oak Cliff,104.1,147.42,113.4,156.49,417.3,Single-ply,SBD,M
Boys,109.77,17,Portugual Reece,Keller,102.24,151.95,88.45,147.42,387.82,Single-ply,SBD,M
Boys,124.74,18,JD Brown,Chico,109.95,136.08,97.52,149.69,383.29,Single-ply,SBD,M
Boys,109.77,19,Steven Pena,North Crowley,105.14,142.88,83.91,151.95,378.75,Single-ply,SBD,M
Boys,109.77,20,John Salazar,Chico,109.77,138.35,77.11,151.95,367.41,Single-ply,SBD,M
Boys,109.77,DQ,Trevor Dyson,Lancaster,107.32,,,,,Single-ply,SBD,M
Boys,109.77,DQ,Logan Sloniger,Northwest Nelson,108.18,204.12,,,,Single-ply,SBD,M
Boys,109.77,DQ,Darrian Hammonds,Arlington Seguin,104.69,226.8,136.08,,,Single-ply,SBD,M
Boys,124.74,1,Rickey Roberts,Decatur,117.12,226.8,133.81,247.21,607.81,Single-ply,SBD,M
Boys,124.74,2,Justin Self,Northwest Nelson,123.74,247.21,154.22,206.38,607.81,Single-ply,SBD,M
Boys,124.74,3,David Hogue,North Mesquite,122.11,226.8,129.27,219.99,576.06,Single-ply,SBD,M
Boys,124.74,4,Rodriguez Skylyr,Keller,116.48,204.12,142.88,210.92,557.92,Single-ply,SBD,M
Boys,124.74,5,David Correa,Bowie,116.89,226.8,124.74,204.12,555.65,Single-ply,SBD,M
Boys,124.74+,6,Asante Slater,Everman,124.78,188.24,131.54,231.33,551.11,Single-ply,SBD,M
Boys,124.74,7,Saul Landaverde,Bowie,112.67,222.26,122.47,195.04,539.77,Single-ply,SBD,M
Boys,124.74+,8,Josh Gnat,Arlington Seguin,124.87,231.33,102.06,204.12,537.51,Single-ply,SBD,M
Boys,124.74,9,Christopher Reyes,Fort Worth Paschal,111.99,201.85,131.54,197.31,530.7,Single-ply,SBD,M
Boys,124.74,10,Robert Rae,Keller Timber Creek,119.2,158.76,151.95,183.7,494.42,Single-ply,SBD,M
Boys,124.74,11,Terry Harjo,Arlington Seguin,115.71,215.46,86.18,190.51,492.15,Single-ply,SBD,M
Boys,124.74,12,Jean De Lance,North Mesquite,118.61,156.49,113.4,217.72,487.61,Single-ply,SBD,M
Boys,124.74,13,Joe Lamontt,Cedar Hill,110.68,127.01,140.61,197.31,464.93,Single-ply,SBD,M
Boys,124.74,14,Johnny Zielinski,Kennedale,117.8,183.7,108.86,172.37,464.93,Single-ply,SBD,M
Boys,124.74,15,George Roam,Everman,117.48,170.1,102.06,188.24,460.4,Single-ply,SBD,M
Boys,124.74,16,Justin Cook,Lancaster,114.76,163.29,102.06,188.24,453.59,Single-ply,SBD,M
Boys,124.74,17,Cj Smalls,Lancaster,116.03,149.69,99.79,181.44,430.91,Single-ply,SBD,M
Boys,124.74,18,Fred Reyna,Aubrey,113.94,158.76,97.52,167.83,424.11,Single-ply,SBD,M
Boys,124.74,19,Christian Jordan,Dallas Life Oak Cliff,124.74,104.33,83.91,142.88,331.12,Single-ply,SBD,M
Boys,124.74,19,Christian Jordan,Dallas Life Oak Cliff,124.74,104.33,83.91,142.88,331.12,Single-ply,SBD,M
Boys,124.74,DQ,Eric Booker,Everman,124.74,,,,,Single-ply,SBD,M
Boys,124.74+,1,Clifton Coffey,Cedar Hill,151.82,272.16,158.76,249.48,680.39,Single-ply,SBD,M
Boys,124.74+,2,Brent Reed,Kennedale,129.41,263.08,136.08,254.01,653.17,Single-ply,SBD,M
Boys,124.74+,3,Jacob Hartsell,Decatur,145.78,226.8,174.63,240.4,641.83,Single-ply,SBD,M
Boys,124.74+,4,Manny Rodriguez,Gainesville,127.82,260.82,136.08,226.8,623.69,Single-ply,SBD,M
Boys,124.74+,5,Terrick Rabb,Kennedale,135.71,247.21,161.03,210.92,619.15,Single-ply,SBD,M
Boys,124.74+,6,Joey Stephens,Everman,136.58,226.8,158.76,219.99,605.55,Single-ply,SBD,M
Boys,124.74+,7,Andrew Flannigan,Kennedale,142.43,208.65,167.83,226.8,603.28,Single-ply,SBD,M
Boys,124.74+,8,Dazmyne Coleman,North Mesquite,126.42,192.78,122.47,192.78,508.02,Single-ply,SBD,M
Boys,124.74+,9,Ricky Medrano,Keller Fossil Ridge,127.82,204.12,104.33,181.44,489.88,Single-ply,SBD,M
Boys,124.74+,10,Tariq Henderson,Fort Worth Paschal,131.81,183.7,120.2,183.7,487.61,Single-ply,SBD,M
Boys,124.74+,11,Kenyetta King,North Crowley,135.99,204.12,127.01,156.49,487.61,Single-ply,SBD,M
Boys,124.74+,12,Trouper Arnold,Northwest Nelson,127.64,165.56,113.4,181.44,460.4,Single-ply,SBD,M
Boys,124.74+,13,Kellen Deisch,Northwest Nelson,125.92,154.22,120.2,174.63,449.06,Single-ply,SBD,M
Boys,124.74+,14,Dylan Lopez,Fort Worth Paschal,125.92,201.85,97.52,142.88,442.25,Single-ply,SBD,M
Boys,124.74+,15,Jaylin Hendrix,Everman,132.81,158.76,108.86,174.63,442.25,Single-ply,SBD,M
Boys,124.74+,16,Ryan Petty,Northwest Nelson,137.12,149.69,111.13,172.37,433.18,Single-ply,SBD,M
Boys,124.74+,17,Treston Price,Lancaster,130.5,154.22,92.99,181.44,428.64,Single-ply,SBD,M
Boys,124.74+,18,Jonathan Smith,Aubrey,126.37,151.95,99.79,158.76,410.5,Single-ply,SBD,M
Boys,124.74+,19,Blake Haynes,Maypearl,129.36,124.74,88.45,149.69,362.87,Single-ply,SBD,M
Boys,124.74+,20,Jonathan Rocha,Fort Worth Paschal,130.14,111.13,83.91,142.88,337.93,Single-ply,SBD,M
Boys,124.74+,21,Issac Gomez,Fort Worth North Side,131.09,106.59,61.23,129.27,297.1,Single-ply,SBD,M
Boys,124.74+,DQ,Tony Johnson,Fort Worth Paschal,131.41,111.13,92.99,,,Single-ply,SBD,M
Boys,124.74+,DQ,Matt Briggs,Justin Northwest,140.34,167.83,,,,Single-ply,SBD,M
Boys,124.74+,DQ,Ryan Henson,Fort Worth Western Hills,125.6,181.44,,,,Single-ply,SBD,M
Boys,124.74+,DQ,Tyler Roberson,Dallas Life Oak Cliff,158.12,,,,,Single-ply,SBD,M
Boys,124.74+,DQ,Tyler Roberson,Dallas Life Oak Cliff,158.12,,,,,Single-ply,SBD,M
