Division,WeightClassKg,Place,Name,Team,BodyweightKg,Best3SquatKg,Best3BenchKg,Best3DeadliftKg,TotalKg,Equipment,Event,Sex
Boys,51.71,1,Gilbert Sanchez,San Diego,51.44,156.49,83.91,149.69,390.09,Single-ply,SBD,M
Boys,51.71,2,Bruizer Del Bosque,Bishop,47.17,154.22,72.57,142.88,369.68,Single-ply,SBD,M
Boys,51.71,3,Richie Villa,Bloomington,50.35,129.27,90.72,142.88,362.87,Single-ply,SBD,M
Boys,51.71,4,Dylan Torres,Runge,50.71,117.93,58.97,122.47,299.37,Single-ply,SBD,M
Boys,51.71,5,Christian Ortegon,Dilley,49.99,108.86,61.23,122.47,292.57,Single-ply,SBD,M
Boys,51.71,6,William Park,Center Point,51.26,117.93,52.16,122.47,292.57,Single-ply,SBD,M
Boys,51.71,7,Bryan Priddy,Skidmore-Tynan,48.08,97.52,65.77,124.74,288.03,Single-ply,SBD,M
Boys,51.71,8,Randy Castillo,Bruni,51.26,108.86,54.43,124.74,288.03,Single-ply,SBD,M
Boys,51.71,DQ,Buster Dodge,Refugio,47.17,,,,,Single-ply,SBD,M
Boys,51.71,DQ,Gabriel Montemayor,Santa Rosa,50.53,,,,,Single-ply,SBD,M
Boys,55.79,1,Tristian Salinas,Santa Rosa,54.34,165.56,97.52,176.9,439.98,Single-ply,SBD,M
Boys,55.79,2,Travis Charles,Bishop,55.16,183.7,77.11,174.63,435.45,Single-ply,SBD,M
Boys,55.79,3,Michael Casarez,Three Rivers,55.61,179.17,72.57,179.17,430.91,Single-ply,SBD,M
Boys,55.79,4,Justin Breland,Banquete,55.61,147.42,97.52,165.56,410.5,Single-ply,SBD,M
Boys,59.87,5,Andrew Garlin,Skidmore-Tynan,55.88,142.88,95.25,154.22,392.36,Single-ply,SBD,M
Boys,59.87,6,Rene Rubalcava,San Diego,55.97,151.95,92.99,147.42,392.36,Single-ply,SBD,M
Boys,55.79,7,Jordy Silguero,Hebbronville,55.52,124.74,90.72,156.49,371.95,Single-ply,SBD,M
Boys,59.87,8,David Saenz,Hebbronville,55.88,138.35,72.57,142.88,353.8,Single-ply,SBD,M
Boys,55.79,9,Angel Solano,Bruni,53.89,120.2,58.97,165.56,344.73,Single-ply,SBD,M
Boys,59.87,DQ,Darion McMahan,Stockdale,55.97,145.15,83.91,,,Single-ply,SBD,M
Boys,59.87,1,Raymond Lopez,Taft,59.87,188.24,111.13,226.8,526.17,Single-ply,SBD,M
Boys,59.87,2,Austin Munoz,Freer,59.06,149.69,97.52,208.65,455.86,Single-ply,SBD,M
Boys,67.13,3,Chase Dolezal,Hallettsville,60.06,163.29,88.45,181.44,433.18,Single-ply,SBD,M
Boys,59.87,4,Ubaldo Guzman,Weimar,59.78,165.56,97.52,167.83,430.91,Single-ply,SBD,M
Boys,59.87,5,Peter Martinez,Yorktown,58.79,147.42,97.52,174.63,419.57,Single-ply,SBD,M
Boys,59.87,6,Gabriel Ramierez,Ben Bolt-Palito Blanco,59.24,167.83,97.52,154.22,419.57,Single-ply,SBD,M
Boys,59.87,7,Rico Rodriguez,San Diego,59.33,127.01,95.25,174.63,396.89,Single-ply,SBD,M
Boys,59.87,8,Pedro Carreon,Geronimo Navarro,58.33,136.08,90.72,156.49,383.29,Single-ply,SBD,M
Boys,59.87,9,Lance Howard,Altair Rice,58.88,151.95,79.38,149.69,381.02,Single-ply,SBD,M
Boys,59.87,DQ,Justin Gonzalez,San Diego,58.88,165.56,,,,Single-ply,SBD,M
Boys,59.87,DQ,Roger Garcia,Banquete,59.87,,,,,Single-ply,SBD,M
Boys,67.13,1,Joshua Watrous,Santa Rosa,65.14,195.04,106.59,226.8,528.44,Single-ply,SBD,M
Boys,67.13,2,Marty Garza,Jourdanton,64.77,185.97,133.81,206.38,526.17,Single-ply,SBD,M
Boys,67.13,3,Alex Gonzalez,Skidmore-Tynan,66.5,226.8,99.79,199.58,526.17,Single-ply,SBD,M
Boys,67.13,4,Gino Dodge,Refugio,65.14,204.12,115.67,190.51,510.29,Single-ply,SBD,M
Boys,67.13,5,Rene Molina,Hebbronville,67.13,199.58,106.59,199.58,505.76,Single-ply,SBD,M
Boys,67.13,6,Jp Escobar,Bishop,67.13,188.24,108.86,190.51,487.61,Single-ply,SBD,M
Boys,67.13,7,Rick Dominguez,Center Point,65.32,179.17,113.4,181.44,474,Single-ply,SBD,M
Boys,67.13,8,Aaron Lopez,Jourdanton,67.04,195.04,95.25,176.9,467.2,Single-ply,SBD,M
Boys,67.13,DQ,Jay Garza,Poth,65.32,,,,,Single-ply,SBD,M
Boys,67.13,DQ,Eddie Garcia,Banquete,64.86,172.37,102.06,,,Single-ply,SBD,M
Boys,67.13,DQ,David Guzman,Taft,67.13,,,,,Single-ply,SBD,M
Boys,82.1,1,Marty Saenz,San Diego,75.02,226.8,117.93,238.14,582.87,Single-ply,SBD,M
Boys,74.84,2,Nocky Garza,Bishop,74.12,226.8,138.35,213.19,578.33,Single-ply,SBD,M
Boys,74.84,3,Adam Guerrero,George West,69.76,226.8,111.13,190.51,528.44,Single-ply,SBD,M
Boys,74.84,4,Thomas Garcia,Dilley,71.67,188.24,108.86,195.04,492.15,Single-ply,SBD,M
Boys,74.84,5,Tanner Heffner,Schulenburg,74.48,190.51,120.2,181.44,492.15,Single-ply,SBD,M
Boys,74.84,6,Dakota Ross,Center Point,70.49,179.17,120.2,190.51,489.88,Single-ply,SBD,M
Boys,74.84,7,Levi House,Jourdanton,74.3,208.65,92.99,183.7,485.34,Single-ply,SBD,M
Boys,74.84,8,Josiah Jarmon,Weimar,73.12,183.7,104.33,183.7,471.74,Single-ply,SBD,M
Boys,74.84,9,Ryan Adams,Weimar,73.39,172.37,95.25,190.51,458.13,Single-ply,SBD,M
Boys,74.84,DQ,Christian Nelson,Poth,72.76,,,,,Single-ply,SBD,M
Boys,82.1,1,Ryan Rodriguez,Odem,79.47,226.8,147.42,229.06,603.28,Single-ply,SBD,M
Boys,82.1,2,Alex Medrano,Dilley,76.02,195.04,136.08,229.06,560.19,Single-ply,SBD,M
Boys,82.1,3,Garrett Perez,Center Point,81.74,208.65,124.74,226.8,560.19,Single-ply,SBD,M
Boys,82.1,4,Jacob Fernandez,Natalia,81.28,199.58,124.74,222.26,546.58,Single-ply,SBD,M
Boys,82.1,5,Brixx Hawthorne,Weimar,81.28,195.04,113.4,238.14,546.58,Single-ply,SBD,M
Boys,82.1,6,Dillion Brunet,Center Point,79.56,210.92,117.93,208.65,537.51,Single-ply,SBD,M
Boys,82.1,7,Chase Wiatrek,Poth,80.1,197.31,113.4,208.65,519.36,Single-ply,SBD,M
Boys,82.1,DQ,Kirk Salinas,Banquete,78.83,208.65,127.01,,,Single-ply,SBD,M
Boys,82.1,DQ,Rick Strong,Santa Rosa,77.93,,,,,Single-ply,SBD,M
Boys,82.1,DQ,Ryan de la Cruz,Ben Bolt-Palito Blanco,80.29,,,,,Single-ply,SBD,M
Boys,89.81,1,Cody Pavlicek,Schulenburg,86.82,244.94,142.88,222.26,610.08,Single-ply,SBD,M
Boys,89.81,2,Paul Perez,Natalia,87.09,217.72,147.42,231.33,596.47,Single-ply,SBD,M
Boys,89.81,3,Chris Hearn,Cotulla,88.45,210.92,129.27,233.6,573.79,Single-ply,SBD,M
Boys,89.81,4,Korry Huddleston,Yorktown,87.63,222.26,133.81,197.31,553.38,Single-ply,SBD,M
Boys,89.81,5,Nick Davilla,Jourdanton,85.82,199.58,149.69,197.31,546.58,Single-ply,SBD,M
Boys,89.81,6,Kory Kuhl,Universal City Randolph,82.83,208.65,99.79,226.8,535.24,Single-ply,SBD,M
Boys,89.81,7,Juan Villarreal,Santa Rosa,86.73,215.46,111.13,195.04,521.63,Single-ply,SBD,M
Boys,89.81,8,Abraham Castillo,Altair Rice,88.9,199.58,108.86,208.65,517.1,Single-ply,SBD,M
Boys,89.81,9,Abel Gonzalez,Dilley,89.81,204.12,106.59,192.78,503.49,Single-ply,SBD,M
Boys,89.81,DQ,Santiago Lozoya,Santa Maria,89.81,,,,,Single-ply,SBD,M
Boys,99.79,1,Chance Dziuk,Poth,97.79,281.23,172.37,263.08,716.68,Single-ply,SBD,M
Boys,99.79,2,Jesus Benavides,Ben Bolt-Palito Blanco,99.34,238.14,165.56,219.99,623.69,Single-ply,SBD,M
Boys,99.79,3,Roger Rubalcava,San Diego,95.25,231.33,149.69,226.8,607.81,Single-ply,SBD,M
Boys,99.79,4,Salo Galindo,Dilley,96.16,226.8,167.83,195.04,589.67,Single-ply,SBD,M
Boys,99.79,5,Lucas Lopez,Ben Bolt-Palito Blanco,93.98,204.12,133.81,204.12,542.04,Single-ply,SBD,M
Boys,99.79,6,Jon Garcia,Ben Bolt-Palito Blanco,99.25,195.04,124.74,185.97,505.76,Single-ply,SBD,M
Boys,99.79,7,Steve Cavazos,Natalia,90.81,181.44,111.13,206.38,498.95,Single-ply,SBD,M
Boys,99.79,8,Raul Hernandez,Dilley,96.07,195.04,113.4,181.44,489.88,Single-ply,SBD,M
Boys,99.79,9,Ian Coleman,Universal City Randolph,96.62,195.04,108.86,163.29,467.2,Single-ply,SBD,M
Boys,99.79,DQ,Seferino Vargas,Refugio,93.17,,,,,Single-ply,SBD,M
Boys,109.77,1,John Herrera,Banquete,105.14,256.28,140.61,244.94,641.83,Single-ply,SBD,M
Boys,109.77,2,Mike Martinez,Weimar,107.41,254.01,151.95,231.33,637.3,Single-ply,SBD,M
Boys,109.77,3,Ivan Gonzalez,Bruni,105.78,249.48,117.93,263.08,630.49,Single-ply,SBD,M
Boys,109.77,4,Kevin Vela,Bruni,108.95,263.08,138.35,219.99,621.42,Single-ply,SBD,M
Boys,109.77,5,Dj Cowger,Bishop,102.33,226.8,138.35,181.44,546.58,Single-ply,SBD,M
Boys,109.77,6,Roman Esparza,Geronimo Navarro,107.23,208.65,104.33,206.38,519.36,Single-ply,SBD,M
Boys,109.77,7,Ryan Korenek,Altair Rice,108.23,210.92,113.4,188.24,512.56,Single-ply,SBD,M
Boys,109.77,DQ,Michael Dominguez,Hebbronville,107.41,,,,,Single-ply,SBD,M
Boys,109.77,DQ,Brandon Brashear,Jourdanton,106.96,,,,,Single-ply,SBD,M
Boys,109.77,DQ,Frank Trevino,San Diego,108.14,235.87,129.27,215.46,,Single-ply,SBD,M
Boys,124.74,1,Tony Garcia,Hebbronville,119.75,276.69,147.42,244.94,669.05,Single-ply,SBD,M
Boys,124.74,2,Taylor Henning,Refugio,118.75,265.35,161.03,240.4,666.78,Single-ply,SBD,M
Boys,124.74,3,Javier Paredes,Natalia,114.21,272.16,124.74,249.48,646.37,Single-ply,SBD,M
Boys,124.74,4,Frank Perez,Odem,115.3,226.8,190.51,213.19,630.49,Single-ply,SBD,M
Boys,124.74,5,Jonovan Allen,Altair Rice,115.58,222.26,129.27,222.26,573.79,Single-ply,SBD,M
Boys,124.74,6,John Mendoza,Karnes City,111.77,201.85,127.01,215.46,544.31,Single-ply,SBD,M
Boys,124.74,7,Tyler Verette,Jourdanton,119.75,176.9,129.27,197.31,503.49,Single-ply,SBD,M
Boys,124.74,DQ,Gus Palacios,Kenedy,124.74,,,,,Single-ply,SBD,M
Boys,124.74,DQ,Dylan Klare,Refugio,114.03,281.23,,,,Single-ply,SBD,M
Boys,124.74,DQ,Jose Molina,Skidmore-Tynan,117.3,,,,,Single-ply,SBD,M
Boys,124.74+,1,Matt Hernandez,Skidmore-Tynan,137.98,242.67,192.78,226.8,662.24,Single-ply,SBD,M
Boys,124.74+,2,Vicente Juarez,Geronimo Navarro,126.46,244.94,147.42,226.8,619.15,Single-ply,SBD,M
Boys,124.74+,3,Manuel Tijerina,Jourdanton,127.28,226.8,113.4,238.14,578.33,Single-ply,SBD,M
Boys,124.74+,4,Michael Reyes,Natalia,129,251.74,102.06,210.92,564.72,Single-ply,SBD,M
Boys,124.74+,5,Tyler Egger,Yorktown,125.01,219.99,136.08,206.38,562.45,Single-ply,SBD,M
Boys,124.74+,6,Mario Alaniz,San Diego,125.19,226.8,115.67,219.99,562.45,Single-ply,SBD,M
Boys,124.74+,7,Joey Ybanez,Freer,136.8,199.58,129.27,229.06,557.92,Single-ply,SBD,M
Boys,124.74+,8,Zack Pawelek,Karnes City,143.52,204.12,113.4,210.92,528.44,Single-ply,SBD,M
Boys,124.74+,DQ,Guy LaRue,Kenedy,127.01,,,,,Single-ply,SBD,M
Boys,124.74+,DQ,Joseph Barkley,Karnes City,129.55,,,,,Single-ply,SBD,M
