Division,WeightClassKg,Place,Name,Team,BodyweightKg,Best3SquatKg,Best3BenchKg,Best3DeadliftKg,TotalKg,Equipment,Event,Sex
Boys,55.79,1,Blake McCann,Gladewater Sabine,51.94,122.47,61.23,147.42,331.12,Single-ply,SBD,M
Boys,55.79,2,David Blackwell,Nacogdoches,51.8,108.86,34.02,113.4,256.28,Single-ply,SBD,M
Boys,55.79,3,Colton Martin,Elysian Fields,51.89,90.72,52.16,113.4,256.28,Single-ply,SBD,M
Boys,51.71,4,Justin Krantz,Marshall,48.9,77.11,40.82,90.72,208.65,Single-ply,SBD,M
Boys,51.71,5,Trent Bell,Longview Pine Tree,47.26,68.04,,,68.04,Single-ply,S,M
Boys,55.79,1,Scott Byrd,Longview,54.93,136.08,77.11,165.56,378.75,Single-ply,SBD,M
Boys,55.79,2,Joaquin Johnson,Elysian Fields,53.52,138.35,70.31,147.42,356.07,Single-ply,SBD,M
Boys,55.79,3,Brion Ray,Diana New Diana,54.43,117.93,63.5,124.74,306.17,Single-ply,SBD,M
Boys,59.87,4,Cameron Sterling,McLeod,55.97,97.52,68.04,133.81,299.37,Single-ply,SBD,M
Boys,55.79,5,Chris Sartor,Longview Pine Tree,53.34,90.72,65.77,102.06,258.55,Single-ply,SBD,M
Boys,59.87,6,Blake Myers,Simms Bowie,55.88,127.01,,,127.01,Single-ply,S,M
Boys,59.87,1,Marcello Martinez,Gladewater,59.42,170.1,88.45,158.76,417.3,Single-ply,SBD,M
Boys,59.87,2,Tres Allen,Simms Bowie,58.65,138.35,83.91,161.03,383.29,Single-ply,SBD,M
Boys,59.87,3,Forest Lemon,Nacogdoches,58.88,142.88,74.84,156.49,374.21,Single-ply,SBD,M
Boys,59.87,4,Blaine Thayer,Gladewater Sabine,59.42,140.61,77.11,154.22,371.95,Single-ply,SBD,M
Boys,59.87,5,Micha Ethington,Nacogdoches,57.79,145.15,72.57,147.42,365.14,Single-ply,SBD,M
Boys,59.87,6,Marcos Jiminez,Waskom,56.79,136.08,65.77,149.69,351.53,Single-ply,SBD,M
Boys,59.87,7,Simon Traylor,McLeod,56.61,124.74,65.77,138.35,328.85,Single-ply,SBD,M
Boys,59.87,8,Steven Bartuska,Hughes Springs,57.52,102.06,79.38,124.74,306.17,Single-ply,SBD,M
Boys,59.87,9,Edgar Simmons,Marshall,59.51,151.95,,,151.95,Single-ply,S,M
Boys,59.87,10,Javonte Parker,Marshall,59.51,149.69,,,149.69,Single-ply,S,M
Boys,67.13,1,Jalen Johnson,Longview,66.68,192.78,108.86,192.78,494.42,Single-ply,SBD,M
Boys,74.84,2,Trevor Martin,White Oak,67.22,197.31,90.72,185.97,474,Single-ply,SBD,M
Boys,67.13,3,Josh Simms,White Oak,65.23,147.42,104.33,185.97,437.72,Single-ply,SBD,M
Boys,67.13,4,Justin Morris,Gladewater Sabine,65.77,174.63,83.91,172.37,430.91,Single-ply,SBD,M
Boys,67.13,5,JC Garcia,Waskom,66.95,170.1,86.18,163.29,419.57,Single-ply,SBD,M
Boys,67.13,6,Jacob Deaguero,White Oak,66.95,149.69,97.52,161.03,408.23,Single-ply,SBD,M
Boys,67.13,7,LeDerrian Christian,Gladewater,62.14,147.42,83.91,163.29,394.63,Single-ply,SBD,M
Boys,67.13,8,Corey Davis,Diana New Diana,60.42,161.03,77.11,151.95,390.09,Single-ply,SBD,M
Boys,67.13,9,Shawn Wright,McLeod,66.68,124.74,81.65,179.17,385.55,Single-ply,SBD,M
Boys,74.84,10,Ramiao Garcia,New London West Rusk,67.31,131.54,92.99,158.76,383.29,Single-ply,SBD,M
Boys,67.13,11,Jesus Quintero,Price Carlisle,65.32,120.2,86.18,154.22,360.61,Single-ply,SBD,M
Boys,67.13,12,JR Rodgers,Laird Hill Leveretts Chapel,67.13,117.93,86.18,154.22,358.34,Single-ply,SBD,M
Boys,67.13,13,Doyle Slayer,Gladewater,60.6,131.54,72.57,145.15,349.27,Single-ply,SBD,M
Boys,67.13,14,Shaq Johnson,Tatum,66.22,111.13,83.91,154.22,349.27,Single-ply,SBD,M
Boys,74.84,15,Joseph Singletary,Nacogdoches,67.31,129.27,77.11,142.88,349.27,Single-ply,SBD,M
Boys,67.13,16,Caleb Edney,Gladewater Sabine,64.59,131.54,70.31,136.08,337.93,Single-ply,SBD,M
Boys,67.13,17,Keegan Moyers,Gladewater Sabine,62.05,111.13,79.38,145.15,335.66,Single-ply,SBD,M
Boys,67.13,18,Tyler Mintree,Hallsville,63.32,129.27,77.11,127.01,333.39,Single-ply,SBD,M
Boys,67.13,19,Austin Russell,Gladewater Sabine,61.51,111.13,65.77,140.61,317.51,Single-ply,SBD,M
Boys,67.13,20,Brennan Huckabay,Gladewater Union Grove,63.05,115.67,74.84,124.74,315.25,Single-ply,SBD,M
Boys,74.84,21,Luke Yates,McLeod,67.22,95.25,74.84,124.74,294.84,Single-ply,SBD,M
Boys,67.13,22,Jackson Monzingo,McLeod,60.33,83.91,61.23,133.81,278.96,Single-ply,SBD,M
Boys,67.13,23,Sam Brewer,Gladewater Union Grove,65.77,95.25,54.43,99.79,249.48,Single-ply,SBD,M
Boys,74.84,24,Cody Adams,Simms Bowie,67.22,161.03,,,161.03,Single-ply,S,M
Boys,67.13,25,Jacobie Randle,Nacogdoches,67.13,151.95,,,151.95,Single-ply,S,M
Boys,67.13,26,Dakota Hiler,Mount Enterprise,62.78,102.06,,,102.06,Single-ply,S,M
Boys,74.84,DQ,Zach Ott,White Oak,67.22,,,,,Single-ply,S,M
Boys,74.84,1,Chris Ford,Marshall,73.75,254.01,158.76,226.8,639.57,Single-ply,SBD,M
Boys,74.84,2,Alex Cuarenta,Nacogdoches,73.3,226.8,97.52,219.99,544.31,Single-ply,SBD,M
Boys,74.84,3,Graeson Bruce,Simms Bowie,69.67,208.65,95.25,217.72,521.63,Single-ply,SBD,M
Boys,74.84,4,Santos Estrada,Hallsville,71.12,188.24,124.74,201.85,514.83,Single-ply,SBD,M
Boys,82.1,5,Derrick Fields,Nacogdoches,75.02,185.97,102.06,204.12,492.15,Single-ply,SBD,M
Boys,74.84,6,Christian Tyree,Hawkins,74.48,176.9,120.2,192.78,489.88,Single-ply,SBD,M
Boys,74.84,7,David Patterson #4,Carthage,72.85,195.04,108.86,183.7,487.61,Single-ply,SBD,M
Boys,74.84,8,Gage Rainen,Simms Bowie,69.22,181.44,102.06,185.97,469.47,Single-ply,SBD,M
Boys,74.84,9,Josh Presson,White Oak,72.12,170.1,104.33,185.97,460.4,Single-ply,SBD,M
Boys,74.84,10,Josh Garton,Simms Bowie,74.75,183.7,95.25,181.44,460.4,Single-ply,SBD,M
Boys,74.84,11,Deion Williams,Jefferson,72.85,181.44,92.99,181.44,455.86,Single-ply,SBD,M
Boys,74.84,12,Levi Sherrill,Hawkins,73.75,151.95,92.99,199.58,444.52,Single-ply,SBD,M
Boys,74.84,13,Zach Buchanan,Simms Bowie,73.21,167.83,102.06,165.56,435.45,Single-ply,SBD,M
Boys,82.1,14,Hunter Ammons,Mount Enterprise,74.93,170.1,92.99,163.29,426.38,Single-ply,SBD,M
Boys,82.1,15,Derion Gregory,Gladewater,75.02,158.76,88.45,174.63,421.84,Single-ply,SBD,M
Boys,74.84,16,Dakota Porter,Mount Enterprise,69.85,158.76,86.18,158.76,403.7,Single-ply,SBD,M
Boys,74.84,17,Abraham Pina,Hughes Springs,71.12,158.76,90.72,154.22,403.7,Single-ply,SBD,M
Boys,74.84,18,Cason Fogle,Diana New Diana,71.12,149.69,95.25,149.69,394.63,Single-ply,SBD,M
Boys,74.84,19,Felipe Amaro,Laird Hill Leveretts Chapel,74.39,167.83,79.38,147.42,394.63,Single-ply,SBD,M
Boys,74.84,20,Adam Sanchez,Price Carlisle,73.94,142.88,90.72,145.15,378.75,Single-ply,SBD,M
Boys,74.84,21,Garrett Ballard,Price Carlisle,74.84,117.93,102.06,154.22,374.21,Single-ply,SBD,M
Boys,74.84,22,Spencer Hendricks,Longview Spring Hill,73.03,127.01,81.65,161.03,369.68,Single-ply,SBD,M
Boys,74.84,23,Matthew Morris,Laird Hill Leveretts Chapel,70.76,142.88,72.57,136.08,351.53,Single-ply,SBD,M
Boys,74.84,24,Dillion Jarvis,Gladewater Union Grove,71.21,108.86,83.91,140.61,333.39,Single-ply,SBD,M
Boys,74.84,25,Travis Teodorozuk,Hallsville,72.85,122.47,74.84,131.54,328.85,Single-ply,SBD,M
Boys,82.1,26,Heath Knight,Gladewater Union Grove,75.07,113.4,70.31,136.08,319.78,Single-ply,SBD,M
Boys,74.84,27,Jacovin Coats,Marshall,71.21,204.12,95.25,,299.37,Single-ply,SB,M
Boys,74.84,28,Patrick Sessions,Tatum,69.85,108.86,74.84,113.4,297.1,Single-ply,SBD,M
Boys,74.84,29,Cody Stevenson,Hallsville,67.86,151.95,99.79,,251.74,Single-ply,SB,M
Boys,74.84,DQ,Tyler Price,Gladewater,68.22,,,,,Single-ply,SB,M
Boys,74.84,DQ,Dalton Huttman,Longview Spring Hill,72.57,,,,,Single-ply,SB,M
Boys,74.84,DQ,Gustavo Martinez,Price Carlisle,68.95,,,,,Single-ply,SB,M
Boys,82.1,1,Dakota Anthony,Longview,79.65,231.33,117.93,238.14,587.4,Single-ply,SBD,M
Boys,82.1,2,Cayden Ferrill,Hallsville,80.74,199.58,138.35,208.65,546.58,Single-ply,SBD,M
Boys,82.1,3,Beau Brewer,Diana New Diana,76.38,199.58,145.15,195.04,539.77,Single-ply,SBD,M
Boys,82.1,4,Zac Pistolis,Simms Bowie,76.93,204.12,124.74,204.12,532.97,Single-ply,SBD,M
Boys,82.1,5,Santos Gonzales,New London West Rusk,79.02,188.24,120.2,217.72,526.17,Single-ply,SBD,M
Boys,82.1,6,Roderick Boyd,Hallsville,81.56,190.51,122.47,188.24,501.22,Single-ply,SBD,M
Boys,82.1,7,Hunter Holland,Carthage,81.83,172.37,104.33,204.12,480.81,Single-ply,SBD,M
Boys,82.1,8,Rehan Tariq,Longview Spring Hill,78.93,172.37,124.74,174.63,471.74,Single-ply,SBD,M
Boys,82.1,9,Ashton Everret,Longview Spring Hill,77.11,176.9,117.93,170.1,464.93,Single-ply,SBD,M
Boys,82.1,10,Brandon Wesley,Diana New Diana,78.02,172.37,111.13,172.37,455.86,Single-ply,SBD,M
Boys,82.1,11,Jordan Conley,Gladewater Union Grove,76.2,183.7,102.06,158.76,444.52,Single-ply,SBD,M
Boys,82.1,12,Kanon Walker,Simms Bowie,77.93,149.69,106.59,183.7,439.98,Single-ply,SBD,M
Boys,82.1,13,Derek McCuller,Longview,79.11,170.1,92.99,172.37,435.45,Single-ply,SBD,M
Boys,89.81,14,Taylor Ligon,Diana New Diana,82.28,181.44,111.13,140.61,433.18,Single-ply,SBD,M
Boys,82.1,15,Bradley Crumpton,Simms Bowie,79.65,158.76,83.91,181.44,424.11,Single-ply,SBD,M
Boys,82.1,16,Rickey Ingram,Carthage,76.02,154.22,97.52,167.83,419.57,Single-ply,SBD,M
Boys,82.1,17,Bruce Wood,Elysian Fields,76.11,149.69,95.25,174.63,419.57,Single-ply,SBD,M
Boys,82.1,18,Clay Vance,Elysian Fields,79.47,147.42,86.18,165.56,399.16,Single-ply,SBD,M
Boys,82.1,19,Dallas Green,Longview Spring Hill,75.75,147.42,88.45,161.03,396.89,Single-ply,SBD,M
Boys,82.1,20,Tanner Norman,Elysian Fields,78.65,131.54,99.79,165.56,396.89,Single-ply,SBD,M
Boys,82.1,21,Dalton Martin,Hughes Springs,78.02,129.27,92.99,149.69,371.95,Single-ply,SBD,M
Boys,82.1,22,Alvaro Cashillo,Gladewater Sabine,77.2,131.54,86.18,151.95,369.68,Single-ply,SBD,M
Boys,82.1,23,Rusty Cogdill,Hallsville,79.38,102.06,90.72,167.83,360.61,Single-ply,SBD,M
Boys,82.1,24,Authur Kimmel,McLeod,80.65,115.67,86.18,158.76,360.61,Single-ply,SBD,M
Boys,82.1,25,Shadeaux Wynn,McLeod,78.93,117.93,86.18,154.22,358.34,Single-ply,SBD,M
Boys,82.1,26,Chris Ferguson,Longview Pine Tree,77.47,131.54,83.91,140.61,356.07,Single-ply,SBD,M
Boys,82.1,27,Tre Jackson,Tatum,75.3,113.4,113.4,102.06,328.85,Single-ply,SBD,M
Boys,82.1,28,Hunter Patterson,Diana New Diana,78.02,106.59,65.77,145.15,317.51,Single-ply,SBD,M
Boys,82.1,29,Alex Moullett,Jefferson,78.93,102.06,68.04,133.81,303.91,Single-ply,SBD,M
Boys,82.1,30,Larry Rogers,Hallsville,79.11,115.67,,,115.67,Single-ply,S,M
Boys,82.1,DQ,Colby Simmons,Elysian Fields,77.47,,,,,Single-ply,S,M
Boys,82.1,DQ,Rollen Roberson,Longview Pine Tree,80.29,,,,,Single-ply,S,M
Boys,89.81,1,Dekota Newson,Marshall,85.28,251.74,142.88,256.28,650.91,Single-ply,SBD,M
Boys,89.81,2,Dacoreyan Blankenship,Longview,83.1,238.14,117.93,238.14,594.21,Single-ply,SBD,M
Boys,89.81,3,Stephen Godwin,Hallsville,88.36,215.46,131.54,195.04,542.04,Single-ply,SBD,M
Boys,89.81,4,Papa Chism,Hughes Springs,87.27,192.78,102.06,167.83,462.66,Single-ply,SBD,M
Boys,89.81,5,Tamaris Shepard,Carthage,89.45,167.83,111.13,181.44,460.4,Single-ply,SBD,M
Boys,89.81,6,Baker Knight,Longview Spring Hill,86.09,151.95,90.72,181.44,424.11,Single-ply,SBD,M
Boys,89.81,7,David Dupler,Tatum,83.1,158.76,102.06,158.76,419.57,Single-ply,SBD,M
Boys,89.81,8,Laderion Johnson,Tatum,88.45,142.88,124.74,147.42,415.04,Single-ply,SBD,M
Boys,89.81,9,Jackson McCarty,Elysian Fields,86.64,136.08,97.52,172.37,405.97,Single-ply,SBD,M
Boys,89.81,10,Pedro Vargas,Price Carlisle,84.82,142.88,111.13,149.69,403.7,Single-ply,SBD,M
Boys,89.81,11,Cade Clinton,Carthage,89.36,136.08,95.25,140.61,371.95,Single-ply,SBD,M
Boys,89.81,12,Andrew Peterson,Tatum,89.36,142.88,79.38,147.42,369.68,Single-ply,SBD,M
Boys,89.81,13,Adrian Cruz,Hawkins,87.54,147.42,83.91,133.81,365.14,Single-ply,SBD,M
Boys,89.81,14,Jessie Harris,Laird Hill Leveretts Chapel,88.45,127.01,70.31,154.22,351.53,Single-ply,SBD,M
Boys,89.81,15,Mason Smith,White Oak,83.01,113.4,83.91,145.15,342.46,Single-ply,SBD,M
Boys,89.81,DQ,Alex Gavin,Nacogdoches,86.73,,,,,Single-ply,SBD,M
Boys,99.79,1,Caleb Brunham,Winona,97.07,249.48,142.88,204.12,596.47,Single-ply,SBD,M
Boys,99.79,2,Cory Dawson,Marshall,98.88,199.58,145.15,217.72,562.45,Single-ply,SBD,M
Boys,99.79,3,Xaiver Gordon,Nacogdoches,99.79,226.8,117.93,204.12,548.85,Single-ply,SBD,M
Boys,99.79,4,Joshua Talley,Marshall,92.99,181.44,138.35,204.12,523.9,Single-ply,SBD,M
Boys,99.79,5,Christian Williams,Longview,96.71,206.38,106.59,206.38,519.36,Single-ply,SBD,M
Boys,99.79,6,Adrain Zapata,Longview Spring Hill,99.34,195.04,104.33,206.38,505.76,Single-ply,SBD,M
Boys,99.79,7,Dyllan O'Neal,Hughes Springs,91.63,181.44,108.86,197.31,487.61,Single-ply,SBD,M
Boys,99.79,8,Cade Avant,Hughes Springs,92.9,185.97,117.93,170.1,474,Single-ply,SBD,M
Boys,99.79,9,Ethan Land,White Oak,97.79,185.97,122.47,161.03,469.47,Single-ply,SBD,M
Boys,99.79,10,Randal Hawkins,Simms Bowie,92.71,167.83,95.25,195.04,458.13,Single-ply,SBD,M
Boys,99.79,11,Kenny Andrews,Longview,97.25,151.95,124.74,181.44,458.13,Single-ply,SBD,M
Boys,99.79,12,Patrick Ryan,Gladewater Union Grove,99.7,204.12,95.25,158.76,458.13,Single-ply,SBD,M
Boys,99.79,13,Cody Duvall,Longview Spring Hill,97.52,181.44,92.99,151.95,426.38,Single-ply,SBD,M
Boys,99.79,14,Levontae Hicks,Longview,94.53,170.1,83.91,142.88,396.89,Single-ply,SBD,M
Boys,99.79,15,Tad Clark,Diana New Diana,96.62,149.69,86.18,149.69,385.55,Single-ply,SBD,M
Boys,99.79,16,Garrett Harvey,Carthage,98.7,142.88,97.52,145.15,385.55,Single-ply,SBD,M
Boys,109.77,17,James Davis,Hallsville,99.97,122.47,97.52,151.95,371.95,Single-ply,SBD,M
Boys,99.79,18,Cru Barnes,Diana New Diana,98.7,136.08,83.91,142.88,362.87,Single-ply,SBD,M
Boys,99.79,19,John Sartor,Hallsville,95.71,208.65,124.74,,333.39,Single-ply,SB,M
Boys,99.79,20,McKellar Karr,Diana New Diana,98.43,113.4,86.18,131.54,331.12,Single-ply,SBD,M
Boys,109.77,1,Warren Lemons,Longview,100.79,215.46,142.88,226.8,585.13,Single-ply,SBD,M
Boys,109.77,2,Thomas Reynolds,Marshall,104.33,226.8,136.08,213.19,576.06,Single-ply,SBD,M
Boys,109.77,3,Colton Byler,Mount Enterprise,104.69,217.72,120.2,199.58,537.51,Single-ply,SBD,M
Boys,109.77,4,Jeff Davis,White Oak,106.14,195.04,115.67,199.58,510.29,Single-ply,SBD,M
Boys,109.77,5,Dakota Hart,Carthage,101.15,197.31,113.4,192.78,503.49,Single-ply,SBD,M
Boys,109.77,6,Jabar Miller,Gladewater,108.5,199.58,108.86,190.51,498.95,Single-ply,SBD,M
Boys,109.77,7,Logan Walters,White Oak,107.05,165.56,104.33,195.04,464.93,Single-ply,SBD,M
Boys,109.77,8,Tyler Webb,Gladewater Union Grove,107.95,190.51,104.33,167.83,462.66,Single-ply,SBD,M
Boys,109.77,9,Josh Eppler,Jefferson,109.41,170.1,92.99,192.78,455.86,Single-ply,SBD,M
Boys,109.77,10,Michael Finnegan,Gladewater,104.96,192.78,99.79,158.76,451.32,Single-ply,SBD,M
Boys,109.77,11,Levi Wingate,New London West Rusk,108.05,136.08,113.4,172.37,421.84,Single-ply,SBD,M
Boys,109.77,12,Steven Merrell,White Oak,108.41,158.76,86.18,154.22,399.16,Single-ply,SBD,M
Boys,109.77,13,Deonte McKinney,Marshall,105.23,242.67,95.25,,337.93,Single-ply,SB,M
Boys,124.74,1,Jenson Jackson,Marshall,124.56,260.82,165.56,217.72,644.1,Single-ply,SBD,M
Boys,124.74,2,Donavon Webb,Longview,112.13,283.5,136.08,206.38,625.96,Single-ply,SBD,M
Boys,124.74+,3,Ryan Russell,Hughes Springs,124.92,226.8,149.69,204.12,580.6,Single-ply,SBD,M
Boys,124.74,4,Max Carmona,Gladewater,110.68,233.6,136.08,199.58,569.26,Single-ply,SBD,M
Boys,124.74,5,David Smith,Marshall,118.39,226.8,113.4,192.78,532.97,Single-ply,SBD,M
Boys,124.74,6,Austin Underbrink,Joaquin,121.47,199.58,136.08,179.17,514.83,Single-ply,SBD,M
Boys,124.74,7,Mitchell Kinman,Carthage,113.31,181.44,106.59,170.1,458.13,Single-ply,SBD,M
Boys,124.74,8,Bry Anderson,Carthage,116.12,158.76,111.13,142.88,412.77,Single-ply,SBD,M
Boys,124.74,9,Grant Worley,Longview Spring Hill,113.76,142.88,108.86,156.49,408.23,Single-ply,SBD,M
Boys,124.74,10,Elzie Hicks,Carthage,121.29,158.76,88.45,161.03,408.23,Single-ply,SBD,M
Boys,124.74,11,Jacob Bragg,Nacogdoches,117.48,142.88,97.52,165.56,405.97,Single-ply,SBD,M
Boys,124.74,12,Tristan Durden,Tatum,118.84,124.74,92.99,158.76,376.48,Single-ply,SBD,M
Boys,124.74,13,Justin Studtfeld,Gladewater,120.84,167.83,74.84,133.81,376.48,Single-ply,SBD,M
Boys,124.74,14,Darius Whiting,Tatum,112.94,113.4,83.91,124.74,322.05,Single-ply,SBD,M
Boys,124.74,15,Dexter Clough,Carthage,122.74,158.76,,,158.76,Single-ply,S,M
Boys,124.74,DQ,Josh Moore,New London West Rusk,113.4,,,,,Single-ply,S,M
Boys,124.74+,1,Ethan Perkins,Nacogdoches,127.01,328.85,181.44,281.23,791.52,Single-ply,SBD,M
Boys,124.74+,2,LaDarrion Anthony,Gladewater,126.73,254.01,136.08,217.72,607.81,Single-ply,SBD,M
Boys,124.74+,3,Mason Faber,White Oak,136.98,272.16,154.22,181.44,607.81,Single-ply,SBD,M
Boys,124.74+,4,James McTyre,Jefferson,129.36,185.97,129.27,192.78,508.02,Single-ply,SBD,M
Boys,124.74+,5,Andrew Deischler,Gladewater,125.83,170.1,92.99,183.7,446.79,Single-ply,SBD,M
Boys,124.74+,6,Brandon Barber,Elysian Fields,148.05,170.1,90.72,147.42,408.23,Single-ply,SBD,M
Boys,124.74+,7,Jeremey Wigington,Elysian Fields,127.37,190.51,131.54,,322.05,Single-ply,SB,M
Boys,124.74+,8,Sam Clark,Price Carlisle,130.18,176.9,92.99,,269.89,Single-ply,SB,M
Boys,124.74+,9,Larance Hale,Tatum,127.46,61.23,149.69,,210.92,Single-ply,SB,M
Boys,124.74+,DQ,Wesley Price,Waskom,135.71,,,,,Single-ply,SB,M
Boys,124.74+,DQ,Joshua Byrd,Marshall,133.81,,,,,Single-ply,SB,M
