Division,WeightClassKg,Place,Name,Team,BodyweightKg,Best3SquatKg,Best3BenchKg,Best3DeadliftKg,TotalKg,Equipment,Event,Sex
Girls,44.23,1,Lauren Aldape,Mercedes,42.86,111.13,49.9,122.47,283.5,Single-ply,SBD,F
Girls,44.23,2,Arielle Ruiz,Edcouch-Elsa,42.55,92.99,40.82,95.25,229.06,Single-ply,SBD,F
Girls,44.23,3,Lexi Davila,Brownsville Lopez,43.64,83.91,47.63,97.52,229.06,Single-ply,SBD,F
Girls,44.23,4,Elida Arregullin,PSJA North,43.82,81.65,36.29,90.72,208.65,Single-ply,SBD,F
Girls,44.23,5,Valeria Reyes,Edinburg Vela,43.05,83.91,43.09,70.31,197.31,Single-ply,SBD,F
Girls,44.23,6,Frida Rodriguez,Brownsville Pace,40.91,77.11,36.29,79.38,192.78,Single-ply,SBD,F
Girls,44.23,DQ,Amri Benitez,Rio Hondo,43.45,,,,,Single-ply,SBD,F
Girls,47.85,1,Janiece Uribe,Brownsville Hanna,47.22,133.81,56.7,129.27,319.78,Single-ply,SBD,F
Girls,47.85,2,Alexis Rivas,Brownsville Lopez,46.81,131.54,58.97,127.01,317.51,Single-ply,SBD,F
Girls,47.85,3,Aliana Richardson,Los Fresnos,45.99,120.2,56.7,133.81,310.71,Single-ply,SBD,F
Girls,47.85,4,Daniela Perez,Los Fresnos,46.63,117.93,63.5,122.47,303.91,Single-ply,SBD,F
Girls,47.85,5,Norma Vega,Brownsville Lopez,47.08,117.93,52.16,124.74,294.84,Single-ply,SBD,F
Girls,47.85,6,Valeria Perez,Weslaco East,47.26,113.4,45.36,102.06,260.82,Single-ply,SBD,F
Girls,47.85,7,Alyssa Tovar,Rio Hondo,45.18,92.99,54.43,108.86,256.28,Single-ply,SBD,F
Girls,47.85,8,Abby Silva,Edcouch-Elsa,45.9,97.52,40.82,113.4,251.74,Single-ply,SBD,F
Girls,47.85,9,Anahi Castro,PSJA North,47.63,99.79,47.63,95.25,242.67,Single-ply,SBD,F
Girls,47.85,10,Jonique Rodriguez,Brownsville Pace,46.36,88.45,47.63,102.06,238.14,Single-ply,SBD,F
Girls,47.85,11,Alysha Alvarez,Edinburg Vela,47.49,86.18,52.16,97.52,235.87,Single-ply,SBD,F
Girls,47.85,12,Xochitl Gamez,Edinburg Vela,44.95,83.91,52.16,92.99,229.06,Single-ply,SBD,F
Girls,47.85,13,Brittany Salcido,PSJA Memorial,47.13,79.38,45.36,95.25,219.99,Single-ply,SBD,F
Girls,47.85,14,Andrea Mendoza,Donna North,47.4,79.38,38.56,97.52,215.46,Single-ply,SBD,F
Girls,47.85,15,Zenaida Araujo,Brownsville Veterans Memorial,46.9,68.04,38.56,97.52,204.12,Single-ply,SBD,F
Girls,47.85,16,Dulce Ybanez,Edcouch-Elsa,45.45,92.99,29.48,79.38,201.85,Single-ply,SBD,F
Girls,47.85,17,Valeria Ledesma,PSJA North,47.17,70.31,40.82,88.45,199.58,Single-ply,SBD,F
Girls,47.85,18,Carolina Suarez,McAllen,47.08,77.11,31.75,74.84,183.7,Single-ply,SBD,F
Girls,47.85,19,Haley Leal,Edcouch-Elsa,47.72,72.57,29.48,77.11,179.17,Single-ply,SBD,F
Girls,47.85,20,Lillian Serrano,Edcouch-Elsa,45.45,72.57,29.48,70.31,172.37,Single-ply,SBD,F
Girls,47.85,21,Michelle Hernandez,Edcouch-Elsa,45.45,72.57,29.48,68.04,170.1,Single-ply,SBD,F
Girls,47.85,22,Nicole Birney,La Feria,46.9,63.5,22.68,65.77,151.95,Single-ply,SBD,F
Girls,47.85,DQ,Yaira Velez,Rio Hondo,46.63,,,,,Single-ply,SBD,F
Girls,51.94,1,Ale Escandon,Brownsville Hanna,50.44,133.81,65.77,124.74,324.32,Single-ply,SBD,F
Girls,51.94,2,Juliette Cantu,Edinburg Vela,51.26,131.54,70.31,120.2,322.05,Single-ply,SBD,F
Girls,51.94,3,Amanda Sanchez,Los Fresnos,50.85,127.01,58.97,124.74,310.71,Single-ply,SBD,F
Girls,51.94,4,Rebecca Rocha,Rio Hondo,50.62,120.2,56.7,129.27,306.17,Single-ply,SBD,F
Girls,51.94,5,Ianellie Aguilar,Los Fresnos,50.8,115.67,54.43,133.81,303.91,Single-ply,SBD,F
Girls,51.94,6,Stephanie Ray,Brownsville Veterans Memorial,51.17,117.93,47.63,124.74,290.3,Single-ply,SBD,F
Girls,51.94,7,Perla Hernandez,Brownsville Pace,49.9,115.67,56.7,115.67,288.03,Single-ply,SBD,F
Girls,51.94,8,Daphne Antu,PSJA North,50.35,104.33,47.63,113.4,265.35,Single-ply,SBD,F
Girls,51.94,9,Evelyn Hernandez,Weslaco East,49.03,106.59,36.29,108.86,251.74,Single-ply,SBD,F
Girls,51.94,10,Karen Olivo,Brownsville Pace,48.81,97.52,43.09,92.99,233.6,Single-ply,SBD,F
Girls,51.94,11,Jasmine Sanchez,Edcouch-Elsa,51.62,102.06,38.56,92.99,233.6,Single-ply,SBD,F
Girls,51.94,12,Sabrina Espinoza,McAllen,50.08,88.45,45.36,97.52,231.33,Single-ply,SBD,F
Girls,51.94,13,Daniela Echavaria,McAllen,50.17,86.18,45.36,95.25,226.8,Single-ply,SBD,F
Girls,51.94,14,Lesley Perez,Donna North,51.35,79.38,52.16,90.72,222.26,Single-ply,SBD,F
Girls,51.94,15,Brianna Gutierrez,Mercedes,51.21,81.65,38.56,97.52,217.72,Single-ply,SBD,F
Girls,51.94,16,Jolene Robles,Edcouch-Elsa,49.9,90.72,34.02,88.45,213.19,Single-ply,SBD,F
Girls,51.94,17,Noemi Adame,Brownsville Porter,48.99,70.31,31.75,102.06,204.12,Single-ply,SBD,F
Girls,51.94,18,Susan Ramirez,Brownsville Porter,48.99,74.84,31.75,70.31,176.9,Single-ply,SBD,F
Girls,51.94,19,Karla Allen,Brownsville Pace,48.53,61.23,24.95,79.38,165.56,Single-ply,SBD,F
Girls,51.94,20,Estrella Alonzo,Brownsville Porter,51.94,49.9,31.75,74.84,156.49,Single-ply,SBD,F
Girls,51.94,21,Monica Trevino,McAllen Rowe,50.35,47.63,34.02,58.97,140.61,Single-ply,SBD,F
Girls,51.94,DQ,Irali Cerda,Donna North,50.3,,,,,Single-ply,SBD,F
Girls,56.02,1,Bella Vargas,Los Fresnos,55.61,129.27,86.18,145.15,360.61,Single-ply,SBD,F
Girls,56.02,2,Audrey Olivarez,Edinburg Vela,55.2,120.2,74.84,124.74,319.78,Single-ply,SBD,F
Girls,56.02,3,Brianna Ruiz,Los Fresnos,55.16,129.27,56.7,124.74,310.71,Single-ply,SBD,F
Girls,56.02,4,Daesha Cano,PSJA North,54.7,122.47,61.23,124.74,308.44,Single-ply,SBD,F
Girls,56.02,5,Jenacy Avitia,Donna North,55.88,113.4,70.31,124.74,308.44,Single-ply,SBD,F
Girls,56.02,6,Carla Lopez,Brownsville Lopez,55.02,124.74,43.09,133.81,301.64,Single-ply,SBD,F
Girls,56.02,7,Kayla Medellin,San Benito,54.43,122.47,43.09,120.2,285.76,Single-ply,SBD,F
Girls,56.02,8,Shelsey Calvillo,Brownsville Hanna,53.07,106.59,47.63,115.67,269.89,Single-ply,SBD,F
Girls,56.02,9,Wendy Olivarez,Weslaco East,55.66,106.59,38.56,97.52,242.67,Single-ply,SBD,F
Girls,56.02,10,Kayla Trevino,Mercedes,55.2,102.06,34.02,102.06,238.14,Single-ply,SBD,F
Girls,56.02,11,Bianca Galindo,McAllen,54.43,86.18,45.36,92.99,224.53,Single-ply,SBD,F
Girls,56.02,12,Kaytlan Serna,McAllen,55.79,86.18,43.09,90.72,219.99,Single-ply,SBD,F
Girls,56.02,13,Jayda Medina,Edcouch-Elsa,55.97,102.06,34.02,83.91,219.99,Single-ply,SBD,F
Girls,56.02,14,Maritza Espinoza,Donna North,55.07,81.65,45.36,88.45,215.46,Single-ply,SBD,F
Girls,56.02,15,Mercedes Hernandez,PSJA Memorial,54.98,61.23,40.82,90.72,192.78,Single-ply,SBD,F
Girls,56.02,16,Vanessa Lucio,La Feria,53.98,45.36,24.95,79.38,149.69,Single-ply,SBD,F
Girls,56.02,DQ,Destiny Villa,Weslaco East,53.34,99.79,47.63,,,Single-ply,SBD,F
Girls,56.02,DQ,Danielle Rocha,Donna North,55.97,113.4,,,,Single-ply,SBD,F
Girls,60.1,1,Gabby Haylock,Brownsville Hanna,60.01,165.56,74.84,147.42,387.82,Single-ply,SBD,F
Girls,60.1,2,Katherine Hernandez,PSJA North,59.15,131.54,65.77,154.22,351.53,Single-ply,SBD,F
Girls,60.1,3,Steffi Olivarez,Edinburg Vela,58.29,136.08,68.04,133.81,337.93,Single-ply,SBD,F
Girls,60.1,4,Gabriella DeLaRosa,Edinburg Vela,58.74,142.88,65.77,124.74,333.39,Single-ply,SBD,F
Girls,60.1,5,Cassie Perez,San Benito,59.15,127.01,63.5,122.47,312.98,Single-ply,SBD,F
Girls,60.1,6,Paloma Mendiola,Brownsville Lopez,58.97,124.74,65.77,111.13,301.64,Single-ply,SBD,F
Girls,60.1,7,Aleiyah Mireles,San Benito,58.69,111.13,56.7,106.59,274.42,Single-ply,SBD,F
Girls,60.1,8,Mireya Martinez,PSJA Memorial,59.6,99.79,58.97,113.4,272.16,Single-ply,SBD,F
Girls,60.1,9,Janice Fan,Weslaco East,56.84,104.33,45.36,117.93,267.62,Single-ply,SBD,F
Girls,60.1,10,Susan Jaramillo,PSJA Memorial,59.15,97.52,47.63,111.13,256.28,Single-ply,SBD,F
Girls,60.1,11,Leanna Gonzalez,Rio Hondo,59.33,102.06,47.63,102.06,251.74,Single-ply,SBD,F
Girls,60.1,12,Cassandra Vargas,PSJA North,57.97,99.79,45.36,102.06,247.21,Single-ply,SBD,F
Girls,60.1,13,Kendra Laguera,Port Isabel,56.61,83.91,47.63,102.06,233.6,Single-ply,SBD,F
Girls,60.1,14,Jacqueline Rios,McAllen Rowe,57.7,70.31,43.09,92.99,206.38,Single-ply,SBD,F
Girls,60.1,DQ,Kimberly Ramos,Donna North,59.1,90.72,,,,Single-ply,SBD,F
Girls,67.36,1,Andrea Ramirez,Rio Hondo,63.41,183.7,102.06,154.22,439.98,Single-ply,SBD,F
Girls,67.36,2,Alexandra Chavez,Brownsville Hanna,66.32,190.51,92.99,151.95,435.45,Single-ply,SBD,F
Girls,67.36,3,Lorena Martinez,Los Fresnos,66,174.63,74.84,167.83,417.3,Single-ply,SBD,F
Girls,67.36,4,Marisol Pulido,Brownsville Lopez,66.36,167.83,74.84,170.1,412.77,Single-ply,SBD,F
Girls,67.36,5,Victoria Ortega,Rio Hondo,61.42,170.1,77.11,133.81,381.02,Single-ply,SBD,F
Girls,67.36,6,Lizeth De La Fuente,Brownsville Lopez,64.55,158.76,61.23,154.22,374.21,Single-ply,SBD,F
Girls,67.36,7,Amanda Olivarez,Donna North,65.05,140.61,77.11,140.61,358.34,Single-ply,SBD,F
Girls,67.36,8,Franchesca Sandoval,Port Isabel,66.59,156.49,68.04,127.01,351.53,Single-ply,SBD,F
Girls,67.36,9,Val Reyes,Brownsville Hanna,64.05,147.42,65.77,124.74,337.93,Single-ply,SBD,F
Girls,67.36,10,Sophia Torres,Los Fresnos,65.32,124.74,52.16,154.22,331.12,Single-ply,SBD,F
Girls,67.36,11,Deandra Flores,Edinburg Vela,61.33,115.67,70.31,136.08,322.05,Single-ply,SBD,F
Girls,67.36,12,Kassidy Sanchez,Mercedes,62.37,117.93,54.43,138.35,310.71,Single-ply,SBD,F
Girls,67.36,13,Ashley Tumlinson,Los Fresnos,64.86,115.67,58.97,133.81,308.44,Single-ply,SBD,F
Girls,67.36,14,Keiry Miller,PSJA North,64.59,111.13,58.97,129.27,299.37,Single-ply,SBD,F
Girls,67.36,15,Julianna Barrera,Port Isabel,61.33,106.59,70.31,117.93,294.84,Single-ply,SBD,F
Girls,67.36,16,Isabella Contreras,McAllen,64.68,120.2,61.23,108.86,290.3,Single-ply,SBD,F
Girls,67.36,17,Josie Munoz,Weslaco East,65.09,120.2,56.7,102.06,278.96,Single-ply,SBD,F
Girls,67.36,18,Santy Villea,PSJA North,66.68,108.86,49.9,120.2,278.96,Single-ply,SBD,F
Girls,67.36,19,Cecilia Delgado,Brownsville Veterans Memorial,64.41,97.52,43.09,108.86,249.48,Single-ply,SBD,F
Girls,67.36,20,Natalia Marquez,Mercedes,63.32,97.52,38.56,99.79,235.87,Single-ply,SBD,F
Girls,67.36,21,Laura Gomez,PSJA Memorial,62.6,97.52,27.22,97.52,222.26,Single-ply,SBD,F
Girls,67.36,22,Stephanie Reyes,La Feria,65.14,95.25,40.82,83.91,219.99,Single-ply,SBD,F
Girls,67.36,23,Melanie Rodriguez,Brownsville Veterans Memorial,64.05,88.45,36.29,92.99,217.72,Single-ply,SBD,F
Girls,67.36,24,Raven Dena,Mercedes,64.95,68.04,34.02,95.25,197.31,Single-ply,SBD,F
Girls,67.36,DQ,Destiny Lazcano,Edcouch-Elsa,62.41,136.08,,,,Single-ply,SBD,F
Girls,67.36,DQ,Julissa Guerrero,Edcouch-Elsa,65.59,,,,,Single-ply,SBD,F
Girls,67.36,NS,Julissa Zuniga,San Benito,,,,,,Single-ply,SBD,F
Girls,67.36,DQ,Virginia Galvan,La Feria,65.41,,,,,Single-ply,SBD,F
Girls,75.07,1,LeAnn Ramirez,San Benito,74.03,176.9,106.59,165.56,449.06,Single-ply,SBD,F
Girls,75.07,2,Paola Espinoza,Weslaco East,74.48,165.56,88.45,165.56,419.57,Single-ply,SBD,F
Girls,75.07,3,Alexis Alaniz,Brownsville Hanna,71.21,151.95,65.77,129.27,347,Single-ply,SBD,F
Girls,75.07,4,Destany Guzman,Edinburg Vela,73.75,124.74,79.38,142.88,347,Single-ply,SBD,F
Girls,75.07,5,Priscilla Acosta,McAllen Rowe,73.84,145.15,74.84,120.2,340.19,Single-ply,SBD,F
Girls,75.07,6,Mary Jane Maldonado,Los Fresnos,67.49,120.2,72.57,142.88,335.66,Single-ply,SBD,F
Girls,75.07,7,Terry Hernandez,Brownsville Lopez,72.08,129.27,63.5,136.08,328.85,Single-ply,SBD,F
Girls,75.07,8,Virginia Watkins,Edinburg Vela,73.21,124.74,68.04,133.81,326.59,Single-ply,SBD,F
Girls,75.07,9,Jozlyn Lara,Edcouch-Elsa,71.21,145.15,61.23,124.74,331.12,Single-ply,SBD,F
Girls,75.07,10,Jaslyn Olivarez,McAllen,71.94,124.74,65.77,113.4,303.91,Single-ply,SBD,F
Girls,75.07,11,Victoria Trevino,PSJA Memorial,72.57,122.47,61.23,117.93,301.64,Single-ply,SBD,F
Girls,75.07,12,Mackenzie Contreras,Edcouch-Elsa,73.94,131.54,61.23,108.86,301.64,Single-ply,SBD,F
Girls,75.07,13,Ary Ruiz,Brownsville Hanna,71.71,129.27,56.7,111.13,297.1,Single-ply,SBD,F
Girls,75.07,14,Teresa Rodriguez,PSJA North,69.4,115.67,54.43,122.47,292.57,Single-ply,SBD,F
Girls,75.07,15,Mikaela Snyder,Port Isabel,72.94,115.67,56.7,111.13,283.5,Single-ply,SBD,F
Girls,75.07,16,Brittany Barrera,Brownsville Porter,68.86,106.59,61.23,108.86,276.69,Single-ply,SBD,F
Girls,75.07,17,Ashley Pena,PSJA Memorial,71.35,111.13,49.9,108.86,269.89,Single-ply,SBD,F
Girls,75.07,18,Mia Murphy,McAllen Rowe,68.31,92.99,54.43,104.33,251.74,Single-ply,SBD,F
Girls,75.07,19,Alyssa de la Garza,McAllen Rowe,69.85,97.52,52.16,88.45,238.14,Single-ply,SBD,F
Girls,75.07,20,Monica Salgado,Brownsville Pace,72.39,111.13,38.56,88.45,238.14,Single-ply,SBD,F
Girls,75.07,21,Julissa Guerrero,Brownsville Porter,69.85,83.91,49.9,90.72,224.53,Single-ply,SBD,F
Girls,75.07,22,Gabby Torres,La Feria,69.94,68.04,34.02,90.72,192.78,Single-ply,SBD,F
Girls,75.07,DQ,Lizbeth Rodriguez,Edcouch-Elsa,71.76,102.06,,,,Single-ply,SBD,F
Girls,75.07,DQ,Arianna Segura,Edcouch-Elsa,74.84,133.81,,,,Single-ply,SBD,F
Girls,82.33,1,Jesed Castro,Los Fresnos,80.83,217.72,113.4,172.37,503.49,Single-ply,SBD,F
Girls,82.33,2,Alyssa Juarez,Weslaco East,79.06,158.76,79.38,133.81,371.95,Single-ply,SBD,F
Girls,82.33,3,Jessica Saenz,Donna North,76.66,142.88,74.84,142.88,360.61,Single-ply,SBD,F
Girls,82.33,4,Katherine Garza,Edinburg Vela,,133.81,86.18,133.81,353.8,Single-ply,SBD,F
Girls,82.33,5,Adriana Valerio,Brownsville Pace,79.38,136.08,65.77,131.54,333.39,Single-ply,SBD,F
Girls,82.33,6,Anyssa Barrientes,Rio Hondo,81.19,124.74,56.7,147.42,328.85,Single-ply,SBD,F
Girls,82.33,7,Madelyne McKinney,Brownsville Veterans Memorial,79.02,115.67,65.77,142.88,324.32,Single-ply,SBD,F
Girls,82.33,8,Jocelyne Serrato,Brownsville Porter,81.33,117.93,56.7,129.27,303.91,Single-ply,SBD,F
Girls,82.33,9,Natalie Maldonado,PSJA Memorial,77.93,88.45,49.9,97.52,235.87,Single-ply,SBD,F
Girls,82.33,10,Ruby Martinez,PSJA Memorial,81.19,81.65,45.36,92.99,219.99,Single-ply,SBD,F
Girls,82.33,11,Maura Castillo,Brownsville Porter,81.51,81.65,27.22,95.25,204.12,Single-ply,SBD,F
Girls,82.33,12,Jewely Rivera,La Villa,80.97,77.11,40.82,79.38,197.31,Single-ply,SBD,F
Girls,82.33,13,Cynthia Saldivar,McAllen Rowe,75.3,63.5,27.22,72.57,163.29,Single-ply,SBD,F
Girls,82.33,DQ,Samantha Soto,PSJA Memorial,78.02,,,,,Single-ply,SBD,F
Girls,82.33,DQ,Mariana Chavez,McAllen Rowe,75.3,63.5,,,,Single-ply,SBD,F
Girls,90.04,1,Angeline Young,Edinburg Vela,85.46,161.03,99.79,145.15,405.97,Single-ply,SBD,F
Girls,90.04,2,Destinee Perez,Mercedes,88.13,140.61,61.23,140.61,342.46,Single-ply,SBD,F
Girls,90.04,3,Elexa Silva,Brownsville Pace,88.45,102.06,79.38,142.88,324.32,Single-ply,SBD,F
Girls,90.04,4,Kassandra Rodriguez,McAllen,84.64,131.54,58.97,108.86,299.37,Single-ply,SBD,F
Girls,90.04,5,Jalycia Green,Mercedes,87.09,122.47,52.16,124.74,299.37,Single-ply,SBD,F
Girls,90.04,6,Tiffani Gonzalez,Donna North,89.9,111.13,68.04,113.4,292.57,Single-ply,SBD,F
Girls,90.04,7,Zelyn de la Cruz,La Feria,85.64,74.84,43.09,113.4,231.33,Single-ply,SBD,F
Girls,90.04,8,Giovanni Rodriguez,McAllen,88.36,68.04,54.43,83.91,206.38,Single-ply,SBD,F
Girls,90.04,DQ,Amber Gaytan,Brownsville Hanna,88.81,,,,,Single-ply,SBD,F
Girls,90.04,DQ,Victoria Olivarez,Santa Rosa,87.54,79.38,,,,Single-ply,SBD,F
Girls,90.04,DQ,Caroline Hernandez,San Benito,86,120.2,65.77,,,Single-ply,SBD,F
Girls,90.04,DQ,Litzy Cantu,Brownsville Veterans Memorial,86.36,,,,,Single-ply,SBD,F
Girls,90.04,DQ,Victoria Hernandez,McAllen,87.09,,,,,Single-ply,SBD,F
Girls,100.02,1,Julieann Delgado,Brownsville Lopez,99.02,195.04,92.99,188.24,476.27,Single-ply,SBD,F
Girls,100.02,2,Carolina De Leon,Weslaco East,92.99,183.7,81.65,161.03,426.38,Single-ply,SBD,F
Girls,100.02,3,Amanda Garcia,Brownsville Hanna,99.7,179.17,79.38,151.95,410.5,Single-ply,SBD,F
Girls,100.02,4,Justine Guerrero,Edcouch-Elsa,99.06,172.37,72.57,147.42,392.36,Single-ply,SBD,F
Girls,100.02,5,Yasmine Perez,La Feria,95.16,156.49,72.57,154.22,383.29,Single-ply,SBD,F
Girls,100.02,6,Sadie Granados,Edcouch-Elsa,92.08,158.76,65.77,149.69,374.21,Single-ply,SBD,F
Girls,100.02,7,Brandy Gonzalez,Rio Hondo,98.43,158.76,63.5,124.74,347,Single-ply,SBD,F
Girls,100.02,8,Lisa Zuniga,Rio Hondo,96.8,142.88,61.23,133.81,337.93,Single-ply,SBD,F
Girls,100.02,9,Damarys Salazar,Donna North,99.06,113.4,81.65,136.08,331.12,Single-ply,SBD,F
Girls,100.02,10,Argentina Garcia,La Villa,93.44,138.35,54.43,124.74,317.51,Single-ply,SBD,F
Girls,100.02,11,Summer Castro,Lyford,97.16,120.2,63.5,127.01,310.71,Single-ply,SBD,F
Girls,100.02,12,Casey Najar,Rio Hondo,93.35,120.2,56.7,124.74,301.64,Single-ply,SBD,F
Girls,100.02,13,Landry Munoz,Weslaco East,90.72,133.81,56.7,108.86,299.37,Single-ply,SBD,F
Girls,100.02,14,Ianelly Garza,Brownsville Porter,90.58,122.47,49.9,104.33,276.69,Single-ply,SBD,F
Girls,100.02,15,Priscilla Tovar,Lyford,94.44,92.99,63.5,115.67,272.16,Single-ply,SBD,F
Girls,100.02,DQ,Audrey Martinez,Port Isabel,92.17,,,,,Single-ply,SBD,F
Girls,117.71,1,Crystal Hernandez,PSJA North,112.31,176.9,115.67,167.83,460.4,Single-ply,SBD,F
Girls,117.71,2,Joy Perez,Brownsville Hanna,116.48,195.04,88.45,138.35,421.84,Single-ply,SBD,F
Girls,117.71,3,Miranda Lopez,Edcouch-Elsa,105.96,165.56,79.38,131.54,376.48,Single-ply,SBD,F
Girls,117.71,4,Jazzmine Barrera,Edcouch-Elsa,105.05,149.69,81.65,113.4,344.73,Single-ply,SBD,F
Girls,117.71,5,Rene Almazan,Brownsville Porter,102.51,131.54,63.5,124.74,319.78,Single-ply,SBD,F
Girls,117.71,6,Brittany Lozano,Brownsville Hanna,108.59,140.61,45.36,124.74,310.71,Single-ply,SBD,F
Girls,117.71,7,Kim Rojas,Mercedes,117.25,115.67,43.09,142.88,301.64,Single-ply,SBD,F
Girls,117.71,8,Desiree Perez,La Feria,102.87,113.4,61.23,117.93,292.57,Single-ply,SBD,F
Girls,117.71,9,Angelica Lozano,McAllen Rowe,103.69,104.33,61.23,122.47,288.03,Single-ply,SBD,F
Girls,117.71,10,Kassandra Moreno,Brownsville Pace,100.61,102.06,49.9,111.13,263.08,Single-ply,SBD,F
Girls,117.71,11,Amanda Perez,La Villa,101.15,104.33,40.82,102.06,247.21,Single-ply,SBD,F
Girls,117.71+,1,Melissa Morales,Weslaco East,125.19,226.8,113.4,181.44,521.63,Single-ply,SBD,F
Girls,117.71+,2,Jasmine Sanchez,La Villa,126.1,145.15,63.5,147.42,356.07,Single-ply,SBD,F
Girls,117.71+,3,Fany Ramirez,Brownsville Porter,127.01,95.25,52.16,102.06,249.48,Single-ply,SBD,F
Girls,117.71+,DQ,Victoria Cardenas,Brownsville Pace,130.54,,,,,Single-ply,SBD,F
