Division,WeightClassKg,Place,Name,Team,BodyweightKg,Best3SquatKg,Best3BenchKg,Best3DeadliftKg,TotalKg,Equipment,Event,Sex
Boys,51.71,1,Corbin Strain,Pattonville Prairiland,51.71,102.06,68.04,111.13,281.23,Single-ply,SBD,M
Boys,59.87,1,Ben Harris,Queen City,58.06,129.27,95.25,149.69,374.21,Single-ply,SBD,M
Boys,59.87,2,Caleb Ashley,Paris Chisum,59.87,129.27,90.72,145.15,365.14,Single-ply,SBD,M
Boys,59.87,3,Kole Barrentine,Pattonville Prairiland,56.25,97.52,74.84,136.08,308.44,Single-ply,SBD,M
Boys,59.87,4,Joel Ibarra,Paris Chisum,58.06,111.13,70.31,120.2,301.64,Single-ply,SBD,M
Boys,59.87,5,Abel Moreno,Pattonville Prairiland,58.97,113.4,61.23,127.01,301.64,Single-ply,SBD,M
Boys,67.13,1,Gage Dollins,Paris Chisum,64.41,195.04,122.47,199.58,517.1,Single-ply,SBD,M
Boys,67.13,2,Jason Jackson,De Kalb,65.77,170.1,111.13,174.63,455.86,Single-ply,SBD,M
Boys,67.13,3,Colton Danna,Pattonville Prairiland,67.13,158.76,124.74,170.1,453.59,Single-ply,SBD,M
Boys,67.13,4,Drake Moore,Queen City,64.86,124.74,,142.88,267.62,Single-ply,SD,M
Boys,74.84,1,John Wims,Detroit,74.39,199.58,133.81,199.58,532.97,Single-ply,SBD,M
Boys,74.84,2,Dillon Kizey,De Kalb,73.94,151.95,102.06,170.1,424.11,Single-ply,SBD,M
Boys,74.84,3,James Smith,Bogata Rivercrest,67.59,158.76,86.18,163.29,408.23,Single-ply,SBD,M
Boys,74.84,4,Tj Stagner,Queen City,69.85,138.35,79.38,161.03,378.75,Single-ply,SBD,M
Boys,82.1,1,Arie Love,De Kalb,76.2,158.76,83.91,170.1,412.77,Single-ply,SBD,M
Boys,82.1,2,Trentyn Ortega,Paris Chisum,80.29,142.88,90.72,161.03,394.63,Single-ply,SBD,M
Boys,82.1,3,Dalton Worthy,Paris Chisum,81.19,133.81,81.65,161.03,376.48,Single-ply,SBD,M
Boys,82.1,4,Dante Barnes,Cooper,80.74,111.13,88.45,151.95,351.53,Single-ply,SBD,M
Boys,82.1,5,Trevor Gillam,Paris Chisum,77.79,111.13,86.18,138.35,335.66,Single-ply,SBD,M
Boys,82.1,DQ,Shane Douglas,Pattonville Prairiland,75.75,,,,,Single-ply,SBD,M
Boys,89.81,1,Morgan Landreth,Pattonville Prairiland,86.18,260.82,151.95,238.14,650.91,Single-ply,SBD,M
Boys,89.81,2,José Cortés,Pattonville Prairiland,87.54,147.42,102.06,138.35,387.82,Single-ply,SBD,M
Boys,89.81,3,Brian Chavez,Clarksville,88.45,113.4,79.38,151.95,344.73,Single-ply,SBD,M
Boys,89.81,4,Wesley Estes,Paris Chisum,89.81,104.33,92.99,133.81,331.12,Single-ply,SBD,M
Boys,89.81,5,Mark Wheeler,Clarksville,88.9,90.72,79.38,145.15,315.25,Single-ply,SBD,M
Boys,99.79,1,Trent Croke,Detroit,98.88,215.46,136.08,219.99,571.53,Single-ply,SBD,M
Boys,99.79,2,Garrison McKinnie,De Kalb,96.62,195.04,138.35,192.78,526.17,Single-ply,SBD,M
Boys,99.79,3,Dakota Kizer,De Kalb,98.43,197.31,124.74,192.78,514.83,Single-ply,SBD,M
Boys,99.79,4,Adam Bean,Detroit,99.11,199.58,102.06,192.78,494.42,Single-ply,SBD,M
Boys,99.79,5,Kody Nichols,Queen City,93.89,158.76,111.13,170.1,439.98,Single-ply,SBD,M
Boys,99.79,6,Quentin JacksonIII,Clarksville,90.49,,90.72,158.76,249.48,Single-ply,BD,M
Boys,109.77,1,Dalton Howell,Queen City,107.95,192.78,113.4,204.12,510.29,Single-ply,SBD,M
Boys,109.77,2,Daniel Keene,Queen City,100.7,204.12,113.4,181.44,498.95,Single-ply,SBD,M
Boys,109.77,3,Tyrell Hobbs,Clarksville,105.23,181.44,122.47,188.24,492.15,Single-ply,SBD,M
Boys,109.77,4,Logan Hawkins,Paris Chisum,106.14,120.2,83.91,133.81,337.93,Single-ply,SBD,M
Boys,124.74,1,Christian Little,Queen City,121.11,233.6,136.08,249.48,619.15,Single-ply,SBD,M
Boys,124.74,2,Chase Dillard,Paris Chisum,110.22,136.08,79.38,165.56,381.02,Single-ply,SBD,M
