Division,WeightClassKg,Place,Name,Team,BodyweightKg,Best3SquatKg,Best3BenchKg,Best3DeadliftKg,TotalKg,Equipment,Event,Sex
Boys,51.71,1,Josh Nowlin,San Antonio East Central,51.35,154.22,97.52,158.76,410.5,Single-ply,SBD,M
Boys,51.71,2,Justin Davis,Buda Hays,50.35,142.88,97.52,154.22,394.63,Single-ply,SBD,M
Boys,51.71,3,Ray Landry,Del Valle,51.62,120.2,72.57,138.35,331.12,Single-ply,SBD,M
Boys,51.71,4,Mario Maciel,Lockhart,51.44,92.99,70.31,124.74,288.03,Single-ply,SBD,M
Boys,51.71,5,Mikey Gomez,Kyle Lehman,49.99,86.18,54.43,120.2,260.82,Single-ply,SBD,M
Boys,51.71,6,Jonathan Bencomo,San Marcos,51.17,102.06,45.36,108.86,256.28,Single-ply,SBD,M
Boys,51.71,7,Jacob Villerreal,Gonzales,51.07,104.33,45.36,95.25,244.94,Single-ply,SBD,M
Boys,55.79,8,Austin Hay,Dripping Springs,51.89,79.38,47.63,102.06,229.06,Single-ply,SBD,M
Boys,51.71,DQ,Brian Villerreal,Geronimo Navarro,51.71,,,,,Single-ply,SBD,M
Boys,51.71,DQ,Dylan Adams,Lockhart,50.17,88.45,,,,Single-ply,SBD,M
Boys,55.79,1,Josh Estrada,Gonzales,54.52,154.22,102.06,147.42,403.7,Single-ply,SBD,M
Boys,55.79,2,JoRey Gonzales,Elgin,53.89,142.88,86.18,161.03,390.09,Single-ply,SBD,M
Boys,59.87,3,Celestino Hernandez,Del Valle,55.97,156.49,81.65,136.08,374.21,Single-ply,SBD,M
Boys,55.79,4,Blake Alford,Kyle Lehman,55.07,131.54,,163.29,294.84,Single-ply,SD,M
Boys,55.79,5,Brandon Deleon,Kyle Lehman,54.34,131.54,77.11,,208.65,Single-ply,SB,M
Boys,59.87,6,Alex Palomo,Luling,55.97,127.01,70.31,127.01,324.32,Single-ply,SBD,M
Boys,55.79,DQ,Nate Alvarado,Buda Hays,55.79,,,,,Single-ply,SBD,M
Boys,55.79,DQ,Justin Lara,Buda Hays,55.61,131.54,,,,Single-ply,SBD,M
Boys,55.79,DQ,Thomas Mascorro,San Marcos,54.48,185.97,,,,Single-ply,SBD,M
Boys,59.87,1,Mauricio Galarza,San Antonio East Central,59.24,158.76,92.99,154.22,405.97,Single-ply,SBD,M
Boys,59.87,2,Tyler Wells,Gonzales,59.87,158.76,77.11,163.29,399.16,Single-ply,SBD,M
Boys,59.87,3,Josh Bedolla,Elgin,59.06,140.61,92.99,161.03,394.63,Single-ply,SBD,M
Boys,59.87,4,Courtney Anderson,San Marcos,58.33,147.42,88.45,147.42,383.29,Single-ply,SBD,M
Boys,59.87,5,Dalton Couch,Gonzales,59.42,145.15,79.38,158.76,383.29,Single-ply,SBD,M
Boys,59.87,6,Alvin Martinez,Del Valle,59.33,147.42,74.84,158.76,381.02,Single-ply,SBD,M
Boys,67.13,7,Braden Abercrombie,Del Valle,60.06,151.95,77.11,145.15,374.21,Single-ply,SBD,M
Boys,59.87,8,Anthony Holguin,San Marcos,57.97,133.81,81.65,154.22,369.68,Single-ply,SBD,M
Boys,59.87,9,Ellis Perry,Lockhart,56.97,111.13,70.31,127.01,308.44,Single-ply,SBD,M
Boys,59.87,10,Cameron Adams,Lockhart,57.7,108.86,63.5,115.67,288.03,Single-ply,SBD,M
Boys,67.13,1,David Taylor,College Station A&M Cons,65.41,183.7,104.33,197.31,485.34,Single-ply,SBD,M
Boys,67.13,2,Mason Salinas,Buda Hays,66.04,172.37,104.33,172.37,449.06,Single-ply,SBD,M
Boys,67.13,3,Joey Alvarez,Kyle Lehman,65.23,158.76,86.18,165.56,410.5,Single-ply,SBD,M
Boys,74.84,4,Daniel Simpson,Austin Lake Travis,67.22,136.08,88.45,165.56,390.09,Single-ply,SBD,M
Boys,67.13,5,Cody Patterson,Bastrop Cedar Creek,64.5,127.01,72.57,145.15,344.73,Single-ply,SBD,M
Boys,67.13,6,Steven Gallis,Dripping Springs,64.05,117.93,68.04,142.88,328.85,Single-ply,SBD,M
Boys,74.84,7,Marshall Gutierrez,Lockhart,67.31,102.06,65.77,138.35,306.17,Single-ply,SBD,M
Boys,67.13,DQ,Albian Leyva,San Marcos,67.13,,,,,Single-ply,SBD,M
Boys,67.13,DQ,Collin Anderson,San Marcos,66.81,161.03,97.52,,,Single-ply,SBD,M
Boys,67.13,DQ,Elvis Benitez,San Antonio East Central,65.86,,65.77,,,Single-ply,SBD,M
Boys,67.13,DQ,Eric Horton,Del Valle,67.13,183.7,,,,Single-ply,SBD,M
Boys,67.13,DQ,Quin Green,College Station A&M Cons,62.78,136.08,,,,Single-ply,SBD,M
Boys,67.13,DQ,Geoff Ali,Pflugerville Hendrickson,65.32,147.42,,,,Single-ply,SBD,M
Boys,74.84,1,Josh Sherwood,San Antonio East Central,72.57,199.58,131.54,229.06,560.19,Single-ply,SBD,M
Boys,74.84,DQ,Reggie Davis,College Station A&M Cons,69.58,,,,,Single-ply,SBD,M
Boys,74.84,3,Paul Brown,Kyle Lehman,68.22,195.04,102.06,,297.1,Single-ply,SB,M
Boys,74.84,4,Blake Lisby,Austin Lake Travis,74.66,172.37,102.06,174.63,449.06,Single-ply,SBD,M
Boys,74.84,5,Tahz Maloy,Pflugerville Hendrickson,67.99,151.95,104.33,172.37,428.64,Single-ply,SBD,M
Boys,74.84,6,Nick Tamez,Kyle Lehman,72.03,136.08,99.79,183.7,419.57,Single-ply,SBD,M
Boys,74.84,7,Robert Hernandez,San Marcos,74.84,156.49,86.18,167.83,410.5,Single-ply,SBD,M
Boys,74.84,8,Philip Wilson,Pflugerville Hendrickson,73.12,163.29,92.99,151.95,408.23,Single-ply,SBD,M
Boys,74.84,9,Tavaris Young,College Station A&M Cons,73.57,161.03,83.91,163.29,408.23,Single-ply,SBD,M
Boys,74.84,10,Garret Draper,Austin Lake Travis,73.94,172.37,83.91,151.95,408.23,Single-ply,SBD,M
Boys,74.84,11,Jordan Williams,Pflugerville Hendrickson,70.76,142.88,92.99,163.29,399.16,Single-ply,SBD,M
Boys,74.84,12,Gunner Brown,Lockhart,74.75,138.35,81.65,174.63,394.63,Single-ply,SBD,M
Boys,74.84,13,Keshawn Somerville,Pflugerville Hendrickson,68.76,138.35,83.91,156.49,378.75,Single-ply,SBD,M
Boys,74.84,14,Daniel Anderson,Elgin,72.85,129.27,90.72,151.95,371.95,Single-ply,SBD,M
Boys,74.84,15,Joel Hinojosa,San Marcos,70.03,131.54,70.31,142.88,344.73,Single-ply,SBD,M
Boys,74.84,16,Joe Martella,Geronimo Navarro,73.3,124.74,68.04,142.88,335.66,Single-ply,SBD,M
Boys,74.84,17,Robert Holguin,San Marcos,72.67,129.27,70.31,133.81,333.39,Single-ply,SBD,M
Boys,74.84,DQ,Weston Murray,Dripping Springs,74.84,,,,,Single-ply,SBD,M
Boys,74.84,DQ,Nick Mason,Pflugerville Hendrickson,68.31,,,,,Single-ply,SBD,M
Boys,82.1,1,Michael Davis,San Antonio East Central,81.28,249.48,129.27,247.21,625.96,Single-ply,SBD,M
Boys,82.1,2,Jay Leal,Geronimo Navarro,80.01,201.85,113.4,229.06,544.31,Single-ply,SBD,M
Boys,82.1,3,DJ Gonzales,Gonzales,78.56,213.19,113.4,204.12,530.7,Single-ply,SBD,M
Boys,82.1,4,Jaime Tellez,Gonzales,79.56,208.65,106.59,210.92,526.17,Single-ply,SBD,M
Boys,82.1,5,Devin Jennings,Buda Hays,76.29,190.51,122.47,208.65,521.63,Single-ply,SBD,M
Boys,82.1,6,Jacob Flores,San Marcos,81.74,199.58,133.81,183.7,517.1,Single-ply,SBD,M
Boys,82.1,7,Chuky Ojiyi,Pflugerville Hendrickson,75.93,192.78,113.4,181.44,487.61,Single-ply,SBD,M
Boys,82.1,8,Orlando Perez,Elgin,79.83,174.63,120.2,183.7,478.54,Single-ply,SBD,M
Boys,82.1,9,AJ Camacho,Hondo,80.74,204.12,106.59,167.83,478.54,Single-ply,SBD,M
Boys,82.1,10,Eddie Gonzalez,Gonzales,81.01,174.63,108.86,190.51,474,Single-ply,SBD,M
Boys,82.1,11,Ian Freedman,Austin Lake Travis,81.56,158.76,102.06,199.58,460.4,Single-ply,SBD,M
Boys,82.1,12,Kevin Sporher,Austin Lake Travis,76.11,174.63,102.06,176.9,453.59,Single-ply,SBD,M
Boys,82.1,13,Clint Cantu,Luling,81.1,165.56,102.06,183.7,451.32,Single-ply,SBD,M
Boys,82.1,14,Austin Isaac,Geronimo Navarro,75.39,167.83,97.52,176.9,442.25,Single-ply,SBD,M
Boys,82.1,15,Josh Trevino,Luling,82.1,165.56,83.91,183.7,433.18,Single-ply,SBD,M
Boys,82.1,16,Marcos Johnson,Lockhart,81.37,158.76,92.99,174.63,426.38,Single-ply,SBD,M
Boys,82.1,17,Joseph Fringel,Austin Lake Travis,81.01,136.08,102.06,158.76,396.89,Single-ply,SBD,M
Boys,82.1,18,Josh Brown,Pflugerville Hendrickson,77.66,138.35,83.91,151.95,374.21,Single-ply,SBD,M
Boys,82.1,19,Austin Miller,Dripping Springs,78.47,99.79,54.43,136.08,290.3,Single-ply,SBD,M
Boys,82.1,DQ,Cj Bridges,College Station A&M Cons,80.92,,,,,Single-ply,SBD,M
Boys,82.1,DQ,Joseph Gomez,Kyle Lehman,79.02,136.08,111.13,185.97,,Single-ply,SBD,M
Boys,82.1,DQ,Jermey Schilhab,Kyle Lehman,78.38,136.08,77.11,149.69,,Single-ply,SBD,M
Boys,82.1,DQ,Mark Martinez,Luling,81.74,,,,,Single-ply,SBD,M
Boys,82.1,DQ,Hayden Eskew,Buda Hays,80.2,215.46,,,,Single-ply,SBD,M
Boys,82.1,DQ,Byshup Rhodes,Pflugerville Hendrickson,80.83,142.88,,,,Single-ply,SBD,M
Boys,89.81,1,Matt Ritch,San Antonio East Central,83.46,281.23,163.29,229.06,673.58,Single-ply,SBD,M
Boys,89.81,2,Daniel Minor,Buda Hays,89.81,217.72,133.81,235.87,587.4,Single-ply,SBD,M
Boys,89.81,3,Tanner Brown,Lockhart,86.36,190.51,111.13,213.19,514.83,Single-ply,SBD,M
Boys,89.81,4,Logan Foust,College Station A&M Cons,88.99,183.7,127.01,199.58,510.29,Single-ply,SBD,M
Boys,89.81,5,Omar Smith,Pflugerville Hendrickson,87,206.38,95.25,206.38,508.02,Single-ply,SBD,M
Boys,89.81,6,Simon Castillo,Bastrop Cedar Creek,82.92,181.44,131.54,181.44,494.42,Single-ply,SBD,M
Boys,89.81,7,William Linder,Buda Hays,88.45,185.97,108.86,199.58,494.42,Single-ply,SBD,M
Boys,89.81,8,Justin Hatfield,Geronimo Navarro,86.82,183.7,108.86,199.58,492.15,Single-ply,SBD,M
Boys,89.81,9,Joshua Mercado,San Marcos,88.45,174.63,124.74,192.78,492.15,Single-ply,SBD,M
Boys,89.81,10,Joseph Rodriguez,Bastrop Cedar Creek,86.73,183.7,102.06,181.44,467.2,Single-ply,SBD,M
Boys,89.81,11,Tristan Batts,College Station A&M Cons,89.63,195.04,95.25,165.56,455.86,Single-ply,SBD,M
Boys,89.81,12,David Quentin,Pflugerville Hendrickson,89.72,167.83,99.79,188.24,455.86,Single-ply,SBD,M
Boys,89.81,13,Clark Flinn,Geronimo Navarro,84.82,172.37,120.2,161.03,453.59,Single-ply,SBD,M
Boys,89.81,14,Joseph Weise,Dripping Springs,86,129.27,104.33,142.88,376.48,Single-ply,SBD,M
Boys,89.81,15,Walter Hood,Gonzales,88,195.04,104.33,,299.37,Single-ply,SB,M
Boys,89.81,16,David Mackie,Austin Lake Travis,88.45,142.88,92.99,,235.87,Single-ply,SB,M
Boys,89.81,DQ,Kelly McBride,Del Valle,89.81,,,,,Single-ply,SB,M
Boys,89.81,DQ,Caid Frankowiack,San Antonio East Central,89.81,,,,,Single-ply,SB,M
Boys,89.81,DQ,Arredondo Johnathan,San Marcos,86.18,142.88,,,,Single-ply,SB,M
Boys,99.79,1,Brandon Quinterro,Austin Lake Travis,99.79,208.65,163.29,226.8,598.74,Single-ply,SBD,M
Boys,99.79,2,Elijah Tienda,Lockhart,97.89,226.8,131.54,238.14,596.47,Single-ply,SBD,M
Boys,99.79,3,Curtis Hawkins,Lockhart,97.7,226.8,120.2,199.58,546.58,Single-ply,SBD,M
Boys,99.79,4,Jeremy Halloway,Kyle Lehman,93.53,204.12,120.2,215.46,539.77,Single-ply,SBD,M
Boys,99.79,5,Conner Roe,Geronimo Navarro,97.07,199.58,142.88,195.04,537.51,Single-ply,SBD,M
Boys,99.79,6,Anthony Casares,Gonzales,97.61,195.04,97.52,181.44,474,Single-ply,SBD,M
Boys,99.79,7,Niyi Akeredolu,Pflugerville Hendrickson,90.08,165.56,88.45,217.72,471.74,Single-ply,SBD,M
Boys,99.79,8,Kourtland Busby,Pflugerville Hendrickson,96.62,147.42,111.13,192.78,451.32,Single-ply,SBD,M
Boys,99.79,9,Abel Ramirez,Bastrop Cedar Creek,93.17,149.69,83.91,136.08,369.68,Single-ply,SBD,M
Boys,99.79,10,Colton Aleman,Luling,99.16,142.88,83.91,120.2,347,Single-ply,SBD,M
Boys,99.79,11,AJ Bosquez,San Marcos,97.89,115.67,61.23,115.67,292.57,Single-ply,SBD,M
Boys,99.79,DQ,Santos Dominguez,San Antonio East Central,97.43,,,,,Single-ply,SBD,M
Boys,99.79,DQ,Aaron Leventez,College Station A&M Cons,98.07,,,,,Single-ply,SBD,M
Boys,99.79,DQ,Daniel Alonso,Bastrop Cedar Creek,91.17,,,,,Single-ply,SBD,M
Boys,99.79,DQ,Elias Villalobos,San Marcos,95.89,,,,,Single-ply,SBD,M
Boys,99.79,DQ,Eric Cerda,San Marcos,98.29,,,,,Single-ply,SBD,M
Boys,99.79,DQ,Tariq Taylor,Pflugerville Hendrickson,96.52,156.49,97.52,,,Single-ply,SBD,M
Boys,109.77,1,Clayton Anderson,Elgin,109.77,278.96,185.97,260.82,725.75,Single-ply,SBD,M
Boys,109.77,2,Bailey Rhoads,Buda Hays,107.95,260.82,124.74,247.21,632.76,Single-ply,SBD,M
Boys,109.77,3,Andy Flores,Pflugerville Hendrickson,105.32,256.28,138.35,233.6,628.23,Single-ply,SBD,M
Boys,109.77,4,Danny DeLeon,San Antonio East Central,108.32,251.74,120.2,226.8,598.74,Single-ply,SBD,M
Boys,109.77,5,Levi Mair,Lockhart,106.05,222.26,149.69,215.46,587.4,Single-ply,SBD,M
Boys,109.77,6,Brian Dolezal,Gonzales,105.41,204.12,124.74,226.8,555.65,Single-ply,SBD,M
Boys,109.77,7,Coleman Dennis,College Station A&M Cons,104.78,215.46,127.01,172.37,514.83,Single-ply,SBD,M
Boys,109.77,8,Grant Schlaht,Lockhart,104.6,219.99,115.67,174.63,510.29,Single-ply,SBD,M
Boys,109.77,9,Josh Ficklin,Elgin,100.7,179.17,102.06,208.65,489.88,Single-ply,SBD,M
Boys,109.77,10,Jessie Tamez,Elgin,100.97,226.8,92.99,142.88,462.66,Single-ply,SBD,M
Boys,109.77,11,Austin Bewley,Austin Lake Travis,103.96,151.95,111.13,179.17,442.25,Single-ply,SBD,M
Boys,109.77,12,Paul Arculeo,Pflugerville Hendrickson,105.41,149.69,106.59,174.63,430.91,Single-ply,SBD,M
Boys,109.77,13,Andrew Cobus,Pflugerville Hendrickson,103.33,163.29,79.38,158.76,401.43,Single-ply,SBD,M
Boys,109.77,DQ,Cesar Juarez,Geronimo Navarro,109.77,,,,,Single-ply,SBD,M
Boys,109.77,DQ,Eliajah Simpson,Elgin,105.6,,,,,Single-ply,SBD,M
Boys,109.77,DQ,Ian Willis,Austin Lake Travis,107.68,197.31,115.67,,,Single-ply,SBD,M
Boys,109.77,DQ,Coby Foster,College Station A&M Cons,103.96,215.46,,,,Single-ply,SBD,M
Boys,109.77,DQ,Jeremy Chamberlin,San Antonio East Central,102.15,254.01,,,,Single-ply,SBD,M
Boys,109.77,DQ,Cruz Banda,Kyle Lehman,104.69,240.4,142.88,,,Single-ply,SBD,M
Boys,109.77,DQ,Chris McCumber,San Antonio East Central,109.77,,,,,Single-ply,SBD,M
Boys,124.74,1,Alec Gonzales,San Antonio East Central,123.1,244.94,174.63,233.6,653.17,Single-ply,SBD,M
Boys,124.74,2,Chance Williamson,Del Valle,114.67,249.48,156.49,215.46,621.42,Single-ply,SBD,M
Boys,124.74,3,Levi Snider,Gonzales,116.66,226.8,124.74,226.8,578.33,Single-ply,SBD,M
Boys,124.74,4,Ray Castillo,Bastrop Cedar Creek,114.12,206.38,129.27,204.12,539.77,Single-ply,SBD,M
Boys,124.74,5,Coby Fontenette,Pflugerville Hendrickson,115.12,210.92,122.47,197.31,530.7,Single-ply,SBD,M
Boys,124.74,6,Garret Stotts,Austin Lake Travis,112.49,204.12,108.86,215.46,528.44,Single-ply,SBD,M
Boys,124.74,7,Jeremy Rodriguez,Bastrop Cedar Creek,114.4,208.65,133.81,181.44,523.9,Single-ply,SBD,M
Boys,124.74,8,Blake Wilkenson,College Station A&M Cons,112.31,183.7,120.2,183.7,487.61,Single-ply,SBD,M
Boys,124.74,9,Brian Swift,Luling,123.47,183.7,108.86,174.63,467.2,Single-ply,SBD,M
Boys,124.74,10,Joshua Urrutia,San Marcos,120.79,181.44,92.99,181.44,455.86,Single-ply,SBD,M
Boys,124.74,11,Lex Ortiz,Kyle Lehman,122.65,154.22,90.72,142.88,387.82,Single-ply,SBD,M
Boys,124.74,DQ,Sabestan Garica,Dripping Springs,124.74,,,,,Single-ply,SBD,M
Boys,124.74,DQ,Marcus Ruiz,Kyle Lehman,124.74,,,,,Single-ply,SBD,M
Boys,124.74+,1,Kenny Higgins,Kyle Lehman,140.89,322.05,208.65,276.69,807.39,Single-ply,SBD,M
Boys,124.74+,2,Ray Sedwick,Lockhart,131.09,301.64,199.58,276.69,777.91,Single-ply,SBD,M
Boys,124.74+,3,Mark Alaron,San Antonio East Central,142.34,272.16,201.85,238.14,712.14,Single-ply,SBD,M
Boys,124.74+,4,Ryne Lehman,Lockhart,146.51,244.94,197.31,244.94,687.19,Single-ply,SBD,M
Boys,124.74+,5,Jacob Shanks,Elgin,154.31,244.94,161.03,281.23,687.19,Single-ply,SBD,M
Boys,124.74+,6,Tre Thomas,Pflugerville Hendrickson,163.29,285.76,138.35,226.8,650.91,Single-ply,SBD,M
Boys,124.74+,7,Bobby Limon,Buda Hays,139.16,249.48,158.76,226.8,635.03,Single-ply,SBD,M
Boys,124.74+,8,Dontae Green,Luling,154.86,215.46,120.2,226.8,562.45,Single-ply,SBD,M
Boys,124.74+,9,Julian Silgero,Kyle Lehman,137.71,215.46,138.35,204.12,557.92,Single-ply,SBD,M
Boys,124.74+,10,Isaiah Revas,Elgin,125.28,208.65,151.95,185.97,546.58,Single-ply,SBD,M
Boys,124.74+,11,Anson Friday,Pflugerville Hendrickson,134.72,192.78,129.27,197.31,519.36,Single-ply,SBD,M
Boys,124.74+,12,Isaiah Bosquez,San Marcos,136.53,215.46,115.67,185.97,517.1,Single-ply,SBD,M
Boys,124.74+,13,Caleb Magallanez,Luling,138.62,204.12,92.99,149.69,446.79,Single-ply,SBD,M
Boys,124.74+,14,Javeon Hampton,Pflugerville Hendrickson,131.9,149.69,104.33,174.63,428.64,Single-ply,SBD,M
Boys,124.74+,DQ,Anthony Herrera,Del Valle,125.19,,,,,Single-ply,SBD,M
Boys,,NS,Aaron Werlein,Luling,,,,,,Single-ply,SBD,M
Boys,,NS,Tyler Gibson,Luling,,,,,,Single-ply,SBD,M
Boys,,NS,Joel Juarez,Lockhart,,,,,,Single-ply,SBD,M
Boys,,NS,Derek Franco,Luling,,,,,,Single-ply,SBD,M
Boys,,NS,Brendan Cubit,Luling,,,,,,Single-ply,SBD,M
