Place,Sex,Name,CyrillicName,BodyweightKg,Squat1Kg,Squat2Kg,Squat3Kg,Best3SquatKg,Squat4Kg,Bench1Kg,Bench2Kg,Bench3Kg,Best3BenchKg,Bench4Kg,Deadlift1Kg,Deadlift2Kg,Deadlift3Kg,Best3DeadliftKg,Deadlift4Kg,TotalKg,WeightClassKg,Event,Equipment,Tested,Division,Age,BirthDate
1,F,Ekaterina Kosenko,Екатерина Косенко,62.9,65,72.5,80,80,,30,40,50,50,,90,100,110,110,,240,67.5,SBD,Wraps,Yes,Amateur Open,40,1978-02-24
1,M,Aleksandr Andreev,Александр Андреев,99.1,215,225,,225,,160,165,,165,,240,250,265,265,,655,100,SBD,Wraps,Yes,Amateur Open,25,1993-10-27
1,M,Aleksandr Vasilev,Александр Васильев,60,135,140,145,145,,105,-110,110,110,,180,190,200,200,,455,60,SBD,Wraps,No,Pro Open,31,1986-12-25
1,M,Aleksey Alpatov,Алексей Алпатов,82.5,120,-130,135,135,,-90,90,-100,90,,160,175,-185,175,,400,82.5,SBD,Wraps,No,Pro Open,35,1982-12-25
1,M,Aleksey Blagodyrev,Алексей Благодырев,99.3,225,-237,240,240,,160,172.5,180,180,,260,270,275,275,,695,100,SBD,Wraps,No,Pro Open,27,1991-07-03
2,M,Artem Panin,Артем Панин,96.6,150,160,-170,160,,120,-125,-125,120,,190,200,-210,200,,480,100,SBD,Wraps,No,Pro Open,32,1986-05-18
1,M,Sergey Bezrodniy,Сергей Безродний,107.5,200,212.5,220,220,,170,177.5,182.5,182.5,,210,230,240,240,,642.5,110,SBD,Wraps,No,Pro Open,35,1983-08-09
1,M,Aleksandr Martynov,Александр Мартынов,115.5,170,180,-190,180,,-130,130,-140,130,,220,-240,,220,,530,125,SBD,Wraps,No,Pro Open,37,1981-11-17
1,M,Mark Donchenko,Марк Донченко,137.5,220,230,240,240,,165,-172.5,-175,165,,245,-260,-260,245,,650,140,SBD,Wraps,No,Pro Open,30,1988-05-27
1,M,Sergey Mikolaenko,Сергей Миколаенко,101.2,270,-280,-280,270,,160,-170,-170,160,,260,-270,,260,,690,110,SBD,Wraps,No,Pro Open,33,1985-03-19
1,F,Marina Bazykina,Марина Базыкина,58.7,,,,,,40,42.5,45,45,,,,,,,45,60,B,Raw,Yes,Amateur Masters 50-59,50,1968-03-31
1,F,Olga Drozdova,Ольга Дроздова,64.1,,,,,,-70,72.5,-75,72.5,,,,,,,72.5,67.5,B,Raw,Yes,Amateur Open,26,1992-08-07
1,M,Vadim Zharkov,Вадим Жарков,66.4,,,,,,80,-87.5,-87.5,80,,,,,,,80,67.5,B,Raw,Yes,Amateur Teen 17-19,17,2001-05-29
1,M,Dmitriy Korotich,Дмитрий Коротич,65.4,,,,,,-107.5,107.5,110,110,,,,,,,110,67.5,B,Raw,Yes,Amateur Juniors 20-23,20,1998-10-10
1,M,Evgeniy Kovalev,Евгений Ковалев,74.3,,,,,,-115,117.5,122.5,122.5,,,,,,,122.5,75,B,Raw,Yes,Amateur Open,24,1994-05-03
DQ,M,Ilya Serkin,Илья Серкин,90,,,,,,-170,-175,-180,,,,,,,,,90,B,Raw,Yes,Amateur Juniors 20-23,23,1995-05-14
1,M,Aleksandr Slepchenko,Александр Слепченко,87.5,,,,,,160,-170,170,170,,,,,,,170,90,B,Raw,Yes,Amateur Open,24,1994-05-21
2,M,Petr Turukhin,Петр Турухин,89.7,,,,,,145,-152.5,152.5,152.5,,,,,,,152.5,90,B,Raw,Yes,Amateur Open,32,1986-10-25
1,M,Sergey Cherkasskiy,Сергей Черкасский,97.5,,,,,,140,145,-150,145,,,,,,,145,100,B,Raw,Yes,Amateur Open,45,1973-11-25
1,M,Alim Dzhochaev,Алим Джочаев,107.7,,,,,,180,185,-190,185,,,,,,,185,110,B,Raw,Yes,Amateur Open,27,1991-02-04
1,M,Said Gamzabekov,Саид Гамзабеков,104.5,,,,,,200,207.5,-210,207.5,,,,,,,207.5,110,B,Raw,No,Pro Open,27,1991-10-15
2,M,Valeriy Kotlyarenko,Валерий Котляренко,108.2,,,,,,180,-192.5,192.5,192.5,,,,,,,192.5,110,B,Raw,No,Pro Open,32,1986-10-09
3,M,Sergey Bezrodniy,Сергей Безродний,107.5,,,,,,170,177.5,182.5,182.5,,,,,,,182.5,110,B,Raw,No,Pro Open,35,1983-08-09
1,M,Dmitriy Kovalev,Дмитрий Ковалев,116,,,,,,-185,185,-187.5,185,,,,,,,185,125,B,Raw,No,Pro Juniors 20-23,23,1995-11-15
1,M,Zakhar Sukhorukov,Захар Сухоруков,139,,,,,,215,225,232.5,232.5,,,,,,,232.5,140,B,Raw,No,Pro Open,30,1988-11-15
1,M,Arkadiy Osaulenko,Аркадий Осауленко,81.5,,,,,,195,205,-215,205,,,,,,,205,82.5,B,Multi-ply,No,Pro Open,31,1987-04-30
1,M,Georgiy Elkanishvili,Георгий Элканишвили,95.7,,,,,,165,-175,275,275,,,,,,,275,100,B,Multi-ply,No,Pro Open,30,1988-11-01
2,M,Anton Shchekolkin,Антон Щеколкин,96.2,,,,,,-250,-250,250,250,,,,,,,250,100,B,Multi-ply,No,Pro Open,23,1995-05-26
1,M,Anton Shchekolkin,Антон Щеколкин,96.2,,,,,,-250,-250,250,250,,,,,,,250,100,B,Multi-ply,No,Pro Juniors 20-23,23,1995-05-26
1,F,Kristina Kharchenko,Кристина Харченко,51,,,,,,,,,,,100,115,-120,115,,115,52,D,Raw,Yes,Amateur Open,23,1995-06-05
1,M,Eduard Sulimov,Эдуард Сулимов,80.5,,,,,,,,,,,-145,155,167.5,167.5,,167.5,82.5,D,Raw,Yes,Amateur Juniors 20-23,20,1998-02-09
1,M,Andrey Panov,Андрей Панов,94.9,,,,,,,,,,,200,220,-230,220,,220,100,D,Raw,Yes,Amateur Open,30,1988-09-17
1,M,Artem Grigorev,Артем Григорьев,80.2,,,,,,,,,,,240,250,262.5,262.5,,262.5,82.5,D,Raw,No,Pro Open,36,1982-07-18
2,M,Viktor Mikhaylenko,Виктор Михайленко,79,,,,,,,,,,,200,210,-227.5,210,,210,82.5,D,Raw,No,Pro Open,34,1984-06-10
1,M,Aleksey Koval,Алексей Коваль,90,,,,,,,,,,,260,270,275,275,,275,90,D,Raw,No,Pro Open,27,1991-08-24
2,M,Nikolay Klimov,Николай Климов,87.7,,,,,,,,,,,270,-280,-280,270,,270,90,D,Raw,No,Pro Open,26,1992-06-01
1,M,Nikita Borisov,Никита Борисов,98.2,,,,,,,,,,,272.5,282.5,-290,282.5,,282.5,100,D,Raw,No,Pro Open,29,1989-11-05
1,M,Valeriy Gavrikov,Валерий Гавриков,109.9,,,,,,,,,,,-290,290,315,315,,315,110,D,Raw,No,Pro Open,28,1990-05-28
2,M,Aleksandr Gamuylo,Александр Гамуйло,105.9,,,,,,,,,,,260,-280,-280,260,,260,110,D,Raw,No,Pro Open,24,1994-01-11
