Division,WeightClassKg,Place,Name,Team,BodyweightKg,Best3SquatKg,Best3BenchKg,Best3DeadliftKg,TotalKg,Equipment,Event,Sex
Boys,51.71,1,Haif Martinez,Lewisville The Colony,50.58,158.76,83.91,165.56,408.23,Single-ply,SBD,M
Boys,51.71,2,Dominique John,Mansfield Summit,51.03,145.15,74.84,165.56,385.55,Single-ply,SBD,M
Boys,55.79,3,Santos Rodriguez,Fort Worth North Side,51.94,127.01,81.65,142.88,351.53,Single-ply,SBD,M
Boys,55.79,4,Jeston England,Mansfield,51.94,131.54,90.72,127.01,349.27,Single-ply,SBD,M
Boys,51.71,5,JT White,Cedar Hill,50.58,124.74,63.5,158.76,347,Single-ply,SBD,M
Boys,51.71,6,Steven Lira,Little Elm,51.71,124.74,81.65,131.54,337.93,Single-ply,SBD,M
Boys,51.71,7,Donovan Hayes,Frisco Centennial,51.26,140.61,68.04,120.2,328.85,Single-ply,SBD,M
Boys,51.71,8,Victor Peluso,Frisco Wakeland,50.58,113.4,90.72,120.2,324.32,Single-ply,SBD,M
Boys,55.79,DQ,Joey Silva,Garland Sachse,51.94,,,,,Single-ply,SBD,M
Boys,55.79,1,Zach Fain,Cedar Hill,55.79,170.1,102.06,199.58,471.74,Single-ply,SBD,M
Boys,55.79,2,Carlos Bravo,Lewisville The Colony,55.79,181.44,90.72,192.78,464.93,Single-ply,SBD,M
Boys,55.79,3,Allan Morales,Frisco Centennial,55.79,163.29,77.11,172.37,412.77,Single-ply,SBD,M
Boys,55.79,4,Sydney McIntosh,Sherman,55.79,156.49,90.72,163.29,410.5,Single-ply,SBD,M
Boys,55.79,5,Daniel Hernandez,Royse City,55.11,149.69,74.84,163.29,387.82,Single-ply,SBD,M
Boys,55.79,6,Duck Guillory,Frisco Centennial,55.79,136.08,81.65,158.76,376.48,Single-ply,SBD,M
Boys,59.87,7,Stephen Nelson,Denison,56.02,142.88,79.38,149.69,371.95,Single-ply,SBD,M
Boys,55.79,8,Michael Lester,Mansfield Summit,55.57,136.08,68.04,156.49,360.61,Single-ply,SBD,M
Boys,55.79,9,Chris Hernandez,Duncanville,54.88,115.67,77.11,154.22,347,Single-ply,SBD,M
Boys,55.79,DQ,Demitri Sommer,Lewisville The Colony,55.79,149.69,,,,Single-ply,SBD,M
Boys,59.87,1,Clarington Lightfoot,Everman,58.29,226.8,106.59,197.31,530.7,Single-ply,SBD,M
Boys,59.87,2,Sonny Khokar,Frisco Wakeland,58.97,181.44,113.4,206.38,501.22,Single-ply,SBD,M
Boys,59.87,3,Richard Hernandez,Lewisville The Colony,59.42,195.04,117.93,185.97,498.95,Single-ply,SBD,M
Boys,59.87,4,Billy Neal,Crowley,59.87,199.58,88.45,183.7,471.74,Single-ply,SBD,M
Boys,59.87,5,Devin Walker,Everman,58.97,188.24,97.52,181.44,467.2,Single-ply,SBD,M
Boys,59.87,6,David Brown,Mansfield,59.87,181.44,86.18,172.37,439.98,Single-ply,SBD,M
Boys,59.87,7,Robert Landers,Royse City,58.97,163.29,90.72,167.83,421.84,Single-ply,SBD,M
Boys,67.13,8,Kelton Specks,Cedar Hill,60.1,154.22,90.72,167.83,412.77,Single-ply,SBD,M
Boys,59.87,9,Austin Williams,Fort Worth Western Hills,59.42,133.81,88.45,138.35,360.61,Single-ply,SBD,M
Boys,74.84,1,Andrew Beckman,Lewisville The Colony,67.36,238.14,154.22,215.46,607.81,Single-ply,SBD,M
Boys,67.13,2,Tyler Copeland,Weatherford,67.13,222.26,147.42,210.92,580.6,Single-ply,SBD,M
Boys,67.13,3,Nolan Salas,Crowley,66,222.26,111.13,192.78,526.17,Single-ply,SBD,M
Boys,67.13,4,Tim Sanders,Lewisville The Colony,66.45,204.12,115.67,185.97,505.76,Single-ply,SBD,M
Boys,67.13,5,Wesley Keathley,White Settlement Brewer,64.18,192.78,122.47,181.44,496.68,Single-ply,SBD,M
Boys,67.13,6,Stanley Lu,Frisco Centennial,64.86,163.29,99.79,195.04,458.13,Single-ply,SBD,M
Boys,74.84,7,Rashard Wilson,Fort Worth Boswell,67.36,170.1,104.33,172.37,446.79,Single-ply,SBD,M
Boys,67.13,DQ,Thomas Base,Crowley,67.13,,,,,Single-ply,SBD,M
Boys,67.13,DQ,Kevin Barns,White Settlement Brewer,64.18,,,,,Single-ply,SBD,M
Boys,74.84,1,Cory Sayler,Lewisville The Colony,74.16,269.89,131.54,242.67,644.1,Single-ply,SBD,M
Boys,74.84,2,Cameron Prater,Crowley,74.84,258.55,120.2,235.87,614.62,Single-ply,SBD,M
Boys,74.84,3,Ruben Fletcher,Everman,74.84,242.67,120.2,240.4,603.28,Single-ply,SBD,M
Boys,74.84,4,Vuna Adams,Cedar Hill,74.84,206.38,140.61,242.67,589.67,Single-ply,SBD,M
Boys,74.84,5,Jimmy Nguyen,Mansfield Summit,74.62,208.65,131.54,219.99,560.19,Single-ply,SBD,M
Boys,74.84,6,Antonio Alba,Fort Worth North Side,72.57,210.92,104.33,226.8,542.04,Single-ply,SBD,M
Boys,82.1,7,David Mann,Mansfield Timberview,75.07,199.58,129.27,208.65,537.51,Single-ply,SBD,M
Boys,82.1,8,Jonathan Szabo,Saginaw,75.07,219.99,99.79,199.58,519.36,Single-ply,SBD,M
Boys,74.84,9,Brandon Moore,Carrollton Turner,74.84,197.31,102.06,201.85,501.22,Single-ply,SBD,M
Boys,74.84,10,Jamiah Ellis,Garland Rowlett,73.26,188.24,99.79,201.85,489.88,Single-ply,SBD,M
Boys,82.1,1,Cody Polk,Wichita Falls,77.79,272.16,149.69,240.4,662.24,Single-ply,SBD,M
Boys,82.1,2,Justin Murphy,Lewisville The Colony,81.19,267.62,145.15,231.33,644.1,Single-ply,SBD,M
Boys,82.1,3,Blake Kozeny,Frisco Liberty,80.51,254.01,136.08,204.12,594.21,Single-ply,SBD,M
Boys,82.1,4,Austin Arnold,Denison,80.97,210.92,158.76,222.26,591.94,Single-ply,SBD,M
Boys,82.1,5,Colton Roelofs,Justin Northwest,82.1,235.87,140.61,213.19,589.67,Single-ply,SBD,M
Boys,82.1,6,Marcelous Singleteary,Mansfield Timberview,81.87,219.99,131.54,233.6,585.13,Single-ply,SBD,M
Boys,82.1,7,Dillon Bocanegra,Little Elm,81.65,219.99,129.27,219.99,569.26,Single-ply,SBD,M
Boys,82.1,8,Tanner Haynie,Lewisville The Colony,81.19,244.94,113.4,208.65,566.99,Single-ply,SBD,M
Boys,82.1,9,Zack Long,Little Elm,80.51,219.99,129.27,213.19,562.45,Single-ply,SBD,M
Boys,82.1,DQ,Bronson Williams,North Crowley,81.65,222.26,147.42,,,Single-ply,SBD,M
Boys,89.81,1,Shawn Sanders,Everman,89.13,251.74,149.69,272.16,673.58,Single-ply,SBD,M
Boys,89.81,2,Jeff Stevens,Justin Northwest,88.45,258.55,163.29,249.48,671.32,Single-ply,SBD,M
Boys,99.79,3,Austin Price,Aledo,90.04,265.35,147.42,222.26,635.03,Single-ply,SBD,M
Boys,89.81,4,Tanner Anglin,Frisco Centennial,89.81,240.4,136.08,247.21,623.69,Single-ply,SBD,M
Boys,89.81,5,Ozy Ejim,Mansfield Summit,86.64,219.99,124.74,272.16,616.89,Single-ply,SBD,M
Boys,89.81,6,Matthew Cortez,Royse City,87.77,267.62,131.54,199.58,598.74,Single-ply,SBD,M
Boys,99.79,7,Brandon January,Dallas Parish Episcopal,90.04,231.33,145.15,219.99,596.47,Single-ply,SBD,M
Boys,89.81,8,Aaron Bailey,Frisco Wakeland,88.68,231.33,122.47,226.8,580.6,Single-ply,SBD,M
Boys,89.81,9,Kentrell Joyner,Mansfield,84.59,226.8,124.74,226.8,578.33,Single-ply,SBD,M
Boys,89.81,10,Nick Sprenger,Sherman,86.86,215.46,158.76,190.51,564.72,Single-ply,SBD,M
Boys,99.79,1,Reggie Wilcox,Frisco Wakeland,98.43,276.69,156.49,263.08,696.26,Single-ply,SBD,M
Boys,99.79,2,Tevin Jenkins,Everman,93.67,269.89,145.15,260.82,675.85,Single-ply,SBD,M
Boys,99.79,3,Blake Lilly,Mansfield,95.07,274.42,154.22,238.14,666.78,Single-ply,SBD,M
Boys,99.79,4,Leroy Kelly,Wichita Falls,97.75,260.82,158.76,238.14,657.71,Single-ply,SBD,M
Boys,99.79,5,Dayrell Freeman,Crowley,98.2,272.16,142.88,242.67,657.71,Single-ply,SBD,M
Boys,99.79,6,Trenton Turrentine,Keller Central,95.93,249.48,154.22,226.8,630.49,Single-ply,SBD,M
Boys,99.79,7,Xavier Warren,Cedar Hill,99.11,251.74,133.81,238.14,623.69,Single-ply,SBD,M
Boys,99.79,8,Brian Ngwa,Mansfield Timberview,95.25,242.67,147.42,231.33,621.42,Single-ply,SBD,M
Boys,99.79,9,Darius Stubblefield,Cedar Hill,99.11,233.6,151.95,224.53,610.08,Single-ply,SBD,M
Boys,99.79,10,Pat Cummings,Wichita Falls Rider,95.25,240.4,124.74,240.4,605.55,Single-ply,SBD,M
Boys,109.77,1,Josh Morrison,Lewisville The Colony,109.09,303.91,188.24,254.01,746.16,Single-ply,SBD,M
Boys,109.77,2,Austin Vela,Frisco Wakeland,107.05,288.03,172.37,235.87,696.26,Single-ply,SBD,M
Boys,109.77,3,James Miller,Crowley,108.41,258.55,156.49,265.35,680.39,Single-ply,SBD,M
Boys,109.77,4,John Mark Johnson,Dallas Parish Episcopal,109.32,244.94,181.44,233.6,659.98,Single-ply,SBD,M
Boys,109.77,5,Joe Bergeron,North Mesquite,101.83,226.8,147.42,254.01,628.23,Single-ply,SBD,M
Boys,109.77,6,Andrew Wiggins,Everman,105.91,242.67,129.27,233.6,605.55,Single-ply,SBD,M
Boys,109.77,7,Robbie Murray,Lewisville The Colony,108.41,240.4,142.88,213.19,596.47,Single-ply,SBD,M
Boys,109.77,DQ,Tyrone Melton,Garland Sachse,104.33,247.21,,,,Single-ply,SBD,M
Boys,109.77,DQ,Larry Moore Jr,Cedar Hill,108.41,,,,,Single-ply,SBD,M
Boys,109.77,DQ,Josh Allen,Cedar Hill,108.41,206.38,,,,Single-ply,SBD,M
Boys,124.74,1,Ricky Gonzales,Cedar Hill,122.7,278.96,206.38,249.48,734.82,Single-ply,SBD,M
Boys,124.74,2,Daniel Cooley,Lake Dallas,122.24,244.94,233.6,244.94,723.48,Single-ply,SBD,M
Boys,124.74,3,Darius Anderson,Wichita Falls,124.28,285.76,188.24,229.06,703.07,Single-ply,SBD,M
Boys,124.74+,4,Aric Rodriguez,Little Elm,124.96,294.84,170.1,217.72,682.66,Single-ply,SBD,M
Boys,124.74,5,O'Chea Thomas,Garland Rowlett,123.15,272.16,124.74,260.82,657.71,Single-ply,SBD,M
Boys,124.74,6,Devin Benton,Mansfield Summit,111.58,222.26,154.22,249.48,625.96,Single-ply,SBD,M
Boys,124.74,7,Marquel Sheppard,McKinney North,122.92,272.16,124.74,226.8,623.69,Single-ply,SBD,M
Boys,124.74,8,Chase Appleby,Frisco Centennial,119.52,254.01,138.35,208.65,601.01,Single-ply,SBD,M
Boys,124.74,9,Aj Gutierrez,Saginaw,121.11,238.14,158.76,192.78,589.67,Single-ply,SBD,M
Boys,124.74,10,Fred Gipson,Everman,117.25,192.78,147.42,226.8,566.99,Single-ply,SBD,M
Boys,124.74+,1,Josh Burkham,Lewisville The Colony,140.61,324.32,197.31,272.16,793.79,Single-ply,SBD,M
Boys,124.74+,2,Dominique Smith,Everman,137.89,317.51,181.44,260.82,759.77,Single-ply,SBD,M
Boys,124.74+,3,DJ Willis,Lewisville The Colony,137.89,301.64,167.83,265.35,734.82,Single-ply,SBD,M
Boys,124.74+,4,Mark Killion,Keller Fossil Ridge,136.3,299.37,176.9,229.06,705.34,Single-ply,SBD,M
Boys,124.74+,5,Quassi Magana,Little Elm,142.43,254.01,172.37,235.87,662.24,Single-ply,SBD,M
Boys,124.74+,DQ,Steven Jackson,Lewisville The Colony,132.45,294.84,,,,Single-ply,SBD,M
Boys,124.74+,DQ,Lewis Ray,Justin Northwest,132,263.08,,,,Single-ply,SBD,M
Boys,124.74+,DQ,Davidson Venancio,Frisco Liberty,132.22,,,,,Single-ply,SBD,M
Boys,124.74+,DQ,Wesley Gray,Fort Worth South Hills,141.88,272.16,,,,Single-ply,SBD,M
Boys,124.74+,DQ,Reid Robinson,Weatherford,128.59,,,,,Single-ply,SBD,M
