Division,WeightClassKg,Place,Name,Team,BodyweightKg,Best3SquatKg,Best3BenchKg,Best3DeadliftKg,TotalKg,Equipment,Event,Sex
Freshmen,55.79,1,Samuel Arias,Laredo United,52.21,90.72,54.43,102.06,247.21,Single-ply,SBD,M
Freshmen,55.79,2,Jesus Garza,Laredo Cigarroa,55.34,83.91,47.63,88.45,219.99,Single-ply,SBD,M
Freshmen,59.87,1,Jose Hernandez,Laredo Nixon,58.11,111.13,70.31,136.08,317.51,Single-ply,SBD,M
Freshmen,59.87,2,Daniel Esparza,Laredo United,57.06,106.59,58.97,124.74,290.3,Single-ply,SBD,M
Freshmen,59.87,DQ,Eloy Huerta,Laredo United,59.65,,,,,Single-ply,SBD,M
Freshmen,67.13,1,Joe Chick,Zapata,67.13,154.22,92.99,167.83,415.04,Single-ply,SBD,M
Freshmen,67.13,2,Jaime Rodriguez,Laredo United,66.13,129.27,79.38,158.76,367.41,Single-ply,SBD,M
Freshmen,67.13,3,Eddie Garcia,Zapata,63.68,113.4,77.11,136.08,326.59,Single-ply,SBD,M
Freshmen,67.13,4,Fabian Flores,Laredo Alexander,66,102.06,72.57,111.13,285.76,Single-ply,SBD,M
Freshmen,74.84,1,Percy Alvarez,Zapata,72.89,136.08,77.11,147.42,360.61,Single-ply,SBD,M
Freshmen,74.84,2,Nathan Vasquez,Laredo Alexander,73.94,102.06,70.31,165.56,337.93,Single-ply,SBD,M
Freshmen,74.84,3,Miguel Madrigal,Laredo Nixon,68.4,97.52,52.16,149.69,299.37,Single-ply,SBD,M
Freshmen,82.1,1,Andrew Sosa,Laredo Nixon,78.88,124.74,90.72,161.03,376.48,Single-ply,SBD,M
Freshmen,82.1,2,Gael Montemayor,Laredo United,77.56,99.79,86.18,145.15,331.12,Single-ply,SBD,M
Freshmen,82.1,3,Lauro Soto,Laredo Cigarroa,79.56,97.52,58.97,111.13,267.62,Single-ply,SBD,M
Freshmen,89.81,1,Mike Delgado,Zapata,89.77,142.88,95.25,154.22,392.36,Single-ply,SBD,M
Freshmen,89.81,2,Max Marchan,Laredo Nixon,88.81,142.88,86.18,154.22,383.29,Single-ply,SBD,M
Freshmen,89.81,3,Roel de los Santos,Zapata,85.05,149.69,72.57,154.22,376.48,Single-ply,SBD,M
Freshmen,89.81,4,Jaime Garcia,Zapata,87.45,140.61,74.84,145.15,360.61,Single-ply,SBD,M
Freshmen,89.81,5,Jose Sanchez,Laredo Alexander,82.42,129.27,56.7,142.88,328.85,Single-ply,SBD,M
Freshmen,89.81,6,Issac Ramos,Roma,83.73,124.74,63.5,124.74,312.98,Single-ply,SBD,M
Freshmen,89.81,7,Juan Garcia,Laredo Alexander,88.68,70.31,54.43,106.59,231.33,Single-ply,SBD,M
Freshmen,99.79,1,Emilio Alvarez,Laredo Alexander,90.4,88.45,61.23,113.4,263.08,Single-ply,SBD,M
Freshmen,99.79,2,Gabriel Elizondo,Laredo Alexander,91.44,79.38,54.43,106.59,240.4,Single-ply,SBD,M
Freshmen,99.79,3,Ricky Sanchez,Laredo Alexander,93.35,74.84,52.16,111.13,238.14,Single-ply,SBD,M
Freshmen,109.77,1,Juan Moreno,Laredo Nixon,102.47,129.27,99.79,149.69,378.75,Single-ply,SBD,M
Freshmen,109.77,2,Emiliano Martinez,Zapata,104.01,151.95,70.31,151.95,374.21,Single-ply,SBD,M
Freshmen,109.77,3,Jason Lara,Laredo Nixon,101.7,117.93,58.97,145.15,322.05,Single-ply,SBD,M
Freshmen,124.74,1,Alex Gonzalez,Laredo Alexander,114.4,142.88,92.99,183.7,419.57,Single-ply,SBD,M
Freshmen,124.74,2,Mike Ramon,Zapata,120.25,154.22,95.25,136.08,385.55,Single-ply,SBD,M
Freshmen,124.74,3,Cesar Gutierrez,Laredo Cigarroa,111.63,142.88,72.57,158.76,374.21,Single-ply,SBD,M
Freshmen,124.74+,1,Juan Guerra,Laredo Alexander,136.76,142.88,92.99,181.44,417.3,Single-ply,SBD,M
Freshmen,124.74+,2,Rafa Rendon,Zapata,133.45,136.08,97.52,142.88,376.48,Single-ply,SBD,M
Freshmen,124.74+,3,Jorge Maldonado,Laredo United,131.9,131.54,74.84,167.83,374.21,Single-ply,SBD,M
Freshmen,124.74+,4,Angel Alvarado,Laredo United,132.95,122.47,81.65,167.83,371.95,Single-ply,SBD,M
Freshmen,124.74+,5,Raymond Torres,Zapata,130.45,122.47,95.25,151.95,369.68,Single-ply,SBD,M
Freshmen,124.74+,6,Gerardo Calderon #2,Laredo Alexander,125.65,124.74,61.23,142.88,328.85,Single-ply,SBD,M
Boys,51.71,1,Oscar Martel,Laredo United South,51.53,183.7,111.13,183.7,478.54,Single-ply,SBD,M
Boys,51.71,2,Everardo Garcia,Roma,51.48,147.42,83.91,154.22,385.55,Single-ply,SBD,M
Boys,51.71,3,Damian Gonzalez,Roma,51.71,131.54,74.84,136.08,342.46,Single-ply,SBD,M
Boys,51.71,4,Juan Sanchez,Laredo Cigarroa,48.81,99.79,68.04,117.93,285.76,Single-ply,SBD,M
Boys,51.71,5,Zachary Palomo,Laredo Martin,49.03,72.57,34.02,83.91,190.51,Single-ply,SBD,M
Boys,55.79,1,Rolando Flores,Roma,52.21,133.81,68.04,136.08,337.93,Single-ply,SBD,M
Boys,55.79,2,Roger Guzman,Zapata,53.8,113.4,54.43,167.83,335.66,Single-ply,SBD,M
Boys,55.79,3,Gerardo Acevedo,Laredo Johnson,55.02,122.47,65.77,131.54,319.78,Single-ply,SBD,M
Boys,55.79,4,Leo Rodriguez,Laredo United,55.61,113.4,58.97,129.27,301.64,Single-ply,SBD,M
Boys,55.79,DQ,Omar Estrada,Laredo Nixon,53.25,65.77,,,,Single-ply,SBD,M
Boys,55.79,DQ,Jonathan Gomez,Laredo Cigarroa,54.34,,,,,Single-ply,SBD,M
Boys,59.87,1,Danny Ruiz,Zapata,56.61,201.85,92.99,206.38,501.22,Single-ply,SBD,M
Boys,59.87,2,Jose Alcorta,Laredo United South,59.51,176.9,111.13,208.65,496.68,Single-ply,SBD,M
Boys,59.87,3,Rolando Aguilar,Laredo United,58.92,172.37,74.84,181.44,428.64,Single-ply,SBD,M
Boys,59.87,4,Jonathan Diaz,Laredo Martin,59.87,170.1,83.91,174.63,428.64,Single-ply,SBD,M
Boys,59.87,5,Richard Jimenez,Laredo Nixon,58.38,115.67,74.84,136.08,326.59,Single-ply,SBD,M
Boys,59.87,6,Fernando Castillo,Roma,56.88,102.06,52.16,124.74,278.96,Single-ply,SBD,M
Boys,59.87,7,Alberto Medina,Laredo Martin,58.51,88.45,49.9,106.59,244.94,Single-ply,SBD,M
Boys,67.13,1,Cesar Uribe,Zapata,67.09,185.97,104.33,188.24,478.54,Single-ply,SBD,M
Boys,67.13,2,Ramiro Rangel,Laredo Cigarroa,63.5,142.88,97.52,183.7,424.11,Single-ply,SBD,M
Boys,67.13,3,Mark Santillan,Laredo Johnson,67,151.95,90.72,176.9,419.57,Single-ply,SBD,M
Boys,67.13,4,Julian Alvarado,Laredo United,63.87,167.83,81.65,163.29,412.77,Single-ply,SBD,M
Boys,67.13,5,Pablo Salazar,Laredo Cigarroa,67.13,149.69,77.11,170.1,396.89,Single-ply,SBD,M
Boys,67.13,6,Joseph Ibarra,Laredo Nixon,67,136.08,88.45,165.56,390.09,Single-ply,SBD,M
Boys,67.13,7,Alfonso Reyes,Laredo Martin,65.68,142.88,79.38,163.29,385.55,Single-ply,SBD,M
Boys,67.13,8,Bernie Cruz,Laredo Nixon,65.82,133.81,74.84,165.56,374.21,Single-ply,SBD,M
Boys,67.13,9,Enrique Rendon,Laredo Martin,66.63,133.81,74.84,147.42,356.07,Single-ply,SBD,M
Boys,67.13,10,Luis Gonzalez,Roma,60.96,129.27,70.31,131.54,331.12,Single-ply,SBD,M
Boys,67.13,11,Luis Guerra,Laredo Nixon,62.46,117.93,68.04,115.67,301.64,Single-ply,SBD,M
Boys,67.13,12,Luis Alvarez,Laredo United South,61.55,113.4,47.63,92.99,254.01,Single-ply,SBD,M
Boys,67.13,DQ,Jeson Esquivel,Laredo Martin,63.82,142.88,,,,Single-ply,SBD,M
Boys,74.84,1,Albert Garcia,Laredo Johnson,73.26,204.12,102.06,201.85,508.02,Single-ply,SBD,M
Boys,74.84,2,Mateo Simpson,Laredo United,74.66,183.7,97.52,183.7,464.93,Single-ply,SBD,M
Boys,74.84,3,Damian Gutierrez,Roma,74.34,167.83,120.2,167.83,455.86,Single-ply,SBD,M
Boys,74.84,4,Juan Gonzalez,Laredo Johnson,71.8,165.56,99.79,147.42,412.77,Single-ply,SBD,M
Boys,74.84,5,Daniel Gomez,Laredo United South,72.39,149.69,70.31,163.29,383.29,Single-ply,SBD,M
Boys,74.84,6,Jose Quimbar,Laredo Nixon,74.21,106.59,65.77,124.74,297.1,Single-ply,SBD,M
Boys,82.1,1,Ismael Espinoza,Laredo Johnson,82.1,192.78,104.33,206.38,503.49,Single-ply,SBD,M
Boys,82.1,2,David Saldana,Zapata,79.88,167.83,108.86,185.97,462.66,Single-ply,SBD,M
Boys,82.1,3,Romeo Astudillo,Laredo United,77.88,161.03,104.33,188.24,453.59,Single-ply,SBD,M
Boys,82.1,4,Ramon Zamarripa,Laredo United,78.38,161.03,97.52,183.7,442.25,Single-ply,SBD,M
Boys,82.1,5,Ricky Chapa,Laredo United,79.38,172.37,95.25,167.83,435.45,Single-ply,SBD,M
Boys,82.1,6,Seth Pena,Laredo Alexander,75.8,158.76,79.38,183.7,421.84,Single-ply,SBD,M
Boys,82.1,7,Baltazar Perez,Roma,80.74,158.76,95.25,163.29,417.3,Single-ply,SBD,M
Boys,82.1,8,Chris Ruiz,Laredo Alexander,78.74,124.74,102.06,188.24,415.04,Single-ply,SBD,M
Boys,82.1,9,Marcos Zavala,Laredo Martin,77.52,138.35,65.77,133.81,337.93,Single-ply,SBD,M
Boys,89.81,1,Rene Garcia,Zapata,88.81,195.04,124.74,154.22,474,Single-ply,SBD,M
Boys,89.81,2,Francisco Galaviz,Laredo Johnson,89.81,183.7,90.72,185.97,460.4,Single-ply,SBD,M
Boys,89.81,3,Luis Alvarado,Laredo Alexander,85.09,158.76,86.18,181.44,426.38,Single-ply,SBD,M
Boys,89.81,4,Kenny Obregon,Laredo Alexander,88.72,158.76,83.91,172.37,415.04,Single-ply,SBD,M
Boys,89.81,5,David Macias,Laredo United,84.46,142.88,95.25,174.63,412.77,Single-ply,SBD,M
Boys,89.81,6,Carlos Ramos,Laredo Cigarroa,89.63,149.69,65.77,158.76,374.21,Single-ply,SBD,M
Boys,89.81,7,Javier Reyna,Laredo United,89.58,142.88,74.84,142.88,360.61,Single-ply,SBD,M
Boys,89.81,8,Aaron Gomez,Roma,84.46,142.88,72.57,142.88,358.34,Single-ply,SBD,M
Boys,89.81,DQ,Juan Gutierrez,Laredo United,87.14,183.7,111.13,,,Single-ply,SBD,M
Boys,99.79,1,Santino Palizo,Laredo Alexander,92.44,185.97,102.06,215.46,503.49,Single-ply,SBD,M
Boys,99.79,2,Jesse Hernandez,Laredo Alexander,98.43,183.7,108.86,204.12,496.68,Single-ply,SBD,M
Boys,99.79,3,Kris Korrodi,Laredo Alexander,93.26,183.7,104.33,195.04,483.08,Single-ply,SBD,M
Boys,99.79,4,Marcos Bautista,Zapata,97.11,165.56,108.86,172.37,446.79,Single-ply,SBD,M
Boys,99.79,5,Mark Nieto,Laredo Nixon,93.26,129.27,142.88,129.27,401.43,Single-ply,SBD,M
Boys,99.79,6,Alex Guerrero,Laredo Alexander,99.43,142.88,79.38,158.76,381.02,Single-ply,SBD,M
Boys,109.77,1,Franco Arce,Zapata,104.1,317.51,149.69,254.01,721.21,Single-ply,SBD,M
Boys,109.77,2,Robert Ramos,Roma,104.19,208.65,104.33,197.31,510.29,Single-ply,SBD,M
Boys,109.77,3,Laurencio Lopez,Roma,107,188.24,106.59,201.85,496.68,Single-ply,SBD,M
Boys,109.77,4,Juan Hinojosa,Laredo Johnson,104.87,201.85,95.25,197.31,494.42,Single-ply,SBD,M
Boys,109.77,5,Diego Montoya,Roma,109.63,195.04,127.01,170.1,492.15,Single-ply,SBD,M
Boys,109.77,6,Jj Urbina,Laredo Johnson,100.06,163.29,111.13,206.38,480.81,Single-ply,SBD,M
Boys,109.77,7,Javier Amador,Laredo Martin,107.14,208.65,95.25,176.9,480.81,Single-ply,SBD,M
Boys,109.77,8,Frank Villanueva,Laredo Nixon,100.29,129.27,86.18,142.88,358.34,Single-ply,SBD,M
Boys,124.74,1,Myriel Jaramillo,Laredo Johnson,123.65,247.21,145.15,229.06,621.42,Single-ply,SBD,M
Boys,124.74,2,Marco Pardo,Laredo Cigarroa,117.84,251.74,120.2,219.99,591.94,Single-ply,SBD,M
Boys,124.74,3,Abel Mendoza,Laredo Nixon,112.58,226.8,147.42,195.04,569.26,Single-ply,SBD,M
Boys,124.74,4,Pedro Garcia,Laredo Alexander,113.72,224.53,117.93,206.38,548.85,Single-ply,SBD,M
Boys,124.74,5,Jorge Gutierrez,Laredo Cigarroa,123.51,213.19,108.86,226.8,548.85,Single-ply,SBD,M
Boys,124.74,6,Martin Navarro,Zapata,115.8,204.12,136.08,192.78,532.97,Single-ply,SBD,M
Boys,124.74,7,Carlos Silva,Laredo Martin,122.52,229.06,106.59,188.24,523.9,Single-ply,SBD,M
Boys,124.74,8,Jeremy Ramirez,Laredo United,115.8,199.58,113.4,208.65,521.63,Single-ply,SBD,M
Boys,124.74,9,Erick Zamora,Laredo Alexander,116.53,206.38,124.74,176.9,508.02,Single-ply,SBD,M
Boys,124.74,10,Juan Valadez,Laredo Martin,122.29,197.31,97.52,179.17,474,Single-ply,SBD,M
Boys,124.74,11,Marcos Vara,Laredo Martin,119.43,154.22,83.91,176.9,415.04,Single-ply,SBD,M
Boys,124.74+,1,Luis Barron,Laredo Johnson,126.05,242.67,147.42,235.87,625.96,Single-ply,SBD,M
Boys,124.74+,2,Mike Moreno,Zapata,132.18,226.8,165.56,213.19,605.55,Single-ply,SBD,M
Boys,124.74+,3,Justin Trevino,Laredo Martin,138.71,251.74,122.47,217.72,591.94,Single-ply,SBD,M
Boys,124.74+,4,Claudillo Padillo,Laredo Johnson,125.69,190.51,115.67,226.8,532.97,Single-ply,SBD,M
Boys,124.74+,5,Oziel Lugo,Laredo Nixon,130.04,192.78,136.08,183.7,512.56,Single-ply,SBD,M
Boys,124.74+,6,Sigifredo Sepulveda,Laredo Cigarroa,149.69,195.04,108.86,185.97,489.88,Single-ply,SBD,M
Boys,124.74+,7,Jose Gonzalez,Laredo United South,136.98,206.38,92.99,174.63,474,Single-ply,SBD,M
Boys,124.74+,8,David Tanguma,Zapata,129.09,158.76,106.59,181.44,446.79,Single-ply,SBD,M
