Division,WeightClassKg,Place,Name,Team,BodyweightKg,Best3SquatKg,Best3BenchKg,Best3DeadliftKg,TotalKg,Equipment,Event,Sex
Boys,51.71,1,Alec Ohnheiser,Conroe,51.26,129.27,83.91,129.27,342.46,Single-ply,SBD,M
Boys,51.71,2,Hank Hewgley,Conroe The Woodlands,51.26,99.79,63.5,104.33,267.62,Single-ply,SBD,M
Boys,51.71,3,Lukas Alvarez,Conroe The Woodlands,51.71,88.45,47.63,115.67,251.74,Single-ply,SBD,M
Boys,55.79,1,Blaise Ohnheiser,Conroe,55.34,142.88,81.65,158.76,383.29,Single-ply,SBD,M
Boys,55.79,2,Ryan Johnson,Conroe Woodlands College Park,53.52,88.45,68.04,108.86,265.35,Single-ply,SBD,M
Boys,59.87,1,Angel Meza,Conroe Caney Creek,58.06,120.2,102.06,142.88,365.14,Single-ply,SBD,M
Boys,59.87,2,Sam Salmeron,Conroe Woodlands College Park,59.87,99.79,68.04,104.33,272.16,Single-ply,SBD,M
Boys,59.87,3,Leobardo Marban,Conroe Caney Creek,57.15,102.06,52.16,111.13,265.35,Single-ply,SBD,M
Boys,59.87,4,Braedon Shows,Conroe Woodlands College Park,59.87,61.23,54.43,90.72,206.38,Single-ply,SBD,M
Boys,67.13,1,Enoc Villagomez,Conroe Caney Creek,66.22,176.9,99.79,167.83,444.52,Single-ply,SBD,M
Boys,67.13,2,Jason Salazar,Conroe Caney Creek,63.96,161.03,86.18,163.29,410.5,Single-ply,SBD,M
Boys,67.13,3,Ty Risner,Conroe The Woodlands,64.41,136.08,86.18,158.76,381.02,Single-ply,SBD,M
Boys,67.13,4,Dylon DeAngelo,Conroe Woodlands College Park,66.68,127.01,90.72,136.08,353.8,Single-ply,SBD,M
Boys,67.13,5,Mauricio Kerguelen,Conroe The Woodlands,65.32,127.01,70.31,142.88,340.19,Single-ply,SBD,M
Boys,67.13,6,Davaun Harrison,Conroe Woodlands College Park,65.77,127.01,68.04,115.67,310.71,Single-ply,SBD,M
Boys,67.13,7,Andrew Faulkner,Conroe The Woodlands,66.68,65.77,36.29,79.38,181.44,Single-ply,SBD,M
Boys,67.13,DQ,Aaron Taylor,Conroe Woodlands College Park,67.13,61.23,38.56,83.91,,Single-ply,SBD,M
Boys,67.13,DQ,Daniel Faul,Conroe,67.13,113.4,68.04,142.88,,Single-ply,SBD,M
Boys,74.84,1,Adrian Tabares,Conroe,74.84,165.56,108.86,195.04,469.47,Single-ply,SBD,M
Boys,74.84,2,Jahron Jones,Conroe Oak Ridge,74.39,161.03,92.99,142.88,396.89,Single-ply,SBD,M
Boys,74.84,3,Pablo Granados,Conroe Caney Creek,72.12,142.88,81.65,158.76,383.29,Single-ply,SBD,M
Boys,74.84,4,Ivan Sanchez,Conroe Caney Creek,72.57,113.4,81.65,142.88,337.93,Single-ply,SBD,M
Boys,74.84,5,Davis Rhame,Conroe The Woodlands,70.31,120.2,72.57,136.08,328.85,Single-ply,SBD,M
Boys,82.1,1,Arciel Barrera,Conroe,79.38,197.31,106.59,204.12,508.02,Single-ply,SBD,M
Boys,82.1,2,Andrew Lutz,Conroe Woodlands College Park,78.93,142.88,83.91,170.1,396.89,Single-ply,SBD,M
Boys,82.1,3,Myles Terry,Conroe Oak Ridge,78.93,145.15,86.18,154.22,385.55,Single-ply,SBD,M
Boys,89.81,1,Ashton Williams,Conroe,89.36,219.99,142.88,240.4,603.28,Single-ply,SBD,M
Boys,89.81,2,Edwin Melara,Conroe Woodlands College Park,89.36,154.22,108.86,158.76,421.84,Single-ply,SBD,M
Boys,89.81,3,Alex Martin,Conroe The Woodlands,89.81,151.95,97.52,158.76,408.23,Single-ply,SBD,M
Boys,99.79,1,Gabe Garcia,Conroe Caney Creek,92.99,238.14,149.69,231.33,619.15,Single-ply,SBD,M
Boys,99.79,2,Chris Garcia,Conroe Caney Creek,94.35,238.14,124.74,240.4,603.28,Single-ply,SBD,M
Boys,99.79,3,Geraldo Moya,Conroe,94.35,231.33,129.27,226.8,587.4,Single-ply,SBD,M
Boys,99.79,4,Micaiah Loop,Conroe,92.99,199.58,131.54,233.6,564.72,Single-ply,SBD,M
Boys,99.79,5,Josh Flores,Conroe Caney Creek,97.52,183.7,102.06,172.37,458.13,Single-ply,SBD,M
Boys,99.79,DQ,Max Gonzalez,Conroe Oak Ridge,99.79,249.48,,,,Single-ply,SBD,M
Boys,109.77,1,John Cisneros,Conroe,109.32,240.4,142.88,183.7,566.99,Single-ply,SBD,M
Boys,109.77,2,Grayson Brautigam,Conroe Woodlands College Park,107.5,179.17,108.86,179.17,467.2,Single-ply,SBD,M
Boys,109.77,3,Haakon Knudsen,Conroe Woodlands College Park,101.6,142.88,113.4,174.63,430.91,Single-ply,SBD,M
Boys,109.77,4,Trevon Hill,Conroe Oak Ridge,102.97,170.1,102.06,158.76,430.91,Single-ply,SBD,M
Boys,109.77,5,Ricardo Andrade,Conroe The Woodlands,103.87,142.88,88.45,174.63,405.97,Single-ply,SBD,M
Boys,109.77,6,Jordan Graffagnino,Conroe Woodlands College Park,108.41,142.88,79.38,145.15,367.41,Single-ply,SBD,M
Boys,109.77,7,Chance Jackson,Conroe Woodlands College Park,107.05,129.27,74.84,113.4,317.51,Single-ply,SBD,M
Boys,109.77,DQ,DeAndre Kindred,Conroe Oak Ridge,109.77,201.85,,,,Single-ply,SBD,M
Boys,109.77,DQ,Ethan Robbins,Conroe Caney Creek,102.51,244.94,102.06,158.76,,Single-ply,SBD,M
Boys,124.74,1,Cameron Barr,Conroe Caney Creek,113.4,244.94,136.08,204.12,585.13,Single-ply,SBD,M
Boys,124.74,2,Dominique Ratcliff,Conroe,119.75,233.6,151.95,197.31,582.87,Single-ply,SBD,M
Boys,124.74,3,Justin Tesno,Conroe Oak Ridge,118.39,219.99,115.67,199.58,535.24,Single-ply,SBD,M
Boys,124.74,4,Manuel Guzman,Conroe The Woodlands,119.75,165.56,90.72,158.76,415.04,Single-ply,SBD,M
Boys,124.74,5,Xavier Benitez,Conroe Caney Creek,121.56,147.42,106.59,156.49,410.5,Single-ply,SBD,M
Boys,124.74,DQ,Daniel Suback,Conroe Woodlands College Park,124.74,142.88,83.91,111.13,,Single-ply,SBD,M
Boys,124.74+,1,Timothy Randall,Conroe Oak Ridge,125.19,272.16,199.58,272.16,743.89,Single-ply,SBD,M
Boys,124.74+,2,Ryan Neugent,Conroe,130.18,272.16,142.88,260.82,675.85,Single-ply,SBD,M
Boys,124.74+,3,Braedon Leshe,Conroe Woodlands College Park,138.35,215.46,142.88,235.87,594.21,Single-ply,SBD,M
Boys,124.74+,4,Micheal Flores,Conroe Caney Creek,157.85,263.08,102.06,199.58,564.72,Single-ply,SBD,M
Boys,124.74+,5,Rayan Darvishi,Conroe Woodlands College Park,128.82,170.1,124.74,190.51,485.34,Single-ply,SBD,M
