Division,WeightClassKg,Place,Name,Team,BodyweightKg,Best3SquatKg,Best3BenchKg,Best3DeadliftKg,TotalKg,Equipment,Event,Sex
Boys,55.79,1,John Dominguez,Somerset,51.85,136.08,72.57,142.88,351.53,Single-ply,SBD,M
Boys,51.71,2,Jesus Gomez,Somerset,51.71,136.08,72.57,131.54,340.19,Single-ply,SBD,M
Boys,55.79,1,Josh Lomas,Crystal City,55.52,170.1,106.59,188.24,464.93,Single-ply,SBD,M
Boys,55.79,2,Sawyer Yandell,Natalia,55.79,183.7,74.84,172.37,430.91,Single-ply,SBD,M
Boys,55.79,3,Ricky Guerra,Poteet,53.52,158.76,102.06,161.03,421.84,Single-ply,SBD,M
Boys,55.79,4,Paul Arocha,Devine,52.25,136.08,90.72,142.88,369.68,Single-ply,SBD,M
Boys,55.79,5,Sid Alcoser,Somerset,55.79,136.08,70.31,145.15,351.53,Single-ply,SBD,M
Boys,55.79,6,Cody Trevino,Devine,54.43,113.4,61.23,142.88,317.51,Single-ply,SBD,M
Boys,55.79,7,Angel Bermudez,Poteet,54.07,113.4,83.91,115.67,312.98,Single-ply,SBD,M
Boys,55.79,8,Jm Elizondo,Pearsall,54.34,111.13,74.84,113.4,299.37,Single-ply,SBD,M
Boys,55.79,9,Chaz Graham,Lytle,52.53,102.06,58.97,131.54,292.57,Single-ply,SBD,M
Boys,55.79,10,Robert Tappan,Comfort,55.34,88.45,61.23,111.13,260.82,Single-ply,SBD,M
Boys,59.87,1,Felix Gutierrez,Crystal City,59.15,174.63,99.79,176.9,451.32,Single-ply,SBD,M
Boys,59.87,2,Joel Rodriguez,Castroville Medina Valley,59.6,142.88,95.25,149.69,387.82,Single-ply,SBD,M
Boys,59.87,3,Ricky Rios,Devine,59.87,149.69,92.99,136.08,378.75,Single-ply,SBD,M
Boys,59.87,4,Luis Flores,Poteet,59.6,142.88,68.04,147.42,358.34,Single-ply,SBD,M
Boys,67.13,5,Joseph Soria,Lytle,59.96,122.47,72.57,122.47,317.51,Single-ply,SBD,M
Boys,59.87,6,Wyatt Scheff,Devine,58.15,113.4,65.77,127.01,306.17,Single-ply,SBD,M
Boys,59.87,7,Efrain Botello,Castroville Medina Valley,59.78,111.13,65.77,117.93,294.84,Single-ply,SBD,M
Boys,67.13,1,Zach Ornelas,Pearsall,65.68,188.24,81.65,195.04,464.93,Single-ply,SBD,M
Boys,67.13,2,Ozzy Gonzalez,Somerset,67.13,190.51,86.18,183.7,460.4,Single-ply,SBD,M
Boys,67.13,3,Adam Austin,Del Rio,64.95,172.37,95.25,176.9,444.52,Single-ply,SBD,M
Boys,67.13,4,Frank Ramirez,Del Rio,60.87,147.42,95.25,165.56,408.23,Single-ply,SBD,M
Boys,67.13,5,Taylor Carrillo,Lytle,66.59,138.35,92.99,170.1,401.43,Single-ply,SBD,M
Boys,67.13,6,Issac Villerreal,Del Rio,67.04,136.08,108.86,149.69,394.63,Single-ply,SBD,M
Boys,67.13,7,Adrian Valdez,Lytle,65.05,127.01,102.06,149.69,378.75,Single-ply,SBD,M
Boys,67.13,8,Tj Kwapich,Castroville Medina Valley,62.51,145.15,88.45,142.88,376.48,Single-ply,SBD,M
Boys,67.13,9,Francisco Martinez,Poteet,66.68,124.74,90.72,140.61,356.07,Single-ply,SBD,M
Boys,67.13,10,Conner Thayn,Comfort,64.86,127.01,68.04,142.88,337.93,Single-ply,SBD,M
Boys,74.84,11,Leroy Torres,Castroville Medina Valley,67.22,120.2,79.38,136.08,335.66,Single-ply,SBD,M
Boys,67.13,12,Craig Jacobs,Center Point,62.69,136.08,70.31,117.93,324.32,Single-ply,SBD,M
Boys,67.13,13,Chris Taylor,Comfort,65.77,113.4,63.5,136.08,312.98,Single-ply,SBD,M
Boys,67.13,14,Chris Cherry,Center Point,62.78,115.67,68.04,113.4,297.1,Single-ply,SBD,M
Boys,67.13,15,Hunter Rust,Comfort,61.33,90.72,65.77,102.06,258.55,Single-ply,SBD,M
Boys,67.13,16,Oscar de Luna,San Antonio Memorial,65.77,47.63,27.22,68.04,142.88,Single-ply,SBD,M
Boys,74.84,1,Pedro Molina,Somerset,74.84,240.4,127.01,226.8,594.21,Single-ply,SBD,M
Boys,74.84,2,Masen Lindner,Comfort,74.75,183.7,136.08,188.24,508.02,Single-ply,SBD,M
Boys,74.84,3,Logan Pennycook,Del Rio,71.21,165.56,102.06,192.78,460.4,Single-ply,SBD,M
Boys,74.84,4,Michael Chavez,Devine,73.75,176.9,102.06,167.83,446.79,Single-ply,SBD,M
Boys,74.84,5,Dylan Aguinaga,Lytle,73.48,154.22,90.72,190.51,435.45,Single-ply,SBD,M
Boys,74.84,6,Matt Chappa,Center Point,73.12,165.56,106.59,154.22,426.38,Single-ply,SBD,M
Boys,74.84,7,Raul Vasquez,Pearsall,68.49,156.49,92.99,167.83,417.3,Single-ply,SBD,M
Boys,74.84,8,Orlando Medrano,Lytle,73.94,154.22,97.52,161.03,412.77,Single-ply,SBD,M
Boys,74.84,9,Matt Chapa,Poteet,72.85,142.88,108.86,154.22,405.97,Single-ply,SBD,M
Boys,74.84,10,John Santos,Lytle,71.94,151.95,79.38,172.37,403.7,Single-ply,SBD,M
Boys,74.84,11,Trever Horvath,Castroville Medina Valley,69.22,147.42,106.59,147.42,401.43,Single-ply,SBD,M
Boys,74.84,12,Steven Sartuche,Devine,74.48,133.81,102.06,165.56,401.43,Single-ply,SBD,M
Boys,74.84,13,Lemuel Ramirez,Center Point,74.03,158.76,90.72,145.15,394.63,Single-ply,SBD,M
Boys,74.84,14,Chase Lindner,Comfort,72.3,136.08,108.86,142.88,387.82,Single-ply,SBD,M
Boys,74.84,15,Reagan Luce,Barksdale Nueces Canyon,70.67,138.35,81.65,142.88,362.87,Single-ply,SBD,M
Boys,74.84,16,Mark Hernandez,Natalia,74.84,124.74,79.38,133.81,337.93,Single-ply,SBD,M
Boys,74.84,17,Caleb Lozano,Comfort,71.03,122.47,61.23,149.69,333.39,Single-ply,SBD,M
Boys,89.81,1,Justin Quesada,Somerset,82.28,226.8,142.88,201.85,571.53,Single-ply,SBD,M
Boys,82.1,2,Rueben Hinojosa,Lytle,78.11,210.92,124.74,229.06,564.72,Single-ply,SBD,M
Boys,82.1,3,Jj Elias,Somerset,81.19,204.12,122.47,219.99,546.58,Single-ply,SBD,M
Boys,82.1,4,John Ventura,Pearsall,77.93,199.58,124.74,215.46,539.77,Single-ply,SBD,M
Boys,82.1,5,Hunter Peterson,Castroville Medina Valley,78.11,206.38,99.79,190.51,496.68,Single-ply,SBD,M
Boys,82.1,6,Zack Bosquez,Comfort,81.1,183.7,115.67,192.78,492.15,Single-ply,SBD,M
Boys,82.1,7,Mario Munoz,Center Point,76.02,195.04,108.86,170.1,474,Single-ply,SBD,M
Boys,82.1,8,Jake Martinez,Lytle,79.02,165.56,108.86,195.04,469.47,Single-ply,SBD,M
Boys,82.1,9,Silverno Trejo,Pearsall,80.38,183.7,99.79,158.76,442.25,Single-ply,SBD,M
Boys,82.1,10,Chris Vinton,Pearsall,78.65,167.83,102.06,167.83,437.72,Single-ply,SBD,M
Boys,82.1,11,Josh Guerra,Castroville Medina Valley,79.56,136.08,83.91,154.22,374.21,Single-ply,SBD,M
Boys,82.1,12,Rowdy Souter,Comfort,78.83,136.08,68.04,142.88,347,Single-ply,SBD,M
Boys,82.1,13,Xavier Reyes,Poteet,76.57,102.06,72.57,122.47,297.1,Single-ply,SBD,M
Boys,89.81,1,Carlos Carrillo,Lytle,88.59,222.26,133.81,213.19,569.26,Single-ply,SBD,M
Boys,89.81,2,Matt Gamez,Poteet,89.27,204.12,115.67,208.65,528.44,Single-ply,SBD,M
Boys,89.81,3,Brian Steffens,Del Rio,85,208.65,122.47,183.7,514.83,Single-ply,SBD,M
Boys,89.81,4,Gabe Morales,Pearsall,89.63,192.78,108.86,183.7,485.34,Single-ply,SBD,M
Boys,89.81,5,Ace Sanchez,Barksdale Nueces Canyon,88.99,154.22,92.99,188.24,435.45,Single-ply,SBD,M
Boys,89.81,6,Jesus Zendejas,Del Rio,83.19,156.49,102.06,165.56,424.11,Single-ply,SBD,M
Boys,89.81,7,Julian Valdinos,Bandera,86.55,156.49,99.79,161.03,417.3,Single-ply,SBD,M
Boys,99.79,8,Jordan Gabriel,San Antonio Memorial,89.9,142.88,97.52,145.15,385.55,Single-ply,SBD,M
Boys,89.81,9,Abe Cantu,Pearsall,89.4,131.54,86.18,158.76,376.48,Single-ply,SBD,M
Boys,89.81,10,Lance Huerta,Natalia,89.81,133.81,79.38,156.49,369.68,Single-ply,SBD,M
Boys,99.79,1,Richard Juarez,San Antonio Highlands,99.7,231.33,131.54,249.48,612.35,Single-ply,SBD,M
Boys,99.79,2,Justin Lomas,Crystal City,98.52,226.8,136.08,226.8,589.67,Single-ply,SBD,M
Boys,99.79,3,Mark Cerda,Somerset,99.34,226.8,120.2,229.06,576.06,Single-ply,SBD,M
Boys,109.77,4,Leo Perez,Devine,99.97,226.8,124.74,195.04,546.58,Single-ply,SBD,M
Boys,99.79,5,Juan Onate,Barksdale Nueces Canyon,95.16,156.49,129.27,206.38,492.15,Single-ply,SBD,M
Boys,109.77,6,Adairn Valdez,Del Rio,99.97,183.7,104.33,204.12,492.15,Single-ply,SBD,M
Boys,99.79,7,Dillon Kendrick,Devine,98.25,181.44,142.88,158.76,483.08,Single-ply,SBD,M
Boys,99.79,8,Joey Mendez,San Antonio Memorial,90.81,190.51,90.72,185.97,467.2,Single-ply,SBD,M
Boys,109.77,9,Paul Mesta,Del Rio,99.88,170.1,102.06,181.44,453.59,Single-ply,SBD,M
Boys,99.79,10,Ray Palomenque,Pearsall,92.35,158.76,97.52,181.44,437.72,Single-ply,SBD,M
Boys,99.79,11,Trevor Ward,Barksdale Nueces Canyon,97.16,90.72,63.5,108.86,263.08,Single-ply,SBD,M
Boys,99.79,DQ,Zeke Moncivais,Barksdale Nueces Canyon,99.52,117.93,,181.44,,Single-ply,SBD,M
Boys,99.79,DQ,Gavin Schneider,Castroville Medina Valley,92.35,147.42,,,,Single-ply,SBD,M
Boys,99.79,DQ,Darren Garcia,Crystal City,93.53,176.9,113.4,,,Single-ply,SBD,M
Boys,109.77,1,Sal Marines,Somerset,104.6,347,145.15,272.16,764.3,Single-ply,SBD,M
Boys,124.74,2,Jon Macat,Lytle,109.81,215.46,131.54,226.8,573.79,Single-ply,SBD,M
Boys,109.77,3,Aaron Herrera,Del Rio,102.87,235.87,113.4,219.99,569.26,Single-ply,SBD,M
Boys,109.77,4,Bj Frieda,Somerset,108.86,231.33,122.47,192.78,546.58,Single-ply,SBD,M
Boys,109.77,5,Chris Trujillo,Center Point,108.77,199.58,117.93,188.24,505.76,Single-ply,SBD,M
Boys,109.77,6,Izzy Hays,Bandera,101.24,192.78,113.4,183.7,489.88,Single-ply,SBD,M
Boys,109.77,7,Eddie Rodriguez,San Antonio Memorial,109.68,190.51,136.08,149.69,476.27,Single-ply,SBD,M
Boys,109.77,8,Marc Hubbard,Comfort,106.68,167.83,104.33,197.31,469.47,Single-ply,SBD,M
Boys,109.77,9,David Nieto,Pearsall,104.05,170.1,117.93,158.76,446.79,Single-ply,SBD,M
Boys,109.77,10,Jose Alaniz,Natalia,109.77,165.56,88.45,185.97,439.98,Single-ply,SBD,M
Boys,109.77,11,Gil Torres,San Antonio Memorial,107.32,68.04,65.77,127.01,260.82,Single-ply,SBD,M
Boys,124.74,1,Joe Aguero,Somerset,122.92,317.51,147.42,204.12,669.05,Single-ply,SBD,M
Boys,124.74,2,Ricardo Aleman,San Antonio Memorial,113.49,251.74,142.88,226.8,621.42,Single-ply,SBD,M
Boys,124.74,3,Gabriel Garza,Somerset,124.74,249.48,161.03,204.12,614.62,Single-ply,SBD,M
Boys,124.74,4,Pat Rodriguez,Devine,116.21,226.8,172.37,208.65,607.81,Single-ply,SBD,M
Boys,124.74,5,Raul Loza,Natalia,124.74,272.16,133.81,199.58,605.55,Single-ply,SBD,M
Boys,124.74,6,Zach Monreal,Devine,110.5,204.12,113.4,195.04,512.56,Single-ply,SBD,M
Boys,124.74,7,Noah Ramirez,Comfort,120.02,188.24,97.52,172.37,458.13,Single-ply,SBD,M
Boys,124.74,8,Andrew Paadilla,Poteet,110.86,181.44,95.25,174.63,451.32,Single-ply,SBD,M
Boys,124.74,9,Michael Garza,Crystal City,112.4,181.44,90.72,170.1,442.25,Single-ply,SBD,M
Boys,124.74,10,Joseph Garcia,Del Rio,113.4,158.76,97.52,174.63,430.91,Single-ply,SBD,M
Boys,124.74,11,Cody Martin,Center Point,115.67,158.76,95.25,158.76,412.77,Single-ply,SBD,M
Boys,124.74,12,Andres Garcez,San Antonio Memorial,113.49,142.88,72.57,145.15,360.61,Single-ply,SBD,M
Boys,124.74+,1,Nune Perez,Crystal City,136.03,306.17,188.24,244.94,739.36,Single-ply,SBD,M
Boys,124.74+,2,Michael Reyes,Natalia,129.27,317.51,142.88,233.6,694,Single-ply,SBD,M
Boys,124.74+,3,Steven Balderrama,Devine,125.92,265.35,154.22,231.33,650.91,Single-ply,SBD,M
Boys,124.74+,4,Charest Inman,Castroville Medina Valley,147.05,229.06,156.49,217.72,603.28,Single-ply,SBD,M
Boys,124.74+,6,Garrett Neuman,Castroville Medina Valley,145.78,226.8,133.81,201.85,562.45,Single-ply,SBD,M
Boys,124.74+,7,Lico Hernandez,Del Rio,126.64,170.1,124.74,192.78,487.61,Single-ply,SBD,M
Boys,,NS,Rake Palermo,Barksdale Nueces Canyon,,,,,,Single-ply,SBD,M
Boys,,NS,Nathan Carleton,Barksdale Nueces Canyon,,,,,,Single-ply,SBD,M
Boys,,NS,Sim Brown,Barksdale Nueces Canyon,,,,,,Single-ply,SBD,M
Boys,,NS,Isaiah DeLeon,Barksdale Nueces Canyon,,,,,,Single-ply,SBD,M
Boys,,NS,Hans Torres,Bandera,,,,,,Single-ply,SBD,M
Boys,,NS,Josh Young,Bandera,,,,,,Single-ply,SBD,M
Boys,,NS,Matt Marrs,Bandera,,,,,,Single-ply,SBD,M
Boys,,NS,Abdul Altakouri,Bandera,,,,,,Single-ply,SBD,M
Boys,,NS,Hunter Prince,Bandera,,,,,,Single-ply,SBD,M
Boys,,NS,Lawson Allen,Bandera,,,,,,Single-ply,SBD,M
Boys,,NS,Josh Hicks,Castroville Medina Valley,,,,,,Single-ply,SBD,M
Boys,,NS,Juan Flores,Castroville Medina Valley,,,,,,Single-ply,SBD,M
Boys,,NS,Dj Carlson,Devine,,,,,,Single-ply,SBD,M
Boys,,NS,Zac Moore,Comfort,,,,,,Single-ply,SBD,M
Boys,,NS,Fabian Garcia,Crystal City,,,,,,Single-ply,SBD,M
Boys,,NS,Ricky Garza,Crystal City,,,,,,Single-ply,SBD,M
Boys,,NS,Randy Mancha,Crystal City,,,,,,Single-ply,SBD,M
Boys,,NS,Bryce Sandaval,Poteet,,,,,,Single-ply,SBD,M
Boys,,NS,Adrian Contreras,Poteet,,,,,,Single-ply,SBD,M
Boys,,NS,Isaiah Lucio,Pearsall,,,,,,Single-ply,SBD,M
Boys,,NS,Andrew Villar,San Antonio Memorial,,,,,,Single-ply,SBD,M
Freshmen,74.84,1,Landon Ventura,Bandera,72.94,113.4,77.11,138.35,328.85,Single-ply,SBD,M
Freshmen,82.1,1,James Richards,Del Rio,81.1,83.91,52.16,111.13,247.21,Single-ply,SBD,M
Freshmen,89.81,1,Nick Andreas,Bandera,84.55,165.56,97.52,172.37,435.45,Single-ply,SBD,M
Freshmen,99.79,1,Jesus Piliado,Somerset,98.88,102.06,92.99,170.1,365.14,Single-ply,SBD,M
Freshmen,109.77,1,Jp Ortiz,Devine,105.96,163.29,99.79,149.69,412.77,Single-ply,SBD,M
Freshmen,109.77,2,Kyle Wilson,Bandera,101.15,131.54,81.65,142.88,356.07,Single-ply,SBD,M
Freshmen,109.77,3,Brandon Williams,Del Rio,109.77,142.88,74.84,138.35,356.07,Single-ply,SBD,M
Freshmen,124.74,1,Josh Silva,Somerset,117.93,195.04,113.4,185.97,494.42,Single-ply,SBD,M
Freshmen,124.74,2,Zach Torres,Somerset,113.4,145.15,72.57,147.42,365.14,Single-ply,SBD,M
Freshmen,124.74+,1,Chris Frank,Del Rio,132.18,151.95,113.4,181.44,446.79,Single-ply,SBD,M
Freshmen,,NS,Edgar Garcia,Del Rio,,,,,,Single-ply,SBD,M
Freshmen,,NS,Michael Salazar,Somerset,,,,,,Single-ply,SBD,M
Freshmen,,NS,Steven Malando,Del Rio,,,,,,Single-ply,SBD,M
Freshmen,,NS,Jarret Fuller,Bandera,,,,,,Single-ply,SBD,M
Freshmen,,NS,Corey Jennings,Bandera,,,,,,Single-ply,SBD,M
Freshmen,,NS,Chase Hadad,Bandera,,,,,,Single-ply,SBD,M
Freshmen,,NS,Ty Fernandez,Bandera,,,,,,Single-ply,SBD,M
Freshmen,,NS,Chance Lopez,Bandera,,,,,,Single-ply,SBD,M
Freshmen,,NS,Kyle Bauml,Bandera,,,,,,Single-ply,SBD,M
Freshmen,,NS,Alex Willoughby,Bandera,,,,,,Single-ply,SBD,M
Freshmen,,NS,Calvin Bankston,Bandera,,,,,,Single-ply,SBD,M
Junior Varsity,59.87,1,Oscar de Leon,Somerset,56.02,131.54,86.18,147.42,365.14,Single-ply,SBD,M
Junior Varsity,59.87,2,Raul Nambramo,Rocksprings,55.88,92.99,70.31,111.13,274.42,Single-ply,SBD,M
Junior Varsity,59.87,1,Sebastian Estrada,Somerset,57.61,104.33,61.23,117.93,283.5,Single-ply,SBD,M
Junior Varsity,59.87,2,Xavier Huerta,Lytle,57.52,99.79,56.7,111.13,267.62,Single-ply,SBD,M
Junior Varsity,67.13,1,Josh Ramos,Somerset,66.22,185.97,68.04,176.9,430.91,Single-ply,SBD,M
Junior Varsity,67.13,2,Jorge López,Rocksprings,62.41,113.4,65.77,117.93,297.1,Single-ply,SBD,M
Junior Varsity,74.84,1,John Valdez,Somerset,74.84,149.69,104.33,174.63,428.64,Single-ply,SBD,M
Junior Varsity,74.84,2,Kevin Avila,Lytle,70.03,154.22,77.11,165.56,396.89,Single-ply,SBD,M
Junior Varsity,74.84,3,Rosendo Quintero,Somerset,74.39,136.08,106.59,145.15,387.82,Single-ply,SBD,M
Junior Varsity,74.84,DQ,Johnny Salazar,Somerset,74.39,108.86,,,,Single-ply,SBD,M
Junior Varsity,74.84,DQ,Israel Pacheco,Somerset,74.39,,,,,Single-ply,SBD,M
Junior Varsity,89.81,1,Michael Bustamante,Somerset,86.18,183.7,111.13,167.83,462.66,Single-ply,SBD,M
Junior Varsity,89.81,2,Yair Iglesias,Devine,88.9,136.08,108.86,145.15,390.09,Single-ply,SBD,M
Junior Varsity,99.79,1,Tyler Mitchell,Somerset,99.79,195.04,127.01,215.46,537.51,Single-ply,SBD,M
Junior Varsity,99.79,2,Josh Macat,Lytle,97.7,151.95,79.38,149.69,381.02,Single-ply,SBD,M
Junior Varsity,99.79,DQ,Joe Tovar,Somerset,99.52,,,,,Single-ply,SBD,M
Junior Varsity,109.77,1,Joe Reschman,Somerset,107.5,158.76,115.67,142.88,417.3,Single-ply,SBD,M
Junior Varsity,109.77,2,Mark Gutierrez,Rocksprings,109.23,120.2,106.59,158.76,385.55,Single-ply,SBD,M
Junior Varsity,109.77,3,Michael Salizar,Somerset,106.59,117.93,68.04,154.22,340.19,Single-ply,SBD,M
Junior Varsity,109.77,4,Jared Vidales,Somerset,104.33,79.38,77.11,124.74,281.23,Single-ply,SBD,M
Junior Varsity,124.74,1,Larry Vidales,Somerset,113.4,190.51,124.74,195.04,510.29,Single-ply,SBD,M
Junior Varsity,124.74,2,Bryce Dowda,Bandera,110.59,185.97,122.47,192.78,501.22,Single-ply,SBD,M
Junior Varsity,124.74,3,Bruno Castillo,Somerset,120.2,176.9,113.4,149.69,439.98,Single-ply,SBD,M
Junior Varsity,124.74,4,Stormy Smith,Somerset,116.12,113.4,63.5,142.88,319.78,Single-ply,SBD,M
Junior Varsity,124.74+,1,Andy Valladolid,Somerset,133.81,249.48,122.47,183.7,555.65,Single-ply,SBD,M
Junior Varsity,,NS,Jj Aguinaga,Lytle,,,,,,Single-ply,SBD,M
Junior Varsity,,NS,Brian Gutierrez,Lytle,,,,,,Single-ply,SBD,M
Junior Varsity,,NS,Ray Franco,Rocksprings,,,,,,Single-ply,SBD,M
Junior Varsity,,NS,Ethan Greven,Bandera,,,,,,Single-ply,SBD,M
Junior Varsity,,NS,Reed Blake,Bandera,,,,,,Single-ply,SBD,M
Junior Varsity,,NS,Mitchell Keese,Bandera,,,,,,Single-ply,SBD,M
Junior Varsity,,NS,Dillon Erskine,Bandera,,,,,,Single-ply,SBD,M
Junior Varsity,,NS,Tristan Adamson,Bandera,,,,,,Single-ply,SBD,M
Junior Varsity,,NS,Travis Whitefield,Bandera,,,,,,Single-ply,SBD,M
Junior Varsity,,NS,Lucas Taulli,Bandera,,,,,,Single-ply,SBD,M
Junior Varsity,,NS,Ace Elkins,Bandera,,,,,,Single-ply,SBD,M
Junior Varsity,,NS,Tyler Williams,Somerset,,,,,,Single-ply,SBD,M
Junior Varsity,,NS,Elias Carballo,Somerset,,,,,,Single-ply,SBD,M
