Division,WeightClassKg,Place,Name,Team,BodyweightKg,Best3SquatKg,Best3BenchKg,Best3DeadliftKg,TotalKg,Equipment,Event,Sex
Boys,51.71,1,Jordan Trevino,Bay City,49.62,79.38,58.97,120.2,258.55,Single-ply,SBD,M
Boys,51.71,2,Clayton Coogler,Shepherd,48.99,90.72,56.7,102.06,249.48,Single-ply,SBD,M
Boys,51.71,3,Mason Williams,Clute Brazoswood,49.53,88.45,54.43,102.06,244.94,Single-ply,SBD,M
Boys,51.71,4,Devin West,Clute Brazoswood,51.44,92.99,43.09,102.06,238.14,Single-ply,SBD,M
Boys,51.71,5,Richard Bernier,Katy Mayde Creek,45.27,83.91,47.63,102.06,233.6,Single-ply,SBD,M
Boys,51.71,DQ,Eddie Taylor,La Porte,50.71,,,,,Single-ply,SBD,M
Boys,51.71,DQ,Jacory Bellenamy,Houston Madison,51.71,,,,,Single-ply,SBD,M
Boys,55.79,1,Blake Gamez,La Porte,55.79,170.1,102.06,174.63,446.79,Single-ply,SBD,M
Boys,55.79,2,Crisoforo Ayala,Pasadena Rayburn,55.61,115.67,70.31,142.88,328.85,Single-ply,SBD,M
Boys,55.79,3,Santiago Centeno,Bay City,52.53,108.86,74.84,131.54,315.25,Single-ply,SBD,M
Boys,55.79,DQ,Kaleb Wolfe,Bay City,55.61,113.4,,,,Single-ply,SBD,M
Boys,67.13,1,Jose Ramos,Bay City,59.96,142.88,83.91,167.83,394.63,Single-ply,SBD,M
Boys,59.87,2,Chase Watson,Shepherd,56.52,129.27,70.31,129.27,328.85,Single-ply,SBD,M
Boys,59.87,3,Zac Jenkins,Shepherd,59.42,124.74,61.23,133.81,319.78,Single-ply,SBD,M
Boys,59.87,4,Randol Manjarrez,Pasadena Rayburn,57.06,45.36,52.16,129.27,226.8,Single-ply,SBD,M
Boys,59.87,DQ,Fabian Vega,Pasadena Memorial,59.87,,,,,Single-ply,SBD,M
Boys,59.87,DQ,Tyvarian Lane,Stafford,59.87,,,,,Single-ply,SBD,M
Boys,59.87,DQ,Adrian Martinez,Texas City,58.06,129.27,,,,Single-ply,SBD,M
Boys,59.87,DQ,Cameron Guillen,Clute Brazoswood,59.87,163.29,,,,Single-ply,SBD,M
Boys,67.13,1,Gerald Johnson,La Marque,64.23,181.44,117.93,197.31,496.68,Single-ply,SBD,M
Boys,67.13,2,Cameron Moody,Shepherd,62.6,176.9,106.59,185.97,469.47,Single-ply,SBD,M
Boys,67.13,3,Trent Taylor,Shepherd,65.32,170.1,97.52,183.7,451.32,Single-ply,SBD,M
Boys,67.13,4,Gin Ivey,Conroe Oak Ridge,66.22,158.76,102.06,181.44,442.25,Single-ply,SBD,M
Boys,67.13,5,Tyler Dawson,Livingston,63.96,158.76,104.33,174.63,437.72,Single-ply,SBD,M
Boys,67.13,6,Kendrick Sonnier,Port Arthur Memorial,61.69,176.9,86.18,170.1,433.18,Single-ply,SBD,M
Boys,67.13,7,Brandyn Ginyard,Pasadena Dobie,62.78,158.76,83.91,170.1,412.77,Single-ply,SBD,M
Boys,67.13,8,Kj Dawson,Katy Mayde Creek,67.04,183.7,83.91,145.15,412.77,Single-ply,SBD,M
Boys,67.13,9,Ramon Ayala,Pearland,65.59,142.88,102.06,147.42,392.36,Single-ply,SBD,M
Boys,67.13,10,Dylan Billiott,La Marque,63.05,147.42,83.91,149.69,381.02,Single-ply,SBD,M
Boys,67.13,11,Jacob Mears,Beaumont Ozen,64.77,120.2,97.52,154.22,371.95,Single-ply,SBD,M
Boys,67.13,12,Blaine Marcantel,Santa Fe,67.13,142.88,70.31,151.95,365.14,Single-ply,SBD,M
Boys,67.13,13,Paul Bass,Katy Mayde Creek,60.87,136.08,68.04,149.69,353.8,Single-ply,SBD,M
Boys,67.13,14,Adam Smith,Bay City,67.13,124.74,70.31,149.69,344.73,Single-ply,SBD,M
Boys,67.13,15,Wyatt Tumlinson,Shepherd,63.23,124.74,70.31,129.27,324.32,Single-ply,SBD,M
Boys,67.13,16,Cory Zinn,Bay City,61.33,90.72,81.65,124.74,297.1,Single-ply,SBD,M
Boys,67.13,17,Jimmie Coleman,La Marque,61.69,102.06,72.57,120.2,294.84,Single-ply,SBD,M
Boys,67.13,18,Kalen Redmon,Beaumont Ozen,67.13,102.06,70.31,117.93,290.3,Single-ply,SBD,M
Boys,67.13,19,Cornell White,La Marque,61.87,88.45,81.65,102.06,272.16,Single-ply,SBD,M
Boys,67.13,DQ,Ethan Ryman,Bay City,67.13,,,,,Single-ply,SBD,M
Boys,67.13,DQ,Rodney Winford,Beaumont Ozen,66.22,90.72,,,,Single-ply,SBD,M
Boys,67.13,DQ,Arnoldo Garcia,Port Arthur Memorial,65.32,,,,,Single-ply,SBD,M
Boys,74.84,1,Sam Fisher,Bay City,73.12,199.58,120.2,226.8,546.58,Single-ply,SBD,M
Boys,82.1,2,Rodney Kinchen,Port Arthur Memorial,74.93,215.46,117.93,195.04,528.44,Single-ply,SBD,M
Boys,74.84,3,Grant Fults,Livingston,71.21,204.12,120.2,183.7,508.02,Single-ply,SBD,M
Boys,74.84,4,Lawrence Smith,Bay City,72.57,226.8,83.91,170.1,480.81,Single-ply,SBD,M
Boys,74.84,5,Nefi Hernandez,Texas City,71.76,183.7,120.2,158.76,462.66,Single-ply,SBD,M
Boys,74.84,6,Jared Hope,Livingston,69.4,147.42,92.99,183.7,424.11,Single-ply,SBD,M
Boys,74.84,7,Austin Tompkins,Conroe Oak Ridge,70.08,158.76,104.33,156.49,419.57,Single-ply,SBD,M
Boys,74.84,8,Caleb Jones,Texas City,71.94,142.88,97.52,156.49,396.89,Single-ply,SBD,M
Boys,74.84,9,Justin Lopez,Pasadena Rayburn,70.13,156.49,99.79,129.27,385.55,Single-ply,SBD,M
Boys,74.84,10,Gio St Cyr,Pasadena Rayburn,71.12,147.42,92.99,142.88,383.29,Single-ply,SBD,M
Boys,74.84,11,Jayden Williams,Katy Mayde Creek,68.13,158.76,74.84,142.88,376.48,Single-ply,SBD,M
Boys,74.84,12,Aaron Jordan,Pasadena Dobie,73.39,129.27,90.72,151.95,371.95,Single-ply,SBD,M
Boys,74.84,13,Jeremiah Harrison,Port Arthur Memorial,71.94,138.35,90.72,138.35,367.41,Single-ply,SBD,M
Boys,74.84,14,Brandon Cheves,Shepherd,68.67,133.81,92.99,120.2,347,Single-ply,SBD,M
Boys,74.84,DQ,Koby Landry,Stafford,74.84,,,,,Single-ply,SBD,M
Boys,74.84,DQ,Vincent Chachere,La Porte,74.84,,,,,Single-ply,SBD,M
Boys,74.84,DQ,Jamal Franklin,Houston Madison,74.84,,,,,Single-ply,SBD,M
Boys,74.84,DQ,Jimmie Moore,Conroe Oak Ridge,74.84,,,,,Single-ply,SBD,M
Boys,74.84,DQ,Brandon McKay,Clute Brazoswood,68.95,,,,,Single-ply,SBD,M
Boys,74.84,DQ,Derek Briseno,Katy Mayde Creek,67.86,,,,,Single-ply,SBD,M
Boys,82.1,1,Richard Kieffer,La Porte,78.29,185.97,120.2,201.85,508.02,Single-ply,SBD,M
Boys,82.1,2,Chance Free,Livingston,78.02,206.38,88.45,197.31,492.15,Single-ply,SBD,M
Boys,82.1,3,Antonio Moye,Shepherd,81.47,188.24,129.27,174.63,492.15,Single-ply,SBD,M
Boys,82.1,4,Chris Narcisse,Beaumont Ozen,78.74,170.1,136.08,183.7,489.88,Single-ply,SBD,M
Boys,82.1,5,Brando Wade,La Marque,75.84,165.56,124.74,156.49,446.79,Single-ply,SBD,M
Boys,82.1,6,Exavier Simpson,Texas City,75.3,158.76,124.74,158.76,442.25,Single-ply,SBD,M
Boys,82.1,7,David Mejia,Pasadena Rayburn,80.56,156.49,102.06,174.63,433.18,Single-ply,SBD,M
Boys,82.1,8,Carlos Frank,Texas City,79.56,170.1,97.52,158.76,426.38,Single-ply,SBD,M
Boys,82.1,9,Joseph Leblanc,Shepherd,78.02,174.63,97.52,149.69,421.84,Single-ply,SBD,M
Boys,82.1,10,Sterling Winzor,Beaumont Ozen,78.93,136.08,102.06,183.7,421.84,Single-ply,SBD,M
Boys,82.1,11,Garold Parks,Katy Mayde Creek,80.38,147.42,108.86,165.56,421.84,Single-ply,SBD,M
Boys,82.1,12,Colton Miller,Santa Fe,76.66,147.42,92.99,156.49,396.89,Single-ply,SBD,M
Boys,82.1,13,John Michael Wilson,Santa Fe,76.66,133.81,102.06,136.08,371.95,Single-ply,SBD,M
Boys,82.1,14,Brandon Lewis,Clute Brazoswood,80.29,120.2,90.72,136.08,347,Single-ply,SBD,M
Boys,82.1,15,Gavin Hunt,Pasadena Memorial,77.02,117.93,65.77,140.61,324.32,Single-ply,SBD,M
Boys,82.1,16,Luke Garza,Bay City,80.29,124.74,65.77,113.4,303.91,Single-ply,SBD,M
Boys,82.1,DQ,Jorge Carli,Bay City,82.1,,,,,Single-ply,SBD,M
Boys,82.1,DQ,Richard Gyamfi,Houston Madison,82.1,,,,,Single-ply,SBD,M
Boys,82.1,DQ,Marcus Mathews,La Marque,76.57,124.74,,,,Single-ply,SBD,M
Boys,82.1,DQ,Jayden Bishop,La Marque,75.84,115.67,,,,Single-ply,SBD,M
Boys,82.1,DQ,Ashanti Walker,Texas City,78.83,,,,,Single-ply,SBD,M
Boys,89.81,1,David Caddie,Livingston,85.73,229.06,142.88,233.6,605.55,Single-ply,SBD,M
Boys,89.81,2,Reese Thompson,La Porte,86.82,213.19,142.88,215.46,571.53,Single-ply,SBD,M
Boys,89.81,3,Keithon Johnson,Shepherd,89.81,210.92,133.81,219.99,564.72,Single-ply,SBD,M
Boys,89.81,4,Dylan Bates,Conroe Oak Ridge,83.46,215.46,129.27,195.04,539.77,Single-ply,SBD,M
Boys,89.81,5,Ezra Betancud,Katy Mayde Creek,87.72,199.58,124.74,199.58,523.9,Single-ply,SBD,M
Boys,99.79,6,Adrian Ruiz,Bay City,89.99,183.7,161.03,176.9,521.63,Single-ply,SBD,M
Boys,89.81,7,Jaylen Brown,Katy Mayde Creek,89.18,174.63,136.08,204.12,514.83,Single-ply,SBD,M
Boys,89.81,8,Gavin Franklin,Conroe Oak Ridge,89.81,170.1,129.27,190.51,489.88,Single-ply,SBD,M
Boys,89.81,9,Charles Hester,Stafford,84.73,179.17,124.74,183.7,487.61,Single-ply,SBD,M
Boys,89.81,10,Hunter Bland,Livingston,85.28,204.12,104.33,174.63,483.08,Single-ply,SBD,M
Boys,89.81,11,JaCorien Barnes,Port Arthur Memorial,85.09,195.04,106.59,174.63,476.27,Single-ply,SBD,M
Boys,89.81,12,Terrell Bernard,La Porte,88.72,174.63,131.54,158.76,464.93,Single-ply,SBD,M
Boys,89.81,13,Sean Castillo,La Porte,84.37,183.7,111.13,161.03,455.86,Single-ply,SBD,M
Boys,89.81,14,Chris Ponder,Texas City,86.45,158.76,120.2,165.56,444.52,Single-ply,SBD,M
Boys,89.81,15,Marcelo Acosta,Clute Brazoswood,86.18,151.95,99.79,170.1,421.84,Single-ply,SBD,M
Boys,89.81,16,Christian Reza,Beaumont Ozen,83.1,147.42,102.06,151.95,401.43,Single-ply,SBD,M
Boys,89.81,17,Tyler Ray,Santa Fe,86.64,161.03,74.84,165.56,401.43,Single-ply,SBD,M
Boys,89.81,18,Keshawn Wells,La Porte,84.28,145.15,92.99,158.76,396.89,Single-ply,SBD,M
Boys,89.81,19,John Bryant,Bay City,89.54,122.47,90.72,167.83,381.02,Single-ply,SBD,M
Boys,89.81,20,Trey Heckendorn,Clute Brazoswood,86.64,133.81,83.91,156.49,374.21,Single-ply,SBD,M
Boys,89.81,21,Luis Deleon,Pasadena Memorial,88.81,102.06,79.38,136.08,317.51,Single-ply,SBD,M
Boys,89.81,22,Benmar Vasque,Houston Westbury,83.1,124.74,61.23,90.72,276.69,Single-ply,SBD,M
Boys,89.81,DQ,Richard Ward,Houston Madison,89.81,,,,,Single-ply,SBD,M
Boys,99.79,1,Germain Zuiga,Pasadena Rayburn,96.89,242.67,181.44,231.33,655.44,Single-ply,SBD,M
Boys,99.79,2,Kyle Haynes,Livingston,99.34,226.8,142.88,215.46,585.13,Single-ply,SBD,M
Boys,99.79,3,Joe Thomas,Beaumont Ozen,94.8,204.12,127.01,242.67,573.79,Single-ply,SBD,M
Boys,99.79,4,Dakota Bailey,Shepherd,98.43,226.8,111.13,204.12,542.04,Single-ply,SBD,M
Boys,99.79,5,Christopher Hodges,Livingston,93.89,201.85,120.2,213.19,535.24,Single-ply,SBD,M
Boys,99.79,6,Elijah Ellis,Bay City,93.17,219.99,111.13,197.31,528.44,Single-ply,SBD,M
Boys,99.79,7,John Moye,Shepherd,91.17,199.58,120.2,192.78,512.56,Single-ply,SBD,M
Boys,99.79,8,Colby Clark,Shepherd,93.44,192.78,131.54,161.03,485.34,Single-ply,SBD,M
Boys,99.79,9,Martin Muniz,Pasadena Rayburn,91.17,174.63,97.52,195.04,467.2,Single-ply,SBD,M
Boys,99.79,10,Vincent Gutierrez,Pasadena Dobie,96.98,167.83,113.4,176.9,458.13,Single-ply,SBD,M
Boys,99.79,11,Beaux Castillo,Santa Fe,97.52,176.9,106.59,170.1,453.59,Single-ply,SBD,M
Boys,99.79,12,Miguel Castellanos,Conroe Oak Ridge,98.88,174.63,127.01,147.42,449.06,Single-ply,SBD,M
Boys,99.79,13,Tahj Gullard,Houston Westbury,99.43,176.9,74.84,170.1,421.84,Single-ply,SBD,M
Boys,99.79,14,Elfonso Vargas,Clute Brazoswood,94.8,142.88,92.99,156.49,392.36,Single-ply,SBD,M
Boys,99.79,15,Mykel Thomas,Port Arthur Memorial,91.9,145.15,99.79,145.15,390.09,Single-ply,SBD,M
Boys,99.79,16,Edgar Gaona,Houston Westbury,95.25,142.88,74.84,167.83,385.55,Single-ply,SBD,M
Boys,99.79,17,Tyler Danford,Clute Brazoswood,97.98,151.95,65.77,161.03,378.75,Single-ply,SBD,M
Boys,99.79,18,Joshua Hall,Pasadena Memorial,98.97,127.01,81.65,163.29,371.95,Single-ply,SBD,M
Boys,99.79,19,Antoine Newman,Houston Madison,96.98,115.67,74.84,158.76,349.27,Single-ply,SBD,M
Boys,99.79,20,N Withers,Beaumont Ozen,91.17,92.99,79.38,136.08,308.44,Single-ply,SBD,M
Boys,99.79,21,Jacob Salazar,Stafford,92.99,111.13,68.04,129.27,308.44,Single-ply,SBD,M
Boys,99.79,DQ,Chris Rios,Pasadena Memorial,99.79,,,,,Single-ply,SBD,M
Boys,99.79,DQ,Djani Armstrong,Beaumont Ozen,95.8,,,,,Single-ply,SBD,M
Boys,99.79,DQ,Catarino Moreno,Shepherd,98.16,188.24,,,,Single-ply,SBD,M
Boys,99.79,DQ,Dagmon Driggs,Pearland,98.7,161.03,,,,Single-ply,SBD,M
Boys,109.77,1,Ronnie Fraser,Pearland,109.23,242.67,167.83,240.4,650.91,Single-ply,SBD,M
Boys,109.77,2,Lorenzo Baeza,Texas City,106.32,249.48,158.76,204.12,612.35,Single-ply,SBD,M
Boys,109.77,3,Cedric Green,Shepherd,107.5,251.74,133.81,192.78,578.33,Single-ply,SBD,M
Boys,109.77,4,Deandre Washington,Beaumont Ozen,105.51,215.46,145.15,195.04,555.65,Single-ply,SBD,M
Boys,124.74,5,Sean Hunt,Pasadena Rayburn,109.86,185.97,142.88,201.85,530.7,Single-ply,SBD,M
Boys,109.77,6,Prince Flye,Bay City,105.41,217.72,124.74,183.7,526.17,Single-ply,SBD,M
Boys,109.77,7,Andre Salazar,Pearland,100.97,197.31,124.74,183.7,505.76,Single-ply,SBD,M
Boys,109.77,8,Eddie White,Pearland,102.51,188.24,133.81,183.7,505.76,Single-ply,SBD,M
Boys,109.77,9,Niko Afuhaamango,Pearland,106.78,195.04,129.27,179.17,503.49,Single-ply,SBD,M
Boys,109.77,10,Daius Fisher,Pasadena Rayburn,108.23,183.7,124.74,183.7,492.15,Single-ply,SBD,M
Boys,109.77,11,Kolin Seward,Livingston,109.32,206.38,111.13,174.63,492.15,Single-ply,SBD,M
Boys,109.77,12,Casey Williams,Port Arthur Memorial,102.78,195.04,124.74,170.1,489.88,Single-ply,SBD,M
Boys,109.77,13,Eric Kendzior,La Porte,103.87,192.78,106.59,183.7,483.08,Single-ply,SBD,M
Boys,124.74,14,Kainen Collins,Port Arthur Memorial,109.86,183.7,108.86,183.7,476.27,Single-ply,SBD,M
Boys,109.77,15,Luke MacLennan,Bay City,107.14,181.44,111.13,181.44,474,Single-ply,SBD,M
Boys,109.77,16,Lance Zeno,Beaumont Ozen,101.24,158.76,127.01,181.44,467.2,Single-ply,SBD,M
Boys,109.77,17,Zach Battle,Bay City,102.97,165.56,90.72,165.56,421.84,Single-ply,SBD,M
Boys,109.77,18,Brett Hull,Pasadena Memorial,100.24,151.95,92.99,170.1,415.04,Single-ply,SBD,M
Boys,109.77,19,Arthur Harmon,Beaumont Ozen,105.69,145.15,97.52,163.29,405.97,Single-ply,SBD,M
Boys,109.77,20,Pedro Alba,Pasadena Dobie,106.23,142.88,95.25,158.76,396.89,Single-ply,SBD,M
Boys,109.77,21,Frank Camacho,Pasadena Dobie,109.41,136.08,92.99,158.76,387.82,Single-ply,SBD,M
Boys,109.77,22,Chase Yates,Santa Fe,105.23,226.8,142.88,,369.68,Single-ply,SB,M
Boys,109.77,DQ,Contrell Green-Warren,Conroe Oak Ridge,109.77,,,,,Single-ply,SB,M
Boys,109.77,DQ,Conner Sloan,Katy Mayde Creek,105.41,165.56,88.45,,,Single-ply,SB,M
Boys,109.77,DQ,Erik Pare-Jacobs,Pasadena Rayburn,104.96,151.95,,,,Single-ply,SB,M
Boys,124.74,1,Young Troung,Pasadena Dobie,124.1,251.74,204.12,265.35,721.21,Single-ply,SBD,M
Boys,124.74,2,Brandon Jackson,Port Arthur Memorial,119.2,251.74,154.22,226.8,632.76,Single-ply,SBD,M
Boys,124.74,3,Zach Arias,Pearland,122.83,219.99,147.42,224.53,591.94,Single-ply,SBD,M
Boys,124.74,4,Malcolm Pringle,Houston Westbury,112.22,229.06,145.15,215.46,589.67,Single-ply,SBD,M
Boys,124.74,5,Kyler Gentry,Santa Fe,120.2,215.46,138.35,197.31,551.11,Single-ply,SBD,M
Boys,124.74,6,Michael Onyeugo,Katy Mayde Creek,114.4,183.7,106.59,192.78,483.08,Single-ply,SBD,M
Boys,124.74,7,Coy Combs,La Porte,120.66,192.78,97.52,183.7,474,Single-ply,SBD,M
Boys,124.74,8,Anthony Salazar,Texas City,114.76,183.7,120.2,165.56,469.47,Single-ply,SBD,M
Boys,124.74,9,Paul Guevera,Clute Brazoswood,111.58,174.63,106.59,179.17,460.4,Single-ply,SBD,M
Boys,124.74,10,Jimmy Powell,Santa Fe,118.84,161.03,111.13,183.7,455.86,Single-ply,SBD,M
Boys,124.74,11,Joseph Sylvester,Shepherd,123.38,136.08,124.74,174.63,435.45,Single-ply,SBD,M
Boys,124.74,12,Diante Granger,Beaumont Ozen,118.02,145.15,99.79,181.44,426.38,Single-ply,SBD,M
Boys,124.74,13,Santos Lazos,Clute Brazoswood,119.75,158.76,92.99,161.03,412.77,Single-ply,SBD,M
Boys,124.74,14,Jessie Facundo,Pasadena Memorial,110.59,172.37,108.86,,281.23,Single-ply,SB,M
Boys,124.74,DQ,Tylor Alfred,Pasadena Memorial,124.74,,,,,Single-ply,SB,M
Boys,124.74,DQ,Miguel Reyes,Pasadena Memorial,124.74,,,,,Single-ply,SB,M
Boys,124.74,DQ,Deshondric Selman,Beaumont Ozen,113.49,,,,,Single-ply,SB,M
Boys,124.74,DQ,Andrew Velasco,Katy Mayde Creek,120.29,226.8,140.61,,,Single-ply,SB,M
Boys,124.74,DQ,Bayden Pethal,Texas City,120.2,174.63,113.4,,,Single-ply,SB,M
Boys,124.74+,1,Alex Hernandez,Pasadena Rayburn,127.28,247.21,113.4,217.72,578.33,Single-ply,SBD,M
Boys,124.74+,2,Quinlan Beck,Shepherd,137.44,210.92,140.61,222.26,573.79,Single-ply,SBD,M
Boys,124.74+,3,Jordan Johnson,Livingston,127.01,204.12,163.29,188.24,555.65,Single-ply,SBD,M
Boys,124.74+,4,Brandon Artis,Port Arthur Memorial,130.54,204.12,133.81,217.72,555.65,Single-ply,SBD,M
Boys,124.74+,5,Gino Cortez,Pearland,131.9,215.46,151.95,188.24,555.65,Single-ply,SBD,M
Boys,124.74+,6,Aymiel Fleming,La Marque,130.27,197.31,151.95,199.58,548.85,Single-ply,SBD,M
Boys,124.74+,7,William Tinner,La Marque,135.08,197.31,138.35,197.31,532.97,Single-ply,SBD,M
Boys,124.74+,8,Bryan Hayes,La Porte,140.61,201.85,131.54,197.31,530.7,Single-ply,SBD,M
Boys,124.74+,9,Devyn Billiott,La Marque,125.46,210.92,106.59,190.51,508.02,Single-ply,SBD,M
Boys,124.74+,10,Seth Lambert,Clute Brazoswood,132,183.7,113.4,206.38,503.49,Single-ply,SBD,M
Boys,124.74+,11,Jacob Ford,Clute Brazoswood,131.09,188.24,92.99,206.38,487.61,Single-ply,SBD,M
Boys,124.74+,12,Ambrows Moreland,Beaumont Ozen,148.14,188.24,104.33,188.24,480.81,Single-ply,SBD,M
Boys,124.74+,13,Kevin Maddox,Houston Madison,153.68,183.7,111.13,181.44,476.27,Single-ply,SBD,M
Boys,124.74+,14,Marlon Ford,La Marque,157.12,124.74,81.65,165.56,371.95,Single-ply,SBD,M
Boys,124.74+,DQ,Manuel Mendez,Pasadena Memorial,125.19,,,,,Single-ply,SBD,M
Boys,124.74+,DQ,Lamonta Montgomery,Houston Madison,125.19,,,,,Single-ply,SBD,M
Boys,124.74+,DQ,Kaleb Allen,Port Arthur Memorial,137.53,183.7,,,,Single-ply,SBD,M
Boys,124.74+,DQ,Trevion Benoit,Houston Madison,143.52,190.51,,,,Single-ply,SBD,M
