Division,WeightClassKg,Place,Name,Team,BodyweightKg,Best3SquatKg,Best3BenchKg,Best3DeadliftKg,TotalKg,Equipment,Event,Sex
Boys,51.71,1,Avery Gallegos,Plainview,50.44,124.74,70.31,122.47,317.51,Single-ply,SBD,M
Boys,51.71,2,Cameron Counts,Borger,50.98,95.25,47.63,106.59,249.48,Single-ply,SBD,M
Boys,51.71,3,Lincoln Wise,Bushland,46.99,86.18,43.09,81.65,210.92,Single-ply,SBD,M
Boys,51.71,4,Nathan Boulom,Amarillo Highland Park,50.89,70.31,38.56,102.06,210.92,Single-ply,SBD,M
Boys,55.79,1,Corbin Byrd,Dalhart,55.34,138.35,77.11,129.27,344.73,Single-ply,SBD,M
Boys,55.79,2,Preston Mann,Amarillo Highland Park,53.61,122.47,74.84,136.08,333.39,Single-ply,SBD,M
Boys,59.87,1,Ceasar Luther,Perryton,59.42,154.22,99.79,172.37,426.38,Single-ply,SBD,M
Boys,59.87,2,Jonathan Villareal,Plainview,58.97,149.69,95.25,163.29,408.23,Single-ply,SBD,M
Boys,59.87,3,Billy Lee,Amarillo Highland Park,59.51,142.88,97.52,167.83,408.23,Single-ply,SBD,M
Boys,59.87,4,Bryan Nguyen,Amarillo Highland Park,58.79,136.08,83.91,163.29,383.29,Single-ply,SBD,M
Boys,59.87,5,Uriel Ibanez,Dumas,59.87,115.67,70.31,138.35,324.32,Single-ply,SBD,M
Boys,59.87,6,Josh Pavez,Panhandle,58.15,102.06,65.77,124.74,292.57,Single-ply,SBD,M
Boys,67.13,1,Josue Becerril,Perryton,66.86,195.04,122.47,215.46,532.97,Single-ply,SBD,M
Boys,67.13,2,Matthew Cano,Perryton,65.86,190.51,113.4,185.97,489.88,Single-ply,SBD,M
Boys,67.13,3,Gus Garcia,Plainview,66.22,179.17,111.13,181.44,471.74,Single-ply,SBD,M
Boys,67.13,4,Joseph Jenkins,Perryton,66.86,188.24,106.59,174.63,469.47,Single-ply,SBD,M
Boys,67.13,5,Walker Voyles,Vega,65.68,165.56,79.38,161.03,405.97,Single-ply,SBD,M
Boys,67.13,6,Carter Neil,Panhandle,66.22,156.49,86.18,161.03,403.7,Single-ply,SBD,M
Boys,67.13,7,John Chavez,Plainview,66.13,142.88,95.25,151.95,390.09,Single-ply,SBD,M
Boys,67.13,8,Dillon Cotton,White Deer,64.05,133.81,92.99,154.22,381.02,Single-ply,SBD,M
Boys,67.13,9,Kade Tinsley,Bushland,62.51,147.42,81.65,147.42,376.48,Single-ply,SBD,M
Boys,67.13,10,Thane Adams,Panhandle,63.5,145.15,88.45,142.88,376.48,Single-ply,SBD,M
Boys,67.13,11,Timmothy Dettle,Dalhart,66.86,142.88,81.65,151.95,376.48,Single-ply,SBD,M
Boys,67.13,12,Kenny Ramirez,Perryton,66.32,142.88,83.91,147.42,374.21,Single-ply,SBD,M
Boys,67.13,13,Jeb Skiles,Vega,65.68,142.88,63.5,158.76,365.14,Single-ply,SBD,M
Boys,67.13,14,Hector Borunda,Dumas,67.13,136.08,70.31,151.95,358.34,Single-ply,SBD,M
Boys,67.13,15,Kenny Diaz,Amarillo Highland Park,65.95,124.74,81.65,149.69,356.07,Single-ply,SBD,M
Boys,67.13,16,Ernest Godino,Plainview,60.6,136.08,74.84,140.61,351.53,Single-ply,SBD,M
Boys,67.13,17,Christopher Coffee,Panhandle,66.13,147.42,61.23,140.61,349.27,Single-ply,SBD,M
Boys,67.13,18,Eric McGee,Dumas,63.5,129.27,74.84,140.61,344.73,Single-ply,SBD,M
Boys,67.13,19,Francisco Guerrero,Dalhart,63.59,113.4,74.84,127.01,315.25,Single-ply,SBD,M
Boys,67.13,20,Jamie Velazquez,Panhandle,64.23,108.86,61.23,124.74,294.84,Single-ply,SBD,M
Boys,67.13,DQ,Levi Condren,Borger,63.87,129.27,,,,Single-ply,SBD,M
Boys,74.84,1,Jonathan Chavira,Dumas,74.21,208.65,131.54,226.8,566.99,Single-ply,SBD,M
Boys,74.84,2,Jayden Shaver,Panhandle,72.03,176.9,111.13,174.63,462.66,Single-ply,SBD,M
Boys,74.84,3,Faustino Lopez,Plainview,73.94,167.83,99.79,174.63,442.25,Single-ply,SBD,M
Boys,74.84,4,Sebastian Perez,Vega,71.67,158.76,88.45,185.97,433.18,Single-ply,SBD,M
Boys,74.84,5,Keagan Knight,Dalhart,74.84,165.56,92.99,156.49,415.04,Single-ply,SBD,M
Boys,74.84,6,Eric Soto,Plainview,69.76,156.49,92.99,161.03,410.5,Single-ply,SBD,M
Boys,74.84,7,Josh Prather,Panhandle,70.58,174.63,83.91,151.95,410.5,Single-ply,SBD,M
Boys,74.84,8,Damien Gonzalez,Perryton,71.4,151.95,86.18,167.83,405.97,Single-ply,SBD,M
Boys,82.1,1,Anthony Aguilar,Dalhart,82.1,179.17,113.4,190.51,483.08,Single-ply,SBD,M
Boys,82.1,2,Usbaldo Zarate,Dalhart,75.84,181.44,102.06,192.78,476.27,Single-ply,SBD,M
Boys,82.1,3,Carson Smith,Dalhart,81.19,174.63,115.67,174.63,464.93,Single-ply,SBD,M
Boys,82.1,4,Danny Hillyer,Borger,79.83,158.76,111.13,190.51,460.4,Single-ply,SBD,M
Boys,82.1,5,Logan Terrell,Bushland,76.66,136.08,111.13,206.38,453.59,Single-ply,SBD,M
Boys,82.1,6,Tru Gibson,Bushland,78.56,151.95,79.38,158.76,390.09,Single-ply,SBD,M
Boys,82.1,7,Jordyn Vasquez,Plainview,77.75,147.42,83.91,136.08,367.41,Single-ply,SBD,M
Boys,82.1,8,Matt Anders,Amarillo Highland Park,77.93,113.4,83.91,163.29,360.61,Single-ply,SBD,M
Boys,82.1,9,Tony Segura,Panhandle,80.01,127.01,56.7,140.61,324.32,Single-ply,SBD,M
Boys,82.1,10,Josue Flores,Borger,77.75,104.33,63.5,136.08,303.91,Single-ply,SBD,M
Boys,89.81,1,Isaac Castillo,Plainview,85,213.19,129.27,181.44,523.9,Single-ply,SBD,M
Boys,89.81,2,Mason Lowman,Borger,89.09,181.44,113.4,215.46,510.29,Single-ply,SBD,M
Boys,89.81,3,Arturo Lopez,Perryton,85,199.58,115.67,176.9,492.15,Single-ply,SBD,M
Boys,89.81,4,Preston Love,Bushland,89.63,183.7,97.52,172.37,453.59,Single-ply,SBD,M
Boys,89.81,5,Ricky Judy,Amarillo Highland Park,89.81,158.76,111.13,158.76,428.64,Single-ply,SBD,M
Boys,89.81,6,Joel Chavez,Plainview,84.01,156.49,86.18,145.15,387.82,Single-ply,SBD,M
Boys,99.79,1,Ryan Ortiz,Dalhart,93.44,265.35,122.47,204.12,591.94,Single-ply,SBD,M
Boys,99.79,2,David Navarrete,Perryton,99.43,215.46,145.15,206.38,566.99,Single-ply,SBD,M
Boys,99.79,3,Augustine Galvan-Vega,Amarillo Highland Park,97.61,201.85,117.93,204.12,523.9,Single-ply,SBD,M
Boys,99.79,4,Matt Trinh,Amarillo Highland Park,96.62,183.7,115.67,185.97,485.34,Single-ply,SBD,M
Boys,99.79,5,Anthony Bui #2,Amarillo Highland Park,94.62,172.37,106.59,174.63,453.59,Single-ply,SBD,M
Boys,99.79,6,Andrew Rodriguez,Bushland,96.52,158.76,111.13,183.7,453.59,Single-ply,SBD,M
Boys,99.79,7,Luke Terrell,Bushland,93.53,151.95,106.59,183.7,442.25,Single-ply,SBD,M
Boys,99.79,8,Wade Alexander,Panhandle,94.8,151.95,74.84,161.03,387.82,Single-ply,SBD,M
Boys,99.79,DQ,Esteban Moralez,Dumas,96.16,,,,,Single-ply,SBD,M
Boys,109.77,1,Israel Uribe,Perryton,109.5,251.74,117.93,222.26,591.94,Single-ply,SBD,M
Boys,109.77,2,Garrett Barnett,Panhandle,108.5,231.33,133.81,213.19,578.33,Single-ply,SBD,M
Boys,109.77,3,Ivan Perez,Amarillo Highland Park,104.78,201.85,92.99,181.44,476.27,Single-ply,SBD,M
Boys,109.77,4,Miguel Celis,Perryton,105.69,183.7,113.4,179.17,476.27,Single-ply,SBD,M
Boys,109.77,5,Lorenzo Valdez,Borger,106.23,183.7,111.13,172.37,467.2,Single-ply,SBD,M
Boys,109.77,6,Daniel Byers,Panhandle,107.5,181.44,108.86,172.37,462.66,Single-ply,SBD,M
Boys,109.77,7,Jaziel Torres,Borger,100.79,179.17,111.13,154.22,444.52,Single-ply,SBD,M
Boys,109.77,8,Nash Stewart,Perryton,102.33,156.49,90.72,151.95,399.16,Single-ply,SBD,M
Boys,124.74,1,Yordi Hernandez,Perryton,119.75,249.48,151.95,247.21,648.64,Single-ply,SBD,M
Boys,124.74,2,Frank Gallegos,Dalhart,116.3,238.14,190.51,195.04,623.69,Single-ply,SBD,M
Boys,124.74,3,Rey Heredia,Borger,119.93,242.67,124.74,197.31,564.72,Single-ply,SBD,M
Boys,124.74,4,Omar Hernandez,Dumas,117.39,226.8,124.74,206.38,557.92,Single-ply,SBD,M
Boys,124.74,5,Cooper Lackie,Dalhart,123.38,204.12,136.08,204.12,544.31,Single-ply,SBD,M
Boys,124.74,6,Nathaniel Traylor,Dumas,118.93,226.8,113.4,195.04,535.24,Single-ply,SBD,M
Boys,124.74,7,Cody Mays,Vega,111.86,206.38,97.52,199.58,503.49,Single-ply,SBD,M
Boys,124.74,8,Christian Garza,Plainview,124.28,176.9,111.13,183.7,471.74,Single-ply,SBD,M
Boys,124.74,9,Cole Bacon,Panhandle,118.48,185.97,83.91,181.44,451.32,Single-ply,SBD,M
Boys,124.74,10,Richard Laurel,Borger,114.94,136.08,90.72,188.24,415.04,Single-ply,SBD,M
Boys,124.74,11,Jackson Kuehler,Panhandle,123.56,120.2,88.45,142.88,351.53,Single-ply,SBD,M
Boys,124.74+,1,Jaden Massey,Dalhart,147.42,283.5,183.7,226.8,694,Single-ply,SBD,M
Boys,124.74+,2,Tytus Williams,Borger,132.36,258.55,136.08,249.48,644.1,Single-ply,SBD,M
Boys,124.74+,3,Eli Hernandez,Dumas,126.1,238.14,136.08,226.8,601.01,Single-ply,SBD,M
Boys,124.74+,4,John Davis,Bushland,139.53,88.45,74.84,113.4,276.69,Single-ply,SBD,M
