Division,WeightClassKg,Place,Name,Team,BodyweightKg,Best3SquatKg,Best3BenchKg,Best3DeadliftKg,TotalKg,Equipment,Event,Sex
Boys,51.71,1,Dylan Elkins,Needville,49.71,111.13,79.38,113.4,303.91,Single-ply,SBD,M
Boys,51.71,2,Brandon Nguyen,Palacios,51.44,95.25,52.16,120.2,267.62,Single-ply,SBD,M
Boys,51.71,3,Chris Jones,Hallettsville,47.54,72.57,43.09,81.65,197.31,Single-ply,SBD,M
Boys,55.79,1,Jonathan Hardaway,Edna,55.7,136.08,97.52,163.29,396.89,Single-ply,SBD,M
Boys,55.79,2,Ruben Rivera,El Campo,54.88,111.13,79.38,151.95,342.46,Single-ply,SBD,M
Boys,55.79,3,Conner Cross,Cuero,55.43,111.13,61.23,122.47,294.84,Single-ply,SBD,M
Boys,55.79,4,Vuong Nguyen,Palacios,53.8,99.79,58.97,129.27,288.03,Single-ply,SBD,M
Boys,55.79,5,Karsin Klimitchek,Vanderbilt Industrial,53.16,97.52,52.16,95.25,244.94,Single-ply,SBD,M
Boys,55.79,6,Jacob Ryder,Needville,54.43,86.18,58.97,92.99,238.14,Single-ply,SBD,M
Boys,59.87,1,David Fercado,Palacios,58.06,138.35,81.65,149.69,369.68,Single-ply,SBD,M
Boys,59.87,2,Chaz Vercher,Needville,57.61,120.2,90.72,129.27,340.19,Single-ply,SBD,M
Boys,59.87,3,Jerry Carrasoca,El Campo,59.87,120.2,79.38,136.08,335.66,Single-ply,SBD,M
Boys,59.87,4,Kristian Grifaldo,Edna,57.61,136.08,72.57,124.74,333.39,Single-ply,SBD,M
Boys,59.87,5,Stone Schoenfeld,Cuero,59.33,124.74,61.23,131.54,317.51,Single-ply,SBD,M
Boys,59.87,6,Jeremy Johnson,Edna,56.7,104.33,79.38,124.74,308.44,Single-ply,SBD,M
Boys,74.84,1,Nathan Markiewicz,Edna,67.27,204.12,115.67,195.04,514.83,Single-ply,SBD,M
Boys,67.13,2,Bryan Pham,Palacios,64.86,192.78,95.25,206.38,494.42,Single-ply,SBD,M
Boys,74.84,3,Matthew Nguyen,Palacios,67.31,158.76,88.45,192.78,439.98,Single-ply,SBD,M
Boys,67.13,4,Jeremy Jarrett,Edna,66.68,154.22,90.72,165.56,410.5,Single-ply,SBD,M
Boys,67.13,5,Joe Flores,El Campo,62.14,147.42,108.86,149.69,405.97,Single-ply,SBD,M
Boys,67.13,6,Kameron Lattimore,Needville,63.87,145.15,79.38,165.56,390.09,Single-ply,SBD,M
Boys,67.13,7,Aaron Prasek,Hallettsville,60.42,108.86,77.11,158.76,344.73,Single-ply,SBD,M
Boys,67.13,8,Coco Taylor,Bay City,62.05,115.67,92.99,129.27,337.93,Single-ply,SBD,M
Boys,67.13,9,Sammy Garcia,Needville,65.59,111.13,81.65,136.08,328.85,Single-ply,SBD,M
Boys,67.13,10,Kollin Smith,Ganado,61.96,108.86,79.38,120.2,308.44,Single-ply,SBD,M
Boys,67.13,11,Tristan Thomas,Edna,61.23,102.06,63.5,124.74,290.3,Single-ply,SBD,M
Boys,67.13,12,Ke'Von Brown,Edna,65.77,70.31,52.16,113.4,235.87,Single-ply,SBD,M
Boys,67.13,DQ,Trey McDonald,Ganado,66.32,158.76,79.38,,,Single-ply,SBD,M
Boys,67.13,DQ,Billy Luster,El Maton Tidehaven,64.68,145.15,,,,Single-ply,SBD,M
Boys,67.13,DQ,Kenderick Scott,Needville,65.14,122.47,,154.22,,Single-ply,SBD,M
Boys,67.13,DQ,Waylon Jackson,Bay City,64.32,,95.25,145.15,,Single-ply,SBD,M
Boys,74.84,1,Daniel Dominguez,El Campo,73.12,226.8,145.15,215.46,587.4,Single-ply,SBD,M
Boys,74.84,2,Tyler Sample,Edna,73.94,185.97,108.86,183.7,478.54,Single-ply,SBD,M
Boys,74.84,3,Juan Lopez,Palacios,74.75,151.95,95.25,208.65,455.86,Single-ply,SBD,M
Boys,74.84,4,Travis Parks,El Maton Tidehaven,70.22,158.76,86.18,174.63,419.57,Single-ply,SBD,M
Boys,74.84,5,Cutberto Ramos,Ganado,68.22,149.69,92.99,158.76,401.43,Single-ply,SBD,M
Boys,74.84,6,Sean Dannels,El Maton Tidehaven,74.3,136.08,90.72,145.15,371.95,Single-ply,SBD,M
Boys,74.84,7,Bill Rodriquez,Cuero,72.57,147.42,68.04,142.88,358.34,Single-ply,SBD,M
Boys,74.84,8,Brandon Brewer,Cuero,70.76,142.88,68.04,136.08,347,Single-ply,SBD,M
Boys,74.84,9,Cameron Nicholson,Hallettsville,72.39,102.06,72.57,120.2,294.84,Single-ply,SBD,M
Boys,74.84,10,Dillon Kuhlman,Ganado,68.22,90.72,63.5,,154.22,Single-ply,SB,M
Boys,74.84,DQ,Jesus Olivera,El Campo,70.31,,,,,Single-ply,SB,M
Boys,74.84,DQ,Seth Thamm,Cuero,73.03,,,,,Single-ply,SB,M
Boys,82.1,1,Greg Sexton,Palacios,75.48,172.37,99.79,204.12,476.27,Single-ply,SBD,M
Boys,82.1,2,Rj Densen,Needville,76.66,158.76,108.86,204.12,471.74,Single-ply,SBD,M
Boys,82.1,3,Ian Luechemeyer,Cuero,78.02,154.22,115.67,201.85,471.74,Single-ply,SBD,M
Boys,82.1,4,Chris Garcia,Palacios,80.2,151.95,127.01,192.78,471.74,Single-ply,SBD,M
Boys,82.1,5,Ahmad Johnson,Bay City,80.2,170.1,115.67,183.7,469.47,Single-ply,SBD,M
Boys,82.1,6,Stephen Zwahr,Needville,82.1,151.95,108.86,195.04,455.86,Single-ply,SBD,M
Boys,89.81,7,Joseph Woodson,El Maton Tidehaven,82.28,158.76,92.99,190.51,442.25,Single-ply,SBD,M
Boys,82.1,8,Brandon Tomek,Bay City,78.11,170.1,81.65,181.44,433.18,Single-ply,SBD,M
Boys,82.1,9,Charles Hill,Vanderbilt Industrial,76.02,145.15,86.18,167.83,399.16,Single-ply,SBD,M
Boys,82.1,10,Ryan Sauceda,Bay City,77.02,147.42,83.91,165.56,396.89,Single-ply,SBD,M
Boys,82.1,11,Jerome Vernon,El Maton Tidehaven,78.83,147.42,83.91,142.88,374.21,Single-ply,SBD,M
Boys,82.1,12,Cade Cihal,Ganado,77.93,136.08,83.91,151.95,371.95,Single-ply,SBD,M
Boys,82.1,13,Blake Reeve,Cuero,77.29,122.47,81.65,142.88,347,Single-ply,SBD,M
Boys,82.1,DQ,Jordan Branum,Vanderbilt Industrial,77.56,,81.65,113.4,,Single-ply,SBD,M
Boys,89.81,1,Marcus Ferree,Palacios,87.63,215.46,145.15,229.06,589.67,Single-ply,SBD,M
Boys,89.81,2,Juan Escamilla,Needville,89.18,181.44,133.81,206.38,521.63,Single-ply,SBD,M
Boys,89.81,3,Koley Karl,Edna,88.45,204.12,120.2,183.7,508.02,Single-ply,SBD,M
Boys,89.81,4,Jose Vasquez,Needville,88.18,176.9,111.13,199.58,487.61,Single-ply,SBD,M
Boys,99.79,5,Anthony Aguirre,El Campo,89.99,165.56,90.72,147.42,403.7,Single-ply,SBD,M
Boys,89.81,6,Eddie Moreno,El Campo,87.09,127.01,88.45,158.76,374.21,Single-ply,SBD,M
Boys,89.81,7,Chris Mejias,Bay City,86.09,117.93,106.59,113.4,337.93,Single-ply,SBD,M
Boys,99.79,1,Case Silliman,Ganado,92.17,197.31,108.86,204.12,510.29,Single-ply,SBD,M
Boys,99.79,2,Austin Smalley,Vanderbilt Industrial,93.62,183.7,122.47,204.12,510.29,Single-ply,SBD,M
Boys,99.79,3,Michael Garcia,Palacios,99.25,190.51,117.93,199.58,508.02,Single-ply,SBD,M
Boys,99.79,4,Clint Sbrusch,Edna,91.17,181.44,133.81,181.44,496.68,Single-ply,SBD,M
Boys,99.79,5,Cole Stevenson,Cuero,98.88,149.69,92.99,149.69,392.36,Single-ply,SBD,M
Boys,99.79,6,Joey Wysatta,Hallettsville,98.88,117.93,79.38,111.13,308.44,Single-ply,SBD,M
Boys,109.77,1,Adam Aucoin,Palacios,104.6,251.74,147.42,217.72,616.89,Single-ply,SBD,M
Boys,109.77,2,Edwin Morales,Needville,107.14,217.72,113.4,222.26,553.38,Single-ply,SBD,M
Boys,109.77,3,Tyler Rush,El Maton Tidehaven,100.79,201.85,106.59,179.17,487.61,Single-ply,SBD,M
Boys,109.77,4,Tyler Gorman,Ganado,104.42,183.7,97.52,192.78,474,Single-ply,SBD,M
Boys,109.77,5,Logan Robinson,Edna,109.59,127.01,83.91,188.24,399.16,Single-ply,SBD,M
Boys,124.74,6,Alex Palomares,Bay City,109.86,147.42,77.11,113.4,337.93,Single-ply,SBD,M
Boys,109.77,7,Hudson Haas,Cuero,108.32,133.81,65.77,113.4,312.98,Single-ply,SBD,M
Boys,124.74,8,Dustin Bachus,Edna,109.86,90.72,70.31,106.59,267.62,Single-ply,SBD,M
Boys,124.74,1,Anthony Parks,Ganado,119.57,226.8,158.76,192.78,578.33,Single-ply,SBD,M
Boys,124.74,2,Justin Rooks,Edna,115.94,215.46,117.93,199.58,532.97,Single-ply,SBD,M
Boys,124.74,3,Brody DeForest,El Maton Tidehaven,110.13,179.17,108.86,185.97,474,Single-ply,SBD,M
Boys,124.74,4,Denton Lesak,Ganado,114.94,181.44,95.25,188.24,464.93,Single-ply,SBD,M
Boys,124.74,5,Luke Stevenson,Cuero,114.49,158.76,106.59,149.69,415.04,Single-ply,SBD,M
Boys,124.74,6,Michael Isaac,Edna,124.28,133.81,86.18,183.7,403.7,Single-ply,SBD,M
Boys,124.74,7,John Paul Delarosa,Bay City,114.4,113.4,90.72,131.54,335.66,Single-ply,SBD,M
Boys,124.74,DQ,Alex Ramirez,Needville,110.86,,,,,Single-ply,SBD,M
Boys,124.74+,1,Ryan Savage,El Maton Tidehaven,133.27,249.48,124.74,165.56,539.77,Single-ply,SBD,M
Boys,124.74+,2,Max Rosales,Edna,133.81,197.31,136.08,188.24,521.63,Single-ply,SBD,M
Boys,124.74+,3,Derek Fiew,Edna,135.62,204.12,104.33,147.42,455.86,Single-ply,SBD,M
Boys,124.74+,DQ,Kale Furrh,Hallettsville,128.37,,,,,Single-ply,SBD,M
Boys,124.74+,DQ,Kyle Klimitchek,Vanderbilt Industrial,127.1,195.04,86.18,,,Single-ply,SBD,M
