Place,Name,Sex,Event,Division,WeightClassKg,Equipment,BirthYear,State,BodyweightKg,Squat1Kg,Squat2Kg,Squat3Kg,Best3SquatKg,Bench1Kg,Bench2Kg,Bench3Kg,Best3BenchKg,Deadlift1Kg,Deadlift2Kg,Deadlift3Kg,Best3DeadliftKg,TotalKg,Age,BirthDate
1,Anthony Ruiz,M,B,MR-Jr,120,Raw,1997,TX,113.65,,,,,170,180,-185,180,,,,,180,,
1,Joel Brown,M,B,MR-M1,105,Raw,1975,NM,104.4,,,,,117.5,140,-145,140,,,,,140,,
1,Randal Whitt,M,B,MR-M2,120,Raw,1963,NM,114.4,,,,,165,-170,-170,165,,,,,165,,
1,Ed Regua,M,B,MR-M3,93,Raw,1951,NM,85.62,,,,,102.5,107.5,110,110,,,,,110,,
1,Anthony Ruiz,M,B,MR-O,120,Raw,1997,TX,113.65,,,,,170,180,-185,180,,,,,180,,
2,Randal Whitt,M,B,MR-O,120,Raw,1963,NM,114.4,,,,,165,-170,-170,165,,,,,165,,
1,Robert Miller,M,D,M-O,74,Single-ply,1995,NM,73.69,,,,,,,,,145,175,-182.5,175,175,,
1,Joel Brown,M,D,MR-M1,105,Raw,1975,NM,104.4,,,,,,,,,180,-227.5,227.5,227.5,227.5,,
1,Herb Behm,M,D,MR-M3a,83,Raw,1958,NM,82.02,,,,,,,,,172.5,-190,200,200,200,,
1,Maura Shuttleworth,F,SBD,F-M1,57,Single-ply,1976,NM,56.25,85,,,85,112.5,120.5,-122.5,120.5,85,92.5,97.5,97.5,303,,
1,Gladys Norton,F,SBD,FR-M1,72,Raw,1977,NM,65.25,70,-75,77.5,77.5,42.5,47.5,-52.5,47.5,90,92.5,102.5,102.5,227.5,,
1,Rhonda Jones,F,SBD,FR-M2,57,Raw,1964,NM,55.72,60,-65,,60,42.5,-45,-45,42.5,90,,,90,192.5,,
1,Kim Moser,F,SBD,FR-M2,84,Raw,1961,NM,80.62,72.5,75,77.5,77.5,42.5,45,-47.5,45,92.5,97.5,102.5,102.5,225,,
DQ,Marie Gutierrez Y Alarid,F,SBD,FR-M3,63,Raw,1955,NM,59.02,-42.5,-42.5,-42.5,,20,25,27.5,27.5,57.5,65,70,70,,,
1,Camilla Jones,F,SBD,FR-O,57,Raw,1985,NM,56.72,95,100,-105,100,60,62.5,-65,62.5,142.5,147.5,152.5,152.5,315,,
1,Amber Joy Jipson,F,SBD,FR-O,63,Raw,1994,TX,61.54,127.5,135,140,140,67.5,-72.5,-72.5,67.5,145,152.5,160,160,367.5,,
1,Precious Andrew,F,SBD,FR-O,72,Raw,1986,NM,68.8,137.5,145,-150,145,80,-85,85,85,162.5,175,-182.5,175,405,,
2,Christine White,F,SBD,FR-O,72,Raw,1981,NM,63.43,110,-120,-120,110,60,65,-67.5,65,127.5,132.5,137.5,137.5,312.5,,
1,Alexandra Billie,F,SBD,FR-O,84+,Raw,1982,NM,88.22,65,80,90,90,45,52.5,-57.5,52.5,117.5,145,157.5,157.5,300,,
2,Mandy Buenaventa,F,SBD,FR-O,84+,Raw,1982,NM,111.86,50,67.5,72.5,72.5,27.5,32.5,-37.5,32.5,92.5,-105,107.5,107.5,212.5,,
1,Charlotte Knight,F,SBD,FR-Y,35,Raw,2006,NM,34.52,20,27.5,35,35,15,17.5,-20,17.5,40,50,-52.5,50,102.5,,
DQ,Robert Miller,M,SBD,M-Jr,74,Single-ply,1995,NM,73.69,-145,-175,-177.5,,-102.5,-112.5,-112.5,,145,175,-182.5,175,,,
1,Darlo Vanderwilt,M,SBD,M-M1,120,Single-ply,1974,NM,118.42,192.5,215,-240,215,115,-120,120,120,160,172.5,182.5,182.5,517.5,,
1,Carlos Lewis,M,SBD,M-M3,83,Single-ply,1958,TX,81.08,150,180,200,200,110,130,-137.5,130,150,180,200,200,530,,
1,Michael Diswood,M,SBD,MR-Jr,66,Raw,1996,NM,60.92,-117.5,125,132.5,132.5,-75,82.5,92.5,92.5,150,157.5,165,165,390,,
1,Joel Brown,M,SBD,MR-M1,105,Raw,1975,NM,104.4,117.5,-155,155,155,117.5,140,-145,140,180,-227.5,227.5,227.5,522.5,,
1,Russ Marr,M,SBD,MR-M3,83,Raw,1953,NM,82.09,142.5,-150,150,150,-100,105,-107.5,105,205,220,-240.5,220,475,,
DQ,Herb Behm,M,SBD,MR-M3,83,Raw,1958,NM,82.02,-150,-150,-150,,-20,,,,172.5,-190,200,200,,,
1,Ed Regua,M,SBD,MR-M3,93,Raw,1951,NM,85.62,135,142.5,147.5,147.5,102.5,107.5,110,110,170,180,,180,437.5,,
1,Jesse Rodriguez,M,SBD,MR-O,66,Raw,1993,TX,65.31,180,185,187.5,187.5,135,-142.5,-142.5,135,220,-227.5,-227.5,220,542.5,,
2,Cody Almendarez,M,SBD,MR-O,66,Raw,1992,TX,65.36,150,155,-157.5,155,80,-85,-85,80,190,195,200,200,435,,
3,Michael Diswood,M,SBD,MR-O,66,Raw,1996,NM,60.92,-117.5,125,132.5,132.5,-75,82.5,92.5,92.5,150,157.5,165,165,390,,
1,Derek Rose,M,SBD,MR-O,105,Raw,1990,WY,103.68,187.5,197.5,-205,197.5,130,135,137.5,137.5,232.5,240,-250,240,575,,
1,Preston Moon,M,SBD,MR-O,120,Raw,1987,NM,117.86,220,227.5,235,235,132.5,137.5,145,145,227.5,255,-265,255,635,,
1,Timmy Meza,M,SBD,MR-O,120+,Raw,1992,TX,156.44,295,330,-350,330,182.5,192.5,-200,192.5,265,282.5,-300,282.5,805,,
2,Sheldon Wilson,M,SBD,MR-O,120+,Raw,1992,NM,147.52,240,250,262.5,262.5,157.5,165,-172.5,165,255,265,272.5,272.5,700,,
3,John Bradshaw,M,SBD,MR-O,120+,Raw,1993,NM,137.8,185,195,200,200,100,107.5,-115,107.5,192.5,202.5,-210,202.5,510,,
1,Isaiah Pesata,M,SBD,MR-T,83,Raw,2001,NM,78.15,145,-155,162.5,162.5,85,90,95,95,190,205,212.5,212.5,470,,
1,Cole Dunning,M,SBD,MR-T,93,Raw,1999,NM,91.06,152.5,157.5,165,165,-105,110,115,115,227.5,232.5,237.5,237.5,517.5,,
2,Orion Ortiz Y Barrone,M,SBD,MR-T,93,Raw,1999,NM,92.82,-80,85,92.5,92.5,82.5,-87.5,95,95,87.5,115,130,130,317.5,,
1,Marie Gutierrez Y Alarid,F,BD,FR-M3a,63,Raw,1955,NM,59.02,,,,,20,25,27.5,27.5,57.5,65,70,70,97.5,,
1,Joel Brown,M,BD,MR-M1,105,Raw,1975,NM,104.4,,,,,117.5,140,-145,140,180,-227.5,227.5,227.5,367.5,,
1,Sheldon Wilson,M,BD,MR-O,120+,Raw,1992,NM,147.52,,,,,157.5,165,-172.5,165,255,265,272.5,272.5,437.5,,
1,Angel Marin,M,BD,MR-T2,120,Raw,2001,NM,119.85,,,,,120,-125,-125,120,200,225,235,235,355,,
