Division,WeightClassKg,Place,Name,Team,BodyweightKg,Best3SquatKg,Best3BenchKg,Best3DeadliftKg,TotalKg,Equipment,Event,Sex
Boys,51.71,1,Patrick Herfurth,Orange Little Cypress-Mauriceville,51.44,113.4,72.57,124.74,310.71,Single-ply,SBD,M
Boys,51.71,2,Cameron Williams,Orangefield,51.26,102.06,61.23,104.33,267.62,Single-ply,SBD,M
Boys,51.71,3,Pablo Garcia,Orange Little Cypress-Mauriceville,51.71,79.38,52.16,102.06,233.6,Single-ply,SBD,M
Boys,55.79,1,Travis White,Orange Little Cypress-Mauriceville,55.66,140.61,63.5,151.95,356.07,Single-ply,SBD,M
Boys,55.79,2,Shakira Murthy,Orange Little Cypress-Mauriceville,52.16,79.38,58.97,113.4,251.74,Single-ply,SBD,M
Boys,55.79,3,Luis Sanchez,Orange Little Cypress-Mauriceville,52.62,79.38,65.77,70.31,215.46,Single-ply,SBD,M
Boys,59.87,1,Javier Garcia,Orange Little Cypress-Mauriceville,59.87,176.9,92.99,183.7,453.59,Single-ply,SBD,M
Boys,59.87,2,Reagan Ficken,Orangefield,58.51,161.03,90.72,151.95,403.7,Single-ply,SBD,M
Boys,59.87,3,Michael Chen,Orange Little Cypress-Mauriceville,59.51,145.15,86.18,163.29,394.63,Single-ply,SBD,M
Boys,67.13,1,Kaleb Franklin,West Orange-Stark,67.13,156.49,88.45,165.56,410.5,Single-ply,SBD,M
Boys,67.13,2,Joey Greer,Orangefield,61.69,138.35,77.11,142.88,358.34,Single-ply,SBD,M
Boys,67.13,3,Caleb Hussey,Orangefield,61.23,138.35,68.04,149.69,356.07,Single-ply,SBD,M
Boys,67.13,DQ,Bryce Rambo,Orange Little Cypress-Mauriceville,64.86,133.81,70.31,167.83,,Single-ply,SBD,M
Boys,67.13,DQ,Conner Jaynes,Orange Little Cypress-Mauriceville,63.41,151.95,79.38,163.29,,Single-ply,SBD,M
Boys,67.13,DQ,Rodrikson Cano,West Orange-Stark,67.13,131.54,79.38,149.69,,Single-ply,SBD,M
Boys,67.13,DQ,Tate Hardy,Silsbee,63.5,95.25,65.77,120.2,,Single-ply,SBD,M
Boys,67.13,DQ,Tremaine Anderson,West Orange-Stark,67.13,154.22,88.45,,,Single-ply,SBD,M
Boys,74.84,1,Matthew Lackey,West Orange-Stark,74.84,170.1,99.79,204.12,474,Single-ply,SBD,M
Boys,74.84,2,Ryan Kirkendall,Silsbee,71.21,156.49,86.18,154.22,396.89,Single-ply,SBD,M
Boys,74.84,DQ,Caleb Bickham,Orange Little Cypress-Mauriceville,72.3,163.29,97.52,149.69,,Single-ply,SBD,M
Boys,74.84,DQ,Chris Smith,Orange Little Cypress-Mauriceville,74.62,154.22,95.25,154.22,,Single-ply,SBD,M
Boys,82.1,1,Kade Smith,Silsbee,79.83,183.7,127.01,229.06,539.77,Single-ply,SBD,M
Boys,82.1,2,Jhayllien Monette,West Orange-Stark,82.1,188.24,108.86,213.19,510.29,Single-ply,SBD,M
Boys,82.1,3,Troy Angelo,Orange Little Cypress-Mauriceville,78.93,185.97,106.59,210.92,503.49,Single-ply,SBD,M
Boys,82.1,4,Bryan Adams,Silsbee,81.65,163.29,111.13,183.7,458.13,Single-ply,SBD,M
Boys,82.1,5,Elvis Hubert,West Orange-Stark,82.1,149.69,92.99,185.97,428.64,Single-ply,SBD,M
Boys,82.1,DQ,Beau Kuebodeaux,Silsbee,76.2,117.93,70.31,113.4,,Single-ply,SBD,M
Boys,82.1,DQ,Blake LeBlanc,Orange Little Cypress-Mauriceville,79.83,151.95,79.38,,,Single-ply,SBD,M
Boys,89.81,1,Ian Putman,Orangefield,85.28,208.65,136.08,188.24,532.97,Single-ply,SBD,M
Boys,89.81,2,Austin Rutledge,West Orange-Stark,89.81,145.15,106.59,188.24,439.98,Single-ply,SBD,M
Boys,89.81,3,Andrew Daville,Orangefield,89.36,183.7,97.52,156.49,437.72,Single-ply,SBD,M
Boys,89.81,4,Dylan Brackens,West Orange-Stark,89.81,156.49,95.25,181.44,433.18,Single-ply,SBD,M
Boys,89.81,5,Trent Morgan,Silsbee,88,133.81,97.52,142.88,374.21,Single-ply,SBD,M
Boys,99.79,1,Mitchell Jennings,Orange Little Cypress-Mauriceville,95.25,244.94,165.56,219.99,630.49,Single-ply,SBD,M
Boys,99.79,2,Bryan Lopez,Orangefield,96.16,208.65,102.06,190.51,501.22,Single-ply,SBD,M
Boys,99.79,3,Jerrod Watkins,Orangefield,97.52,190.51,111.13,158.76,460.4,Single-ply,SBD,M
Boys,99.79,DQ,Tanner Humble,Silsbee,96.16,,,,,Single-ply,SBD,M
Boys,99.79,DQ,Ty Ligon,Silsbee,94.8,147.42,79.38,170.1,,Single-ply,SBD,M
Boys,99.79,DQ,Taylor Hulsey,Orange Little Cypress-Mauriceville,95.07,183.7,113.4,192.78,,Single-ply,SBD,M
Boys,99.79,DQ,Caleb Green,Orange Little Cypress-Mauriceville,98.25,136.08,113.4,170.1,,Single-ply,SBD,M
Boys,99.79,DQ,Jose San Juan,Orangefield,95.71,165.56,83.91,158.76,,Single-ply,SBD,M
Boys,99.79,DQ,Daniel Woodson,West Orange-Stark,99.79,188.24,,,,Single-ply,SBD,M
Boys,99.79,DQ,Octavious Crosson,West Orange-Stark,99.79,147.42,,151.95,,Single-ply,SBD,M
Boys,109.77,1,Patrick Osborne,Orangefield,105.69,161.03,97.52,165.56,424.11,Single-ply,SBD,M
Boys,109.77,2,Stephen Sliter,Silsbee,107.95,151.95,92.99,170.1,415.04,Single-ply,SBD,M
Boys,109.77,DQ,Talon Weaver,Silsbee,105.69,145.15,102.06,147.42,,Single-ply,SBD,M
Boys,109.77,DQ,David Hollyfield,Silsbee,104.78,,,,,Single-ply,SBD,M
Boys,109.77,DQ,Dylan Morgan,Silsbee,101.15,,,,,Single-ply,SBD,M
Boys,124.74,1,Bret Treadway,Silsbee,112.94,242.67,158.76,256.28,657.71,Single-ply,SBD,M
Boys,124.74,2,Doc Maricle,Silsbee,124.74,219.99,158.76,224.53,603.28,Single-ply,SBD,M
Boys,124.74,3,Stephen Guilbeaux,Orange Little Cypress-Mauriceville,116.75,219.99,140.61,174.63,535.24,Single-ply,SBD,M
Boys,124.74,4,Jerquis Beasley,West Orange-Stark,124.74,192.78,142.88,190.51,526.17,Single-ply,SBD,M
Boys,124.74,5,Ryan Lebouef,Orangefield,116.12,201.85,102.06,197.31,501.22,Single-ply,SBD,M
Boys,124.74,DQ,Jonathan Judge,Orange Little Cypress-Mauriceville,115.94,167.83,,172.37,,Single-ply,SBD,M
Boys,124.74+,1,Tyler Howlett,Orange Little Cypress-Mauriceville,132.63,181.44,113.4,208.65,503.49,Single-ply,SBD,M
Boys,124.74+,2,Chase Cargill,Orangefield,125.65,136.08,79.38,136.08,351.53,Single-ply,SBD,M
