Name,Age,Sex,Division,BodyweightKg,WeightClassKg,Bench1Kg,Bench2Kg,Bench3Kg,Bench4Kg,Best3BenchKg,TotalKg,Event,Equipment,Place
Adrian Zwann,75,M,M-OR,87.1,90,75,80,82.5,-85,82.5,82.5,B,Raw,1
Laird Ross,22,M,M-OE,91.5,100,210,220,-230,,220,220,B,Multi-ply,1
Stelian Tchapkanski,27,M,M-OR,104,110,155,165,170,,170,170,B,Raw,1
